74 130
79 139
89 139
99 137
109 133
119 128
127 122
136 117
146 117
150 127
154 137
159 146
169 149
179 149
189 147
199 144
209 141
219 143
229 143
239 143
249 145
259 145
268 154
268 164
270 174
278 181
288 181
298 181
306 175
314 167
319 158
325 148
335 147
345 145
355 142
365 138
375 135
385 131
395 126
403 119
411 112
419 104
425 93
416 88
407 83
398 78
388 75
379 70
369 66
359 62
349 60
339 56
329 54
321 47
320 37
311 32
306 23
296 25
286 24
276 26
266 28
256 34
246 40
236 44
228 50
220 56
210 52
200 48
190 46
180 50
172 56
164 62
156 70
150 78
142 84
132 82
123 77
114 72
104 68
94 64
84 62
74 64
76 74
78 84
80 94
80 104
78 118
