114 207
114 217
114 227
114 237
114 247
109 262
115 270
125 272
135 275
145 275
155 275
165 275
175 275
185 275
195 275
204 280
214 280
224 280
234 280
240 288
248 295
255 303
265 307
269 317
279 320
285 328
293 335
297 345
305 352
309 362
314 371
314 381
321 389
329 395
339 395
348 400
357 405
367 409
369 419
374 428
379 437
384 446
394 450
404 452
414 452
424 450
430 458
438 465
444 473
452 494
459 502
459 512
464 521
469 530
474 539
476 549
484 555
494 555
500 544
500 534
495 525
495 515
503 508
513 505
523 505
532 500
542 499
544 482
535 477
525 474
516 469
507 464
498 459
489 454
480 449
477 439
468 434
463 425
455 418
455 408
455 398
450 389
444 381
434 377
427 369
419 362
415 352
410 343
405 334
400 325
400 315
405 305
410 290
410 280
410 270
415 255
415 245
415 235
413 225
403 224
393 224
383 224
373 224
363 224
353 224
343 220
333 219
323 219
315 212
307 205
300 197
295 188
288 180
280 174
275 165
267 159
258 154
250 148
243 140
233 136
224 131
216 124
207 119
198 114
188 110
178 109
169 104
159 104
149 104
139 104
129 107
124 122
124 132
129 141
134 150
137 160
142 169
149 177
162 199
163 209
153 209
143 209
133 209
124 204
