104 122
104 112
109 102
119 99
128 104
138 104
147 109
156 114
165 119
174 124
184 126
193 131
200 139
210 142
218 149
228 149
237 144
246 139
255 144
255 155
255 165
257 175
267 179
274 187
282 194
289 202
297 209
304 217
310 225
315 234
323 240
330 248
338 255
345 263
353 270
357 280
365 287
373 294
383 294
393 294
403 295
412 300
410 310
400 310
390 310
390 320
395 329
395 339
400 348
405 357
410 366
415 375
420 384
425 393
430 402
435 411
440 420
445 429
454 434
463 439
473 439
483 439
492 434
502 434
511 439
521 439
531 439
541 439
550 444
552 459
542 460
533 465
523 465
513 468
503 470
493 470
483 473
475 480
470 495
470 505
472 515
475 525
475 535
475 545
474 557
464 558
457 550
454 540
449 531
444 522
444 512
439 503
439 493
434 484
434 474
434 464
429 455
421 449
412 444
404 437
395 432
387 425
378 420
369 415
360 410
352 404
342 400
335 392
325 388
318 380
309 375
299 375
290 380
287 390
280 382
275 373
274 363
270 353
269 343
262 335
253 330
243 330
235 323
228 315
219 310
210 305
201 300
191 300
182 295
174 288
174 278
174 268
174 258
174 248
171 238
166 229
159 221
154 212
150 202
144 194
139 185
134 176
129 167
124 158
120 148
114 140
109 131
