14 337
14 327
22 319
32 314
42 309
52 309
61 304
71 300
81 299
91 295
101 294
111 290
121 289
131 289
141 289
151 285
161 284
170 279
180 279
190 279
200 279
209 274
219 274
229 274
239 274
249 274
259 274
269 274
279 272
289 267
297 259
307 254
314 242
322 234
330 226
340 221
350 222
354 232
355 242
359 252
364 261
368 271
373 280
380 288
385 297
395 299
404 304
414 304
424 304
433 309
443 309
452 314
462 314
472 314
481 319
491 319
501 319
511 315
521 319
525 329
534 334
543 339
553 339
563 339
573 339
580 331
588 324
595 316
603 309
612 304
620 296
628 289
637 284
646 279
655 274
664 269
673 264
683 264
692 259
702 259
710 265
705 280
698 288
690 295
680 300
673 313
668 323
663 333
655 340
650 350
645 365
645 375
650 384
650 394
655 403
655 413
660 422
664 432
665 442
663 455
654 450
644 450
635 445
627 439
619 432
612 424
607 415
600 407
592 400
585 392
580 383
574 375
565 370
555 370
545 370
537 379
529 385
519 385
509 385
500 380
490 385
480 385
470 390
463 403
458 413
450 420
440 418
433 410
423 410
414 405
405 410
395 410
386 415
376 415
367 420
357 420
347 424
337 425
328 430
318 430
308 430
298 433
290 440
292 450
295 460
300 469
305 478
305 488
308 498
300 505
291 500
282 495
273 490
265 483
258 475
250 468
244 460
236 454
229 446
224 437
217 429
209 422
200 417
190 415
181 410
171 408
161 405
151 403
141 400
132 395
122 395
113 390
104 385
94 385
85 380
76 375
67 370
60 362
50 358
41 353
31 349
22 344
