144 134
148 116
148 106
148 96
148 86
146 76
154 63
164 67
172 73
180 79
190 76
195 67
201 59
206 50
216 46
225 51
235 51
241 43
249 36
258 28
268 24
278 20
284 28
289 37
292 51
301 56
311 60
320 65
330 68
339 73
345 81
353 88
357 98
353 108
349 118
342 127
334 133
324 137
315 142
305 146
305 156
305 166
301 176
291 182
284 174
279 165
269 164
263 172
255 178
245 181
240 172
244 158
243 143
233 143
223 142
214 147
204 149
194 147
192 137
190 127
188 117
179 122
171 130
163 136
153 139
