80 90
80 106
87 114
95 121
103 127
111 133
121 137
131 139
141 143
151 147
161 151
171 151
178 159
182 169
188 177
196 183
206 187
216 185
226 185
232 177
233 159
230 149
240 149
250 147
260 147
270 147
280 146
290 145
300 146
310 149
320 152
330 153
340 151
345 142
349 132
351 120
361 119
371 123
379 129
388 134
397 139
407 141
417 143
427 138
423 128
421 118
421 108
421 98
421 88
425 74
422 64
412 66
402 68
392 72
382 76
373 81
363 86
353 83
347 75
340 67
332 60
324 53
315 48
305 48
295 52
285 56
275 54
267 47
258 42
248 39
239 34
229 31
219 28
211 22
201 20
193 27
188 36
178 40
179 50
169 57
159 59
149 62
139 66
129 69
119 73
110 78
100 82
90 86
