114 217
114 227
114 237
122 244
126 254
131 263
135 273
147 294
154 302
160 310
166 318
170 328
179 333
184 342
189 357
189 367
189 377
189 387
189 406
189 416
192 434
201 439
206 430
210 420
220 415
225 405
234 400
244 400
249 409
251 419
252 434
244 442
239 452
234 462
227 474
222 484
217 494
209 502
212 519
221 524
231 528
239 535
248 540
257 545
266 550
275 555
284 560
293 565
300 555
308 548
313 538
318 528
323 518
330 505
335 495
344 490
353 495
363 495
373 495
377 505
386 500
396 500
406 503
416 500
426 500
436 500
446 500
456 498
466 495
474 487
484 482
485 465
494 460
504 481
512 499
516 509
521 518
524 528
525 538
529 548
534 557
542 564
546 574
554 580
564 577
560 564
560 554
560 544
555 535
560 525
570 520
575 510
580 500
590 495
595 485
600 475
610 470
620 460
630 455
640 450
650 450
660 445
669 450
679 450
687 444
673 439
668 430
660 424
651 419
641 415
631 414
622 409
612 409
603 404
593 404
584 399
574 399
564 397
555 392
545 389
535 389
530 380
540 370
545 360
553 353
558 343
563 333
565 314
565 304
565 294
560 285
560 274
555 265
550 255
544 247
537 239
532 230
528 220
520 213
515 204
510 195
515 185
520 175
525 165
533 158
538 148
543 138
548 128
552 115
544 109
535 104
526 99
517 94
508 89
499 84
490 79
481 74
472 69
462 69
457 79
449 87
444 97
439 107
431 120
425 129
415 127
405 123
400 114
390 117
380 114
371 109
362 104
353 109
344 104
334 104
314 117
306 124
296 124
286 124
277 129
267 129
258 134
248 134
239 129
229 132
219 137
209 144
200 149
191 154
181 155
176 164
167 169
159 176
149 177
141 189
132 194
122 199
