29 207
29 217
24 232
29 241
29 251
34 260
40 268
48 275
52 285
62 289
72 289
82 285
91 280
101 280
110 275
120 270
130 265
140 265
149 260
158 255
167 260
169 270
172 280
180 287
187 295
192 304
196 314
204 320
210 328
218 335
222 345
230 352
237 360
245 367
254 372
264 375
274 375
283 380
293 380
303 380
312 385
321 380
331 380
341 380
351 380
361 380
371 380
380 375
390 375
400 375
409 370
419 370
429 370
438 365
448 363
458 360
468 360
478 358
488 353
498 350
508 350
518 350
527 345
536 340
544 332
552 324
562 319
570 310
580 305
590 300
600 295
610 295
619 290
628 285
638 283
648 280
657 275
667 274
675 265
683 258
690 250
698 243
695 227
695 217
690 208
685 199
676 194
667 189
659 182
652 174
644 167
640 157
635 148
628 140
620 134
614 126
606 119
597 114
588 109
579 104
570 99
563 91
554 86
546 79
537 74
529 67
520 62
510 58
503 50
493 46
484 41
474 39
465 34
455 34
445 34
436 29
427 24
417 24
407 24
397 24
387 24
377 24
367 24
357 24
347 24
337 24
327 24
317 24
307 24
297 24
287 24
278 29
270 36
260 41
250 46
243 54
235 61
228 69
220 76
212 84
204 92
197 104
189 112
184 122
179 137
174 147
169 162
165 179
155 179
145 179
135 179
126 174
117 169
107 169
97 169
88 164
78 160
68 159
58 159
50 166
42 174
34 182
34 192
