39 317
34 302
42 294
49 282
59 272
67 254
69 242
77 234
87 229
95 221
100 211
105 201
115 196
123 189
127 179
136 174
145 169
154 164
164 164
174 164
184 164
194 164
203 159
213 159
223 159
230 151
240 149
249 142
249 132
249 122
249 112
257 104
267 104
274 112
284 116
293 121
299 129
303 119
310 111
318 104
327 99
332 89
340 81
350 76
354 62
362 54
371 49
381 49
391 45
401 44
411 44
421 44
431 44
441 44
451 44
460 39
469 32
479 29
489 29
499 29
505 37
495 40
513 44
523 44
533 44
543 45
550 55
550 65
560 69
565 78
565 90
560 105
550 115
540 120
535 130
525 130
515 135
506 140
497 145
487 149
479 155
470 150
468 163
460 170
455 180
445 190
438 203
430 210
420 210
412 224
404 230
395 235
385 235
375 240
365 250
373 256
378 265
385 273
385 283
390 292
399 297
400 307
405 316
411 324
415 334
420 343
428 350
432 360
437 369
440 379
445 388
455 392
455 402
460 411
455 420
445 420
436 430
427 435
417 439
409 445
399 442
390 437
385 428
384 418
379 409
374 400
372 390
364 383
359 374
354 365
352 355
349 345
339 342
339 332
334 323
329 314
324 305
322 295
314 288
308 280
298 283
290 290
280 290
270 295
260 300
250 300
242 310
232 310
222 310
212 310
202 310
192 310
182 310
172 314
164 320
154 320
145 325
135 330
125 330
119 342
109 345
100 350
90 350
81 355
72 360
69 350
59 349
54 340
44 342
44 332
49 320
