409 1022
409 1012
414 997
419 982
424 972
429 962
437 954
442 944
450 936
458 929
467 924
475 916
483 909
492 904
501 899
510 894
519 889
528 884
537 879
547 879
556 874
566 870
576 869
585 864
594 852
599 842
604 832
612 824
620 816
628 809
635 801
643 794
650 786
658 779
665 771
673 764
682 759
691 754
700 749
710 746
720 744
730 744
740 744
750 744
759 739
769 739
779 739
789 739
799 739
809 739
819 739
829 739
839 739
849 739
859 739
869 739
879 730
879 720
879 710
879 700
879 690
879 680
879 670
879 660
879 650
879 640
879 630
879 620
879 610
879 600
879 590
877 580
867 580
857 580
847 580
837 580
827 580
817 580
807 579
797 575
788 570
779 565
769 561
764 552
764 542
772 534
781 529
791 525
801 524
811 524
820 519
830 519
840 519
849 514
859 514
869 514
879 514
889 507
889 497
889 487
889 477
889 467
889 457
889 447
889 437
894 422
899 412
904 402
914 397
924 394
934 396
943 401
948 410
950 420
950 430
950 440
955 449
955 459
955 469
955 479
955 489
960 498
960 508
968 514
978 514
987 509
997 509
1007 509
1017 509
1027 509
1037 509
1047 509
1056 514
1064 521
1065 531
1065 541
1060 550
1053 560
1044 565
1034 567
1024 570
1014 570
1004 570
994 572
984 575
974 575
964 575
955 580
955 590
955 600
955 610
955 620
955 630
955 640
955 650
955 660
955 670
955 680
955 690
955 700
955 710
960 719
960 729
969 734
978 739
988 740
998 744
1008 744
1018 744
1028 744
1038 744
1048 744
1058 744
1068 744
1078 744
1088 744
1098 744
1108 744
1118 744
1128 744
1138 744
1148 744
1158 744
1168 744
1178 745
1187 750
1197 754
1207 754
1216 759
1225 764
1234 769
1240 777
1245 786
1250 795
1250 805
1252 815
1255 825
1260 834
1260 844
1260 854
1260 864
1270 864
1279 869
1289 869
1298 874
1308 875
1318 879
1327 884
1336 889
1345 894
1355 897
1364 902
1374 906
1384 909
1393 914
1402 919
1412 919
1421 924
1430 929
1438 935
1445 943
1445 953
1445 963
1440 975
1438 993
1433 1003
1425 1010
1417 1019
1409 1025
1400 1030
1392 1039
1384 1045
1375 1050
1368 1058
1358 1063
1348 1068
1338 1070
1329 1075
1320 1080
1311 1085
1302 1090
1292 1094
1282 1095
1273 1100
1263 1103
1253 1105
1243 1105
1234 1110
1224 1112
1214 1115
1205 1120
1197 1129
1189 1135
1180 1140
1170 1140
1162 1149
1152 1154
1142 1155
1132 1155
1123 1160
1114 1165
1104 1165
1094 1165
1085 1170
1075 1170
1065 1170
1055 1170
1045 1170
1035 1170
1025 1170
1015 1170
1005 1170
995 1170
985 1170
975 1170
965 1170
955 1170
945 1170
935 1170
926 1165
916 1165
906 1165
896 1163
886 1160
876 1160
866 1160
856 1160
846 1160
837 1155
827 1155
817 1155
807 1155
798 1150
788 1150
778 1150
768 1150
758 1150
748 1150
739 1145
729 1145
719 1145
709 1145
700 1140
690 1137
680 1135
670 1135
660 1135
650 1132
640 1130
630 1127
620 1125
610 1125
600 1125
590 1125
580 1125
570 1125
560 1125
550 1125
540 1122
530 1118
521 1113
511 1110
501 1108
491 1105
482 1100
472 1100
463 1095
455 1088
448 1080
440 1073
433 1065
425 1058
419 1050
414 1041
409 1032
