414 1007
414 997
419 982
424 972
432 964
437 954
442 944
449 932
457 924
462 914
470 906
478 899
487 894
496 889
505 884
514 879
523 874
532 869
542 864
552 859
562 859
571 854
581 850
591 849
599 837
607 829
615 821
625 816
635 811
645 806
655 801
665 799
674 794
683 789
693 789
702 784
712 779
722 779
732 774
742 774
751 769
761 765
771 764
781 760
789 754
798 749
808 749
818 749
828 749
838 749
848 749
858 749
868 749
869 737
869 727
874 717
874 707
879 692
879 682
884 665
884 655
884 645
884 635
884 625
884 615
884 605
881 595
872 590
864 583
857 575
848 570
839 565
829 565
820 560
810 560
800 560
790 560
780 560
772 554
769 537
774 527
784 522
794 519
804 519
813 524
823 524
833 525
843 529
853 529
863 529
873 529
883 529
890 521
894 504
894 494
894 484
892 474
887 465
884 455
879 446
874 437
879 427
887 419
896 414
905 409
915 409
925 409
933 415
937 425
940 435
940 445
945 454
950 463
950 473
950 483
955 492
955 502
965 504
975 504
985 504
995 504
1005 504
1015 504
1025 504
1034 509
1043 514
1052 519
1061 524
1065 534
1067 549
1062 559
1054 567
1044 570
1034 570
1024 572
1014 575
1004 575
994 575
984 575
974 577
964 580
955 585
955 595
955 605
955 615
957 625
960 635
962 645
967 654
970 664
975 673
975 683
980 692
980 702
980 712
980 722
980 732
990 734
1000 734
1010 734
1020 734
1030 737
1040 739
1050 739
1060 739
1070 739
1079 744
1089 744
1099 746
1109 749
1119 751
1129 754
1139 754
1148 759
1157 764
1167 764
1176 769
1186 769
1195 774
1204 779
1213 784
1223 785
1232 790
1240 797
1249 802
1254 811
1255 821
1255 831
1255 841
1255 851
1264 856
1274 859
1283 864
1292 869
1301 874
1311 874
1320 879
1330 882
1340 884
1349 889
1357 895
1367 899
1374 907
1384 911
1393 916
1400 924
1410 927
1415 936
1420 945
1425 954
1425 964
1425 974
1425 984
1425 994
1425 1004
1420 1015
1415 1030
1410 1045
1402 1059
1394 1065
1385 1070
1376 1075
1366 1075
1356 1075
1346 1075
1336 1075
1326 1075
1317 1080
1307 1080
1297 1084
1287 1085
1278 1090
1268 1093
1258 1098
1250 1105
1240 1110
1230 1115
1223 1123
1213 1128
1203 1130
1193 1133
1183 1135
1173 1138
1163 1140
1153 1140
1144 1145
1134 1147
1124 1150
1115 1155
1105 1155
1095 1160
1085 1165
1075 1170
1065 1175
1055 1180
1045 1185
1035 1185
1025 1190
1016 1195
1006 1195
996 1195
986 1195
976 1195
966 1195
956 1195
946 1195
936 1193
926 1190
916 1190
907 1185
897 1184
887 1180
877 1180
867 1180
857 1179
847 1175
837 1175
827 1174
817 1170
807 1170
797 1170
788 1165
778 1165
768 1165
758 1165
749 1160
739 1160
729 1160
720 1155
710 1155
701 1150
691 1150
681 1150
672 1145
662 1145
653 1140
643 1140
634 1135
624 1135
615 1130
606 1125
596 1125
587 1120
577 1120
567 1120
557 1119
547 1115
537 1115
527 1114
517 1110
507 1110
498 1105
489 1100
479 1100
469 1097
460 1092
450 1088
444 1080
436 1074
432 1064
427 1055
424 1045
419 1036
414 1027
414 1017
