414 1002
414 992
419 977
419 967
424 957
429 947
437 939
442 929
451 924
459 917
469 912
479 909
489 907
499 902
507 894
517 889
525 881
533 874
542 869
552 864
562 859
572 859
581 854
590 849
594 837
594 827
599 812
599 802
604 792
612 784
622 779
632 774
641 769
650 764
660 761
670 759
679 754
689 754
699 754
709 754
719 754
729 754
739 754
749 754
759 754
769 754
779 754
789 754
799 754
809 754
819 754
828 749
838 749
848 749
858 749
862 739
867 729
869 717
874 705
874 695
874 685
874 675
874 665
874 655
874 645
874 635
874 625
874 615
864 615
855 610
847 604
839 597
834 588
827 580
818 575
808 575
799 570
789 570
779 566
779 547
789 542
799 537
809 534
818 529
828 529
837 524
847 524
857 524
867 524
877 524
886 519
894 504
894 494
894 484
891 474
884 466
879 457
879 447
879 437
879 427
879 417
884 407
894 402
902 394
910 386
918 379
927 374
937 374
946 379
954 386
955 396
955 406
955 416
955 426
955 436
955 446
955 456
955 466
955 476
955 486
955 496
955 506
958 516
960 526
966 534
976 534
986 534
995 539
1005 539
1015 539
1025 539
1035 539
1045 539
1055 539
1065 542
1070 555
1061 565
1052 570
1042 574
1032 575
1022 579
1012 580
1002 584
992 585
983 590
973 590
964 595
955 600
955 610
955 620
955 630
955 640
955 650
955 660
955 670
960 679
965 688
973 695
980 703
985 712
989 722
995 730
1005 734
1014 739
1024 739
1033 744
1043 744
1052 749
1061 754
1070 759
1080 762
1090 764
1099 769
1108 774
1118 775
1128 779
1138 780
1148 784
1158 784
1168 784
1178 784
1188 784
1198 784
1208 784
1218 784
1228 785
1237 790
1242 799
1245 809
1245 819
1245 829
1245 839
1245 849
1250 858
1255 867
1260 876
1270 879
1279 884
1289 884
1298 889
1308 890
1318 894
1328 895
1337 900
1345 907
1354 912
1364 916
1373 921
1380 929
1388 935
1395 943
1403 950
1410 958
1418 965
1425 973
1433 980
1435 990
1430 1000
1425 1010
1420 1020
1415 1030
1410 1045
1405 1055
1400 1070
1393 1083
1385 1090
1378 1103
1368 1108
1358 1113
1348 1118
1338 1123
1330 1130
1321 1135
1311 1135
1302 1140
1292 1140
1282 1144
1272 1149
1262 1150
1253 1155
1244 1160
1235 1165
1225 1165
1215 1170
1206 1175
1197 1180
1187 1184
1177 1189
1167 1190
1157 1194
1147 1195
1137 1195
1127 1195
1117 1195
1107 1195
1097 1195
1087 1195
1077 1195
1067 1195
1057 1195
1047 1195
1037 1195
1027 1195
1017 1195
1007 1195
997 1195
987 1194
977 1190
967 1190
957 1190
947 1190
937 1190
928 1185
918 1185
908 1185
898 1185
888 1185
878 1185
868 1185
858 1185
848 1185
838 1185
829 1180
819 1180
809 1180
799 1180
789 1180
779 1180
770 1175
760 1175
750 1175
740 1175
731 1170
721 1170
712 1165
702 1165
693 1160
683 1160
674 1155
664 1155
654 1155
645 1150
635 1147
625 1145
615 1142
605 1140
595 1137
585 1133
576 1128
566 1124
557 1119
547 1115
538 1110
528 1110
519 1105
509 1105
500 1100
490 1100
481 1095
471 1095
462 1090
452 1089
442 1085
438 1075
430 1068
424 1060
419 1051
414 1042
414 1032
414 1022
414 1012
