29 307
29 297
34 287
39 277
47 269
56 264
65 259
74 254
83 249
92 244
102 244
112 239
122 234
127 224
132 214
142 209
152 204
162 199
172 199
182 194
192 189
202 189
212 189
222 189
232 189
242 189
250 181
254 162
254 152
254 142
259 130
256 120
246 120
236 120
226 118
216 114
209 106
204 97
204 87
214 82
224 79
234 77
244 74
254 74
259 57
259 47
259 37
264 27
274 24
284 24
294 26
295 36
295 46
295 56
300 65
305 74
315 74
325 77
335 79
345 79
350 88
350 98
340 105
330 110
320 110
310 115
305 125
305 135
305 145
305 155
305 165
305 175
307 185
317 189
327 184
337 184
347 184
357 184
367 184
376 189
385 194
394 199
403 204
412 209
421 214
429 221
438 226
443 235
447 245
457 249
466 254
475 259
484 264
492 270
502 274
511 279
515 289
520 298
525 307
525 317
525 327
521 340
512 345
507 354
498 360
489 365
480 370
473 378
463 380
454 385
444 385
434 385
424 387
414 390
404 390
394 390
385 395
375 395
366 400
356 400
346 400
337 405
327 405
317 405
307 405
297 405
287 405
277 405
267 405
257 405
247 409
237 410
227 410
217 410
207 410
197 410
187 410
177 410
167 409
157 405
147 404
137 400
128 395
118 395
109 390
100 385
91 380
82 375
72 375
63 370
53 370
45 363
39 355
34 346
34 336
34 326
34 316
