424 972
424 962
429 952
437 944
445 936
455 931
463 924
472 919
480 911
490 906
500 901
510 896
520 891
530 886
540 881
550 879
559 874
568 869
577 864
586 859
594 852
599 837
599 827
604 817
612 809
621 804
631 800
641 795
651 790
661 785
666 775
676 770
684 762
694 757
704 754
714 754
724 752
734 749
744 749
754 749
764 749
774 749
784 749
794 749
804 749
814 749
824 749
834 749
844 749
853 744
854 732
859 722
859 712
864 697
869 682
874 667
879 650
879 640
879 630
879 620
879 610
874 601
866 595
857 590
847 590
837 590
827 589
817 585
810 577
800 573
794 565
785 560
777 554
777 539
786 534
795 529
805 529
815 529
825 529
835 529
845 529
854 524
864 522
874 512
879 497
879 487
879 477
879 467
879 457
879 447
879 437
879 427
879 417
879 407
879 397
884 387
894 382
904 379
914 377
924 374
934 376
940 384
945 393
950 402
950 412
950 422
950 432
955 441
955 451
955 461
955 471
955 481
955 491
955 501
964 506
974 509
984 509
994 509
1004 511
1014 514
1024 514
1033 519
1043 519
1053 519
1062 524
1071 529
1079 536
1080 546
1073 563
1063 568
1053 573
1043 575
1034 580
1024 582
1014 585
1004 585
995 590
985 590
975 595
975 605
970 615
970 625
970 635
970 645
970 655
970 665
970 675
970 685
970 695
970 705
970 715
970 725
970 735
970 745
975 754
985 754
995 757
1005 759
1015 759
1025 759
1035 759
1045 759
1055 759
1065 759
1075 759
1085 759
1095 759
1105 759
1115 759
1125 759
1135 762
1144 767
1154 771
1163 776
1170 784
1180 787
1187 795
1197 799
1204 807
1210 815
1215 824
1220 833
1225 842
1225 852
1225 862
1233 869
1243 869
1253 869
1263 869
1273 869
1283 869
1292 874
1302 874
1311 879
1320 884
1329 889
1337 895
1345 902
1352 910
1360 917
1365 926
1371 934
1375 944
1380 953
1380 963
1388 970
1392 980
1395 990
1400 999
1400 1009
1400 1019
1400 1029
1400 1039
1400 1049
1398 1068
1393 1078
1385 1085
1378 1093
1368 1098
1358 1100
1349 1105
1340 1110
1330 1110
1320 1115
1311 1120
1301 1120
1291 1120
1282 1125
1272 1125
1263 1130
1253 1130
1244 1135
1234 1137
1224 1140
1214 1140
1205 1145
1195 1145
1185 1145
1175 1145
1166 1150
1156 1150
1146 1150
1136 1150
1126 1150
1116 1150
1106 1150
1096 1150
1086 1150
1076 1150
1066 1150
1056 1150
1046 1150
1036 1150
1026 1150
1016 1150
1006 1150
997 1155
987 1155
977 1155
967 1155
957 1155
947 1159
937 1160
927 1160
917 1160
907 1164
897 1165
887 1165
877 1165
867 1165
857 1165
847 1165
837 1165
827 1165
817 1165
807 1165
797 1165
787 1165
777 1165
767 1165
757 1165
747 1165
737 1165
727 1165
717 1165
707 1165
697 1164
687 1160
677 1160
668 1155
658 1155
649 1150
639 1147
630 1142
620 1138
611 1133
601 1129
592 1124
584 1117
575 1112
565 1108
556 1103
546 1099
537 1094
527 1090
518 1085
509 1080
499 1080
490 1075
481 1070
472 1065
463 1060
455 1053
448 1045
440 1038
434 1030
429 1021
424 1012
424 1002
424 992
424 982
