424 1012
424 1002
429 987
434 977
442 969
449 957
457 949
465 941
473 934
482 929
490 921
498 914
507 909
515 901
523 894
532 889
541 884
549 877
559 872
569 867
579 864
588 859
598 859
607 854
617 854
619 842
619 832
624 822
629 812
637 804
647 799
656 794
665 789
675 789
684 784
694 782
704 779
714 777
724 774
734 772
744 769
754 767
764 764
774 762
784 759
794 759
804 759
813 754
823 754
833 754
843 754
847 744
849 732
854 722
862 714
867 704
874 687
879 677
879 667
884 655
884 645
884 635
884 625
884 615
884 605
884 595
884 585
880 575
870 575
860 575
850 575
840 575
830 575
820 575
810 575
800 575
790 575
784 567
784 557
792 549
801 544
810 539
820 536
830 534
839 529
849 529
859 529
868 524
878 524
888 524
894 507
894 497
894 487
894 477
894 467
894 457
894 447
894 437
894 427
894 417
894 407
902 399
912 399
920 405
925 414
925 424
930 433
935 442
940 451
945 460
947 470
952 479
955 489
960 498
960 508
965 517
965 527
975 529
985 529
995 532
1005 534
1015 534
1025 534
1035 534
1045 534
1055 534
1065 534
1075 537
1080 550
1070 560
1060 565
1052 574
1043 580
1034 585
1024 587
1014 590
1004 590
995 595
985 595
975 595
965 600
965 610
965 620
965 630
965 640
965 650
965 660
965 670
970 679
970 689
970 699
975 708
980 717
984 727
994 729
1004 729
1014 731
1024 734
1034 736
1044 739
1053 744
1063 745
1073 749
1083 750
1093 754
1103 754
1112 759
1122 759
1131 764
1141 764
1150 769
1160 769
1169 774
1179 776
1189 779
1199 779
1209 781
1219 784
1229 784
1239 786
1245 794
1250 803
1250 813
1250 823
1250 833
1258 839
1268 839
1277 844
1286 849
1295 854
1305 857
1314 862
1322 869
1329 877
1337 884
1344 892
1352 899
1359 907
1367 914
1374 922
1384 926
1390 934
1400 937
1407 945
1417 949
1426 954
1435 959
1440 968
1440 978
1440 988
1440 998
1440 1008
1440 1018
1435 1035
1433 1048
1428 1058
1420 1065
1413 1078
1403 1083
1395 1090
1385 1095
1375 1100
1365 1105
1357 1114
1347 1119
1338 1125
1329 1130
1320 1135
1310 1140
1300 1145
1290 1150
1280 1155
1272 1164
1263 1170
1254 1175
1245 1180
1235 1180
1225 1185
1216 1190
1207 1195
1197 1195
1188 1200
1178 1200
1168 1200
1159 1205
1149 1205
1140 1210
1130 1210
1120 1210
1110 1210
1100 1210
1090 1210
1080 1210
1070 1210
1060 1210
1050 1210
1040 1210
1030 1210
1020 1210
1010 1210
1000 1210
990 1210
980 1210
970 1210
960 1210
950 1210
940 1210
930 1210
920 1210
910 1210
900 1210
890 1210
880 1210
870 1210
860 1210
850 1210
840 1210
830 1210
820 1210
810 1210
800 1210
790 1210
780 1210
770 1207
760 1205
750 1202
740 1200
730 1200
720 1200
710 1197
700 1195
690 1195
681 1190
671 1190
662 1185
652 1185
643 1180
634 1175
625 1170
615 1170
606 1165
597 1160
588 1155
579 1150
569 1147
560 1142
552 1135
543 1130
534 1125
524 1122
515 1117
505 1113
498 1105
489 1100
479 1100
470 1095
462 1089
452 1085
448 1075
440 1068
434 1060
429 1051
424 1042
424 1032
424 1022
