52 166
52 156
62 154
72 150
74 132
74 122
74 112
74 102
74 92
76 74
76 64
76 54
68 36
64 26
70 18
75 27
81 83
83 137
83 147
83 157
83 167
83 177
83 187
83 197
83 207
83 217
83 227
83 237
83 247
83 257
79 272
79 282
72 299
62 299
52 296
52 286
52 276
52 266
52 256
52 246
52 236
52 226
52 216
52 206
52 196
52 186
52 176
