30 262
30 252
34 238
39 229
45 221
49 211
46 198
42 188
42 178
50 172
58 178
68 180
74 166
74 156
74 146
74 136
76 126
76 116
76 106
76 96
76 86
76 76
76 66
76 56
72 46
72 36
72 26
80 20
90 19
95 30
93 40
89 56
89 66
91 76
91 86
91 96
91 106
91 116
91 126
91 136
91 146
96 155
105 160
115 162
124 167
130 175
129 190
125 200
125 210
128 220
134 228
139 237
143 247
143 264
138 277
132 285
124 291
115 296
105 298
95 299
85 301
75 299
65 297
55 293
47 287
39 280
33 272
