28 254
28 244
33 235
38 226
44 216
46 204
42 194
40 184
40 174
50 175
58 182
68 178
72 168
74 156
76 140
76 130
76 120
76 110
76 100
76 90
76 80
76 70
76 54
70 46
70 36
70 26
78 20
88 19
92 33
97 44
91 52
91 62
91 72
91 82
91 92
91 102
91 112
91 122
91 132
93 142
93 152
99 160
109 162
119 166
125 174
123 192
119 202
119 212
124 221
130 229
135 238
139 248
139 258
137 270
131 280
123 288
114 293
104 297
94 299
84 301
74 299
64 297
54 295
46 289
38 282
32 274
28 264
