70 38
70 28
78 20
88 20
98 20
108 20
118 20
128 20
138 20
147 25
153 33
159 41
164 50
167 60
171 70
165 81
155 81
145 81
137 74
133 86
131 98
131 108
131 118
131 128
131 138
131 148
131 158
132 168
135 178
139 188
139 198
139 208
139 218
139 228
139 238
139 248
139 258
139 268
139 278
139 288
139 298
139 308
139 318
139 328
141 338
141 348
139 365
129 365
119 365
109 365
99 365
94 356
94 346
96 336
96 326
96 316
96 306
96 296
96 286
96 276
96 266
96 256
96 246
96 236
96 226
96 216
96 206
96 196
96 186
100 176
104 166
104 156
104 146
104 136
104 126
104 116
104 106
104 96
102 86
99 76
96 66
94 56
85 51
75 47
