52 36
52 26
60 20
70 21
80 24
90 24
100 20
110 20
120 20
130 20
140 20
150 24
158 30
166 37
173 45
179 53
184 62
180 77
175 68
168 60
160 53
150 49
141 54
141 64
137 74
133 90
133 100
131 112
131 122
131 132
131 142
131 152
133 162
134 172
138 182
141 192
143 202
143 212
143 222
143 232
143 242
143 252
143 262
143 272
143 282
143 292
143 302
143 312
143 322
145 332
145 342
145 352
140 365
130 365
120 365
110 365
100 365
90 362
92 348
94 336
94 326
94 316
94 306
94 296
94 286
94 276
94 266
94 256
94 246
94 236
94 226
94 216
96 206
96 196
96 186
102 174
106 157
106 147
106 137
106 127
106 117
106 107
104 97
104 87
100 77
98 67
96 57
93 47
83 45
73 46
63 51
54 46
