62 64
68 81
78 81
86 73
91 62
100 67
104 77
106 87
108 97
108 107
110 117
110 127
110 137
110 147
110 157
106 172
102 182
100 196
100 206
100 216
100 226
100 236
100 246
100 256
100 266
100 276
100 286
100 296
100 306
100 316
100 326
100 336
98 350
98 360
107 365
117 365
127 365
137 365
147 365
147 355
147 345
147 335
145 325
145 315
145 305
145 295
145 285
145 275
145 265
145 255
145 245
145 235
145 225
145 215
145 205
145 195
145 185
140 176
137 166
137 156
137 146
137 136
137 126
137 116
137 106
137 96
139 86
143 74
147 62
147 52
155 45
163 51
173 50
179 42
179 29
174 20
164 20
154 24
144 20
134 20
124 20
114 20
104 20
94 22
86 28
78 36
72 44
66 54
