88 58
86 74
94 81
104 81
108 91
110 101
110 111
110 121
110 131
110 141
110 151
108 170
102 182
102 192
102 202
102 212
102 222
102 232
102 242
102 252
102 262
102 272
102 282
102 292
102 302
102 312
102 322
102 332
100 344
100 354
100 364
110 365
120 365
130 365
140 365
145 356
143 346
143 336
143 326
143 316
143 306
143 296
143 286
143 276
143 266
143 256
143 246
143 236
143 226
143 216
143 206
143 196
143 186
137 178
135 168
133 158
133 148
133 138
133 128
133 118
133 108
135 98
135 88
139 70
141 52
149 44
150 25
141 20
131 20
121 20
111 20
101 23
96 32
92 42
