169 267
169 257
177 249
185 241
195 239
205 237
212 245
220 252
224 262
230 270
235 279
240 288
245 297
252 305
257 314
260 324
268 330
275 338
280 347
284 357
290 365
295 374
300 383
308 390
312 400
320 407
324 417
330 425
335 434
340 443
345 452
350 461
355 470
360 479
365 488
370 497
377 505
382 514
389 522
395 530
400 539
409 544
418 549
427 544
435 536
445 534
454 529
464 531
470 539
475 548
480 557
478 573
468 578
460 585
451 590
442 595
434 602
426 610
417 615
407 615
397 615
387 619
379 627
369 632
359 630
349 626
344 617
344 607
344 597
352 589
362 584
372 584
377 574
372 565
365 557
359 549
354 540
349 531
344 522
337 514
332 505
325 497
320 488
314 480
309 471
304 462
297 454
289 447
285 437
279 429
274 420
266 413
261 404
254 396
249 387
242 379
237 370
230 362
225 353
219 345
214 336
209 327
202 319
197 310
190 302
185 293
179 285
174 276
