134 592
134 582
139 567
149 557
149 547
157 539
159 520
159 510
159 500
154 491
154 481
154 471
154 461
149 452
154 436
149 427
154 417
154 407
154 397
159 387
159 377
159 367
164 356
164 346
162 320
159 310
157 300
154 290
149 281
149 271
149 261
149 240
144 231
139 222
144 211
139 202
139 192
144 177
144 167
152 159
161 154
170 159
180 159
185 168
190 177
190 195
192 205
195 215
190 225
195 234
195 244
200 255
200 265
205 274
205 285
210 294
215 303
224 297
224 287
229 276
224 267
224 257
224 242
224 232
229 222
229 212
229 202
234 191
229 182
229 172
229 162
229 152
229 142
234 127
234 117
239 107
239 97
247 89
257 89
267 89
277 89
284 97
289 106
290 120
290 130
285 145
285 155
287 165
285 175
285 185
285 195
285 205
285 215
287 225
285 235
285 245
285 260
290 269
299 257
299 247
299 237
304 227
304 217
304 207
309 192
309 182
314 172
314 162
314 152
319 142
319 132
319 122
324 107
324 97
332 89
334 77
342 69
351 74
361 74
371 74
375 84
380 95
385 104
385 114
380 125
380 135
380 145
375 155
375 165
375 175
365 180
365 190
370 199
365 210
365 220
365 230
360 240
360 250
360 260
355 270
355 280
355 290
365 291
369 272
377 264
379 247
387 239
392 229
394 217
399 207
399 197
399 187
404 177
404 167
404 157
409 147
414 132
424 129
433 124
443 124
453 125
455 135
460 144
460 160
460 170
460 180
455 190
455 200
453 218
445 225
445 235
440 245
440 255
440 265
430 275
428 293
420 300
420 310
420 320
415 330
415 340
415 350
410 360
405 370
400 385
405 394
405 404
410 415
415 424
424 429
433 434
437 424
446 419
454 407
464 402
472 394
482 389
491 384
499 377
509 372
519 369
529 369
538 364
548 365
557 370
567 374
574 382
573 398
565 405
555 410
547 419
538 425
528 428
520 435
514 445
508 453
498 458
490 465
480 475
473 483
465 490
459 505
450 510
443 518
435 525
425 535
415 545
408 553
400 560
391 565
382 570
374 577
366 585
357 590
348 585
338 588
330 595
320 600
310 610
310 620
301 625
292 620
282 620
272 619
262 615
252 615
242 614
232 610
222 610
212 609
202 605
192 605
183 600
173 600
163 600
154 595
144 595
