24 197
24 187
29 177
34 167
34 157
39 147
44 137
52 129
60 121
65 111
70 101
78 94
84 82
92 74
100 66
105 56
113 49
120 41
128 34
137 29
146 24
156 24
165 29
175 32
183 39
192 44
199 52
209 56
215 64
223 70
227 80
232 89
239 97
245 105
250 114
255 123
260 132
265 141
270 150
275 159
284 164
290 156
295 146
300 136
305 126
310 116
315 106
320 96
325 86
333 79
339 67
349 62
354 52
364 47
374 42
384 37
394 32
404 29
414 29
424 29
434 31
444 34
454 36
463 41
473 45
482 50
492 54
499 62
507 69
516 74
520 84
528 90
532 100
537 109
540 119
545 128
545 138
550 147
550 157
550 167
550 177
550 187
545 205
545 215
540 230
540 240
535 250
530 260
525 270
520 280
513 293
505 300
498 308
490 315
485 325
475 330
471 340
462 345
457 354
449 360
440 365
433 373
423 378
413 383
405 390
398 398
388 403
378 408
368 413
358 418
348 423
340 430
330 435
323 443
313 448
303 453
295 460
285 465
275 468
269 460
261 454
254 446
249 437
240 432
232 425
225 417
215 413
209 405
201 399
192 394
184 387
177 379
167 375
160 367
152 360
145 352
137 345
128 340
120 333
114 325
104 321
99 312
90 307
82 300
75 292
67 285
60 277
52 270
45 262
39 254
34 245
29 236
24 227
24 217
24 207
