24 87
24 77
34 74
43 79
52 74
62 74
71 79
80 84
89 89
98 94
107 99
116 104
125 109
133 115
142 120
150 127
158 134
167 139
176 144
185 149
193 155
200 163
210 167
217 175
225 182
234 187
242 194
251 199
260 204
270 204
280 207
290 209
300 209
309 214
319 216
328 221
335 229
340 238
340 248
345 257
345 267
348 283
340 290
345 299
353 305
360 313
368 320
375 328
383 335
390 343
395 352
402 360
410 367
417 375
427 379
434 387
439 396
448 401
458 405
467 410
475 417
485 419
494 424
503 429
512 434
521 439
530 444
540 447
547 455
546 470
536 470
527 465
517 465
508 460
499 455
489 455
479 455
470 460
470 470
470 480
472 490
475 500
475 510
466 520
457 515
454 505
446 499
439 491
434 482
429 473
422 465
419 455
414 446
409 437
404 428
398 420
389 415
380 410
370 407
362 400
352 399
342 395
333 390
323 390
314 385
305 380
295 380
287 374
279 367
274 358
269 349
264 340
256 334
249 326
241 320
232 315
223 310
214 305
205 300
195 300
191 315
181 315
171 314
164 306
159 297
159 287
163 270
155 263
149 255
139 252
135 242
125 238
119 230
111 224
104 216
99 207
94 198
88 190
80 183
74 175
69 166
64 157
57 149
49 142
45 132
39 124
34 115
29 106
24 97
