209 592
209 582
214 572
214 562
219 547
224 532
229 522
229 512
234 497
239 487
247 479
252 469
260 461
268 454
275 446
283 439
290 431
298 424
305 416
313 409
320 401
328 394
335 386
343 379
352 374
360 366
370 361
378 354
387 349
396 344
404 337
414 332
422 324
432 319
442 314
452 309
462 304
472 299
482 294
492 294
502 294
511 289
521 285
531 284
541 284
551 284
561 284
571 284
581 284
591 284
601 284
611 284
621 284
631 284
641 284
651 284
661 284
671 284
681 284
691 284
701 284
711 284
721 284
731 284
741 284
750 289
760 289
770 292
780 294
789 299
799 301
809 304
818 309
828 310
838 314
847 319
856 324
866 324
875 329
884 334
892 340
900 347
905 356
911 364
915 374
920 383
920 393
920 403
925 412
925 422
929 432
935 440
940 449
945 458
950 467
955 476
961 484
965 494
974 499
983 504
993 504
1003 504
1013 504
1023 504
1033 504
1043 504
1053 504
1063 504
1073 504
1082 499
1092 499
1102 494
1112 494
1122 494
1131 499
1140 504
1148 510
1155 518
1165 522
1174 527
1184 529
1193 534
1203 535
1213 539
1222 544
1231 549
1240 554
1249 559
1258 564
1268 565
1278 569
1288 569
1298 569
1307 564
1315 556
1323 549
1333 549
1342 544
1352 544
1362 544
1372 539
1382 539
1392 539
1402 539
1412 539
1422 539
1431 544
1440 549
1450 549
1459 554
1469 556
1479 559
1489 559
1499 561
1508 566
1515 574
1525 577
1535 579
1545 579
1555 576
1565 574
1574 569
1583 564
1593 564
1602 559
1612 559
1622 559
1632 559
1641 564
1651 564
1660 569
1670 569
1679 574
1687 580
1695 587
1702 595
1710 602
1717 610
1725 617
1732 625
1740 632
1744 642
1752 649
1759 657
1764 666
1768 676
1770 686
1768 703
1760 710
1750 715
1742 724
1732 729
1722 734
1714 740
1705 745
1698 753
1688 758
1680 765
1673 773
1663 778
1655 785
1646 790
1637 795
1627 795
1617 795
1607 795
1597 795
1587 795
1577 795
1567 795
1558 790
1548 790
1539 785
1530 780
1521 775
1512 770
1502 770
1492 774
1482 775
1473 780
1463 780
1453 780
1444 785
1434 785
1424 785
1414 785
1405 790
1395 790
1385 790
1375 790
1365 795
1355 795
1345 792
1335 790
1325 790
1315 790
1305 787
1295 785
1285 785
1277 779
1269 772
1260 767
1252 760
1242 760
1233 765
1224 770
1214 772
1204 775
1194 775
1185 780
1175 780
1165 780
1155 785
1145 785
1135 790
1128 798
1118 803
1110 810
1101 815
1091 815
1081 815
1071 815
1062 820
1052 820
1042 820
1032 820
1022 820
1012 820
1002 820
993 815
983 815
973 815
963 815
953 815
943 818
935 825
930 835
925 850
920 865
915 880
910 895
905 905
900 920
895 935
890 945
885 960
880 970
875 980
868 988
858 993
848 995
838 995
828 998
818 1000
808 1000
798 1003
788 1005
778 1005
768 1008
758 1010
748 1010
738 1010
729 1015
719 1015
709 1015
700 1020
690 1020
680 1020
670 1020
660 1025
650 1025
640 1025
630 1025
620 1025
610 1025
600 1025
590 1022
580 1020
570 1020
560 1020
550 1020
540 1020
530 1020
520 1020
510 1020
500 1020
490 1017
480 1015
471 1010
461 1009
452 1004
442 1000
433 995
423 995
414 990
405 985
396 980
387 975
378 970
370 963
363 955
355 948
349 940
341 934
334 926
329 917
322 909
314 902
310 892
302 885
299 875
291 868
286 859
279 851
274 842
269 833
262 825
259 815
254 806
249 797
244 788
240 778
236 768
231 759
227 749
222 740
219 730
214 721
209 712
209 702
209 692
209 682
209 672
209 662
209 652
209 642
209 632
209 622
209 612
209 602
