24 62
24 52
39 32
49 32
59 31
69 29
79 27
89 24
99 24
109 24
119 24
129 26
139 26
149 29
159 27
169 24
179 24
189 24
199 26
203 36
208 45
205 55
205 65
205 75
205 85
210 94
219 99
229 99
239 99
249 99
259 101
265 109
265 119
275 119
285 119
295 119
305 119
315 119
325 119
335 119
345 119
355 119
365 119
374 114
383 119
392 114
401 119
411 119
421 119
431 119
441 119
451 115
461 119
470 114
479 119
489 119
499 119
509 119
519 119
529 119
539 119
547 125
557 129
560 139
560 149
555 165
560 174
557 184
547 185
542 194
532 190
523 195
514 190
504 190
495 185
485 190
475 192
465 190
455 192
445 190
435 192
425 190
415 192
405 190
395 190
386 195
376 193
366 195
357 190
347 190
337 194
327 190
317 190
307 194
297 190
287 190
277 194
267 199
259 207
249 212
239 210
230 215
220 217
210 215
205 225
205 235
200 245
200 260
197 274
187 279
177 280
167 280
157 280
147 280
137 280
127 280
117 280
107 280
97 280
87 280
77 279
67 280
58 275
49 280
41 274
32 269
29 227
24 217
24 207
24 197
29 186
24 177
24 167
29 151
29 131
24 122
24 112
24 102
24 92
24 82
24 72
