119 262
119 252
124 237
129 227
137 219
145 211
153 204
160 196
168 189
177 184
185 176
195 171
203 164
212 159
222 154
232 149
242 149
252 149
262 149
272 149
282 149
292 149
301 154
311 154
320 159
330 162
339 167
345 175
350 184
355 193
360 202
364 212
372 219
382 219
392 219
402 219
412 219
421 224
430 229
440 229
448 235
457 240
467 244
477 244
486 239
495 234
505 234
515 234
525 234
535 237
539 247
549 251
558 256
568 259
577 254
586 249
596 245
606 244
615 249
625 252
632 260
642 264
645 274
645 284
638 293
628 298
620 305
610 310
600 315
590 312
580 310
570 307
560 305
550 305
540 305
531 310
522 315
514 322
504 325
494 322
487 314
477 310
468 305
458 305
448 308
438 313
430 320
424 330
414 330
404 330
394 330
384 332
374 335
365 340
358 348
353 358
348 368
343 378
335 385
328 395
318 398
308 400
298 400
288 400
278 400
268 400
258 400
248 400
238 400
228 400
218 400
208 400
199 395
189 395
181 389
172 384
164 377
155 372
147 365
140 357
134 349
129 340
129 330
124 321
119 312
119 302
119 292
119 282
119 272
