617 775
611 767
620 762
630 760
640 759
650 757
660 755
670 755
680 754
690 754
700 753
710 753
720 753
730 753
740 753
750 753
760 754
770 753
780 754
790 754
800 754
810 754
820 753
830 752
840 753
850 753
860 754
870 755
880 755
890 755
900 753
910 754
920 754
930 754
940 756
950 755
960 755
970 754
980 755
990 756
1000 756
1010 756
1020 756
1030 757
1040 757
1050 757
1060 760
1070 759
1080 757
1089 762
1099 759
1109 759
1119 759
1129 760
1139 763
1149 763
1159 760
1169 760
1179 763
1189 763
1199 762
1209 763
1219 764
1229 762
1239 766
1249 763
1259 767
1269 767
1279 767
1289 767
1299 768
1309 768
1319 767
1329 771
1339 770
1349 771
1359 768
1368 773
1378 773
1388 773
1398 773
1408 775
1418 775
1428 775
1438 775
1448 779
1458 777
1468 777
1478 777
1488 778
1498 776
1508 779
1518 777
1528 777
1538 778
1548 779
1558 779
1568 779
1578 781
1588 780
1598 783
1608 785
1618 782
1628 781
1638 782
1648 783
1658 784
1668 784
1678 787
1688 788
1698 787
1708 785
1715 793
1721 785
1731 786
1741 786
1750 791
1760 787
1770 788
1780 787
1789 792
1799 788
1809 789
1819 790
1829 792
1838 797
1848 801
1856 807
1862 815
1868 823
1870 835
1869 846
1866 856
1863 868
1855 875
1849 884
1840 889
1832 896
1822 900
1813 905
1803 907
1794 902
1786 896
1778 890
1775 880
1769 872
1761 879
1751 878
1741 875
1731 873
1721 873
1711 872
1701 871
1691 870
1681 871
1671 871
1661 871
1651 871
1641 870
1631 869
1621 869
1611 869
1601 871
1591 868
1581 868
1571 868
1561 867
1551 868
1541 864
1531 863
1521 863
1511 862
1501 861
1491 860
1481 861
1471 858
1461 858
1451 857
1441 855
1431 853
1421 853
1411 850
1401 850
1391 849
1381 847
1371 846
1361 844
1351 844
1341 844
1331 845
1321 844
1311 843
1301 842
1291 843
1282 838
1272 840
1266 849
1259 857
1260 875
1252 881
1242 883
1232 882
1222 884
1212 883
1203 888
1193 887
1183 887
1173 886
1163 885
1153 883
1143 880
1133 878
1123 881
1113 881
1108 872
1098 876
1090 870
1080 874
1070 876
1060 872
1050 871
1040 871
1030 869
1020 870
1010 868
1000 869
990 867
987 857
977 859
968 864
963 855
953 853
943 857
933 853
923 852
913 851
903 850
895 844
885 846
875 843
865 840
855 838
845 836
835 837
825 833
815 831
805 829
795 828
785 825
775 823
765 822
755 818
745 816
735 816
725 813
715 809
705 806
695 804
685 801
675 798
665 794
655 792
645 789
636 784
626 780
