73 840
67 832
76 827
86 823
96 822
106 820
116 818
126 816
136 814
146 812
156 811
166 810
176 808
186 807
196 805
206 804
216 802
226 801
236 800
246 800
256 798
266 797
276 796
286 796
296 794
306 794
316 794
326 792
336 792
346 791
356 790
366 790
376 789
386 789
396 789
406 788
416 787
426 786
436 786
446 785
456 785
466 785
476 785
486 784
496 782
506 782
516 782
526 782
536 781
546 780
556 779
566 778
576 778
586 778
596 777
606 777
616 777
626 776
636 776
646 774
656 775
666 774
676 774
686 772
696 773
706 773
716 771
726 770
736 769
746 770
756 769
766 768
776 768
786 767
796 767
806 766
816 766
826 764
836 765
846 765
856 763
866 763
876 761
886 761
896 761
906 761
916 761
926 759
936 760
946 759
956 758
966 758
976 758
986 758
996 758
1006 759
1016 756
1026 755
1036 755
1046 754
1056 754
1066 752
1076 751
1086 750
1096 749
1106 747
1116 747
1126 745
1136 744
1146 743
1156 742
1166 741
1176 740
1186 739
1196 739
1206 738
1216 738
1226 737
1236 737
1246 736
1256 735
1266 735
1276 735
1286 734
1296 734
1306 734
1316 734
1326 733
1336 733
1346 733
1356 733
1366 733
1376 733
1386 733
1396 733
1406 733
1416 734
1426 733
1436 734
1446 735
1456 735
1466 736
1476 736
1486 737
1496 738
1506 738
1516 739
1526 741
1536 742
1546 743
1556 744
1566 746
1576 747
1586 749
1596 753
1606 753
1616 755
1626 757
1636 760
1646 762
1656 763
1666 766
1675 771
1685 774
1695 778
1703 784
1713 784
1718 793
1718 803
1716 813
1711 824
1709 841
1704 850
1701 860
1696 871
1690 879
1687 889
1679 895
1669 895
1659 893
1650 888
1640 890
1634 882
1627 873
1618 868
1608 867
1600 873
1592 879
1582 880
1574 874
1564 872
1554 869
1544 866
1535 861
1525 863
1515 863
1505 865
1496 860
1487 855
1481 847
1473 854
1465 848
1456 855
1446 856
1436 854
1427 859
1417 861
1407 862
1397 864
1387 864
1377 862
1367 862
1357 865
1347 866
1337 867
1327 869
1317 869
1307 869
1297 865
1287 862
1277 860
1267 861
1257 863
1248 858
1238 865
1229 870
1221 864
1213 857
1203 856
1193 855
1183 858
1173 859
1163 860
1153 860
1143 856
1133 852
1123 853
1113 854
1103 855
1094 860
1088 852
1078 848
1068 847
1058 846
1049 851
1039 853
1029 853
1021 846
1011 846
1001 847
991 848
981 848
975 861
965 861
961 875
958 885
949 892
939 894
929 898
919 900
909 902
899 903
889 903
879 904
869 905
859 904
849 905
839 905
829 905
819 906
809 906
799 906
789 906
779 907
769 907
759 907
749 907
739 908
729 908
719 908
709 908
699 908
689 907
679 908
669 909
659 908
649 907
639 910
629 909
619 906
609 909
599 908
589 908
579 908
569 906
559 909
549 909
539 908
529 908
519 908
509 908
499 907
489 907
479 906
469 905
459 905
449 905
439 904
429 904
419 902
409 903
399 902
389 901
379 901
369 900
359 899
349 898
339 896
329 896
319 895
309 893
299 893
289 891
279 890
269 889
259 887
249 885
239 884
229 884
219 881
209 879
199 878
189 875
179 873
169 869
159 868
149 865
139 865
129 862
119 859
110 854
100 852
92 846
82 845
