112 65
111 76
115 86
116 96
119 106
124 115
128 125
129 135
134 144
137 154
143 162
148 171
154 179
159 188
166 196
171 205
177 213
184 221
188 231
196 237
204 243
209 252
216 260
222 268
231 273
237 281
245 288
253 294
259 302
267 308
275 314
283 320
289 328
298 333
305 341
313 347
322 352
327 361
336 366
343 374
352 379
362 382
369 390
378 395
386 402
394 408
400 416
410 420
416 428
425 433
435 436
441 444
449 450
458 455
466 461
475 466
483 472
491 479
499 485
508 490
516 496
521 505
531 509
540 514
548 520
556 526
564 532
571 540
581 543
588 551
596 557
606 561
614 567
622 573
627 582
636 587
646 591
654 597
662 603
671 608
680 613
686 621
695 626
703 632
711 638
720 643
728 649
736 655
744 662
753 667
761 673
769 679
777 685
785 691
793 697
801 703
809 709
819 713
825 721
833 727
842 732
850 738
859 743
865 751
875 755
881 763
891 767
896 776
906 780
915 785
923 791
932 796
940 803
949 808
955 816
963 822
971 829
981 833
991 836
997 844
1005 851
1013 857
1021 863
1029 870
1039 873
1047 880
1055 887
1063 894
1073 898
1078 907
1086 913
1095 918
1105 921
1111 929
1119 935
1128 940
1136 947
1144 953
1152 959
1161 964
1171 968
1181 971
1191 966
1201 965
1211 969
1219 975
1227 982
1233 990
1238 999
1245 1007
1255 1009
1265 1010
1275 1008
1285 1008
1295 1009
1305 1012
1315 1016
1324 1021
1334 1025
1341 1033
1347 1041
1354 1049
1362 1056
1365 1066
1366 1076
1375 1081
1383 1087
1387 1097
1389 1107
1396 1115
1402 1123
1407 1132
1412 1141
1419 1149
1424 1158
1431 1166
1440 1171
1448 1177
1454 1185
1461 1193
1468 1201
1477 1206
1486 1211
1491 1220
1501 1224
1509 1230
1519 1234
1527 1240
1535 1246
1539 1256
1547 1262
1557 1264
1567 1264
1576 1269
1586 1273
1594 1279
1604 1283
1614 1285
1623 1290
1631 1296
1640 1301
1650 1302
1658 1308
1668 1311
1675 1319
1683 1325
1691 1331
1699 1337
1707 1343
1713 1351
1719 1359
1726 1367
1735 1372
1740 1381
1742 1391
1741 1402
1744 1413
1750 1421
1756 1429
1764 1435
1774 1437
1784 1438
1794 1439
1804 1439
1814 1437
1822 1430
1832 1429
1842 1428
1852 1428
1862 1430
1865 1420
1873 1414
1879 1405
1889 1400
1894 1391
1901 1383
1899 1373
1901 1359
1896 1350
1893 1340
1904 1341
1899 1332
1899 1322
1895 1312
1891 1302
1881 1299
1874 1291
1869 1282
1861 1276
1853 1269
1848 1260
1842 1252
1834 1246
1824 1244
1814 1242
1806 1235
1804 1225
1794 1223
1785 1218
1777 1212
1769 1205
1763 1197
1753 1196
1743 1193
1738 1184
1729 1179
1722 1171
1718 1161
1709 1156
1702 1148
1695 1140
1686 1135
1676 1137
1668 1131
1660 1124
1660 1114
1650 1113
1640 1109
1632 1102
1624 1096
1614 1093
1619 1084
1609 1084
1599 1082
1595 1072
1590 1063
1580 1061
1571 1056
1567 1046
1557 1047
1547 1043
1545 1033
1540 1024
1530 1025
1520 1024
1515 1015
1506 1010
1497 1005
1487 1001
1478 996
1473 987
1465 980
1457 974
1448 969
1442 961
1436 953
1427 948
1421 940
1416 931
1406 931
1396 928
1388 921
1378 919
1372 911
1364 904
1356 898
1351 889
1347 879
1338 874
1328 875
1318 872
1325 862
1315 862
1305 866
1302 856
1296 848
1289 840
1283 832
1273 829
1266 821
1257 816
1249 810
1240 805
1233 797
1225 791
1217 785
1208 780
1200 774
1191 769
1183 762
1175 756
1167 750
1159 744
1150 739
1142 732
1134 726
1126 720
1118 714
1109 709
1101 702
1092 697
1084 691
1076 685
1068 679
1060 673
1052 667
1044 660
1035 655
1027 649
1019 643
1011 636
1003 630
994 625
986 619
978 612
969 607
961 601
953 594
944 589
936 583
928 577
919 572
911 566
903 560
895 554
886 549
878 543
871 535
863 529
855 523
846 518
837 513
828 508
819 503
811 497
803 490
793 487
785 480
776 475
767 470
757 466
749 460
740 455
731 450
722 445
714 439
705 434
696 429
688 422
678 419
670 413
661 408
652 403
644 397
636 391
626 387
618 381
609 376
600 371
592 365
584 359
574 356
566 350
557 345
548 340
539 335
530 330
522 324
512 320
502 318
497 309
489 303
480 298
471 293
463 286
453 282
445 276
435 273
427 267
419 261
411 255
401 251
393 244
384 239
376 232
366 228
357 223
349 217
341 211
332 206
324 200
314 196
306 190
297 185
289 179
281 173
271 170
264 162
256 156
248 150
240 144
231 139
223 133
214 128
206 122
198 116
189 111
179 107
173 99
164 94
156 88
147 83
139 77
131 71
122 66
