14 187
14 177
19 167
24 157
32 149
37 139
45 131
53 124
57 114
67 109
76 104
84 97
92 89
100 81
108 74
114 62
124 57
129 47
139 42
147 34
157 29
166 24
176 20
184 14
194 14
204 14
214 14
224 16
230 24
240 24
248 30
255 38
263 44
272 49
280 55
288 61
293 70
298 79
305 87
310 96
310 106
313 116
320 124
329 129
339 129
349 129
358 134
368 134
377 139
380 149
385 158
393 165
403 169
413 169
423 169
433 169
443 169
453 169
463 169
473 169
483 169
493 169
503 170
513 174
523 174
533 174
543 174
553 174
562 169
572 169
582 169
592 164
601 169
611 169
621 169
630 174
623 183
613 185
603 185
593 185
583 185
573 185
563 185
554 190
544 190
534 190
525 195
515 195
505 195
495 195
485 195
475 195
466 200
456 200
446 200
436 200
427 205
417 205
407 205
398 210
388 213
380 220
380 230
380 240
373 248
363 253
353 255
344 260
334 260
324 260
318 268
310 275
310 285
305 295
300 305
295 315
288 323
280 330
271 335
262 340
254 347
244 350
235 355
225 360
215 360
206 365
196 365
186 365
176 365
167 360
157 360
150 352
142 345
135 337
127 330
124 320
116 313
110 305
104 297
97 289
89 282
82 274
72 270
68 260
59 255
51 249
44 241
39 232
32 224
27 215
24 205
19 196
