19 182
14 197
19 206
24 215
30 223
38 230
42 240
49 248
54 257
59 266
64 275
70 283
78 290
85 298
90 307
94 317
104 320
107 330
112 339
119 347
124 356
131 364
139 370
148 375
157 380
167 379
177 374
187 370
196 365
205 360
213 353
223 348
233 343
243 338
253 333
260 325
269 320
278 315
287 309
295 300
305 295
313 288
320 275
328 268
335 260
345 255
355 245
360 235
368 228
378 225
388 225
398 225
408 225
418 225
428 225
438 225
448 225
458 225
468 223
478 220
488 220
498 220
508 220
518 220
527 225
537 225
547 224
557 220
573 220
565 214
549 209
539 209
529 209
519 209
510 204
500 204
496 194
487 199
477 199
467 204
458 199
448 199
438 199
429 194
419 194
409 194
399 194
389 194
379 192
370 187
365 178
365 168
360 159
357 149
347 145
339 139
330 134
324 126
319 117
315 107
305 104
298 96
290 90
282 84
274 77
267 69
258 64
250 57
240 54
233 46
224 41
216 34
207 29
198 24
189 19
180 14
170 14
160 14
150 16
142 24
133 29
125 36
118 44
110 51
105 61
97 69
92 79
84 87
77 99
72 109
67 119
59 127
54 137
48 149
40 156
35 166
27 174
