169 1147
169 1137
174 1127
179 1117
184 1107
189 1097
189 1087
189 1077
194 1067
199 1057
207 1049
215 1041
223 1034
230 1026
240 1021
248 1014
252 1004
260 996
265 986
273 979
277 969
285 961
290 951
298 944
304 932
312 924
319 912
329 907
337 899
344 887
354 882
362 874
369 862
379 857
387 849
394 840
393 830
385 823
379 815
379 805
374 796
369 787
365 777
357 770
354 760
349 751
349 741
349 731
344 722
344 712
344 702
349 692
354 677
359 662
367 654
375 646
383 639
390 631
398 624
407 619
417 619
426 614
436 610
446 609
455 614
465 614
474 619
484 621
493 626
503 630
510 638
518 645
525 653
533 660
540 668
550 672
559 667
569 657
572 640
569 630
564 621
564 611
559 602
559 592
564 581
559 572
559 562
559 552
559 542
559 532
559 522
564 512
564 502
564 492
569 477
574 467
582 459
590 451
598 444
607 439
615 431
625 426
633 419
642 414
651 409
661 409
670 404
680 404
689 399
699 399
709 397
719 394
729 392
739 387
749 384
759 384
769 384
778 379
787 374
797 369
807 369
816 374
826 374
830 390
830 400
823 408
815 415
810 425
805 435
800 445
810 446
818 439
825 431
833 424
840 416
848 409
855 401
863 394
870 386
878 379
885 371
893 364
900 356
905 346
913 339
917 329
919 317
924 307
932 299
940 291
945 281
949 267
957 259
959 242
967 234
969 222
977 214
982 204
990 196
994 182
1002 174
1007 164
1012 154
1020 146
1025 136
1034 127
1042 119
1051 114
1061 110
1071 109
1081 110
1091 110
1101 114
1109 121
1115 129
1125 132
1132 140
1140 147
1147 155
1155 162
1162 170
1170 177
1175 186
1181 194
1185 204
1193 210
1200 218
1205 227
1205 237
1205 247
1208 263
1200 270
1195 280
1188 288
1180 295
1173 303
1165 310
1158 318
1150 325
1140 330
1130 340
1120 345
1113 353
1105 360
1096 365
1087 370
1077 374
1067 379
1058 385
1049 390
1040 395
1030 400
1023 408
1013 413
1005 420
998 428
990 435
985 445
978 453
970 460
963 468
955 475
948 483
943 493
935 500
928 513
920 520
930 524
939 512
949 507
959 509
967 515
970 525
965 540
960 550
960 560
960 570
955 585
955 595
950 605
945 620
945 630
945 640
940 650
935 665
930 675
928 688
920 695
915 705
905 715
895 725
888 733
880 740
870 750
862 759
852 764
844 770
834 770
824 772
814 775
804 775
794 775
784 775
774 775
764 775
755 780
747 794
739 800
733 808
725 815
718 828
710 835
705 845
698 853
690 860
684 870
678 878
670 885
663 898
655 905
673 899
683 899
690 891
700 889
710 886
720 884
730 887
728 903
720 910
713 918
708 928
700 935
693 943
685 950
680 960
670 970
663 983
655 990
648 998
640 1005
633 1013
625 1020
620 1030
612 1039
604 1047
596 1055
586 1058
576 1055
567 1060
558 1055
548 1055
538 1055
528 1055
518 1055
509 1060
500 1065
492 1074
484 1080
475 1085
465 1090
458 1103
450 1110
440 1115
434 1125
425 1130
415 1135
407 1144
399 1150
390 1155
382 1164
372 1169
362 1170
353 1175
343 1178
333 1183
323 1188
313 1190
304 1195
294 1195
284 1197
274 1202
264 1205
254 1205
244 1205
235 1210
225 1210
215 1210
205 1207
195 1205
185 1203
179 1195
174 1186
174 1176
169 1167
169 1157
