84 1102
84 1092
89 1077
89 1067
89 1057
94 1047
94 1037
99 1027
107 1019
115 1011
120 1001
128 994
132 984
142 984
152 979
161 974
171 974
181 974
191 974
201 974
209 981
215 989
225 989
234 994
242 1000
250 1007
258 1014
268 1014
274 998
274 988
270 978
263 970
255 963
249 955
239 952
232 944
224 937
215 932
207 925
203 915
195 908
189 900
184 891
179 882
179 872
172 864
164 857
164 847
169 836
169 826
164 817
164 807
169 797
169 787
169 777
174 767
179 752
179 742
184 732
189 722
194 712
199 702
204 692
209 677
209 667
214 652
219 642
219 632
219 622
227 614
234 597
234 587
239 572
247 564
249 547
254 537
259 527
269 522
277 514
285 506
295 504
305 507
312 515
310 530
315 539
320 548
325 557
320 570
322 580
327 589
325 605
330 614
330 624
330 634
335 643
343 649
349 632
354 622
354 612
359 602
359 592
359 582
359 572
364 557
364 547
364 537
364 527
369 517
369 507
374 497
379 487
384 472
384 462
384 452
389 436
389 426
389 416
389 406
389 396
389 386
389 376
384 367
384 350
384 340
379 331
379 321
379 311
379 301
374 292
374 282
379 270
374 261
369 252
374 236
369 227
369 217
374 206
374 196
369 187
369 177
369 167
369 157
374 147
379 137
379 127
384 112
389 102
389 92
397 84
407 84
415 76
423 69
432 64
442 64
452 64
462 64
472 59
481 64
491 64
501 64
511 64
520 69
530 69
540 72
547 80
555 87
564 92
570 100
575 109
580 118
580 128
585 137
590 146
596 154
595 170
597 180
600 190
600 200
595 210
595 220
595 230
590 245
585 260
580 270
575 285
575 295
570 305
570 315
565 325
560 340
557 359
549 365
540 370
535 385
535 395
530 410
530 420
530 430
525 445
520 455
520 465
520 475
515 485
515 495
515 505
515 515
510 525
510 535
510 545
510 555
505 570
505 580
505 590
505 600
500 610
500 620
502 630
505 640
500 650
500 660
500 670
495 685
490 695
490 705
500 701
508 694
512 684
517 674
526 669
534 657
542 649
550 641
558 634
568 635
570 645
570 655
570 665
575 674
583 680
585 690
587 700
590 710
595 719
595 729
595 739
595 749
600 758
600 768
600 778
600 788
600 798
595 810
595 820
595 830
595 840
590 850
590 860
590 870
583 883
575 890
570 905
563 913
555 920
547 929
539 935
533 943
523 948
513 953
505 960
503 978
495 985
490 995
490 1005
485 1015
485 1025
485 1035
485 1045
480 1055
482 1065
485 1075
480 1090
480 1100
480 1110
485 1119
489 1105
491 1095
496 1085
499 1067
504 1057
509 1047
517 1039
527 1039
537 1039
535 1055
535 1065
540 1074
535 1090
535 1100
535 1110
535 1120
535 1135
535 1145
535 1155
535 1165
530 1175
530 1185
530 1195
525 1210
520 1220
520 1230
520 1240
515 1255
515 1265
515 1275
510 1290
505 1300
510 1309
504 1322
494 1325
485 1330
475 1335
465 1337
455 1335
445 1335
440 1345
440 1355
440 1365
433 1378
425 1385
425 1395
425 1405
420 1415
420 1425
420 1435
418 1453
410 1460
410 1470
410 1480
405 1490
400 1500
400 1510
400 1520
395 1535
390 1545
387 1564
382 1574
374 1580
365 1585
365 1595
360 1605
355 1615
345 1625
337 1635
327 1639
322 1649
313 1655
304 1660
298 1668
288 1673
278 1678
268 1683
260 1690
250 1688
244 1680
234 1677
227 1669
224 1652
220 1642
214 1634
209 1625
209 1615
208 1605
200 1598
194 1590
189 1581
189 1571
189 1561
184 1552
184 1542
189 1527
194 1517
199 1507
199 1497
204 1481
199 1472
199 1462
204 1447
204 1437
204 1427
204 1417
209 1402
209 1392
209 1382
209 1372
209 1362
209 1352
209 1342
214 1327
214 1317
214 1307
214 1297
219 1282
219 1272
219 1262
224 1252
229 1243
223 1235
213 1235
204 1230
194 1227
185 1222
177 1215
168 1210
158 1210
150 1203
144 1195
135 1190
125 1187
115 1183
109 1175
108 1165
100 1158
94 1150
89 1141
89 1131
89 1121
84 1112
