79 137
79 127
87 119
96 114
105 109
111 100
119 92
127 84
137 79
145 71
155 66
163 59
172 54
181 49
190 44
199 37
209 32
219 27
229 24
238 19
248 19
258 19
268 19
278 19
288 19
298 19
308 19
317 24
327 24
337 24
346 29
355 34
365 37
374 42
382 49
391 54
400 59
405 68
415 72
422 80
430 87
438 94
447 99
456 104
465 109
474 114
483 109
493 109
502 104
512 104
522 104
532 104
542 104
551 109
550 125
545 140
543 153
535 160
530 170
530 180
538 186
545 194
555 197
559 207
564 216
560 230
558 243
550 250
540 260
532 269
522 274
513 280
504 285
495 290
497 300
500 310
505 319
510 328
515 337
523 344
532 349
535 359
543 365
550 373
555 382
560 391
560 405
560 420
560 430
558 448
550 455
540 460
530 460
520 462
510 460
501 455
491 454
482 449
472 445
463 440
453 440
444 435
434 435
424 435
415 440
405 440
395 445
388 453
383 463
375 470
370 485
372 495
382 494
391 499
401 499
410 504
420 507
430 509
440 512
450 514
460 517
468 524
478 524
487 529
496 534
506 534
514 541
523 546
530 554
525 565
518 573
508 578
498 583
490 590
480 590
470 595
460 600
450 605
441 610
432 615
422 619
412 620
402 620
393 625
383 625
373 625
363 625
353 625
343 625
334 620
324 620
315 615
306 610
297 605
288 600
278 600
269 595
259 592
250 587
240 585
231 580
221 580
211 579
202 574
194 567
185 562
180 553
174 545
169 536
164 527
160 517
152 510
148 500
139 495
129 495
119 497
109 495
104 486
99 477
99 467
99 457
107 449
115 441
123 434
130 426
140 421
150 416
158 409
167 404
177 399
187 394
196 389
204 382
212 374
222 369
230 361
238 354
244 342
252 334
254 322
259 313
259 303
259 293
259 283
255 273
251 263
246 254
242 244
234 237
227 229
219 222
210 217
202 210
193 205
185 198
176 193
166 189
157 184
147 180
138 175
129 170
120 165
110 163
104 155
94 152
87 144
