344 307
344 297
354 294
364 294
372 300
380 307
387 315
395 322
402 330
410 337
415 346
421 354
429 361
435 369
443 375
450 383
458 390
465 398
473 405
480 413
488 420
492 430
500 437
505 446
510 455
512 465
517 474
520 484
525 493
525 503
530 512
535 521
540 530
542 540
547 549
550 559
555 568
560 577
564 587
565 597
570 606
575 615
577 625
582 634
585 644
590 653
595 662
599 672
604 681
608 691
610 701
616 709
620 719
625 728
625 738
630 747
635 756
638 766
643 775
645 785
650 794
655 803
660 812
660 822
665 831
670 840
675 849
675 859
680 868
685 877
690 886
695 895
697 905
702 914
705 924
710 933
715 942
719 952
724 961
725 971
730 980
732 990
737 999
740 1009
745 1018
750 1027
755 1036
758 1046
763 1055
765 1065
770 1074
775 1083
780 1092
780 1102
785 1111
790 1120
795 1129
800 1138
805 1147
805 1157
810 1166
815 1175
817 1185
822 1194
825 1204
830 1213
835 1222
839 1232
840 1242
845 1251
850 1260
852 1270
857 1279
860 1289
865 1298
865 1308
865 1318
865 1328
865 1338
860 1355
858 1368
850 1375
845 1385
838 1393
830 1400
821 1405
812 1410
802 1414
792 1415
782 1415
772 1415
762 1415
752 1415
743 1410
734 1405
725 1400
717 1394
709 1387
702 1379
694 1372
690 1362
685 1353
684 1343
679 1334
674 1325
674 1315
669 1306
664 1297
660 1287
655 1278
654 1268
649 1259
644 1250
639 1241
639 1231
634 1222
629 1213
624 1204
622 1194
617 1185
614 1175
609 1166
609 1156
604 1147
599 1138
595 1128
591 1118
586 1109
582 1099
577 1090
574 1080
569 1071
564 1062
564 1052
559 1043
554 1034
552 1024
547 1015
544 1005
539 996
539 986
534 977
529 968
524 959
519 950
517 940
514 930
509 921
504 912
504 902
499 893
494 884
489 875
489 865
484 856
479 847
474 838
470 828
466 818
461 809
459 799
457 789
452 780
449 770
444 761
439 752
439 742
434 733
429 724
424 715
424 705
419 696
414 687
414 677
409 668
404 659
402 649
397 640
394 630
389 621
384 612
380 602
375 593
374 583
369 574
364 565
362 555
359 545
357 535
354 525
354 515
349 506
349 496
349 486
349 476
349 466
349 456
349 446
344 437
344 427
344 417
344 407
344 397
344 387
344 377
344 367
344 357
344 347
344 337
344 327
344 317
