29 442
29 432
34 422
42 414
51 409
60 404
70 404
80 404
90 404
100 404
110 404
120 401
130 396
140 394
150 394
160 394
170 394
180 391
190 389
200 389
210 389
220 389
230 389
240 389
250 389
260 389
270 389
280 389
290 389
300 389
310 389
320 389
330 389
340 389
349 384
359 384
369 384
379 384
389 384
399 384
409 384
419 384
429 384
439 384
449 384
459 384
469 384
479 384
489 384
499 384
509 384
519 382
529 379
539 379
549 379
559 379
569 379
579 379
589 379
599 379
609 379
619 379
629 379
639 379
649 379
659 379
669 379
679 379
688 374
698 374
708 374
718 374
728 374
738 374
748 374
758 374
768 374
778 374
788 374
798 374
808 374
818 374
828 374
838 374
848 374
857 369
867 369
877 369
887 369
897 369
907 369
917 369
927 369
937 369
947 369
957 369
967 369
977 369
987 369
996 364
1006 364
1016 364
1025 369
1035 366
1045 364
1055 364
1065 364
1075 364
1085 364
1095 364
1105 364
1115 364
1125 364
1135 364
1145 364
1155 364
1165 364
1175 364
1185 364
1195 364
1205 364
1215 364
1225 364
1235 364
1244 359
1254 359
1264 359
1274 359
1284 359
1294 359
1304 359
1314 359
1324 359
1334 359
1344 359
1354 359
1364 359
1374 359
1384 359
1394 359
1404 359
1414 359
1424 357
1434 354
1444 354
1454 354
1464 354
1474 354
1484 354
1494 354
1504 354
1514 354
1524 354
1534 354
1544 354
1554 354
1564 354
1574 354
1583 349
1593 349
1603 349
1612 344
1622 344
1632 339
1642 339
1652 339
1662 339
1672 339
1682 339
1692 339
1702 339
1712 339
1722 339
1732 339
1741 334
1751 334
1761 334
1771 334
1781 334
1791 334
1801 334
1811 334
1821 334
1831 334
1841 334
1851 334
1861 334
1871 334
1881 334
1891 334
1901 334
1911 334
1921 334
1931 334
1941 334
1951 334
1961 334
1971 334
1981 334
1991 334
2000 329
2010 329
2020 329
2030 329
2040 329
2050 329
2060 329
2070 329
2080 329
2090 329
2100 329
2110 329
2120 329
2130 329
2140 329
2150 329
2160 329
2170 329
2180 329
2190 329
2199 324
2209 324
2219 324
2229 324
2239 324
2249 324
2259 324
2269 324
2279 324
2289 324
2299 324
2309 324
2319 324
2329 324
2338 329
2347 334
2354 342
2359 351
2360 361
2365 370
2367 380
2370 390
2370 400
2370 410
2370 420
2370 430
2370 440
2370 450
2370 460
2370 470
2370 480
2370 490
2365 500
2360 510
2353 518
2345 525
2335 530
2325 535
2317 544
2307 545
2298 550
2289 545
2279 545
2269 545
2259 545
2249 545
2239 545
2229 545
2219 545
2209 545
2199 545
2189 545
2179 545
2169 545
2159 545
2149 545
2139 545
2129 545
2119 545
2109 545
2099 545
2089 545
2079 545
2069 545
2059 545
2049 545
2039 545
2029 545
2019 545
2010 550
2000 550
1990 550
1980 550
1970 550
1960 550
1950 550
1940 550
1930 550
1920 550
1910 550
1900 550
1890 550
1880 550
1870 550
1860 550
1850 550
1840 550
1830 550
1820 550
1810 550
1800 550
1790 550
1780 550
1770 550
1760 550
1750 550
1740 550
1730 550
1720 550
1710 550
1700 550
1690 550
1680 550
1670 550
1660 550
1650 550
1641 555
1631 553
1621 550
1611 550
1601 550
1591 550
1581 550
1571 550
1561 550
1551 550
1541 550
1531 550
1521 550
1511 550
1501 550
1491 550
1481 550
1471 550
1461 550
1451 550
1441 550
1431 550
1421 550
1411 550
1401 550
1391 550
1381 550
1371 550
1361 550
1351 550
1341 550
1331 550
1321 550
1311 550
1301 550
1291 550
1281 550
1271 550
1261 550
1251 550
1241 550
1231 550
1221 550
1211 550
1201 550
1191 550
1181 550
1171 550
1161 550
1151 550
1141 550
1131 550
1121 550
1111 550
1101 550
1091 550
1081 550
1071 550
1061 550
1051 550
1041 550
1031 550
1021 550
1011 550
1001 550
991 550
981 550
971 550
961 550
951 550
941 550
931 550
921 550
911 550
901 550
892 555
882 555
872 555
862 555
852 559
842 560
832 560
822 560
812 560
802 560
792 560
782 560
772 560
762 564
752 565
742 565
732 565
722 565
712 565
702 565
692 565
682 565
672 565
662 565
652 565
642 565
632 565
622 565
612 565
602 565
592 565
582 565
572 565
562 565
552 565
542 565
532 565
522 565
512 565
502 565
492 565
482 565
472 565
462 565
452 565
442 565
432 565
422 565
412 565
402 565
392 565
382 565
372 565
362 565
352 565
342 565
332 565
322 565
312 565
302 565
292 565
282 565
272 565
262 565
252 565
242 565
232 565
222 565
212 565
202 565
192 565
182 565
172 565
162 565
152 565
142 565
132 565
122 565
112 565
102 565
92 565
82 564
72 560
65 552
57 545
53 535
45 528
39 520
34 511
29 502
29 492
29 482
29 472
29 462
29 452
