24 297
24 287
34 284
43 289
52 294
61 299
70 304
78 310
87 315
97 319
106 324
114 331
123 336
133 340
143 344
153 344
162 339
167 329
176 324
185 319
195 316
204 307
204 297
200 287
192 280
185 272
180 263
173 255
165 248
159 240
151 233
146 224
139 216
134 207
127 199
119 192
112 184
104 177
104 167
114 164
124 162
134 159
143 164
152 169
161 174
171 174
180 179
189 184
198 189
207 194
217 194
226 199
235 204
243 210
252 215
260 222
268 229
278 230
288 234
298 234
308 234
318 234
328 234
338 234
348 234
358 234
363 243
355 250
345 250
335 250
337 260
347 264
356 269
365 274
375 277
383 284
393 284
402 289
411 294
421 294
431 294
441 294
451 294
461 294
470 299
480 302
490 304
500 304
509 309
519 311
529 314
539 314
549 314
559 312
569 309
579 309
589 309
599 309
608 314
618 314
628 314
638 315
645 323
637 335
627 339
617 340
608 345
598 345
588 345
579 350
569 350
559 350
549 350
540 355
534 365
524 365
515 370
508 380
498 380
488 380
478 383
468 385
458 388
453 398
448 408
440 415
445 424
455 427
465 429
475 429
485 432
478 445
468 448
458 450
448 450
438 450
428 450
419 455
410 460
405 470
405 480
398 493
390 500
383 513
375 520
368 533
360 540
351 545
341 545
331 545
322 540
315 532
309 524
306 514
304 504
302 494
297 485
294 475
294 465
289 456
284 447
284 437
279 428
274 419
272 409
264 402
255 397
245 395
235 395
226 390
216 390
206 389
197 384
187 380
178 375
168 375
158 378
150 385
145 395
145 405
140 415
135 425
130 440
124 450
114 447
107 439
102 430
99 420
94 411
89 402
84 393
78 385
70 378
66 368
61 359
57 349
52 340
49 330
41 323
36 314
32 304
