24 302
24 292
29 282
37 274
45 266
55 261
63 254
72 249
81 244
89 237
97 229
107 224
117 219
126 214
134 207
144 202
154 197
162 189
172 184
180 176
188 169
195 161
203 154
207 144
215 136
223 129
230 121
235 111
243 104
250 96
258 89
264 77
269 67
274 57
282 49
289 37
297 29
306 34
314 41
315 51
320 60
325 69
333 75
337 85
345 92
349 102
354 111
360 119
368 125
375 133
380 142
387 150
395 157
402 165
410 172
417 180
425 187
430 196
436 204
445 209
453 215
460 223
468 230
477 235
487 239
494 247
502 254
511 259
515 269
523 275
530 283
538 289
547 294
554 302
559 311
560 321
555 335
555 345
550 360
545 370
538 378
533 388
523 393
513 398
508 408
500 415
491 420
482 425
474 432
464 437
454 442
446 450
437 455
428 460
419 465
410 470
401 475
392 480
383 485
374 490
364 490
355 495
345 495
345 505
347 515
350 525
342 539
333 545
324 550
315 555
310 565
310 575
312 585
315 595
310 605
310 615
310 625
305 635
305 645
305 655
300 670
295 680
290 690
285 700
278 708
270 715
262 724
254 730
245 735
235 735
225 735
216 740
206 740
196 738
186 735
177 730
167 730
158 725
149 720
140 715
132 709
124 702
124 692
132 684
141 689
151 689
160 694
165 703
175 707
185 706
193 699
202 704
211 709
221 709
231 709
240 704
249 697
257 689
262 679
267 669
269 652
269 642
274 624
274 614
274 604
274 594
274 584
272 574
267 565
260 557
254 549
249 540
241 534
234 526
229 517
229 507
233 495
224 490
214 490
204 490
195 485
187 479
179 472
170 467
162 460
153 455
145 448
139 440
131 434
122 429
114 422
107 414
99 407
92 399
84 392
75 387
67 380
60 372
52 365
45 357
37 350
34 340
29 331
24 322
24 312
