24 307
24 297
32 289
40 281
45 271
53 264
63 264
67 254
76 249
85 244
95 244
104 237
114 232
124 227
134 224
144 222
154 219
164 217
174 214
184 214
193 209
203 209
213 209
223 209
232 214
242 214
251 219
260 224
270 227
280 229
289 222
294 212
304 207
312 199
321 194
330 189
339 184
349 184
359 184
369 186
370 196
376 204
386 204
391 195
399 187
409 182
417 174
425 166
435 161
443 154
450 146
460 144
469 137
479 132
489 127
499 124
508 119
517 114
527 109
536 104
546 104
556 104
566 104
576 104
586 104
596 104
606 104
616 104
626 104
636 104
646 104
656 104
666 104
676 104
686 104
695 109
705 112
714 117
722 124
731 129
739 136
748 141
755 149
760 158
768 165
775 173
775 183
780 192
780 202
785 211
785 221
785 231
776 244
774 234
774 224
774 214
769 205
759 207
749 212
744 203
744 193
744 183
744 173
740 163
734 155
725 150
725 160
715 167
707 160
700 152
695 143
688 135
679 130
670 125
660 125
650 125
640 125
630 125
620 125
610 125
600 125
591 130
581 130
572 135
563 140
554 145
544 147
534 152
526 160
517 165
509 172
504 182
494 185
488 193
480 200
473 208
465 215
458 223
450 230
450 240
450 250
452 260
455 270
455 280
455 290
450 305
450 315
452 325
462 329
469 337
477 344
484 352
490 360
492 370
497 379
500 389
505 398
510 407
510 417
514 427
520 435
522 445
527 454
530 464
530 474
530 484
535 493
535 503
535 513
535 523
535 533
535 543
530 555
530 565
525 580
520 590
513 598
505 605
497 614
487 615
479 622
469 627
461 635
451 635
441 635
431 635
422 640
412 640
403 645
393 645
384 650
374 650
364 650
355 655
345 655
335 655
325 655
315 660
305 660
295 665
285 665
276 670
266 670
257 675
247 675
237 675
227 675
217 675
207 675
197 675
187 675
177 675
168 680
158 683
148 688
140 695
130 695
122 704
112 709
104 702
104 692
104 682
109 664
109 654
109 644
106 634
104 624
102 614
97 605
93 595
85 588
84 578
80 568
79 558
74 549
69 540
67 530
64 520
64 510
64 500
64 490
64 480
59 471
54 462
50 452
45 443
44 433
44 423
39 414
34 405
29 396
29 386
24 377
24 367
24 357
24 347
24 337
24 327
24 317
