169 257
169 247
174 237
179 227
187 219
195 211
200 201
209 192
219 182
229 177
237 169
245 161
255 159
264 152
274 147
284 142
292 134
302 129
312 124
322 119
332 114
342 109
352 104
362 99
371 94
379 87
389 82
397 74
406 69
414 62
424 52
434 47
442 39
452 34
461 29
469 22
479 19
489 21
495 29
503 35
510 43
518 49
525 57
534 62
542 69
551 74
559 81
565 89
573 95
580 103
588 110
595 118
600 127
609 132
619 136
625 144
635 147
644 152
652 159
661 164
670 169
678 175
685 183
693 189
700 197
708 204
715 212
722 220
730 227
737 235
742 244
750 250
755 259
760 268
765 277
770 286
770 296
770 306
770 316
765 325
760 335
758 348
750 355
740 365
738 378
730 385
725 395
718 408
713 418
705 425
700 435
693 443
685 450
677 459
669 465
663 473
653 478
648 488
638 493
630 500
623 508
613 513
603 518
595 525
585 525
575 530
565 527
555 525
545 525
550 534
555 543
563 550
565 560
565 570
565 580
558 588
548 590
538 590
528 590
518 590
508 590
499 585
489 585
480 590
480 600
480 610
480 620
480 630
480 640
472 654
467 664
459 672
454 662
459 645
459 635
459 625
450 620
440 630
433 643
425 650
415 655
405 665
395 675
385 685
378 693
370 700
360 705
352 715
347 724
339 730
330 735
325 745
318 753
310 760
310 770
310 780
310 790
310 800
315 809
320 818
328 825
333 834
340 842
349 847
357 854
360 864
368 870
377 875
387 879
394 887
404 889
412 895
422 899
431 904
440 909
450 909
460 909
470 909
480 909
490 909
499 904
509 902
519 897
529 892
539 889
549 887
557 879
567 879
576 874
585 869
594 864
603 859
613 859
622 854
621 865
605 870
595 875
585 880
575 885
565 890
555 895
544 900
535 905
525 905
517 914
507 915
497 919
487 920
477 920
467 920
457 920
447 920
437 919
427 915
418 910
409 905
400 900
390 897
382 890
372 890
365 882
357 875
349 869
341 863
335 855
329 847
320 842
312 835
309 825
304 816
299 807
294 798
294 788
291 778
285 770
275 770
268 778
260 785
250 790
242 799
235 807
225 815
217 824
209 832
204 822
212 814
220 806
228 799
235 791
244 782
254 772
264 762
274 752
284 747
292 739
297 729
306 724
311 715
319 707
329 697
339 687
349 677
359 667
367 659
375 651
380 641
388 634
388 620
379 625
370 630
364 622
372 614
380 606
388 599
394 582
389 565
379 565
369 565
359 565
349 565
339 565
331 559
324 551
319 542
319 532
324 520
322 510
313 505
304 500
294 497
287 489
282 480
275 472
267 465
264 455
256 449
252 439
244 432
240 422
234 414
229 405
224 396
219 387
219 377
212 369
207 360
204 350
199 341
194 332
189 323
189 313
182 305
179 295
174 286
169 277
169 267
