24 357
24 347
29 337
34 327
42 319
50 311
58 304
67 299
75 291
83 284
90 276
98 269
105 261
113 254
122 249
131 244
139 237
149 232
159 227
169 222
179 219
188 214
195 206
203 199
212 194
220 186
228 179
235 171
243 164
250 156
258 149
265 141
273 134
282 129
291 124
300 119
310 119
320 122
329 127
339 131
345 139
353 145
360 153
368 159
377 164
386 169
395 174
405 177
414 182
424 186
430 194
440 197
448 204
457 209
466 214
475 219
485 222
493 229
502 234
511 239
520 244
529 249
537 255
545 262
554 267
564 271
570 279
578 285
585 293
595 297
602 305
607 314
610 324
610 334
605 345
600 360
595 375
590 385
580 395
573 403
565 410
558 418
550 425
543 433
535 440
527 449
519 455
510 460
503 468
495 475
488 483
480 490
470 495
462 504
454 510
445 515
437 524
427 529
417 530
408 535
398 535
388 538
380 545
385 554
385 564
382 579
372 584
364 590
355 595
350 605
343 618
335 625
335 635
335 645
335 655
335 665
335 675
335 685
335 695
335 705
340 714
340 724
345 733
350 742
355 751
361 759
369 766
373 776
366 790
356 794
347 789
339 782
332 774
327 765
320 757
314 749
309 740
304 731
299 722
299 712
299 702
294 693
294 683
294 673
294 663
294 653
294 643
294 633
294 623
294 613
287 605
280 597
272 590
265 582
257 575
254 565
254 555
254 545
245 540
236 535
226 533
216 530
207 525
198 520
189 515
181 508
171 504
162 499
152 495
145 487
135 483
129 475
119 472
110 467
102 460
95 452
85 448
78 440
70 433
63 425
55 418
48 410
40 403
34 395
29 386
29 376
24 367
