24 452
24 442
34 437
44 436
53 441
60 449
70 449
80 452
89 457
95 465
95 475
100 484
108 490
115 498
123 505
125 515
125 525
125 535
130 544
139 549
148 554
157 559
166 564
176 564
186 564
196 564
206 564
216 560
226 559
236 559
245 554
255 551
263 544
270 536
279 527
284 517
289 502
294 492
302 485
299 475
289 471
284 462
292 454
295 443
289 435
281 429
272 424
264 417
257 409
252 400
249 390
244 381
244 371
244 361
239 352
239 342
239 332
239 322
239 312
244 294
244 284
239 275
234 266
234 256
234 246
234 236
229 227
229 217
229 207
237 199
246 194
255 189
265 189
275 189
285 189
294 194
304 194
314 194
324 194
333 199
343 199
353 199
362 204
372 204
382 204
392 204
401 209
411 209
421 209
431 209
441 205
451 204
461 204
471 204
481 200
491 199
500 194
510 191
520 189
530 189
540 189
550 189
560 192
570 194
580 194
590 194
600 191
608 184
618 184
627 189
625 205
625 215
625 225
627 235
630 245
635 254
640 263
640 273
640 283
640 293
640 303
640 313
640 323
640 333
635 350
635 360
635 370
635 380
640 389
640 399
640 409
645 418
650 427
650 437
655 446
658 456
663 465
665 475
670 484
670 494
675 503
680 512
684 522
685 532
685 542
685 552
680 570
670 575
661 580
651 580
641 580
632 575
622 575
612 575
602 575
592 575
582 575
572 575
562 579
552 584
542 585
532 585
522 589
512 590
502 590
492 590
482 590
472 589
462 585
453 580
445 573
439 565
429 562
424 572
416 580
407 575
399 569
399 559
394 550
385 555
377 564
369 570
359 572
349 577
339 580
334 571
338 560
328 563
320 570
310 570
301 575
292 580
282 584
274 592
264 595
254 597
244 595
235 600
226 605
216 603
206 600
196 600
186 598
176 595
167 600
158 595
149 590
140 585
131 580
122 575
119 565
109 562
102 554
94 547
90 537
82 530
75 522
70 513
69 503
64 494
59 485
58 475
50 468
43 460
34 455
