279 1397
279 1387
284 1377
284 1367
284 1357
289 1341
289 1331
289 1321
284 1312
284 1302
294 1297
294 1282
294 1272
304 1266
304 1256
299 1247
304 1237
314 1227
314 1217
314 1207
319 1197
319 1187
319 1177
324 1167
329 1157
334 1147
344 1137
344 1122
344 1112
354 1107
359 1097
364 1087
369 1077
374 1067
384 1057
389 1047
389 1037
394 1027
399 1017
407 1009
417 1004
419 987
427 979
437 974
439 957
447 949
457 944
459 927
464 917
469 907
469 897
474 887
484 877
494 867
504 857
514 852
524 847
529 837
534 827
544 817
549 807
549 797
557 789
567 784
572 774
577 764
585 756
590 746
595 736
604 727
614 717
619 707
624 697
634 687
639 677
639 667
647 659
657 654
662 644
667 634
675 626
680 616
685 606
694 597
704 587
714 577
724 572
734 567
739 557
744 547
754 537
759 527
759 517
759 507
764 497
769 487
774 477
784 467
794 457
799 447
804 437
814 427
819 417
827 409
837 404
839 387
847 379
857 374
859 357
869 354
879 354
885 346
890 336
895 326
900 316
908 309
918 309
927 304
932 294
937 284
945 276
950 266
958 259
967 254
977 249
987 244
995 236
1000 226
1008 219
1018 219
1027 214
1032 204
1041 199
1050 194
1056 185
1066 184
1076 184
1081 175
1089 169
1099 169
1109 169
1118 164
1127 159
1137 154
1142 144
1151 139
1159 127
1164 117
1174 112
1184 109
1194 109
1204 109
1214 107
1224 104
1234 106
1243 111
1253 115
1257 125
1262 134
1265 144
1267 154
1259 160
1250 165
1252 175
1255 185
1245 195
1240 205
1235 215
1230 225
1227 244
1219 250
1210 255
1207 274
1199 280
1190 285
1185 295
1175 305
1170 315
1165 325
1160 335
1155 345
1145 355
1140 365
1135 375
1125 385
1125 395
1127 405
1130 415
1130 425
1125 435
1120 445
1120 455
1115 465
1105 475
1100 485
1095 495
1090 505
1090 515
1090 525
1085 535
1077 545
1072 554
1067 564
1059 570
1050 575
1045 585
1035 595
1030 605
1025 615
1015 620
1005 625
995 635
990 645
985 655
975 660
975 670
975 685
968 695
959 700
950 705
945 715
935 720
925 725
917 735
912 744
907 754
899 760
890 765
887 784
879 790
870 795
865 805
858 815
849 820
840 825
835 835
825 845
815 855
810 865
805 875
795 885
790 895
785 905
775 915
770 925
765 935
755 945
750 955
745 965
735 975
725 985
720 995
720 1005
715 1015
710 1025
705 1035
695 1045
685 1055
678 1065
669 1070
660 1075
655 1085
650 1095
645 1105
640 1115
635 1125
625 1135
617 1145
612 1154
607 1164
599 1170
590 1175
587 1194
579 1200
570 1205
565 1215
555 1225
550 1235
545 1245
545 1255
545 1265
540 1275
535 1285
525 1295
515 1305
515 1315
515 1325
505 1335
500 1345
500 1355
495 1365
490 1375
485 1385
480 1395
482 1405
485 1415
485 1425
487 1435
490 1445
485 1455
475 1460
475 1470
480 1479
480 1489
480 1499
485 1508
485 1518
485 1528
490 1537
490 1547
490 1557
490 1567
490 1577
494 1587
502 1594
505 1604
505 1614
505 1624
515 1627
522 1635
527 1644
530 1654
530 1664
539 1669
545 1677
545 1687
552 1695
557 1704
565 1710
570 1719
575 1728
580 1737
584 1747
592 1754
601 1759
609 1766
613 1776
623 1780
632 1785
642 1789
651 1794
661 1794
670 1799
675 1808
685 1809
695 1809
705 1812
715 1814
725 1811
735 1812
744 1817
754 1819
764 1817
774 1812
784 1809
794 1809
804 1811
814 1814
824 1812
834 1809
844 1809
854 1807
864 1797
874 1794
884 1796
894 1797
899 1787
904 1777
914 1767
919 1757
924 1747
934 1737
939 1727
944 1717
954 1707
964 1697
969 1687
974 1677
984 1667
989 1657
997 1649
1007 1644
1012 1634
1017 1624
1022 1614
1027 1604
1032 1594
1037 1584
1045 1576
1054 1567
1059 1557
1064 1547
1074 1537
1079 1527
1087 1519
1097 1514
1099 1497
1107 1489
1117 1484
1119 1467
1124 1457
1129 1445
1124 1436
1119 1427
1127 1419
1134 1406
1129 1397
1137 1389
1144 1376
1139 1367
1147 1359
1156 1364
1165 1369
1175 1372
1184 1377
1194 1381
1203 1386
1208 1395
1210 1405
1205 1415
1205 1425
1207 1435
1210 1445
1205 1455
1205 1465
1207 1475
1205 1485
1205 1495
1207 1505
1205 1515
1200 1525
1200 1535
1195 1545
1190 1555
1190 1565
1185 1575
1180 1585
1180 1595
1175 1605
1170 1615
1170 1625
1170 1635
1165 1645
1160 1655
1155 1665
1145 1675
1145 1685
1147 1695
1139 1710
1130 1715
1132 1725
1129 1740
1120 1745
1117 1764
1109 1770
1100 1775
1095 1785
1085 1795
1075 1805
1070 1815
1065 1825
1055 1830
1045 1835
1040 1845
1040 1855
1035 1865
1025 1865
1015 1865
1010 1875
1006 1885
997 1890
988 1895
979 1900
970 1905
965 1915
955 1920
945 1925
935 1930
925 1935
915 1945
905 1950
895 1950
885 1955
875 1960
865 1960
855 1965
845 1970
835 1970
825 1970
815 1970
806 1975
796 1975
786 1975
776 1975
766 1975
756 1978
746 1975
736 1975
726 1975
716 1975
706 1975
696 1975
686 1974
681 1965
671 1965
661 1965
651 1965
641 1965
631 1965
621 1964
617 1954
607 1950
597 1950
587 1949
577 1945
568 1940
559 1935
550 1930
541 1925
532 1920
523 1915
514 1910
506 1904
501 1895
492 1890
483 1885
474 1880
464 1877
459 1868
453 1860
444 1855
439 1846
434 1837
425 1832
415 1828
406 1823
401 1814
397 1804
392 1795
389 1785
380 1780
374 1772
374 1762
365 1757
355 1753
354 1743
354 1733
347 1725
344 1715
344 1705
342 1695
334 1689
329 1680
324 1671
319 1662
319 1652
319 1642
319 1632
315 1622
305 1618
304 1608
304 1598
299 1589
299 1579
299 1569
294 1560
284 1557
284 1547
284 1537
284 1527
289 1516
289 1506
284 1497
284 1487
289 1476
284 1467
284 1457
289 1445
289 1435
284 1426
279 1417
279 1407
