36 70
30 78
40 81
50 81
58 87
62 97
64 107
64 117
64 127
64 137
64 147
64 157
64 167
64 177
64 187
60 202
54 212
59 221
69 221
79 221
89 221
99 221
109 221
108 211
103 202
99 192
99 182
99 172
99 162
99 152
99 142
99 132
99 122
99 112
109 109
119 107
127 100
131 88
139 81
149 81
159 81
169 80
167 70
167 60
165 50
155 50
145 50
137 44
125 16
108 18
100 26
117 23
127 26
132 35
128 50
118 50
108 50
98 50
88 50
84 62
76 70
66 70
56 70
46 70
