24 70
28 81
38 81
48 81
56 87
61 96
66 105
66 115
66 125
66 135
66 145
66 155
66 165
66 175
66 185
62 200
56 212
61 221
71 221
81 221
91 221
101 221
111 221
110 210
106 200
103 190
103 180
103 170
103 160
103 150
103 140
103 130
103 120
103 110
113 109
123 105
131 98
136 89
142 81
152 81
162 81
172 81
179 69
179 59
174 50
164 50
154 50
144 50
134 51
116 16
106 20
100 28
122 24
126 34
126 44
118 50
108 50
98 50
88 50
78 50
68 50
62 64
54 70
44 70
34 70
