16 52
16 62
24 81
34 81
44 81
54 81
60 89
65 98
73 104
82 109
92 109
96 119
96 129
96 139
96 149
96 159
96 169
96 179
95 193
84 212
89 221
99 221
109 221
119 221
129 221
139 221
135 204
131 194
131 184
131 174
131 164
131 154
131 144
131 134
131 124
131 114
131 104
139 98
145 90
150 81
160 81
170 81
180 81
181 70
171 70
161 70
152 65
147 56
139 50
129 50
119 50
109 50
99 50
89 50
79 47
93 26
101 32
89 16
79 19
74 28
74 38
66 50
56 50
46 50
36 50
26 50
