48 50
48 60
56 81
66 81
70 91
72 101
80 107
90 109
100 112
100 122
100 132
100 142
100 152
100 162
100 172
100 182
96 200
90 210
90 220
100 221
110 221
120 221
130 221
140 221
142 208
138 198
137 188
137 178
137 168
137 158
137 148
137 138
137 128
137 118
137 108
137 98
141 88
149 81
151 70
141 70
131 70
121 70
111 70
101 66
95 58
88 50
78 50
68 49
82 23
91 28
74 16
66 22
60 30
60 40
58 50
