154 1207
154 1197
159 1182
159 1172
164 1162
164 1152
169 1142
174 1132
179 1122
184 1112
189 1102
189 1092
194 1082
202 1074
209 1062
214 1052
219 1042
227 1034
235 1026
240 1016
245 1006
253 999
259 987
264 977
269 967
277 959
284 947
292 939
297 929
304 917
312 909
320 901
330 896
338 889
347 884
352 874
360 866
368 859
375 851
383 844
392 839
400 831
410 826
420 821
430 816
440 814
450 814
459 809
469 809
478 804
488 804
498 804
507 799
517 799
527 794
537 794
547 794
557 794
567 794
576 789
586 789
595 784
605 784
615 784
621 775
629 767
637 759
642 749
650 741
658 734
665 726
673 719
682 714
692 709
700 701
705 691
713 684
720 676
730 671
738 664
745 656
753 649
760 641
768 634
775 626
783 619
790 611
798 604
805 596
813 589
820 581
830 576
838 569
842 559
850 551
855 541
863 534
870 526
875 516
880 506
888 499
894 487
899 477
904 467
912 459
919 447
927 439
935 431
943 424
949 412
957 404
964 392
972 384
977 374
982 364
987 354
989 342
994 332
1002 324
1010 316
1015 306
1020 296
1025 286
1030 276
1038 269
1044 257
1049 247
1054 237
1059 227
1064 217
1069 202
1074 192
1074 182
1079 172
1079 162
1084 147
1084 137
1084 127
1084 117
1089 107
1097 99
1105 91
1115 86
1125 84
1135 84
1145 84
1154 89
1162 95
1170 102
1175 111
1180 120
1180 130
1180 140
1180 150
1180 160
1175 170
1175 180
1170 195
1170 205
1165 215
1165 225
1160 235
1155 245
1150 260
1145 270
1140 280
1135 290
1130 300
1123 313
1115 320
1110 330
1105 340
1100 350
1095 360
1090 370
1083 378
1075 385
1073 398
1068 408
1063 418
1058 428
1050 435
1043 448
1035 455
1028 468
1020 475
1013 488
1005 495
998 503
990 510
985 520
980 530
973 543
965 550
960 560
955 570
948 583
940 590
933 598
925 605
920 615
913 623
908 633
900 640
893 648
883 653
875 660
868 668
860 675
853 683
845 690
838 698
830 705
823 713
815 720
808 728
800 735
793 743
783 748
775 755
768 768
760 775
753 783
745 790
735 795
725 800
723 813
718 823
710 830
703 838
693 843
685 850
678 858
670 865
665 875
658 883
650 890
643 898
638 908
630 915
623 923
613 928
605 935
598 943
590 950
583 963
575 970
568 978
560 985
550 990
543 998
538 1008
530 1015
523 1023
515 1030
508 1043
500 1050
493 1058
485 1065
478 1073
470 1080
463 1093
455 1100
450 1110
443 1118
435 1125
427 1134
419 1140
410 1145
402 1154
392 1159
384 1165
375 1170
365 1170
357 1179
349 1185
340 1190
333 1198
323 1203
313 1208
303 1213
295 1220
285 1225
275 1230
267 1239
258 1245
249 1250
240 1255
230 1260
221 1265
211 1265
201 1265
192 1260
183 1255
174 1250
166 1244
159 1236
154 1227
154 1217
