429 857
429 847
434 832
434 822
434 812
439 802
444 792
449 782
454 767
459 757
464 747
469 737
474 727
479 717
487 709
494 697
502 689
510 681
515 671
523 664
530 656
540 651
549 640
549 630
549 620
549 610
549 600
549 590
549 580
549 570
549 560
544 551
544 541
544 531
544 521
544 511
539 502
539 492
539 482
539 472
539 462
539 452
539 442
539 432
539 422
539 412
539 402
539 392
535 382
530 373
526 363
521 354
519 344
519 334
514 325
514 315
509 306
509 296
509 286
509 276
509 266
504 257
504 247
504 237
504 227
504 217
504 207
509 192
509 182
514 172
519 162
524 152
529 142
534 132
542 124
549 112
557 104
565 96
573 89
580 81
590 76
600 74
610 74
619 69
629 69
639 69
649 71
658 76
668 80
675 88
685 92
692 100
700 107
704 117
709 126
715 134
720 143
720 153
725 162
729 172
734 181
735 191
738 201
740 211
740 221
740 231
740 241
740 251
740 261
740 271
740 281
735 290
735 300
735 310
735 320
735 330
730 340
730 350
725 360
720 370
715 380
708 393
700 400
695 410
695 420
690 430
685 445
685 455
685 465
685 475
685 485
685 495
685 505
685 515
685 525
685 535
685 545
685 555
685 565
685 575
685 585
687 595
690 605
690 615
692 625
702 629
709 637
719 641
728 646
735 654
743 660
747 670
755 677
760 686
766 694
770 704
775 713
780 722
784 732
785 742
789 752
790 762
795 771
800 780
800 790
805 799
805 809
805 819
805 829
805 839
810 848
810 858
810 868
810 878
810 888
810 898
810 908
810 918
810 928
810 938
810 948
810 958
810 968
810 978
805 995
800 1005
795 1020
795 1030
790 1040
790 1050
785 1065
780 1075
775 1085
770 1095
765 1105
758 1118
750 1125
743 1133
735 1140
728 1153
720 1160
715 1170
708 1178
700 1185
692 1194
682 1199
672 1204
662 1209
652 1210
642 1214
632 1215
622 1215
612 1214
602 1210
592 1210
583 1205
574 1200
565 1195
556 1190
547 1185
538 1180
530 1173
523 1165
515 1158
508 1150
500 1143
494 1135
489 1126
484 1117
479 1108
472 1100
465 1092
460 1083
456 1073
451 1064
449 1054
446 1044
444 1034
444 1024
439 1015
439 1005
434 996
434 986
434 976
434 966
434 956
429 947
429 937
429 927
429 917
429 907
429 897
429 887
429 877
429 867
