145 486
145 476
150 461
150 451
155 436
160 426
160 416
165 406
173 399
178 389
183 379
190 371
200 361
205 351
213 344
223 339
228 329
233 319
240 311
250 301
255 291
263 284
270 276
278 269
288 264
298 259
305 251
315 241
323 234
330 226
340 221
350 216
358 210
367 205
376 200
386 195
396 190
406 185
416 180
426 180
436 175
446 175
456 170
466 170
476 170
486 165
496 165
506 165
516 165
526 165
536 165
546 165
555 170
565 170
575 173
585 175
594 180
603 185
609 193
619 196
625 204
633 210
639 218
645 226
654 231
660 239
665 248
673 255
676 265
686 269
694 276
698 286
703 295
706 305
711 314
720 319
728 325
731 335
735 345
736 355
741 364
745 374
750 383
755 392
755 402
760 411
765 420
765 430
770 439
775 448
775 458
775 468
775 478
780 487
785 496
785 506
785 516
785 526
785 536
785 546
785 556
785 566
780 575
775 585
770 595
765 605
760 615
753 628
748 638
740 645
735 655
728 663
718 668
710 675
705 685
697 694
689 702
681 710
672 715
663 720
654 725
645 730
635 730
625 730
615 730
605 730
595 730
585 730
575 730
565 726
555 725
545 725
535 725
525 721
515 720
505 720
495 716
485 715
475 715
465 711
455 710
445 706
435 705
426 700
416 698
406 694
399 686
391 680
383 674
375 667
368 659
360 652
353 644
345 638
340 629
335 620
330 611
330 601
325 592
320 583
316 573
311 564
308 554
303 545
300 535
295 526
295 516
295 506
295 496
295 486
295 476
300 466
300 456
305 446
310 436
318 429
325 416
330 406
338 399
345 391
353 384
360 371
368 364
378 359
385 351
393 345
402 340
410 331
420 326
428 320
437 315
446 310
456 310
466 310
476 310
486 310
496 310
506 310
516 310
526 310
536 310
545 315
555 318
565 320
575 323
584 328
592 335
601 340
609 346
615 354
623 360
629 368
634 377
639 386
645 394
650 403
654 413
655 423
655 433
655 443
655 453
653 468
648 478
640 485
633 493
625 500
616 505
607 510
602 519
594 527
584 532
574 537
564 542
554 545
544 547
534 552
524 555
515 560
505 560
495 560
485 556
475 553
469 545
464 536
460 526
460 516
465 506
473 499
483 494
493 490
503 489
513 485
523 485
533 484
543 479
553 474
563 469
568 459
575 451
585 448
585 438
585 428
578 420
574 410
566 404
560 396
552 390
542 389
532 385
523 380
513 380
503 380
493 380
483 380
473 380
463 380
454 385
445 390
438 398
428 403
420 410
413 418
405 425
400 435
393 443
385 450
378 463
370 470
370 480
365 490
365 500
365 510
370 519
370 529
375 538
379 548
384 557
389 566
390 576
393 586
400 594
408 600
411 610
416 619
425 624
435 628
444 633
454 635
463 640
473 640
482 645
492 645
502 645
511 650
521 650
531 650
540 655
550 655
560 655
570 655
579 660
589 660
599 660
609 660
619 660
629 660
638 655
647 650
651 640
659 633
666 625
674 618
681 610
689 603
695 591
703 584
708 574
713 564
715 554
715 544
715 534
715 524
715 514
715 504
715 494
710 485
705 476
705 466
705 456
704 446
700 436
695 427
695 417
690 408
685 399
680 390
675 381
675 371
670 362
663 354
655 348
650 339
645 330
640 321
635 312
628 304
620 298
614 290
609 281
605 271
595 268
589 260
581 253
571 249
562 244
552 240
542 239
532 235
522 235
512 235
502 235
492 239
482 240
472 240
462 244
452 245
442 249
432 250
422 254
412 259
402 264
392 269
383 275
374 280
365 285
355 290
348 303
340 310
330 315
323 323
315 330
308 338
300 345
290 350
285 360
277 374
269 380
263 388
258 398
250 405
240 410
235 420
230 430
225 445
220 460
220 470
215 485
215 495
215 505
215 515
215 525
215 535
215 545
215 555
215 565
215 575
215 585
215 595
215 605
215 615
220 624
225 633
225 643
230 652
235 661
240 670
245 679
253 685
262 690
269 698
277 705
286 710
294 716
300 724
310 728
320 730
330 733
339 738
347 745
351 755
361 759
370 764
380 768
390 770
400 770
410 773
419 778
429 780
439 780
449 780
458 785
468 785
478 785
487 790
496 795
506 795
516 795
525 800
534 805
544 805
554 805
564 806
573 811
583 815
593 815
603 815
612 820
621 825
631 825
641 829
650 834
658 840
667 835
677 835
686 840
695 845
705 845
714 850
724 850
730 836
735 826
743 819
753 814
763 810
773 809
783 805
793 805
803 804
813 800
823 800
833 800
843 799
853 795
863 794
873 790
883 789
893 785
902 780
911 775
921 775
931 775
941 775
950 780
960 780
969 775
979 775
988 780
998 780
1007 775
1017 775
1026 780
1035 775
1045 775
1054 770
1064 770
1074 770
1084 770
1094 770
1103 775
1113 775
1123 775
1133 775
1142 780
1152 780
1162 780
1171 785
1180 790
1189 795
1199 795
1208 800
1217 805
1224 813
1234 815
1244 815
1254 815
1264 816
1273 821
1283 825
1293 825
1302 830
1311 835
1320 840
1328 846
1335 854
1345 858
1354 863
1362 870
1369 878
1377 885
1386 890
1394 896
1400 904
1408 910
1414 918
1422 925
1431 930
1440 935
1449 940
1459 940
1468 945
1478 945
1487 950
1496 955
1506 955
1516 955
1526 955
1536 955
1546 955
1556 955
1566 955
1576 955
1586 955
1596 955
1606 955
1616 955
1626 955
1636 955
1646 955
1656 955
1666 955
1676 955
1686 955
1696 955
1706 950
1716 945
1726 945
1736 949
1746 950
1756 945
1766 945
1776 945
1786 945
1796 945
1805 940
1814 935
1824 935
1834 935
1844 935
1854 935
1863 940
1873 940
1882 935
1892 935
1901 930
1911 925
1921 925
1931 925
1941 925
1951 925
1960 920
1969 915
1979 915
1989 915
1999 916
2009 920
2019 918
2029 915
2039 913
2049 908
2059 905
2069 903
2079 898
2089 895
2099 896
2109 900
2119 898
2129 895
2139 893
2149 888
2159 885
2169 883
2179 878
2189 875
2199 876
2209 880
2219 878
2229 875
2239 873
2249 868
2259 865
2269 865
2279 863
2289 858
2299 855
2309 855
2319 855
2329 855
2339 855
2349 855
2359 855
2369 855
2379 855
2389 855
2399 855
2409 855
2419 855
2429 855
2439 855
2449 855
2458 860
2467 865
2477 865
2487 865
2497 865
2506 870
2515 875
2525 875
2534 880
2543 885
2553 885
2563 885
2573 885
2582 890
2591 895
2600 900
2609 905
2618 910
2624 918
2632 925
2641 930
2650 935
2658 941
2665 949
2673 955
2682 960
2689 968
2695 976
2701 984
2705 994
2715 998
2723 1005
2726 1015
2731 1024
2735 1034
2740 1043
2740 1053
2744 1063
2749 1072
2750 1082
2750 1092
2754 1102
2755 1112
2755 1122
2755 1132
2755 1142
2755 1152
2755 1162
2755 1172
2755 1182
2750 1195
2750 1205
2750 1215
2750 1225
2745 1240
2745 1250
2740 1265
2735 1280
2730 1295
2725 1310
2720 1320
2720 1330
2715 1345
2715 1355
2710 1365
2710 1375
2705 1385
2700 1400
2700 1410
2695 1420
2690 1435
2685 1450
2680 1460
2675 1470
2673 1483
2668 1493
2663 1503
2658 1513
2653 1523
2648 1533
2640 1540
2633 1553
2625 1560
2618 1573
2610 1580
2603 1588
2595 1595
2588 1603
2580 1610
2573 1618
2565 1625
2555 1630
2548 1638
2540 1645
2533 1653
2523 1658
2515 1665
2505 1670
2496 1675
2487 1680
2477 1684
2467 1689
2457 1690
2448 1695
2439 1700
2430 1705
2420 1705
2411 1710
2401 1710
2392 1715
2382 1715
2372 1715
2362 1719
2352 1720
2342 1720
2332 1720
2323 1725
2313 1725
2303 1725
2293 1725
2283 1725
2273 1725
2264 1720
2255 1715
2246 1710
2236 1710
2226 1709
2217 1704
2208 1699
2198 1695
2188 1694
2178 1690
2168 1690
2159 1685
2150 1680
2141 1675
2131 1673
2121 1669
2115 1661
2105 1658
2098 1650
2089 1645
2081 1639
2075 1631
2065 1628
2059 1620
2054 1611
2050 1601
2040 1598
2033 1590
2024 1585
2016 1578
2010 1570
2005 1561
2004 1551
2000 1541
1999 1531
1995 1521
1995 1511
1995 1501
1995 1491
1995 1481
1995 1471
1995 1461
1995 1451
1995 1441
1995 1431
1995 1421
2000 1411
2005 1401
2010 1391
2015 1381
2020 1371
2025 1361
2025 1351
2030 1341
2035 1331
2040 1321
2045 1311
2053 1304
2058 1294
2065 1281
2073 1274
2078 1264
2083 1254
2090 1246
2098 1240
2105 1231
2110 1221
2118 1214
2123 1204
2130 1196
2140 1191
2148 1184
2158 1179
2168 1175
2177 1170
2186 1165
2196 1160
2206 1155
2216 1150
2226 1150
2236 1145
2246 1140
2256 1140
2266 1135
2276 1135
2286 1135
2295 1130
2305 1126
2315 1125
2325 1125
2335 1125
2345 1128
2355 1130
2364 1135
2373 1140
2383 1140
2392 1145
2399 1153
2409 1156
2418 1161
2425 1169
2430 1178
2438 1185
2447 1190
2456 1195
2464 1201
2469 1210
2478 1215
2484 1223
2492 1230
2501 1235
2509 1241
2515 1249
2520 1258
2528 1265
2534 1273
2540 1281
2545 1290
2550 1299
2550 1309
2555 1318
2559 1328
2564 1337
2569 1346
2570 1356
2573 1366
2578 1375
2580 1385
2580 1395
2580 1405
2580 1415
2580 1425
2573 1438
2568 1448
2560 1455
2555 1465
2548 1478
2543 1488
2535 1495
2528 1503
2520 1510
2513 1518
2505 1525
2497 1534
2489 1540
2480 1545
2473 1553
2465 1560
2455 1565
2447 1574
2437 1579
2427 1580
2418 1585
2408 1588
2398 1590
2388 1590
2378 1590
2369 1595
2359 1595
2349 1595
2339 1591
2330 1586
2320 1583
2313 1575
2303 1574
2293 1570
2284 1565
2274 1561
2265 1556
2255 1552
2248 1544
2240 1538
2234 1530
2226 1523
2221 1514
2220 1504
2215 1495
2210 1486
2210 1476
2210 1466
2210 1456
2210 1446
2210 1436
2210 1426
2215 1416
2220 1406
2225 1396
2233 1389
2240 1381
2248 1374
2255 1366
2265 1361
2275 1360
2284 1355
2294 1353
2304 1350
2314 1350
2324 1350
2333 1355
2342 1360
2349 1368
2354 1377
2350 1395
2342 1409
2333 1415
2324 1420
2314 1420
2305 1425
2295 1425
2285 1430
2280 1440
2280 1450
2280 1460
2280 1470
2285 1479
2290 1488
2298 1495
2307 1500
2316 1505
2326 1509
2335 1514
2345 1518
2354 1523
2364 1520
2374 1520
2384 1520
2394 1520
2403 1515
2413 1514
2423 1510
2433 1510
2442 1505
2451 1500
2461 1495
2469 1488
2474 1478
2481 1470
2490 1461
2495 1451
2500 1441
2505 1426
2510 1409
2510 1399
2510 1389
2510 1379
2505 1370
2500 1361
2495 1352
2490 1343
2490 1333
2486 1323
2481 1314
2476 1305
2468 1299
2460 1293
2454 1285
2446 1279
2441 1270
2433 1264
2425 1258
2419 1250
2411 1244
2404 1236
2395 1231
2385 1228
2379 1220
2371 1213
2361 1210
2352 1205
2343 1200
2334 1195
2324 1195
2315 1200
2305 1200
2296 1205
2286 1205
2276 1205
2267 1210
2257 1210
2248 1215
2239 1220
2229 1220
2220 1225
2211 1230
2202 1235
2193 1240
2184 1245
2175 1250
2168 1258
2163 1268
2155 1275
2145 1280
2138 1293
2133 1303
2128 1313
2120 1320
2113 1333
2108 1343
2100 1350
2095 1360
2090 1370
2085 1380
2085 1390
2080 1400
2075 1410
2070 1420
2065 1430
2065 1440
2065 1450
2065 1460
2065 1470
2065 1480
2065 1490
2065 1500
2065 1510
2070 1519
2070 1529
2075 1538
2083 1545
2089 1553
2097 1560
2104 1568
2112 1575
2119 1583
2127 1590
2136 1595
2144 1601
2153 1606
2163 1610
2172 1615
2181 1620
2191 1620
2200 1625
2209 1630
2218 1635
2228 1635
2237 1640
2247 1640
2256 1645
2266 1645
2276 1649
2286 1650
2296 1654
2306 1655
2315 1650
2325 1650
2335 1650
2345 1650
2354 1645
2364 1645
2374 1645
2384 1643
2394 1640
2403 1635
2413 1635
2422 1630
2431 1625
2441 1620
2451 1620
2460 1615
2469 1610
2478 1604
2488 1599
2495 1591
2503 1585
2512 1580
2520 1571
2528 1564
2535 1556
2545 1551
2553 1544
2558 1534
2565 1526
2570 1516
2578 1509
2585 1496
2590 1486
2595 1476
2600 1466
2605 1456
2610 1446
2615 1431
2620 1421
2625 1406
2630 1396
2630 1386
2635 1371
2640 1361
2640 1351
2645 1336
2645 1326
2650 1311
2650 1301
2655 1291
2660 1281
2665 1271
2665 1261
2670 1246
2675 1231
2675 1221
2680 1206
2680 1196
2680 1186
2680 1176
2685 1158
2685 1148
2685 1138
2685 1128
2685 1118
2680 1109
2680 1099
2680 1089
2680 1079
2675 1070
2670 1061
2670 1051
2665 1042
2658 1034
2650 1027
2643 1019
2635 1012
2628 1004
2623 995
2614 990
2604 986
2595 981
2587 974
2582 965
2573 960
2564 955
2554 955
2544 955
2535 950
2526 945
2516 945
2507 940
2498 935
2488 935
2478 935
2468 935
2459 930
2450 925
2440 925
2430 925
2420 925
2410 925
2400 925
2390 925
2380 925
2370 925
2360 925
2350 925
2340 925
2330 925
2320 925
2310 925
2300 925
2290 925
2280 930
2270 935
2260 935
2250 935
2240 940
2230 945
2220 941
2210 940
2200 940
2190 945
2180 945
2170 950
2160 955
2150 955
2140 960
2131 965
2121 963
2111 960
2101 960
2092 965
2082 965
2073 970
2064 975
2054 975
2045 980
2036 985
2026 985
2017 980
2007 980
1997 984
1987 985
1977 985
1967 984
1957 984
1949 990
1940 995
1930 995
1920 995
1910 995
1900 1000
1891 1005
1881 1003
1871 1000
1861 1000
1852 1005
1842 1005
1832 1005
1822 1005
1812 1004
1802 1004
1794 1010
1785 1015
1775 1015
1765 1015
1755 1011
1745 1010
1735 1010
1726 1015
1716 1015
1707 1020
1698 1025
1688 1025
1678 1025
1668 1025
1658 1025
1648 1025
1638 1025
1628 1025
1618 1025
1608 1025
1598 1025
1588 1025
1578 1025
1568 1025
1558 1025
1548 1025
1538 1025
1528 1025
1518 1025
1508 1025
1498 1025
1488 1025
1478 1025
1468 1025
1459 1020
1449 1020
1439 1022
1429 1025
1419 1025
1409 1025
1400 1020
1392 1029
1383 1035
1374 1040
1365 1045
1355 1045
1345 1045
1336 1050
1326 1050
1316 1050
1307 1055
1297 1055
1287 1055
1277 1055
1267 1055
1257 1055
1248 1050
1238 1053
1228 1055
1218 1055
1208 1055
1198 1055
1188 1055
1178 1055
1168 1055
1158 1055
1148 1058
1138 1060
1128 1063
1118 1065
1108 1065
1098 1065
1088 1065
1078 1065
1068 1065
1058 1065
1049 1060
1039 1060
1030 1055
1020 1053
1011 1048
1001 1044
992 1039
983 1034
975 1027
968 1019
960 1012
953 1004
945 997
938 989
930 982
923 974
915 967
908 959
900 953
893 945
883 944
873 940
863 940
854 945
844 945
835 940
827 934
817 934
807 935
798 930
789 925
780 920
770 925
760 923
751 918
741 915
731 913
721 910
711 910
702 915
692 914
683 909
673 905
663 905
654 900
646 893
636 895
626 895
617 890
608 885
598 885
588 885
578 885
569 880
560 875
550 875
540 875
530 873
521 868
511 865
501 865
491 864
482 859
472 855
462 855
452 855
443 850
433 850
423 850
414 845
405 840
395 840
385 840
376 835
367 830
357 830
348 825
339 820
329 816
320 811
312 804
307 795
298 790
288 790
279 785
269 781
260 776
250 773
244 765
236 759
229 751
221 745
213 739
205 732
198 724
190 718
185 709
179 701
175 691
170 682
165 673
160 664
155 655
154 645
149 636
145 626
145 616
145 606
145 596
145 586
145 576
145 566
145 556
145 546
145 536
145 526
145 516
145 506
145 496
