85 1766
85 1756
90 1741
90 1731
95 1721
95 1711
100 1701
100 1691
105 1681
110 1666
115 1656
120 1646
125 1636
130 1626
138 1619
145 1611
145 1601
150 1591
158 1584
165 1576
173 1569
180 1561
188 1554
198 1549
208 1544
218 1540
227 1535
237 1535
246 1530
256 1530
266 1530
276 1530
286 1530
296 1530
306 1530
316 1530
326 1530
336 1534
346 1535
356 1539
366 1540
375 1545
384 1550
393 1555
402 1560
411 1565
419 1571
425 1579
433 1585
439 1593
444 1602
449 1611
453 1621
458 1630
461 1640
465 1650
470 1659
470 1669
470 1679
470 1689
470 1699
470 1709
470 1719
470 1729
470 1739
470 1749
470 1759
470 1769
465 1785
460 1800
453 1813
445 1820
440 1830
435 1840
430 1850
423 1863
415 1870
410 1880
405 1890
398 1898
390 1905
380 1910
370 1915
360 1915
350 1920
340 1920
330 1920
320 1920
310 1916
300 1913
293 1905
289 1895
281 1889
272 1884
263 1879
255 1872
248 1864
240 1858
235 1849
230 1840
230 1830
230 1820
230 1810
230 1800
225 1791
225 1781
225 1771
225 1761
230 1751
238 1744
248 1739
258 1735
268 1735
277 1740
284 1748
290 1756
295 1765
295 1775
296 1785
300 1795
300 1805
300 1815
305 1824
315 1828
325 1830
335 1830
344 1825
353 1819
355 1801
360 1791
360 1781
365 1771
365 1761
370 1744
366 1734
363 1724
355 1718
350 1709
344 1701
340 1691
332 1684
323 1679
313 1675
304 1670
294 1670
284 1670
274 1670
265 1675
255 1675
245 1680
235 1685
228 1693
218 1698
210 1705
205 1715
205 1725
200 1735
200 1745
200 1755
200 1765
195 1780
195 1790
195 1800
195 1810
195 1820
195 1830
196 1840
200 1850
205 1859
205 1869
210 1878
214 1888
219 1897
225 1905
230 1914
235 1923
243 1930
249 1938
257 1945
264 1953
274 1956
284 1960
293 1965
303 1965
312 1970
322 1970
332 1970
342 1970
352 1970
362 1970
372 1970
382 1970
391 1965
401 1960
409 1953
419 1948
426 1940
434 1933
441 1925
450 1916
458 1909
465 1901
473 1894
480 1886
485 1871
490 1856
490 1846
495 1831
500 1821
500 1811
505 1801
505 1791
510 1781
510 1771
515 1761
515 1751
520 1741
520 1731
525 1714
525 1704
525 1694
525 1684
525 1674
525 1664
525 1654
525 1644
520 1635
520 1625
520 1615
518 1605
515 1595
510 1586
509 1576
505 1566
505 1556
505 1546
505 1536
500 1527
500 1517
500 1507
495 1498
495 1488
490 1479
490 1469
485 1460
485 1450
485 1440
485 1430
485 1420
480 1411
480 1401
480 1391
480 1381
480 1371
480 1361
480 1351
480 1341
480 1331
480 1321
480 1311
480 1301
480 1291
480 1281
480 1271
480 1261
480 1251
480 1241
480 1231
480 1221
485 1206
485 1196
485 1186
490 1176
490 1166
495 1156
495 1146
500 1131
505 1121
505 1111
510 1101
510 1091
515 1076
520 1066
525 1056
525 1046
530 1031
535 1016
535 1006
540 996
545 981
550 971
550 961
555 951
560 941
565 931
570 916
575 901
580 891
585 876
590 866
595 851
600 841
605 831
610 821
610 811
615 801
620 791
625 781
630 771
635 761
640 751
645 741
650 731
655 721
660 711
665 701
673 694
683 689
688 679
693 669
695 656
695 646
700 636
708 629
713 619
720 611
728 604
733 594
740 586
748 579
755 571
763 564
770 551
778 544
785 531
793 524
800 516
810 511
815 501
823 494
833 489
840 481
850 476
860 475
870 466
878 459
888 454
898 449
905 441
915 436
925 431
935 426
945 425
954 420
964 418
974 413
984 410
994 408
1004 403
1014 400
1024 400
1034 398
1044 395
1054 395
1064 395
1074 393
1084 390
1094 390
1104 390
1113 385
1123 385
1133 385
1143 385
1153 385
1163 385
1173 385
1183 385
1193 385
1203 385
1213 385
1223 385
1233 385
1242 390
1252 390
1261 395
1271 395
1281 399
1290 404
1300 408
1310 410
1319 415
1328 420
1338 420
1347 425
1356 430
1365 435
1373 441
1380 449
1390 453
1398 460
1404 468
1409 477
1416 485
1421 494
1425 504
1433 510
1439 518
1447 525
1451 535
1459 541
1465 549
1470 558
1475 567
1480 576
1485 585
1490 594
1490 604
1495 613
1499 623
1500 633
1500 643
1500 653
1500 663
1500 673
1500 683
1500 693
1500 703
1500 713
1500 723
1500 733
1495 745
1490 755
1490 765
1490 775
1490 785
1490 795
1490 805
1485 815
1485 825
1485 835
1480 850
1475 860
1475 870
1475 880
1470 890
1465 900
1465 910
1465 920
1460 935
1460 945
1455 955
1450 965
1450 975
1445 985
1440 1000
1435 1010
1428 1018
1423 1028
1418 1038
1410 1045
1402 1054
1392 1059
1383 1065
1374 1070
1365 1075
1355 1075
1345 1080
1335 1080
1325 1080
1315 1080
1305 1080
1295 1080
1285 1080
1275 1080
1265 1080
1255 1076
1245 1075
1235 1075
1226 1070
1217 1065
1208 1060
1199 1055
1189 1055
1180 1050
1171 1045
1163 1039
1155 1033
1149 1025
1141 1018
1131 1014
1125 1006
1115 1002
1108 994
1100 987
1093 979
1085 972
1078 964
1070 957
1065 948
1060 939
1051 934
1045 926
1040 917
1033 909
1025 902
1018 894
1013 885
1004 880
996 873
991 864
986 855
978 849
970 842
963 834
955 827
950 818
944 810
936 803
930 795
925 786
920 777
915 768
910 759
905 750
900 741
900 731
900 721
900 711
900 701
900 691
905 681
913 674
920 666
928 659
938 654
948 649
955 641
963 635
972 630
980 621
990 616
1000 611
1008 605
1017 600
1026 595
1036 590
1046 590
1055 585
1064 580
1074 578
1084 575
1094 573
1104 570
1113 565
1123 565
1132 560
1142 560
1152 560
1161 555
1171 555
1181 555
1191 555
1201 555
1211 555
1221 555
1231 555
1241 555
1251 555
1261 555
1271 555
1281 555
1290 560
1298 566
1305 574
1313 580
1319 588
1324 597
1329 606
1333 616
1338 625
1341 635
1345 645
1350 654
1355 663
1355 673
1355 683
1360 692
1360 702
1360 712
1360 722
1360 732
1360 742
1358 753
1353 763
1348 773
1343 783
1338 793
1330 800
1322 809
1313 815
1304 820
1294 822
1284 825
1275 830
1265 830
1255 830
1245 830
1235 830
1225 830
1215 830
1205 830
1195 830
1185 830
1175 830
1165 830
1155 830
1145 826
1135 825
1125 821
1115 817
1108 809
1103 800
1099 790
1094 781
1090 771
1090 761
1090 751
1095 741
1103 734
1110 726
1118 719
1123 709
1130 701
1140 696
1150 695
1160 698
1169 703
1177 710
1181 720
1185 730
1180 745
1175 755
1184 760
1194 760
1204 760
1214 760
1224 760
1234 760
1244 760
1254 760
1264 758
1274 755
1280 746
1285 736
1290 726
1290 716
1290 706
1289 696
1285 686
1285 676
1280 667
1275 658
1271 648
1266 639
1262 629
1252 625
1242 625
1232 625
1222 625
1212 625
1202 625
1192 625
1182 625
1172 625
1163 630
1153 630
1143 630
1134 635
1124 635
1115 640
1105 640
1096 645
1086 645
1077 650
1068 655
1059 660
1049 662
1039 667
1031 675
1022 680
1013 685
1004 690
995 695
987 704
979 710
970 715
971 725
976 734
980 744
985 753
993 760
999 768
1004 777
1009 786
1014 795
1023 800
1029 808
1037 815
1044 823
1050 831
1055 840
1063 846
1073 850
1079 858
1087 865
1096 870
1105 875
1115 875
1124 880
1134 880
1144 880
1154 880
1164 880
1173 885
1183 885
1193 885
1203 885
1213 885
1222 880
1232 880
1241 875
1251 875
1261 875
1270 870
1280 866
1290 861
1300 860
1309 855
1318 850
1327 845
1337 845
1346 840
1355 835
1363 829
1373 824
1380 816
1390 811
1398 804
1405 796
1410 781
1410 771
1415 761
1415 751
1420 735
1420 725
1420 715
1420 705
1420 695
1420 685
1420 675
1415 666
1415 656
1414 646
1410 636
1409 626
1405 616
1400 607
1395 598
1390 589
1386 579
1380 571
1375 562
1375 552
1368 544
1360 538
1354 530
1346 524
1341 515
1332 510
1323 505
1314 500
1306 494
1300 486
1292 480
1282 479
1272 475
1262 475
1252 475
1242 475
1232 475
1222 479
1212 480
1202 480
1192 480
1183 485
1173 485
1163 485
1154 490
1144 490
1135 495
1125 495
1115 495
1105 500
1095 500
1085 505
1075 510
1065 510
1055 515
1046 520
1037 525
1028 530
1018 533
1008 538
998 543
988 548
978 553
968 558
958 563
948 568
940 575
933 583
923 588
915 595
908 603
903 613
895 620
890 630
883 638
875 645
870 655
865 665
858 673
853 683
848 693
843 703
835 710
830 720
825 730
820 740
815 750
813 763
808 773
803 783
795 790
790 805
785 820
780 830
780 840
775 850
770 865
765 880
765 890
760 900
760 910
755 920
755 930
750 945
750 955
745 970
745 980
745 990
740 1005
740 1015
740 1025
740 1035
740 1045
740 1055
740 1065
740 1075
735 1085
735 1095
735 1105
735 1115
735 1125
735 1135
735 1145
735 1155
735 1165
735 1175
735 1185
735 1195
735 1205
735 1215
735 1225
735 1235
735 1245
735 1255
735 1265
735 1275
735 1285
735 1295
735 1305
735 1315
735 1325
735 1335
735 1345
735 1355
735 1365
735 1375
735 1385
735 1395
735 1405
735 1415
735 1425
735 1435
735 1445
735 1455
735 1465
735 1475
735 1485
735 1495
735 1505
735 1515
735 1525
735 1535
735 1545
730 1555
730 1565
730 1575
730 1585
730 1595
730 1605
725 1615
725 1625
725 1635
725 1645
720 1655
720 1665
720 1675
715 1685
715 1695
710 1705
705 1720
700 1735
695 1750
690 1760
685 1775
680 1790
675 1800
670 1810
665 1820
658 1833
653 1843
645 1850
638 1863
630 1870
625 1880
617 1889
609 1895
603 1903
595 1910
590 1920
583 1928
578 1938
570 1945
562 1954
554 1960
545 1965
540 1975
533 1983
525 1990
520 2000
515 2010
510 2020
503 2028
495 2035
487 2044
477 2049
467 2054
457 2059
447 2064
437 2069
427 2070
418 2075
408 2078
398 2080
388 2080
378 2080
368 2080
358 2080
348 2080
338 2080
328 2080
318 2080
308 2080
298 2080
289 2075
279 2075
269 2075
260 2070
250 2068
241 2063
231 2059
222 2054
213 2049
205 2043
199 2035
191 2029
188 2019
180 2013
176 2003
171 1994
165 1986
160 1977
153 1969
148 1960
144 1950
136 1944
133 1934
125 1928
118 1920
114 1910
106 1903
101 1894
98 1884
93 1875
90 1865
85 1856
85 1846
85 1836
85 1826
85 1816
85 1806
85 1796
85 1786
85 1776
