154 87
154 77
162 69
167 59
176 54
186 54
196 54
205 59
215 59
225 62
232 70
240 77
244 87
252 94
261 99
271 99
281 99
291 99
301 99
311 99
320 104
330 104
340 104
350 107
359 112
369 116
375 124
384 129
393 134
402 139
409 147
417 154
420 164
428 170
437 175
442 184
445 194
440 210
440 220
442 230
438 243
430 250
423 258
415 265
415 275
415 285
415 295
415 305
415 315
417 325
425 332
432 340
442 344
449 352
459 354
468 359
477 364
480 374
488 380
495 388
503 394
513 394
522 399
529 407
530 417
530 427
530 437
530 447
525 460
515 470
507 464
499 440
491 434
487 424
482 415
475 407
465 403
459 395
449 391
441 385
431 384
422 379
412 375
403 370
393 370
384 365
376 359
369 351
369 341
369 331
369 321
369 311
369 301
369 291
369 281
369 271
369 261
363 253
353 255
343 258
333 260
323 263
313 268
303 273
293 278
285 285
290 294
298 300
305 308
310 317
315 326
318 336
320 346
323 356
325 366
330 375
335 384
340 393
348 400
355 408
355 418
345 425
335 430
325 430
315 430
312 440
303 435
294 440
284 440
287 414
289 357
285 347
279 339
274 330
266 324
259 316
254 307
254 297
254 287
254 277
259 267
267 259
275 251
280 241
288 234
295 226
305 221
309 204
304 195
294 192
285 187
275 183
269 175
259 177
252 169
242 165
238 155
229 150
219 147
210 142
202 135
193 130
185 123
176 118
166 114
159 106
154 97
