154 82
154 72
162 64
170 56
180 54
190 57
200 59
209 64
219 66
229 66
233 76
240 84
248 90
258 94
268 94
278 94
288 94
297 99
307 99
316 104
325 109
334 114
343 119
352 124
361 129
369 136
375 144
383 150
390 158
400 157
404 167
412 174
421 179
430 184
435 193
440 202
440 212
430 220
425 235
420 250
420 265
425 274
435 274
444 279
450 271
460 269
469 264
479 262
489 257
499 252
507 244
517 244
525 236
535 231
545 226
555 221
565 219
574 214
584 214
593 219
600 227
607 235
605 245
610 254
615 263
607 279
597 275
588 270
578 270
568 270
558 270
548 270
538 270
529 275
520 280
513 288
505 295
498 303
488 308
480 315
470 320
460 325
450 330
442 339
432 340
423 345
413 345
404 340
395 335
386 330
377 325
370 317
364 309
359 300
359 290
354 281
354 263
348 255
338 255
328 258
320 265
313 278
308 288
300 295
295 310
290 320
285 330
285 340
285 350
285 360
285 370
285 380
285 395
285 405
287 415
290 425
285 440
280 455
273 463
263 468
253 470
243 470
233 468
223 470
214 465
212 444
220 436
228 429
237 424
244 412
244 402
244 387
244 372
244 357
244 342
244 327
244 312
244 297
244 282
244 267
244 252
244 237
244 222
244 207
244 188
238 180
229 175
224 166
219 157
212 149
204 142
195 137
187 130
183 120
175 113
169 105
159 101
154 92
