52 310
52 330
52 340
54 350
61 358
69 365
79 369
89 371
99 371
109 371
119 371
129 368
139 364
149 363
159 361
169 363
179 363
189 365
199 367
209 367
219 369
229 369
239 371
249 371
259 371
269 371
279 371
289 371
299 368
307 362
312 353
313 336
313 326
311 316
309 306
307 296
309 278
307 268
305 258
313 252
322 247
331 242
337 234
343 226
349 214
351 201
349 191
345 181
339 173
332 165
323 160
314 155
304 151
309 142
313 132
317 120
319 108
319 92
317 82
321 72
325 62
327 52
326 36
319 28
310 23
300 20
290 22
280 24
270 28
261 34
251 34
241 34
231 34
221 33
213 27
204 22
194 20
184 22
174 24
166 30
158 38
158 48
158 58
162 68
166 78
162 94
158 106
156 118
158 128
161 138
167 146
158 154
148 156
138 160
130 168
120 170
110 172
100 172
90 176
80 178
72 184
68 196
66 206
68 216
74 224
79 233
89 237
98 242
108 245
118 249
128 251
138 251
148 251
148 262
145 272
135 274
125 278
115 278
105 276
95 276
85 276
75 277
66 282
58 290
54 300
