41 212
38 202
42 190
50 182
58 176
68 174
76 168
84 162
94 158
104 154
114 154
114 139
110 129
108 119
108 109
108 99
108 89
104 79
101 69
96 60
96 50
96 40
102 32
110 26
120 22
130 20
140 22
150 24
159 29
168 34
178 34
188 34
198 33
208 34
218 34
227 29
236 24
246 22
256 20
266 22
276 25
284 31
291 39
291 49
287 64
283 74
279 86
279 96
281 106
279 122
275 138
270 149
279 154
289 154
299 158
309 162
315 170
325 172
335 176
345 178
353 184
359 192
359 208
355 218
348 229
340 235
332 241
322 245
312 249
302 253
292 253
282 255
272 253
275 263
280 272
290 273
300 276
310 276
320 276
330 278
338 284
345 292
349 302
351 312
353 322
353 332
353 342
346 357
338 363
330 369
320 371
310 371
300 371
290 371
280 369
272 363
262 363
252 365
242 367
232 369
222 369
212 371
202 371
192 371
182 371
172 371
162 369
152 368
142 366
132 365
123 370
113 371
103 371
93 371
83 371
73 367
64 362
56 356
54 346
54 336
54 326
54 316
58 302
62 290
70 284
78 278
88 276
98 276
108 272
118 263
117 253
107 257
98 252
88 251
78 247
68 243
60 237
53 229
45 222
