66 204
66 194
70 182
78 174
86 166
92 157
88 147
84 137
79 128
76 118
74 108
74 98
74 88
78 76
82 66
82 56
82 46
82 36
88 28
96 22
106 20
116 22
126 25
134 31
144 34
154 34
162 26
172 22
182 20
192 22
201 27
209 34
213 44
213 54
211 64
211 74
217 82
225 88
233 94
241 100
241 110
239 120
236 133
231 142
223 150
229 158
237 164
246 169
256 170
266 172
276 173
286 176
296 179
303 187
307 197
307 207
304 223
298 231
289 236
279 241
269 245
259 248
249 252
251 262
253 272
261 278
271 280
281 277
291 276
301 276
311 276
321 280
327 288
331 298
331 308
333 318
333 328
331 338
328 353
320 361
311 366
301 369
291 371
281 371
271 371
261 367
251 363
241 363
231 362
221 363
211 363
201 365
191 369
181 371
171 371
161 371
151 371
141 371
131 371
121 369
111 366
102 361
96 353
94 343
92 333
92 323
92 313
92 303
87 294
86 284
88 270
90 260
88 250
85 240
79 232
72 224
68 214
