52 204
52 194
57 185
62 176
70 168
78 162
86 156
94 150
89 139
84 130
80 120
78 110
78 100
78 90
82 80
78 70
75 60
74 50
72 40
78 30
87 25
97 21
107 20
117 22
127 26
135 32
145 34
155 34
165 32
175 31
183 25
193 22
203 20
213 22
223 26
230 34
235 43
235 53
231 68
227 78
231 88
237 96
239 106
241 116
239 132
233 142
227 150
237 154
247 156
256 161
264 168
274 170
284 172
294 172
304 175
314 178
322 184
326 194
328 204
323 222
318 231
309 236
299 241
289 245
279 248
269 251
259 253
249 252
251 262
252 272
262 274
272 278
282 278
292 276
302 276
312 276
322 276
331 281
339 288
343 298
345 308
347 318
345 334
345 344
340 353
334 361
325 366
315 369
305 371
295 371
285 371
275 369
265 365
255 363
245 361
235 363
225 363
215 363
205 365
195 367
185 367
175 369
165 370
155 371
145 371
135 371
125 371
115 371
107 365
99 358
96 348
94 338
92 328
92 318
92 308
92 298
88 280
92 270
92 260
87 251
79 245
70 240
63 232
57 224
53 214
