46 210
44 200
48 190
56 180
65 175
71 167
79 161
89 157
99 154
109 154
106 139
102 129
102 119
100 109
100 99
100 89
96 79
91 70
87 60
86 50
86 40
92 32
100 26
110 22
120 20
130 22
140 24
149 29
158 34
168 34
178 34
188 32
198 34
208 32
218 28
227 23
237 21
247 20
257 22
267 26
274 34
277 44
275 60
271 70
267 80
267 90
269 100
269 110
267 126
263 138
258 149
267 154
277 154
287 158
297 162
303 170
313 172
323 172
333 176
343 178
351 184
355 194
357 204
353 216
348 225
340 233
332 239
323 244
313 247
303 251
293 253
283 251
274 256
264 254
267 264
273 272
283 272
293 276
303 276
313 276
323 276
333 278
342 283
349 291
353 301
355 311
357 321
357 331
357 341
354 353
346 359
338 365
329 370
319 371
309 371
299 371
289 371
279 367
269 363
259 363
249 363
239 365
229 367
219 369
209 369
199 371
189 371
179 371
169 371
159 371
149 369
139 367
129 371
119 371
109 371
99 371
89 371
79 367
71 361
66 352
66 342
66 332
64 322
68 308
72 294
78 286
86 280
96 276
106 272
112 264
107 255
97 256
88 251
78 247
70 241
61 236
54 228
48 220
