76 316
76 306
78 290
84 280
94 276
104 276
114 276
124 277
134 280
144 276
144 266
146 256
138 245
129 240
120 235
112 228
106 220
105 210
104 200
104 190
112 182
121 177
131 174
141 172
151 172
161 170
171 165
172 150
163 145
157 137
152 128
152 118
152 98
161 93
170 88
180 86
186 78
192 70
198 60
198 50
198 40
204 30
212 24
222 21
232 22
242 24
248 32
258 30
266 24
276 20
286 21
296 25
303 33
303 50
308 59
313 68
317 78
321 88
321 98
321 108
321 118
317 128
312 139
307 148
303 158
307 168
311 178
315 188
318 198
313 214
309 224
305 240
305 250
305 260
305 270
307 280
307 290
301 300
301 310
301 320
301 330
297 346
295 356
289 364
279 368
269 371
259 371
249 369
239 369
229 369
219 371
209 371
199 371
189 371
180 366
170 362
160 363
150 363
140 367
130 371
120 371
110 370
100 367
90 363
82 356
78 346
77 336
76 326
