96 112
96 102
98 92
100 82
104 72
108 62
116 54
124 46
134 42
139 33
144 24
154 22
164 21
174 20
182 26
188 34
196 40
204 46
212 53
217 62
223 70
229 78
237 84
247 86
257 88
264 96
273 101
271 118
269 134
262 145
252 147
243 152
235 160
241 168
249 174
259 178
269 182
274 191
276 207
272 217
267 226
269 236
269 246
269 262
269 272
279 276
289 276
299 278
303 288
305 298
305 308
305 318
303 336
303 346
299 358
291 368
281 371
271 371
261 371
251 371
241 371
231 367
221 363
211 365
201 366
191 367
181 367
171 369
161 369
151 371
141 367
131 364
125 356
123 346
122 336
120 326
120 316
120 306
116 294
116 284
116 274
116 264
116 254
116 244
116 234
118 218
118 208
118 198
120 188
118 178
118 168
118 158
114 148
108 140
102 132
98 122
