48 262
48 252
58 248
68 248
78 248
88 248
98 248
108 248
118 248
128 248
138 248
148 248
158 248
162 237
161 227
151 227
141 227
131 227
121 227
111 227
101 227
91 227
81 227
76 218
86 218
96 218
106 218
116 218
126 218
136 218
146 218
156 218
162 201
154 195
144 195
134 195
124 195
114 195
104 195
94 195
84 195
76 188
89 186
99 186
109 186
119 186
129 186
139 186
149 186
159 186
162 173
162 163
159 153
149 153
139 153
129 153
119 153
109 153
99 153
89 152
88 142
88 132
88 122
88 112
88 102
88 92
88 82
88 72
88 62
88 52
88 42
88 32
88 22
98 20
108 20
118 20
128 20
138 20
148 20
158 20
168 20
178 20
188 20
198 20
208 20
218 20
228 20
238 20
248 20
258 20
268 20
278 20
288 20
298 20
308 23
309 33
309 43
309 53
309 63
309 73
309 83
307 98
307 108
307 118
307 128
307 138
301 153
291 153
281 153
271 153
261 153
251 153
241 153
231 153
221 154
221 164
221 174
221 184
231 186
241 186
251 186
261 186
271 186
281 186
291 186
301 186
311 186
321 186
331 186
336 195
326 195
316 195
306 195
296 195
286 195
276 195
266 195
256 195
246 195
236 195
221 196
221 206
221 216
231 218
241 218
251 218
261 218
271 218
281 218
291 218
301 218
311 218
321 218
331 218
326 227
316 227
306 227
296 227
286 227
276 227
266 227
256 227
246 227
236 227
221 228
221 238
222 248
232 248
242 248
252 248
262 248
272 248
282 248
292 248
302 248
312 248
322 248
332 248
342 248
352 251
353 261
345 269
335 271
325 269
315 269
305 269
295 269
285 269
275 269
265 269
255 269
245 269
235 269
225 269
215 269
205 269
195 269
185 269
175 269
165 269
155 269
145 269
135 269
125 269
115 269
105 269
95 273
85 269
75 269
65 272
55 270
