70 262
70 252
80 248
90 248
100 248
110 248
120 248
130 248
140 248
156 248
172 248
188 248
192 237
188 227
178 227
168 227
158 227
148 227
138 227
128 227
118 227
108 227
98 227
88 227
80 220
93 218
103 218
113 218
123 218
133 218
143 218
153 218
163 218
173 218
183 218
192 205
188 195
178 195
168 195
158 195
148 195
138 195
128 195
118 195
108 195
98 195
88 195
80 188
93 186
103 186
113 186
123 186
133 186
143 186
153 186
163 186
173 186
183 186
192 181
192 171
192 161
185 153
175 153
165 153
155 153
145 153
135 153
125 152
124 142
124 132
124 122
124 112
124 102
124 92
124 82
124 72
124 62
124 52
124 42
124 32
124 22
134 20
144 20
154 20
164 20
174 20
184 20
194 20
204 20
214 20
224 20
234 20
244 20
254 20
264 20
274 20
284 23
285 33
285 43
285 53
285 63
285 73
285 83
285 93
285 103
285 113
283 132
283 142
273 153
263 153
253 153
243 154
243 164
243 174
243 184
253 186
263 186
273 186
283 186
293 186
288 195
278 195
268 195
258 195
243 196
243 206
243 216
253 218
263 218
273 218
283 218
293 218
288 227
278 227
268 227
258 227
243 228
243 238
244 248
260 248
270 248
280 248
290 248
300 248
310 248
320 248
330 251
328 269
318 273
308 269
298 269
288 269
278 269
268 269
258 273
248 269
238 269
228 269
218 269
208 269
198 269
188 269
178 269
168 269
158 269
148 269
138 269
128 269
118 269
108 269
98 269
88 271
78 269
