48 260
48 250
58 248
68 248
78 248
88 248
98 248
108 248
118 248
128 248
138 248
148 248
158 248
168 248
178 248
180 237
177 227
167 227
157 227
147 227
137 227
127 227
117 227
107 227
97 227
87 227
77 227
67 227
62 218
72 218
82 218
92 218
102 218
112 218
122 218
132 218
142 218
152 218
162 218
172 218
180 206
180 196
170 195
160 195
150 195
140 195
130 195
120 195
110 195
100 195
90 195
80 195
70 195
62 188
75 186
85 186
95 186
105 186
115 186
125 186
135 186
145 186
155 186
165 186
175 186
180 168
180 158
171 153
161 153
151 153
141 153
131 153
121 153
111 153
101 153
91 152
90 142
90 132
90 122
90 112
90 102
90 92
90 82
90 72
90 62
90 52
90 42
90 32
90 22
100 20
110 20
120 20
130 20
140 20
150 20
160 20
170 20
180 20
190 20
200 20
210 20
220 20
230 20
240 20
250 20
260 20
270 20
280 20
290 20
300 20
310 23
311 33
311 43
311 53
311 63
311 73
311 83
311 93
311 103
311 113
311 123
311 133
309 150
299 153
289 153
279 153
269 153
259 153
249 153
239 154
239 164
239 174
239 184
249 186
259 186
269 186
279 186
289 186
299 186
309 186
319 186
314 195
304 195
294 195
284 195
274 195
264 195
254 195
239 196
239 206
239 216
249 218
259 218
269 218
279 218
289 218
299 218
309 218
319 218
314 227
304 227
294 227
284 227
274 227
264 227
254 227
239 228
239 238
240 248
250 248
260 248
270 248
280 248
290 248
300 248
310 248
320 248
330 248
340 248
350 250
351 260
343 269
333 269
323 269
313 269
303 271
293 269
283 269
273 269
263 269
253 269
243 269
233 269
223 269
213 269
203 269
193 269
183 269
173 269
163 269
153 269
143 269
133 269
123 269
113 269
103 269
93 273
83 269
73 269
63 273
53 269
