78 260
78 250
88 248
98 248
108 248
118 248
128 248
138 248
148 248
158 248
168 248
178 248
188 248
194 238
194 228
184 227
174 227
164 227
154 227
144 227
134 227
124 227
114 227
104 227
94 227
86 220
99 218
109 218
119 218
129 218
139 218
149 218
159 218
169 218
179 218
189 218
194 206
194 196
184 195
174 195
164 195
154 195
144 195
134 195
124 195
114 195
104 195
94 195
86 188
99 186
109 186
119 186
129 186
139 186
149 186
159 186
169 186
179 186
189 186
194 168
194 158
185 153
175 153
165 153
155 153
145 153
135 153
130 144
130 134
130 124
130 114
130 104
130 94
130 84
130 74
130 64
130 54
130 44
130 34
130 24
140 20
150 20
160 20
170 20
180 20
190 20
200 20
210 20
220 20
230 20
240 20
250 20
260 20
270 20
275 29
275 39
275 49
275 59
275 69
275 79
275 89
275 99
275 109
275 119
275 129
275 139
273 152
263 153
253 153
243 154
243 164
243 174
243 184
253 186
263 186
273 186
283 186
278 195
268 195
258 195
243 196
243 206
243 216
253 218
263 218
273 218
283 218
278 227
268 227
258 227
243 228
243 238
244 248
254 248
264 248
274 248
284 248
294 248
304 248
314 248
323 253
323 263
313 269
303 269
293 269
283 269
273 269
263 269
253 270
243 271
233 269
223 269
213 269
203 269
193 269
183 269
173 269
163 269
153 273
143 269
133 269
123 269
113 269
103 269
93 273
83 269
