58 262
58 252
68 248
78 248
88 248
98 248
108 248
118 248
128 248
138 248
148 248
158 248
168 248
178 248
188 238
188 228
178 227
168 227
158 227
148 227
138 227
128 227
118 227
108 227
98 227
88 227
78 227
70 220
83 218
93 218
103 218
113 218
123 218
133 218
143 218
153 218
163 218
173 218
183 218
188 200
179 195
169 195
159 195
149 195
139 195
129 195
119 195
109 195
99 195
89 195
79 195
70 190
84 186
94 186
104 186
114 186
124 186
134 186
144 186
154 186
164 186
174 186
184 186
188 172
188 162
183 153
173 153
163 153
153 153
143 153
133 153
123 153
113 153
108 144
108 134
108 124
108 114
108 104
108 94
108 84
108 74
108 64
108 54
108 44
108 34
108 24
118 20
128 20
138 20
148 20
158 20
168 20
178 20
188 20
198 20
208 20
218 20
228 20
238 20
248 20
258 20
268 20
278 20
288 20
297 25
297 35
297 45
297 55
297 65
297 75
297 85
297 95
297 105
297 115
297 125
297 135
293 153
283 153
273 153
263 153
253 153
243 154
243 164
243 174
243 184
253 186
263 186
273 186
283 186
293 186
303 186
308 195
298 195
288 195
278 195
268 195
258 195
243 196
243 206
243 216
253 218
263 218
273 218
283 218
293 218
303 218
311 224
298 227
288 227
278 227
268 227
258 227
243 228
243 238
244 248
254 248
264 248
274 248
284 248
294 248
304 248
314 248
324 248
334 248
343 253
336 269
326 269
316 269
306 269
296 269
286 269
276 270
266 269
256 269
246 269
236 269
226 269
216 269
206 269
196 269
186 269
176 269
166 269
156 269
146 269
136 269
126 273
116 269
106 269
96 269
86 269
76 273
66 269
