128 260
128 250
138 248
148 248
158 248
168 248
178 248
188 248
198 248
208 247
208 237
205 227
195 227
185 227
175 227
165 227
155 227
145 227
135 227
130 218
140 218
150 218
160 218
170 218
180 218
190 218
200 218
208 208
208 198
198 195
188 195
178 195
168 195
158 195
148 195
138 195
130 188
143 186
153 186
163 186
173 186
183 186
193 186
203 186
208 173
208 163
206 153
196 153
186 153
178 146
178 136
178 126
178 116
178 106
178 96
178 86
178 76
178 66
178 56
178 46
178 36
178 26
186 20
196 20
206 20
216 20
226 20
231 29
231 39
237 47
237 57
237 67
237 77
237 87
237 97
237 107
237 117
237 127
237 137
237 147
237 157
237 167
237 177
237 196
237 206
237 216
237 226
237 236
237 246
247 248
257 248
267 248
273 256
273 266
263 273
253 269
243 269
233 269
223 269
213 269
203 269
193 270
183 271
173 269
163 269
153 269
143 272
133 269
