96 260
96 250
106 248
116 248
126 248
136 248
146 248
156 248
166 248
176 248
186 248
200 237
197 227
187 227
177 227
167 227
157 227
147 227
137 227
127 227
117 227
107 227
102 218
112 218
122 218
132 218
142 218
152 218
162 218
172 218
182 218
192 218
200 206
200 196
190 195
180 195
170 195
160 195
150 195
140 195
130 195
120 195
110 195
102 188
115 186
125 186
135 186
145 186
155 186
165 186
175 186
185 186
195 186
200 168
200 158
191 153
181 153
171 153
161 153
151 152
150 142
150 132
150 122
150 112
150 102
150 92
150 82
150 72
150 62
150 52
150 42
150 32
150 22
160 20
170 20
180 20
190 20
200 20
210 20
220 20
230 20
240 20
250 20
259 25
259 35
261 45
261 55
261 65
259 78
259 88
259 98
259 108
259 118
259 128
259 138
251 153
241 154
241 164
241 174
241 184
251 186
261 186
266 195
256 195
241 196
241 206
241 216
251 218
261 218
271 218
266 227
256 227
241 228
241 238
242 248
252 248
262 248
272 248
282 248
292 248
302 248
305 258
301 269
291 273
281 269
271 269
261 269
251 269
241 269
231 269
221 271
211 269
201 269
191 269
181 269
171 269
161 269
151 269
141 269
131 269
121 269
111 273
101 269
