48 260
48 250
58 248
74 248
90 248
100 248
110 248
120 248
130 248
140 248
150 248
160 243
160 233
152 227
142 227
132 227
122 227
112 227
102 227
92 227
82 227
74 220
87 218
97 218
107 218
117 218
127 218
137 218
147 218
157 218
160 203
153 195
143 195
133 195
123 195
113 195
103 195
93 195
83 195
88 186
98 186
108 186
118 186
128 186
138 186
148 186
158 186
160 171
160 161
153 153
143 153
133 153
123 153
113 153
103 153
93 153
88 144
88 134
88 124
88 114
88 104
88 94
88 84
88 74
88 64
88 54
88 44
88 34
88 24
98 20
108 20
118 20
128 20
138 20
148 20
158 20
168 20
178 20
188 20
198 20
208 20
218 20
228 20
238 20
248 20
258 20
268 20
278 20
288 20
298 20
308 22
309 32
309 42
309 52
309 62
309 72
309 82
309 92
309 102
309 112
309 122
309 132
309 142
299 153
289 153
279 153
269 153
259 153
249 153
239 153
229 153
219 154
219 164
219 174
219 184
229 186
239 186
249 186
259 186
269 186
279 186
289 186
299 186
309 186
319 186
329 186
334 195
324 195
314 195
304 195
294 195
284 195
274 195
264 195
254 195
244 195
234 195
219 196
219 206
219 216
229 218
239 218
249 218
259 218
269 218
279 218
289 218
299 218
309 218
319 218
329 218
337 224
324 227
314 227
304 227
294 227
284 227
274 227
264 227
254 227
244 227
234 227
219 228
219 238
220 248
236 248
246 248
256 248
266 248
276 248
286 248
296 248
306 248
322 248
338 248
348 248
351 258
343 270
333 271
323 269
313 269
303 273
293 269
283 269
273 269
263 269
253 269
243 269
233 269
223 269
213 269
203 269
193 269
183 269
173 269
163 269
153 269
143 269
133 269
123 269
113 269
103 269
93 273
83 269
73 269
63 269
53 269
