48 260
48 250
58 248
68 248
78 248
88 248
98 248
108 248
118 248
128 248
138 248
154 248
170 248
176 235
169 227
159 227
149 227
139 227
129 227
119 227
109 227
99 227
89 227
79 227
69 227
64 218
74 218
84 218
94 218
104 218
114 218
124 218
134 218
144 218
154 218
164 218
174 218
176 205
172 195
162 195
152 195
142 195
132 195
122 195
112 195
102 195
92 195
82 195
72 195
64 188
77 186
87 186
97 186
107 186
117 186
127 186
137 186
147 186
157 186
167 186
176 178
176 168
176 158
167 153
157 153
147 153
137 153
127 153
117 153
107 153
97 153
87 152
86 142
86 132
86 122
86 112
86 102
86 92
86 82
86 72
86 62
86 52
86 42
86 32
86 22
96 20
106 20
116 20
126 20
136 20
146 20
156 20
166 20
176 20
186 20
196 20
206 20
216 20
226 20
236 20
246 20
256 20
266 20
276 20
286 20
296 20
306 20
316 20
321 29
321 39
319 54
319 64
319 74
319 84
319 94
319 104
319 114
319 124
319 134
317 152
307 153
297 153
287 153
277 153
267 153
257 153
247 153
237 154
237 164
237 174
237 184
247 186
257 186
267 186
277 186
287 186
297 186
307 186
317 186
327 186
322 195
312 195
302 195
292 195
282 195
272 195
262 195
252 195
237 196
237 206
237 216
247 218
257 218
267 218
277 218
287 218
297 218
307 218
317 218
327 218
322 227
312 227
302 227
292 227
282 227
272 227
262 227
252 227
237 228
237 238
238 248
254 248
270 248
280 248
290 248
300 248
310 248
320 248
330 248
340 248
350 248
353 258
353 268
343 272
333 269
323 273
313 269
303 269
293 269
283 269
273 269
263 269
253 269
243 269
233 269
223 269
213 269
203 269
193 269
183 269
173 269
163 269
153 269
143 269
133 269
123 269
113 269
103 269
93 269
83 269
73 269
63 272
53 269
