84 532
84 522
92 514
97 504
104 492
114 487
114 477
122 469
127 459
135 451
139 437
149 432
149 422
154 412
164 407
164 397
172 389
179 377
187 369
194 357
199 347
209 335
209 325
199 321
191 315
182 310
172 310
168 300
159 295
151 289
146 280
137 275
133 265
124 260
124 250
119 241
119 231
114 222
114 212
114 202
119 192
119 182
124 167
134 162
134 152
139 142
149 137
154 127
164 122
169 112
179 107
189 104
198 99
208 99
212 89
222 84
232 84
237 74
247 74
257 74
266 69
274 62
284 59
294 59
304 59
313 54
323 54
333 54
343 54
353 54
363 54
370 46
380 44
390 44
400 44
410 44
420 47
428 54
438 54
448 54
458 54
468 54
477 59
487 59
497 59
507 59
515 65
525 69
534 74
544 76
550 84
560 87
569 92
577 99
586 104
596 104
605 109
615 112
622 120
630 127
630 137
639 142
644 151
645 161
654 166
655 176
660 185
660 195
665 204
665 214
660 230
660 240
655 250
655 260
645 265
640 275
640 285
630 290
622 299
614 307
604 310
595 315
585 315
580 325
570 325
560 330
550 330
542 340
532 344
522 345
514 352
504 355
494 355
484 355
474 357
464 360
454 360
444 360
434 360
424 360
418 368
408 370
398 370
388 370
378 370
368 370
358 370
348 370
338 370
329 365
320 360
310 360
300 370
290 375
280 380
276 390
267 395
259 402
249 407
244 417
234 422
224 425
218 433
210 440
206 450
196 450
187 455
182 464
174 470
165 475
155 475
151 485
142 490
137 499
129 505
120 510
112 519
104 527
94 530
