79 227
79 217
84 202
84 192
89 177
99 172
99 162
107 154
114 142
122 134
130 126
140 124
149 119
159 112
169 109
178 104
185 96
195 94
204 89
214 82
224 79
233 74
243 74
253 74
263 74
270 66
280 64
290 64
300 64
310 64
320 64
329 59
339 59
349 59
359 59
369 59
378 64
388 64
398 64
408 64
418 64
428 64
435 72
445 74
455 74
465 74
474 79
484 81
490 89
500 89
510 92
520 94
525 103
535 107
545 109
550 118
560 119
569 124
579 126
585 134
593 140
595 150
603 156
610 164
610 174
620 177
620 187
625 196
625 206
628 216
630 226
625 240
625 250
620 265
614 280
605 285
597 300
592 309
584 315
575 320
565 320
557 330
547 334
537 335
532 344
522 345
512 349
502 350
494 357
484 360
474 360
465 365
455 365
445 365
435 365
429 375
419 375
409 375
399 375
389 375
379 375
370 380
360 380
350 380
340 380
330 380
320 380
310 380
306 390
297 395
292 404
284 410
275 415
270 425
260 430
252 440
242 444
237 454
227 459
222 469
212 474
207 484
197 489
189 497
179 497
179 487
184 477
184 467
184 457
184 447
194 442
194 432
194 422
194 412
199 397
199 387
199 377
209 367
202 359
197 350
187 349
177 345
174 335
164 335
155 330
145 328
138 320
129 315
119 312
114 303
105 298
104 288
98 280
89 275
89 265
84 256
84 246
79 237
