159 137
159 147
159 166
159 176
159 186
159 196
159 206
159 216
159 226
159 236
159 246
159 256
159 266
159 276
159 286
159 296
159 306
159 316
159 326
159 336
159 346
164 355
173 360
179 368
184 377
194 380
204 380
213 385
223 385
233 385
243 385
253 385
263 385
273 385
283 385
293 385
303 385
313 385
323 385
333 385
343 385
353 385
363 385
373 385
382 380
392 380
402 380
412 380
422 380
432 380
442 380
444 390
447 400
452 409
454 419
462 425
469 433
469 443
474 452
474 462
484 465
490 473
495 482
499 492
509 495
509 505
512 515
514 525
520 533
530 537
539 542
539 552
544 561
544 571
554 575
560 583
565 569
565 559
565 549
565 539
565 529
565 519
565 509
565 499
565 489
560 480
557 470
555 460
555 450
555 440
555 430
555 420
555 410
555 400
555 390
555 380
565 380
574 375
580 365
590 360
600 360
610 355
619 350
625 340
625 330
630 313
630 303
630 293
630 283
630 273
630 263
625 254
625 244
625 234
625 224
625 214
625 204
625 194
625 184
625 174
625 164
625 154
625 144
621 134
615 126
610 117
600 114
590 110
582 104
573 99
563 99
553 99
543 99
533 99
523 99
513 99
503 99
493 99
483 99
473 99
464 104
454 104
444 104
434 104
424 104
414 104
404 104
394 104
384 104
374 104
364 104
354 104
344 104
334 104
324 104
314 104
304 104
294 104
284 104
274 104
264 104
254 107
244 114
234 114
224 114
215 119
205 119
195 119
185 121
177 129
167 129
