119 142
119 132
124 117
132 109
142 109
152 109
157 99
167 99
177 99
186 94
196 94
206 90
216 89
226 89
236 89
246 89
256 89
266 89
276 89
286 89
296 89
306 89
316 89
326 89
336 89
346 89
356 89
366 89
376 89
386 89
396 89
406 89
416 89
421 80
431 79
441 79
451 79
461 79
471 79
481 79
491 79
501 79
511 79
521 79
531 79
541 79
550 84
558 90
568 94
577 99
580 109
589 114
595 122
595 132
595 142
595 152
595 162
595 172
595 182
595 192
595 202
595 212
595 222
595 232
595 242
595 252
599 262
600 272
600 282
600 292
600 302
598 318
590 325
580 325
572 339
562 340
557 349
549 357
539 360
529 360
520 365
510 365
505 375
499 385
490 390
490 400
484 412
474 415
465 420
463 433
455 440
445 450
440 465
435 475
435 485
429 495
420 500
410 505
410 515
404 525
395 530
390 540
380 550
375 560
369 552
369 542
374 527
374 517
374 507
374 497
379 482
379 472
379 462
389 452
389 442
389 432
389 422
394 413
394 403
394 393
394 383
394 373
387 365
377 365
367 365
357 365
347 365
337 365
327 365
318 370
308 370
298 370
288 370
278 370
268 370
258 370
248 370
238 370
228 370
218 370
208 370
198 370
188 370
178 370
169 365
159 365
151 358
146 349
141 340
131 339
124 331
124 321
124 311
124 301
124 291
124 281
124 271
124 261
124 251
124 241
124 231
124 221
124 211
124 201
124 191
124 181
124 171
119 162
119 152
