179 167
179 157
184 142
189 132
199 127
207 119
217 119
222 109
232 109
241 104
251 104
261 104
271 104
281 104
291 104
301 104
311 104
321 104
331 104
341 104
351 104
361 104
371 104
381 104
391 104
401 104
410 99
420 99
430 99
440 99
450 99
460 99
470 99
480 99
490 99
500 99
510 99
520 99
530 99
540 99
550 99
560 99
570 99
580 99
589 104
599 104
609 104
619 104
627 110
632 119
641 124
645 134
650 143
650 153
650 163
650 173
650 183
650 193
650 203
650 213
650 223
650 233
650 243
650 253
650 263
650 273
655 282
655 292
655 302
655 312
655 322
650 335
645 345
635 350
625 355
615 365
605 365
595 370
585 370
575 370
565 370
555 370
545 370
535 370
525 370
515 370
505 380
495 380
485 380
475 380
465 380
455 380
445 380
435 380
425 380
415 380
405 380
395 380
385 380
380 390
380 400
375 415
375 425
375 435
365 440
365 450
360 460
360 470
360 480
360 490
360 500
355 510
355 520
345 530
345 540
345 550
340 560
338 573
328 575
319 570
317 560
314 550
314 540
312 530
309 520
307 510
299 503
299 493
294 484
294 474
291 464
289 454
284 445
274 442
274 432
274 422
269 413
269 403
266 393
256 390
246 390
236 389
231 380
221 378
215 370
205 368
199 360
191 354
184 346
184 336
184 326
184 316
184 306
184 296
184 286
184 276
184 266
184 256
184 246
184 236
184 226
184 216
184 206
184 196
184 186
179 177
