134 137
134 127
144 124
153 119
163 119
173 119
183 119
193 119
203 119
213 119
223 119
233 119
243 119
253 119
263 119
273 119
283 119
293 119
303 119
313 119
323 119
333 119
343 119
353 119
363 119
367 109
377 109
387 109
397 109
407 109
417 109
427 109
437 109
447 109
457 109
467 109
477 109
487 109
497 109
507 109
517 109
527 109
537 109
547 109
557 109
567 104
577 104
587 104
597 104
607 104
616 109
620 119
620 129
620 139
620 149
620 159
620 169
620 179
620 189
620 199
620 209
620 219
620 229
620 239
620 249
620 259
620 269
620 279
620 289
620 299
620 309
625 318
625 328
625 338
625 348
625 358
625 368
625 378
620 395
614 405
604 405
594 405
584 405
574 405
564 405
554 405
544 405
534 405
524 405
514 405
504 405
494 405
484 405
474 405
464 405
454 405
444 405
434 405
424 405
415 410
405 410
395 410
385 410
375 410
365 410
355 410
360 419
365 428
365 438
365 448
370 457
377 465
380 475
380 485
385 494
381 514
376 505
366 503
356 499
352 489
342 485
334 479
326 473
316 470
307 465
304 455
294 455
286 449
281 440
272 435
262 435
259 425
250 420
240 417
232 410
222 410
212 410
207 419
197 420
187 420
177 420
167 420
157 420
149 414
149 404
149 394
149 384
149 374
144 365
144 355
144 345
144 335
144 325
144 315
144 305
144 295
144 285
144 275
144 265
144 255
144 245
144 235
144 225
144 215
144 205
144 195
144 185
144 175
144 165
140 155
134 147
