184 432
184 422
192 414
202 409
212 409
222 409
232 409
241 414
250 419
260 419
270 419
279 414
289 412
299 409
309 407
319 404
329 402
339 399
348 394
358 394
367 389
377 389
387 384
397 384
406 379
416 379
426 375
436 374
444 367
452 359
460 351
470 349
476 340
486 344
496 344
505 349
505 359
505 370
495 370
485 370
475 375
480 384
490 387
500 389
510 392
510 405
500 410
491 415
481 415
472 410
462 410
453 405
443 405
433 405
424 410
414 410
405 415
395 415
385 415
375 420
365 420
356 425
346 425
337 430
327 434
317 435
308 440
298 440
289 445
279 445
270 450
263 458
255 465
250 475
242 484
234 490
224 490
214 490
204 490
195 485
189 477
197 469
206 464
216 464
221 455
223 440
214 435
204 435
194 435
