210 1431
210 1421
215 1411
223 1404
233 1399
243 1394
250 1386
258 1380
267 1375
276 1370
284 1363
294 1358
299 1348
306 1340
315 1331
323 1324
333 1319
343 1314
350 1306
358 1300
365 1291
373 1284
383 1279
388 1269
395 1261
405 1251
413 1244
420 1236
430 1226
438 1219
448 1214
453 1204
460 1196
465 1186
470 1176
478 1169
488 1164
493 1154
500 1146
508 1140
515 1131
520 1121
528 1114
538 1109
543 1099
550 1091
560 1081
568 1075
577 1070
568 1065
558 1065
548 1065
538 1065
528 1065
518 1065
508 1065
498 1065
488 1065
478 1065
468 1065
458 1065
448 1065
438 1065
428 1065
419 1060
409 1060
399 1062
389 1065
379 1065
369 1065
359 1065
349 1065
339 1065
330 1070
320 1070
310 1070
300 1066
290 1063
284 1055
279 1046
275 1036
275 1026
280 1016
288 1009
298 1004
308 1000
318 999
325 991
335 986
345 981
355 976
363 969
373 964
383 960
390 951
398 944
405 936
415 926
423 919
433 914
443 909
450 901
458 895
467 890
475 876
483 869
493 864
498 854
505 846
515 836
523 829
530 821
538 814
545 801
553 794
558 784
563 774
570 766
578 760
585 751
590 741
595 731
600 721
605 711
613 704
623 699
630 686
620 685
610 685
600 685
590 685
580 685
570 685
560 685
550 685
540 685
530 685
520 685
510 681
500 677
493 669
488 660
485 650
485 640
480 631
480 621
480 611
485 601
493 594
503 589
513 584
523 579
530 571
538 565
545 556
553 549
560 541
565 531
573 524
583 519
590 506
598 499
608 494
613 484
620 476
628 470
635 461
640 451
648 444
655 431
660 421
668 414
678 409
683 399
688 389
693 379
695 366
700 356
705 341
705 331
710 316
715 306
715 296
715 286
720 276
720 266
725 251
725 241
730 231
730 221
730 211
730 201
730 191
730 181
735 171
743 164
753 159
763 155
773 155
782 160
789 168
795 176
800 185
800 195
801 205
806 214
810 224
815 233
819 243
820 253
825 262
830 271
839 276
845 284
850 293
855 302
860 311
866 319
870 329
880 333
888 340
891 350
896 359
905 364
913 370
916 380
921 389
925 399
930 408
938 415
944 423
949 432
955 440
963 446
970 454
975 463
980 472
985 481
994 486
1000 494
1008 500
1011 510
1021 514
1029 521
1035 529
1040 538
1048 545
1057 550
1064 558
1069 567
1076 575
1086 579
1095 584
1103 590
1112 595
1119 603
1127 610
1136 615
1144 621
1150 629
1155 638
1154 657
1149 667
1141 675
1132 680
1123 685
1113 685
1103 685
1093 685
1083 685
1073 685
1063 685
1053 685
1043 685
1033 685
1023 685
1013 685
1003 685
993 685
984 680
974 680
965 685
955 685
945 685
946 695
956 699
964 706
969 715
978 720
984 728
994 731
1003 736
1010 744
1015 753
1020 762
1026 770
1034 776
1043 781
1053 785
1059 793
1065 801
1071 809
1079 815
1088 820
1094 828
1099 837
1106 845
1116 849
1124 856
1128 866
1138 870
1147 875
1156 880
1164 886
1173 891
1183 895
1189 903
1195 911
1200 920
1198 933
1193 943
1185 950
1177 964
1169 970
1160 975
1150 975
1140 975
1130 975
1121 970
1111 970
1102 965
1092 965
1082 964
1073 959
1063 955
1053 955
1043 955
1033 955
1024 950
1015 945
1005 945
990 940
995 949
1003 955
1009 963
1017 970
1026 975
1034 981
1040 989
1050 993
1059 998
1067 1005
1076 1010
1085 1015
1093 1021
1100 1029
1108 1035
1114 1043
1122 1050
1131 1055
1141 1059
1149 1066
1158 1071
1168 1075
1174 1083
1180 1091
1186 1099
1196 1100
1206 1100
1215 1105
1223 1111
1230 1119
1235 1128
1243 1135
1253 1135
1262 1140
1271 1145
1281 1149
1290 1154
1298 1160
1307 1165
1316 1170
1325 1175
1333 1181
1340 1189
1348 1195
1357 1200
1366 1205
1376 1209
1384 1215
1393 1220
1402 1225
1411 1230
1421 1234
1429 1241
1433 1251
1435 1261
1430 1270
1431 1280
1435 1290
1430 1300
1425 1310
1417 1319
1409 1325
1400 1330
1390 1330
1380 1330
1370 1330
1360 1330
1350 1335
1340 1335
1330 1335
1320 1340
1310 1340
1300 1340
1290 1340
1280 1340
1270 1340
1260 1340
1250 1340
1240 1340
1230 1336
1220 1335
1210 1335
1201 1340
1191 1340
1182 1345
1173 1350
1163 1350
1153 1350
1143 1350
1133 1350
1123 1350
1113 1350
1103 1350
1093 1350
1083 1350
1073 1350
1063 1350
1053 1350
1043 1350
1033 1350
1023 1350
1013 1349
1003 1345
993 1345
983 1345
973 1345
964 1340
954 1340
944 1340
934 1340
925 1335
915 1335
905 1335
905 1345
905 1355
905 1365
905 1375
905 1385
905 1395
905 1405
905 1415
905 1425
905 1435
905 1445
905 1455
905 1465
905 1475
905 1485
905 1495
905 1505
905 1515
905 1525
905 1535
905 1545
905 1555
905 1565
905 1575
905 1585
905 1595
905 1605
905 1615
900 1625
900 1635
901 1645
905 1655
905 1665
905 1675
905 1685
905 1695
905 1705
905 1715
905 1725
905 1735
905 1745
905 1755
900 1765
895 1775
895 1785
896 1795
900 1805
900 1815
900 1825
900 1835
900 1845
895 1860
895 1870
900 1879
900 1889
900 1899
900 1909
895 1920
890 1930
883 1938
878 1948
870 1955
860 1960
850 1965
840 1961
830 1958
824 1950
815 1945
805 1945
795 1945
785 1945
775 1945
765 1945
755 1941
745 1938
739 1930
734 1921
730 1911
730 1901
730 1891
730 1881
730 1871
730 1861
730 1851
730 1841
730 1831
730 1821
730 1811
730 1801
730 1791
730 1781
730 1771
730 1761
730 1751
730 1741
730 1731
730 1721
730 1711
730 1701
730 1691
730 1681
730 1671
730 1661
735 1647
730 1638
730 1628
730 1618
730 1608
730 1598
725 1589
720 1580
720 1570
720 1560
720 1550
719 1540
714 1531
710 1521
710 1511
710 1501
715 1483
710 1474
705 1465
705 1455
705 1445
700 1436
700 1426
700 1416
700 1406
705 1390
696 1385
686 1385
676 1385
666 1385
656 1385
647 1390
637 1390
627 1390
617 1390
608 1395
598 1395
589 1400
580 1405
570 1405
560 1405
550 1405
541 1410
532 1415
522 1414
512 1410
502 1410
493 1415
483 1415
473 1415
463 1415
453 1418
445 1425
436 1430
427 1435
417 1434
407 1430
397 1434
388 1440
379 1445
369 1445
359 1445
349 1445
339 1445
330 1440
323 1448
313 1453
303 1455
294 1450
285 1455
275 1460
265 1465
255 1465
245 1465
235 1461
225 1458
219 1450
214 1441
