113 759
111 771
113 781
117 791
125 797
135 800
145 801
155 801
165 801
175 801
185 800
195 799
205 798
215 797
225 797
235 796
245 795
255 795
265 794
275 793
285 792
295 791
305 790
315 790
325 789
335 788
345 787
355 787
365 786
375 786
385 785
395 784
405 784
415 783
425 782
435 781
445 780
455 779
465 779
475 778
485 778
495 777
505 776
515 775
525 774
535 774
545 774
555 773
565 772
575 771
585 770
595 768
605 768
615 767
625 766
635 766
645 767
655 766
665 764
675 764
685 764
695 764
705 762
715 762
725 761
735 761
745 761
755 760
765 760
775 760
785 758
795 757
805 756
815 755
825 754
835 754
845 753
855 753
865 752
875 752
885 752
895 752
905 750
915 750
925 749
935 750
945 749
955 749
965 749
975 749
985 749
995 750
1005 752
1015 753
1025 755
1035 757
1045 758
1055 760
1065 762
1075 765
1085 768
1095 772
1105 774
1115 778
1125 782
1135 785
1145 788
1155 791
1165 794
1175 796
1185 799
1195 802
1205 804
1215 807
1225 809
1235 810
1245 812
1255 814
1265 815
1275 816
1285 816
1295 817
1305 818
1315 817
1325 817
1335 816
1345 815
1355 814
1365 813
1375 810
1385 807
1395 804
1405 800
1415 798
1425 793
1435 789
1443 783
1453 780
1463 777
1468 766
1476 760
1484 753
1491 744
1497 734
1502 722
1505 711
1507 701
1508 691
1506 681
1504 671
1499 662
1495 652
1490 643
1484 635
1478 627
1470 620
1462 614
1454 608
1445 603
1436 598
1427 593
1417 589
1407 585
1397 582
1387 580
1377 578
1367 576
1357 575
1347 574
1337 573
1327 573
1317 573
1307 574
1297 575
1287 577
1277 577
1267 579
1257 581
1247 584
1237 586
1227 589
1217 592
1207 595
1197 598
1187 602
1177 606
1167 610
1157 614
1147 619
1137 623
1127 628
1118 633
1108 637
1099 642
1089 646
1079 650
1069 655
1059 659
1049 663
1039 668
1029 671
1019 674
1009 678
999 680
989 683
979 685
969 687
959 688
949 689
939 690
929 691
919 692
909 693
899 694
889 695
879 696
869 697
859 697
849 698
839 699
829 700
819 701
809 701
799 701
789 702
779 702
769 703
759 703
749 704
739 705
729 705
719 705
709 707
699 708
689 708
679 709
669 710
659 711
649 712
639 713
629 713
619 714
609 715
599 715
589 716
579 716
569 717
559 717
549 718
539 719
529 719
519 720
509 720
499 721
489 721
479 722
469 723
459 723
449 724
439 725
429 725
419 726
409 726
399 727
389 727
379 729
369 730
359 730
349 731
339 731
329 732
319 733
309 733
299 733
289 734
279 735
269 736
259 737
249 737
239 738
229 739
219 739
209 739
199 741
189 742
179 743
169 743
159 744
149 746
139 747
129 749
119 751
