193 85
193 75
195 60
199 48
204 38
209 28
217 20
225 12
233 5
243 1
253 1
263 1
273 1
283 1
293 1
303 1
313 1
323 1
333 1
343 1
353 1
363 1
372 6
382 9
392 13
401 18
411 22
420 27
430 31
439 36
447 42
456 47
465 52
474 57
482 63
490 69
499 74
507 80
515 86
523 93
531 99
539 105
547 112
555 118
562 126
570 133
578 139
585 147
593 154
600 162
608 169
614 177
622 184
628 192
634 200
641 208
647 216
654 224
660 232
666 240
672 248
678 256
684 264
689 273
694 282
700 290
705 299
710 308
715 317
721 325
726 334
731 343
736 352
741 361
746 370
751 379
757 387
763 395
768 404
773 413
779 421
785 429
791 437
797 445
803 453
810 461
817 469
825 476
831 484
839 490
846 498
854 504
861 512
869 519
877 525
885 531
893 538
901 545
909 551
917 558
925 564
933 571
941 578
949 584
957 590
964 598
973 603
981 610
989 617
997 623
1005 630
1013 636
1021 643
1029 649
1037 655
1045 662
1053 668
1061 675
1069 681
1077 687
1085 694
1093 701
1101 707
1109 714
1117 720
1125 727
1133 733
1141 739
1149 745
1157 751
1165 758
1173 765
1181 772
1189 778
1197 784
1205 790
1213 797
1221 804
1229 810
1237 816
1245 822
1253 828
1261 835
1269 842
1277 848
1285 854
1293 860
1301 867
1309 873
1317 880
1325 886
1333 892
1341 899
1349 905
1357 911
1365 918
1373 924
1381 930
1389 937
1397 944
1405 950
1413 956
1421 962
1429 968
1437 975
1445 981
1453 987
1461 994
1469 1000
1477 1006
1485 1012
1493 1018
1501 1024
1509 1031
1517 1038
1525 1044
1533 1050
1541 1057
1549 1063
1557 1070
1565 1076
1573 1082
1581 1088
1589 1094
1597 1100
1605 1107
1613 1113
1621 1120
1629 1126
1637 1132
1645 1138
1653 1144
1661 1151
1669 1157
1677 1163
1685 1169
1693 1176
1701 1182
1709 1188
1717 1194
1724 1202
1732 1208
1741 1213
1749 1220
1757 1226
1765 1232
1773 1238
1781 1244
1789 1250
1797 1257
1805 1264
1813 1270
1821 1276
1829 1283
1837 1289
1845 1295
1853 1301
1861 1307
1869 1313
1877 1320
1885 1326
1890 1335
1895 1344
1895 1354
1891 1364
1885 1372
1877 1379
1867 1382
1857 1385
1847 1387
1837 1384
1827 1380
1819 1374
1810 1369
1801 1364
1793 1358
1785 1352
1778 1344
1770 1338
1762 1331
1754 1324
1746 1317
1738 1311
1730 1304
1721 1299
1714 1291
1706 1285
1698 1279
1690 1272
1682 1265
1673 1260
1665 1254
1657 1248
1649 1242
1641 1236
1634 1228
1625 1223
1617 1217
1609 1210
1601 1204
1593 1197
1585 1191
1577 1185
1569 1179
1561 1173
1553 1166
1545 1159
1537 1153
1529 1147
1521 1140
1513 1134
1505 1128
1498 1120
1490 1114
1482 1108
1474 1102
1466 1096
1458 1090
1450 1083
1442 1077
1434 1070
1425 1065
1417 1059
1409 1053
1401 1047
1394 1039
1386 1033
1378 1026
1371 1018
1363 1012
1355 1006
1347 1000
1339 994
1332 986
1323 981
1315 975
1306 970
1298 964
1290 957
1283 949
1277 941
1267 937
1258 932
1250 926
1243 918
1235 912
1227 906
1219 899
1211 893
1203 887
1195 881
1187 874
1179 867
1171 861
1163 855
1155 848
1147 842
1139 836
1131 830
1123 823
1115 817
1107 811
1099 804
1091 797
1083 791
1075 784
1067 778
1059 772
1051 766
1043 759
1034 754
1026 748
1018 741
1010 735
1004 727
996 720
988 714
980 708
972 702
964 696
956 690
948 684
940 677
934 669
926 662
917 657
909 651
901 645
893 639
885 633
877 626
869 620
862 612
853 607
846 599
837 594
829 588
821 581
813 574
805 568
797 561
788 556
780 550
771 545
763 539
754 534
745 529
736 524
726 521
716 517
708 511
698 508
688 504
678 500
668 496
658 492
648 488
638 485
628 482
618 478
608 474
598 470
589 465
580 460
570 459
560 456
550 453
540 449
531 444
522 439
512 436
502 432
493 427
485 421
476 416
466 414
457 409
448 404
440 397
431 392
423 386
414 381
406 375
398 369
390 363
382 356
374 350
366 344
358 337
350 331
342 324
333 319
327 311
319 304
311 297
304 289
296 282
288 275
281 267
274 259
268 251
261 243
256 234
250 226
244 218
238 210
233 201
228 192
223 183
218 174
213 165
209 155
205 145
202 135
199 125
197 115
194 105
194 95
