49 102
49 92
59 96
65 104
75 107
82 115
90 122
98 129
107 134
114 142
122 149
131 154
139 161
145 169
153 175
162 180
170 187
177 195
185 202
193 209
202 214
209 222
217 229
226 234
234 241
240 249
248 255
257 260
265 267
272 275
280 282
289 287
297 294
304 302
312 309
321 314
329 321
339 324
349 324
359 324
369 324
379 324
389 324
399 324
408 319
417 314
427 309
432 299
439 287
447 279
452 269
460 261
465 251
473 244
482 239
492 234
501 239
510 244
520 247
525 256
531 264
539 271
543 281
550 289
558 295
562 305
570 312
578 319
587 324
597 324
607 324
617 324
627 324
637 324
647 324
657 324
665 316
673 309
680 301
688 294
695 286
703 279
710 271
718 264
725 256
733 249
740 241
748 234
755 226
763 219
770 211
778 204
785 196
793 189
800 181
808 174
815 166
823 159
830 151
838 144
845 136
853 129
860 121
868 114
875 106
883 99
890 91
895 100
895 110
895 120
895 130
895 140
895 150
895 160
895 170
895 180
895 190
895 200
895 210
895 220
895 230
895 240
895 250
895 260
895 270
895 280
895 290
895 300
895 310
895 320
895 330
895 340
895 350
895 360
895 370
895 380
895 390
895 400
895 410
895 420
895 430
895 440
895 450
895 460
895 470
895 480
895 490
895 500
895 510
895 520
895 530
895 540
895 550
895 560
895 570
895 580
895 590
895 600
895 610
895 620
895 630
895 640
895 650
895 660
895 670
895 680
895 690
895 700
895 710
895 720
895 730
893 749
885 743
878 735
870 728
863 720
855 713
848 705
840 698
833 690
825 683
818 675
810 668
803 660
795 653
788 645
780 638
773 630
765 623
758 615
750 608
743 600
735 593
728 585
720 578
713 570
705 563
698 555
690 548
683 540
675 533
668 525
660 518
653 510
645 503
638 495
630 488
624 480
616 473
606 470
596 470
587 475
577 475
567 475
558 480
548 480
538 480
529 485
519 485
509 485
500 490
490 490
480 490
470 490
460 495
450 495
440 495
430 500
420 500
410 500
400 505
390 505
380 505
370 510
360 510
350 510
340 515
330 515
320 520
312 529
302 534
294 540
285 545
275 550
267 559
257 564
249 570
240 575
230 580
222 589
212 594
203 600
194 605
185 610
175 615
167 624
157 629
149 635
140 640
130 645
122 654
112 659
104 665
95 670
85 675
77 684
67 689
59 695
49 692
49 682
49 672
49 662
49 652
49 642
49 632
49 622
49 612
49 602
49 592
49 582
49 572
49 562
49 552
49 542
49 532
49 522
49 512
49 502
49 492
49 482
49 472
49 462
49 452
49 442
49 432
49 422
49 412
49 402
49 392
49 382
49 372
49 362
49 352
49 342
49 332
49 322
49 312
49 302
49 292
49 282
49 272
49 262
49 252
49 242
49 232
49 222
49 212
49 202
49 192
49 182
49 172
49 162
49 152
49 142
49 132
49 122
49 112
