30 125
24 117
32 109
41 104
51 100
61 95
66 85
69 72
77 64
85 56
95 51
105 49
115 49
125 49
135 49
145 52
155 54
164 59
174 61
180 69
190 72
197 80
202 89
205 99
210 108
218 115
223 124
233 124
243 124
252 129
262 129
271 134
281 134
291 134
300 139
310 139
320 139
330 142
339 147
349 149
359 151
368 156
378 160
387 165
397 169
406 174
415 179
425 182
433 189
442 194
451 199
460 204
470 204
479 209
489 209
499 211
509 214
519 212
529 209
539 209
548 204
558 204
567 209
576 214
586 214
594 221
600 229
600 239
590 245
580 250
570 250
560 255
550 255
540 255
530 260
522 269
512 270
502 274
492 279
482 284
472 289
463 295
453 298
443 303
433 308
425 315
417 324
407 329
399 337
389 340
380 345
370 350
370 360
370 370
370 380
370 390
375 399
375 409
380 418
380 428
380 438
375 455
375 465
375 475
370 490
370 500
370 510
370 520
370 530
375 539
372 549
363 555
354 550
344 552
334 555
325 560
315 560
309 552
319 547
329 544
338 539
348 539
354 527
354 517
354 507
354 497
354 487
359 477
359 467
359 450
357 440
354 430
354 420
354 410
354 400
352 390
349 380
349 370
348 360
339 355
329 355
319 355
309 355
299 355
289 355
279 355
270 360
273 370
277 380
285 387
289 397
294 406
295 416
300 425
295 440
295 450
290 460
285 475
280 490
280 500
275 510
275 520
270 535
268 548
260 555
250 555
241 560
229 565
220 570
210 570
204 562
214 559
223 554
233 554
240 546
249 537
257 529
259 512
264 502
269 492
269 482
274 467
279 454
279 444
279 434
279 424
279 414
276 404
272 394
267 385
264 375
259 366
251 360
242 355
233 350
224 345
215 340
205 338
198 330
189 325
181 319
172 314
164 307
155 302
147 295
140 287
132 280
125 272
117 265
110 257
105 248
99 240
97 230
94 220
89 211
89 201
84 192
84 182
84 172
84 162
89 150
89 140
87 130
80 122
70 120
60 120
50 120
40 125
