49 187
49 177
57 169
59 152
67 144
72 134
74 119
71 109
64 101
59 92
59 82
67 74
69 62
77 54
82 44
87 34
94 22
104 19
114 19
122 25
130 32
135 41
138 51
145 59
150 68
155 77
160 86
160 96
166 104
170 114
170 124
180 127
187 135
192 144
201 149
209 156
218 161
225 169
235 172
243 179
252 184
259 192
269 196
275 204
283 210
290 218
298 225
302 235
310 242
317 250
322 259
329 267
334 276
338 286
345 294
350 303
355 312
359 322
364 331
365 341
370 350
375 359
380 368
385 377
385 387
394 392
399 401
405 409
413 415
420 423
428 429
437 434
446 439
450 449
460 452
467 460
477 464
486 469
490 479
500 482
508 489
515 497
524 502
525 512
522 524
514 532
504 535
494 535
485 540
476 545
466 545
456 543
446 540
437 545
427 549
418 555
408 555
398 555
388 555
380 548
374 540
366 534
362 524
357 515
350 507
342 500
339 490
329 487
325 477
320 468
314 460
304 457
299 448
292 440
283 435
274 430
265 435
259 450
253 458
245 465
245 475
249 492
239 495
229 495
224 482
234 470
234 460
233 450
224 445
214 445
204 445
195 450
190 460
185 470
187 480
185 495
175 495
165 495
155 495
149 487
159 482
169 472
177 464
179 448
179 438
174 429
169 420
160 415
150 413
144 405
136 398
126 394
121 385
112 380
105 372
97 365
94 355
86 349
79 341
74 332
69 323
69 313
64 304
59 295
59 285
54 276
54 266
54 256
49 247
49 237
49 227
49 217
49 207
49 197
