92 59
94 70
104 70
114 70
124 70
134 70
144 70
154 70
163 75
173 75
182 80
191 85
201 85
211 88
219 95
222 105
224 115
224 125
224 135
224 145
219 157
214 172
209 182
204 192
204 202
204 212
204 222
209 231
209 241
209 251
214 260
214 270
219 279
221 289
229 295
232 305
237 314
239 324
244 333
249 342
257 349
266 354
271 363
279 370
288 375
295 383
303 390
310 398
320 402
327 410
337 414
346 419
356 420
366 423
375 428
385 432
395 435
404 440
414 440
417 450
419 460
422 470
424 480
429 489
429 499
429 509
429 519
429 529
429 539
429 549
429 559
429 569
429 579
424 592
424 602
419 617
414 627
414 637
414 647
409 657
409 667
404 677
402 689
397 699
387 704
378 709
368 709
359 714
349 714
339 717
345 725
355 725
365 727
375 730
385 730
395 730
404 725
414 722
420 714
412 705
410 695
415 685
415 675
420 665
425 650
425 640
430 625
435 615
435 605
440 590
440 580
445 570
450 553
450 543
445 534
445 524
440 515
440 505
440 495
440 485
440 475
440 465
440 455
445 445
454 440
464 440
470 448
475 457
482 465
490 472
494 482
499 491
506 499
514 505
517 515
522 524
526 534
529 544
529 554
529 564
529 574
529 584
529 594
529 604
529 614
529 624
529 634
534 643
534 653
534 663
534 673
530 691
522 699
514 707
504 709
494 712
494 722
504 725
514 725
524 725
534 722
544 717
554 715
564 715
568 705
558 701
550 695
550 685
550 675
550 665
550 655
550 645
550 635
550 625
547 615
545 605
542 595
540 585
540 575
545 565
545 555
545 540
543 530
535 523
530 514
525 505
520 496
515 487
510 478
505 469
500 460
497 450
495 440
504 435
514 435
524 435
534 435
544 435
554 435
564 435
573 440
583 440
593 440
602 445
612 449
621 454
629 460
638 465
647 470
657 474
667 474
675 467
675 457
675 447
670 438
670 428
663 420
655 414
650 405
644 397
637 389
632 380
625 372
617 365
613 355
605 348
598 340
590 334
583 326
574 321
564 317
555 312
547 305
539 299
529 297
520 292
510 289
501 284
492 279
483 274
473 271
464 266
454 264
444 264
435 259
425 259
415 259
406 254
396 254
386 254
376 254
366 254
356 254
346 255
336 259
326 259
317 264
308 269
298 269
289 274
279 271
271 264
265 256
260 247
255 238
250 229
250 219
250 209
245 200
245 190
245 180
250 165
255 150
255 140
260 127
260 117
259 107
255 97
255 87
250 78
250 68
250 58
245 49
239 41
234 32
225 27
215 24
205 24
195 24
185 24
175 26
167 34
159 42
149 44
140 49
130 49
121 54
111 54
102 59
