14 87
19 62
27 54
37 49
45 41
53 34
62 29
70 21
80 19
90 17
100 17
110 17
120 19
129 24
137 30
145 37
149 47
155 55
157 65
160 75
160 85
160 100
165 109
165 119
170 128
175 137
182 145
190 152
197 160
207 164
214 172
224 176
233 181
243 185
253 189
262 194
271 199
281 200
291 204
300 209
309 214
318 219
327 224
336 229
346 229
355 234
365 237
373 244
383 244
392 249
402 249
412 249
422 249
432 249
441 254
451 254
461 254
471 254
481 254
491 254
501 254
511 254
520 259
530 257
538 263
530 270
540 274
548 280
550 290
540 290
542 300
552 304
555 314
558 324
550 330
540 330
545 339
543 353
533 358
523 358
513 360
503 360
494 355
484 355
474 355
464 352
455 347
445 345
436 340
426 338
416 335
407 330
397 330
387 330
377 330
367 330
357 334
347 339
338 345
329 350
323 358
313 358
305 365
296 370
286 370
277 375
267 375
257 375
248 370
238 373
230 380
225 390
225 405
230 414
231 424
220 420
210 420
200 420
190 417
180 415
170 415
167 429
159 422
159 412
167 404
177 404
187 404
197 399
207 394
209 380
207 370
197 369
187 365
177 364
167 360
158 355
150 348
143 340
134 335
126 328
116 324
112 314
104 307
97 299
89 292
84 283
79 274
74 265
69 256
69 246
64 237
64 227
64 217
64 207
64 197
64 187
64 177
69 162
69 152
74 142
74 132
79 122
79 112
79 102
79 92
72 84
62 84
52 84
42 89
32 94
22 94
