274 572
274 562
279 547
279 537
279 527
284 512
289 502
289 492
289 482
289 472
289 462
294 447
299 437
299 427
299 417
299 407
299 397
304 382
304 372
304 362
309 347
314 337
319 327
327 319
335 311
340 301
348 294
354 282
359 267
364 257
364 247
369 237
374 227
374 217
374 207
379 197
379 187
379 177
384 162
389 152
389 142
389 132
394 117
394 107
394 97
399 82
399 72
399 62
404 47
409 37
417 29
427 24
437 24
447 24
457 24
467 24
476 29
486 29
496 29
504 36
510 44
510 54
510 64
510 74
510 84
510 94
510 104
505 120
500 130
495 140
490 155
485 170
485 180
485 190
480 200
480 210
480 220
480 230
480 240
480 250
480 260
480 270
480 280
485 289
485 299
490 308
495 317
495 327
500 336
500 346
500 356
505 365
505 375
505 385
505 395
505 405
505 415
505 425
505 435
505 445
505 455
505 465
505 475
505 485
505 495
505 505
505 515
505 525
505 535
505 545
505 555
505 565
500 580
500 590
500 600
500 610
495 625
490 640
490 650
490 660
485 675
485 685
485 695
485 705
480 720
475 735
470 745
465 755
455 760
446 765
436 765
426 765
416 765
406 765
396 765
386 765
376 765
366 765
356 765
346 765
336 765
326 763
316 760
307 755
297 754
287 750
284 740
279 731
274 722
274 712
274 702
274 692
274 682
274 672
274 662
274 652
274 642
274 632
274 622
274 612
274 602
274 592
274 582
