324 317
324 307
329 297
334 282
342 274
349 257
359 252
364 242
374 232
374 222
374 212
374 202
374 192
374 182
374 172
374 162
374 152
379 136
379 126
379 116
379 106
379 96
379 86
379 76
374 67
374 57
374 47
382 39
391 34
401 30
411 34
421 34
431 34
440 39
450 42
454 52
450 65
450 75
445 85
450 94
450 104
450 114
450 124
455 133
455 143
455 153
455 163
455 173
455 183
455 193
455 203
455 213
455 223
460 232
467 240
472 249
479 257
487 264
494 272
495 282
500 291
506 299
510 309
510 319
515 328
515 338
515 348
515 358
515 368
520 377
520 387
520 397
520 407
520 417
520 427
520 437
520 447
520 457
520 467
515 480
520 489
520 499
520 509
520 519
520 529
520 539
520 549
520 559
520 569
520 579
520 589
520 599
515 610
520 619
520 629
520 639
520 649
520 659
520 669
520 679
520 689
520 699
520 709
520 719
520 729
520 739
520 749
518 763
510 770
506 780
497 785
487 785
477 785
467 785
457 785
448 790
438 790
428 790
418 790
408 790
398 790
388 790
379 785
369 785
359 785
349 785
339 782
332 774
324 767
324 757
324 747
324 737
324 727
324 717
324 707
324 697
324 687
324 677
324 667
324 657
324 647
324 637
324 627
324 617
324 607
324 597
324 587
324 577
324 567
324 557
324 547
324 537
324 527
324 517
324 507
324 497
324 487
324 477
324 467
324 457
324 447
324 437
324 427
324 417
324 407
324 397
324 387
324 377
324 367
324 357
324 347
324 337
324 327
