294 647
294 657
294 667
294 677
294 687
294 697
294 707
294 731
299 740
305 748
315 752
324 757
334 760
343 765
353 765
363 765
373 765
383 765
393 765
403 765
413 765
423 765
433 765
443 763
453 758
460 750
465 740
470 725
470 715
470 705
470 695
475 685
475 675
475 665
475 655
475 645
475 635
475 625
475 615
475 605
480 595
480 585
480 575
480 565
480 555
480 545
485 530
485 520
485 510
485 500
490 485
490 475
490 465
490 455
495 437
490 428
485 419
485 409
480 400
477 390
475 380
475 370
475 360
475 350
475 340
475 330
475 320
475 310
475 300
475 290
475 280
475 270
475 260
475 250
475 240
475 230
480 215
480 205
480 195
480 185
485 170
485 160
485 150
485 140
490 126
490 116
490 106
490 96
490 86
490 76
490 66
490 56
485 47
480 38
473 30
465 24
455 24
445 24
436 29
427 34
419 42
414 52
409 62
409 72
409 82
409 92
409 102
409 112
404 122
399 137
394 152
394 162
394 172
389 182
389 192
389 202
384 212
379 227
374 242
369 257
369 267
369 277
364 287
359 302
354 317
349 327
344 337
339 347
334 362
329 372
324 382
324 392
319 407
314 422
314 432
314 442
309 452
304 467
304 477
304 487
304 497
304 507
304 517
299 527
299 537
299 547
299 557
299 567
299 577
299 587
299 597
299 607
299 617
299 627
299 637
