24 397
24 387
29 377
39 372
47 364
56 359
64 352
72 344
79 332
84 320
84 310
84 300
79 291
74 282
74 272
74 262
74 252
82 244
92 244
101 249
111 249
121 249
131 249
141 249
151 249
160 254
165 263
173 270
180 278
188 284
198 284
208 284
218 284
228 284
238 284
247 279
257 279
267 279
277 279
287 279
297 279
307 279
317 279
327 279
337 279
346 274
356 274
366 274
376 274
386 274
395 279
404 284
412 290
420 297
429 302
434 311
440 319
449 324
458 329
468 329
477 324
487 324
497 324
506 319
516 315
526 314
535 319
540 328
545 337
545 347
550 356
550 366
550 376
545 385
538 398
530 405
523 413
515 420
510 430
510 440
510 450
510 460
510 470
510 480
504 495
494 495
485 500
475 500
465 500
455 500
445 500
435 500
426 495
417 490
408 485
399 480
389 480
380 475
371 470
362 465
353 460
343 460
333 463
323 468
313 470
303 473
293 475
283 475
274 480
264 480
255 485
245 485
235 485
225 485
215 490
205 490
196 485
186 484
177 479
167 475
158 470
149 465
140 460
131 455
122 450
112 450
102 450
92 450
82 454
72 455
62 455
53 460
43 460
34 465
29 456
24 447
24 437
24 427
24 417
24 407
