24 481
27 464
35 456
43 449
49 437
54 427
62 419
69 407
79 395
79 385
74 376
74 366
74 356
69 347
69 337
69 327
79 324
89 324
98 319
108 319
118 319
128 319
138 319
148 320
155 328
163 334
172 339
179 347
189 349
198 354
207 359
216 364
226 364
236 364
246 364
255 359
265 359
275 356
285 354
295 354
305 354
314 349
324 349
333 344
343 344
353 344
362 339
371 334
381 334
391 334
400 339
405 348
413 354
422 359
431 364
439 371
445 379
455 379
465 379
475 379
485 376
495 374
505 374
514 369
524 369
533 364
540 372
545 381
550 390
550 400
552 410
555 420
550 430
545 440
540 450
535 460
530 470
523 478
518 488
510 495
510 505
515 514
520 523
520 533
515 545
505 545
495 545
486 550
477 555
467 555
457 559
447 560
437 560
427 559
417 555
408 550
400 543
393 535
383 535
373 535
363 535
353 538
343 540
333 540
323 540
313 540
303 540
293 540
283 540
273 540
263 540
254 545
245 550
235 550
225 550
215 547
205 545
196 540
187 535
178 530
169 525
159 522
150 517
140 515
130 515
120 515
110 515
100 520
90 520
80 520
70 520
60 520
50 520
41 525
32 520
29 510
29 500
24 491
