24 162
24 152
32 144
42 139
50 131
60 129
69 124
79 124
89 124
99 124
108 119
118 119
128 119
138 119
147 114
157 114
166 109
169 97
177 89
187 89
197 89
205 81
210 71
220 66
230 64
240 67
249 72
255 80
260 89
269 94
272 84
274 72
282 64
284 52
289 42
297 34
306 29
316 29
325 24
335 24
345 24
355 24
365 24
375 27
385 29
395 29
405 29
414 34
424 34
434 36
444 36
450 44
455 53
455 63
460 72
460 82
468 89
477 94
484 102
492 109
501 114
511 114
521 114
531 114
541 114
551 114
561 114
570 119
580 119
585 128
585 138
585 148
580 165
575 175
575 185
568 198
563 208
555 215
545 215
540 225
535 235
530 245
524 255
515 260
506 265
497 270
488 265
480 258
473 250
464 245
454 245
444 245
434 245
424 245
414 245
404 245
394 245
384 245
374 245
365 250
355 250
353 263
345 270
337 284
329 290
319 290
309 290
299 290
289 290
279 287
274 278
274 268
274 258
267 250
262 259
252 264
244 270
234 270
224 270
214 270
204 270
194 270
184 270
174 270
164 270
154 270
144 270
134 267
124 270
114 270
105 275
98 285
88 285
78 285
68 285
59 280
49 267
44 258
44 248
44 238
39 229
39 219
39 209
39 199
36 189
29 181
29 171
