34 92
34 111
41 119
51 115
60 110
69 105
79 105
84 114
86 124
94 130
94 140
94 150
94 160
94 170
94 180
94 190
94 200
94 210
94 220
94 230
94 240
94 250
94 260
100 268
110 270
120 265
130 260
135 245
140 235
140 225
140 215
140 205
140 195
150 195
160 195
170 195
180 195
190 195
200 195
210 195
220 197
224 207
224 217
224 227
224 237
224 247
224 257
224 267
230 275
240 275
250 275
260 275
265 265
270 250
270 240
270 230
270 220
280 220
290 220
299 225
299 235
307 254
315 260
325 262
334 267
344 270
353 275
363 273
373 268
378 258
380 240
380 230
385 220
395 220
405 220
415 220
425 220
435 215
445 215
455 210
465 210
475 210
484 215
489 241
496 249
501 258
504 268
509 277
519 280
528 285
537 290
546 295
556 295
566 295
576 295
586 295
595 290
605 285
613 278
618 268
623 258
625 245
625 235
625 225
625 215
625 205
623 195
618 186
614 176
609 167
605 157
605 147
605 137
605 127
605 117
600 108
593 100
583 99
573 99
563 99
553 99
543 95
535 89
529 81
521 74
512 69
502 65
493 60
485 66
477 74
469 82
465 101
457 109
449 117
447 134
439 142
431 149
421 149
415 141
415 131
415 121
414 111
409 102
405 92
400 83
400 73
400 63
395 54
390 45
387 35
379 29
369 32
362 44
354 52
359 61
359 71
357 89
348 94
338 94
329 99
319 102
319 112
319 122
319 132
319 142
319 152
315 166
305 171
295 174
285 174
275 170
275 157
275 147
270 138
270 128
270 118
265 109
256 104
247 99
237 99
227 99
217 99
207 99
197 99
187 99
177 99
167 99
157 99
147 100
140 92
132 85
124 79
115 74
109 66
99 67
89 69
79 69
69 69
59 67
49 72
39 82
