24 262
24 252
32 244
41 239
51 235
59 227
67 219
75 211
85 209
94 202
99 187
104 177
114 174
120 182
124 192
130 200
132 210
142 214
152 214
155 224
163 230
170 238
175 247
175 257
175 267
179 277
180 287
184 297
189 306
199 309
209 311
218 316
228 319
237 314
247 314
256 309
266 309
276 309
285 304
294 299
304 299
314 299
323 294
333 294
342 289
352 289
362 289
371 284
380 289
389 284
398 289
408 289
417 294
427 294
436 299
445 304
455 307
463 314
473 315
480 323
490 324
499 329
508 324
518 324
527 319
537 319
546 314
556 314
565 309
575 309
585 306
595 301
605 296
615 294
624 289
633 284
640 276
648 269
657 264
662 254
670 246
675 236
683 229
687 219
694 207
704 202
712 194
722 194
731 189
741 189
749 196
743 208
735 215
730 225
723 233
715 240
715 250
708 258
700 265
698 278
690 285
685 295
675 300
670 310
662 319
652 324
642 329
634 335
624 337
614 340
605 345
596 350
586 350
577 355
567 359
557 360
547 360
538 365
529 370
519 372
509 375
500 380
490 385
480 385
470 390
465 405
463 418
455 425
455 435
450 450
450 465
452 475
462 479
471 484
479 491
478 508
473 518
468 528
460 535
455 550
450 560
444 577
436 585
427 590
418 585
408 585
399 580
390 585
384 597
374 600
364 600
354 600
344 600
334 596
329 587
329 577
339 572
349 569
358 564
367 559
375 551
383 544
381 529
372 524
362 520
353 515
345 508
339 500
334 491
334 481
328 473
318 478
310 485
300 485
290 490
281 495
272 500
263 505
253 505
244 500
238 508
230 515
225 525
225 535
220 545
215 555
215 565
212 584
205 592
195 590
185 590
175 590
165 590
155 590
149 582
157 574
166 569
174 562
174 552
174 542
174 532
179 519
174 510
165 505
155 505
150 520
150 530
150 540
145 555
145 570
135 575
129 590
119 590
109 590
99 590
89 590
79 587
79 577
87 569
96 564
99 547
99 537
99 527
99 517
104 507
109 498
104 489
102 479
94 472
94 462
89 453
83 445
75 438
68 430
60 423
54 415
49 406
49 396
54 362
57 349
47 345
44 335
44 325
44 315
44 305
36 299
29 291
24 282
24 272
