24 72
24 62
34 59
43 64
52 69
61 74
70 69
80 69
90 69
100 69
110 69
120 69
130 69
140 69
150 69
160 72
169 67
179 66
183 76
185 86
180 95
180 105
188 111
198 114
208 114
217 109
227 104
236 99
245 94
254 87
264 84
274 82
284 77
294 76
304 74
313 69
323 69
333 69
343 69
353 69
363 69
373 69
383 69
393 69
402 74
411 79
420 84
425 93
433 100
440 108
445 117
452 125
457 134
460 144
460 154
465 163
465 173
465 183
465 193
470 202
470 212
474 222
475 232
480 241
485 250
490 259
495 268
495 278
495 288
495 298
495 308
495 318
495 328
495 338
495 348
495 358
495 368
490 385
482 394
474 402
464 405
454 405
444 405
434 401
429 392
429 382
437 374
445 366
449 348
449 338
449 328
443 320
434 315
425 310
417 304
407 300
398 295
390 288
384 280
380 270
370 270
370 280
370 290
370 300
370 310
368 328
360 335
355 345
348 353
340 360
332 369
322 374
312 379
303 385
293 385
284 380
274 376
269 367
269 357
277 349
287 344
295 336
303 329
309 321
309 311
301 305
292 310
283 315
274 320
265 325
256 330
246 330
237 335
228 340
219 345
210 350
210 360
210 370
210 380
205 395
200 405
195 420
190 435
187 454
179 460
169 460
159 460
149 457
149 447
154 437
159 427
159 417
164 404
164 394
159 385
157 375
154 365
150 355
140 355
135 365
135 375
135 385
135 395
135 405
130 415
130 425
130 435
130 445
122 454
112 455
102 455
92 454
94 442
99 433
99 423
99 413
99 403
99 393
99 383
96 373
91 364
89 354
87 344
82 335
79 325
74 316
69 307
65 297
60 288
56 278
51 269
49 259
49 249
49 239
49 229
46 219
42 209
37 200
34 190
29 181
24 172
24 162
24 152
24 142
24 132
24 122
24 112
24 102
24 92
24 82
