24 272
24 262
32 254
39 242
44 232
52 224
60 216
59 202
59 192
69 191
75 199
85 202
93 209
102 214
111 219
120 224
125 233
135 237
144 242
154 246
164 249
174 249
184 249
194 249
204 251
214 254
224 254
233 249
243 249
253 249
263 249
273 249
283 249
293 249
303 249
313 249
323 249
332 244
342 244
352 244
362 239
372 239
382 239
392 239
402 239
412 239
422 239
432 239
442 239
451 244
460 249
470 252
479 257
489 261
495 269
505 269
514 274
520 266
530 261
540 256
548 249
557 244
564 232
574 227
582 219
589 207
597 199
602 189
607 179
614 162
614 152
619 137
629 136
635 144
635 154
635 164
635 174
630 185
625 195
620 205
615 215
608 223
603 233
595 240
590 250
583 258
575 265
565 270
557 279
549 285
540 290
533 298
523 303
513 308
508 318
500 325
495 340
490 355
485 370
480 385
480 395
480 405
480 415
482 425
485 435
480 445
473 458
468 468
463 478
455 485
448 498
440 505
433 513
425 520
416 525
406 524
399 516
394 507
402 499
412 494
422 494
429 477
434 462
439 447
440 437
435 428
428 420
418 423
410 430
403 438
395 445
390 455
380 465
374 477
366 485
356 485
347 490
337 489
329 482
329 472
337 464
347 464
355 456
360 446
368 439
372 429
374 415
374 405
372 395
363 390
353 390
343 390
333 393
323 395
313 395
303 395
293 395
284 400
274 400
265 395
255 400
245 400
235 400
230 415
225 430
225 440
220 455
215 465
215 475
210 490
205 500
199 512
189 515
179 515
169 515
159 512
159 502
167 494
177 489
184 472
189 457
189 447
189 437
194 425
194 415
185 410
180 425
175 440
170 455
165 465
161 475
152 480
143 485
134 480
124 476
119 467
127 459
137 454
142 444
144 432
149 417
154 399
154 389
152 379
147 370
138 365
130 358
123 350
114 345
106 339
102 329
94 322
87 314
77 310
68 305
59 300
49 300
40 295
32 289
24 282
