57 414
67 415
76 420
86 423
89 433
90 443
95 452
104 457
109 466
114 475
117 485
122 494
130 500
139 505
149 502
159 500
167 494
177 489
182 479
190 465
198 458
203 448
213 450
217 460
219 470
219 480
222 490
229 498
234 507
242 514
249 522
254 531
259 540
262 550
255 566
250 576
243 584
235 591
228 599
219 604
210 609
200 611
190 616
183 624
175 631
167 639
159 647
159 657
164 666
171 674
181 675
190 670
199 675
208 670
217 664
227 659
235 650
244 645
252 639
260 625
270 620
279 615
284 624
281 635
276 645
271 655
266 665
256 669
247 674
237 674
229 682
234 691
244 695
254 695
264 695
274 695
284 695
294 692
299 682
304 672
310 660
315 650
320 640
320 630
325 615
330 605
335 590
340 580
348 573
353 563
355 545
360 530
360 520
360 510
368 503
378 500
388 500
398 500
408 500
418 500
428 500
438 500
447 505
457 505
467 505
477 509
486 514
496 515
504 521
509 530
514 539
522 545
530 552
537 560
542 569
544 579
546 589
549 599
549 609
549 619
549 629
549 639
549 649
547 659
537 664
527 669
519 677
519 687
527 694
537 695
547 695
557 695
567 695
576 700
586 700
596 700
606 700
615 695
623 688
629 680
635 670
643 663
645 650
645 640
645 630
645 620
645 610
645 600
645 590
650 580
650 570
650 560
647 550
645 540
645 530
645 520
645 510
653 503
655 490
660 480
665 465
670 450
670 440
670 430
667 420
665 410
665 400
665 390
659 382
655 372
650 363
645 354
640 345
640 335
640 325
640 315
640 305
640 295
645 280
650 265
647 255
645 245
645 235
649 222
645 212
644 202
640 192
635 183
635 173
630 164
630 154
625 145
620 136
615 127
615 117
610 108
605 99
605 89
601 79
595 71
590 62
585 53
578 45
570 39
566 29
556 25
546 24
536 24
526 24
516 24
506 24
496 24
486 24
476 24
467 29
457 34
459 45
468 50
477 55
487 55
497 55
507 55
517 59
526 64
536 65
545 70
554 75
557 85
562 94
566 104
569 114
574 123
575 133
579 143
584 152
589 161
589 171
594 180
594 190
594 200
599 209
599 219
599 229
599 239
599 249
594 262
594 272
592 284
582 289
573 294
563 294
553 294
543 294
534 289
524 286
514 282
505 277
495 274
486 269
476 269
467 264
457 264
448 259
438 259
428 259
418 259
408 259
398 259
389 264
379 264
370 269
360 271
352 279
342 279
333 284
324 289
314 292
304 294
295 299
286 304
277 309
268 314
258 314
249 319
239 322
229 324
220 329
210 331
200 334
190 334
180 334
170 336
160 336
150 341
140 346
130 351
120 356
112 364
102 369
94 377
84 382
74 387
64 392
59 404
