24 142
24 132
29 122
34 107
39 91
39 67
39 57
44 47
44 37
54 32
64 29
73 24
83 24
93 25
102 30
110 37
120 36
130 34
140 34
150 32
160 34
170 34
180 34
190 37
199 42
209 44
219 44
229 44
239 44
249 44
259 44
269 44
278 49
288 49
298 50
308 54
318 54
327 59
337 59
347 59
357 59
367 59
377 59
387 59
397 59
407 59
417 59
427 59
437 59
447 59
457 59
467 59
477 59
487 59
497 59
507 59
517 59
527 59
537 59
547 59
557 59
567 59
576 64
584 71
590 79
598 85
600 95
600 105
600 115
600 125
600 135
600 145
600 155
595 165
595 175
590 190
590 200
585 215
580 230
580 240
580 250
580 260
580 270
575 280
575 290
575 300
570 315
570 325
567 339
559 345
550 350
540 350
530 355
520 355
514 347
522 339
530 331
534 317
539 305
539 295
539 285
539 275
530 280
525 290
525 300
520 315
514 332
504 337
494 340
485 335
479 327
487 319
494 307
502 299
509 285
509 275
504 266
499 257
495 247
490 238
484 230
474 232
464 237
454 242
446 250
437 255
427 259
417 260
407 264
399 272
389 273
383 265
374 260
364 260
354 260
345 255
335 252
325 250
315 250
305 255
305 265
305 275
305 285
305 295
305 305
305 315
299 327
291 335
281 334
272 329
272 314
277 304
279 285
279 275
279 265
270 260
265 270
260 280
255 290
250 305
250 315
250 325
244 337
234 340
224 340
214 337
214 327
222 319
224 307
229 294
229 284
226 274
222 264
212 260
203 255
195 248
189 240
179 237
172 229
162 225
155 217
147 210
138 205
130 198
123 190
114 185
105 180
96 175
86 173
76 169
69 161
61 155
51 155
41 154
32 149
