49 351
44 342
65 354
75 354
85 354
89 344
84 335
79 326
74 317
74 307
84 316
90 324
99 329
109 329
119 329
129 327
137 319
142 309
144 297
152 289
160 281
168 274
172 264
182 259
190 251
200 246
208 239
215 231
223 224
232 219
240 211
250 206
260 201
270 199
279 192
287 184
295 176
305 171
313 164
322 159
330 151
338 144
347 139
355 131
363 124
372 119
379 107
387 99
395 91
403 84
412 79
420 71
430 66
439 57
447 49
456 44
465 39
474 44
482 50
490 57
499 62
504 71
510 79
518 85
525 93
533 100
537 110
542 119
549 127
555 135
560 144
568 150
577 155
585 162
590 171
596 179
605 184
613 190
617 200
625 207
630 216
635 225
640 234
631 245
622 240
615 232
607 225
604 215
594 211
589 202
582 194
577 185
574 175
565 170
565 180
565 190
570 199
575 208
580 217
587 225
595 232
602 240
605 250
610 259
618 265
622 275
630 282
635 291
635 301
627 314
619 320
614 311
614 301
609 292
604 283
597 275
588 270
579 265
569 262
560 257
550 255
540 255
545 264
545 274
550 283
550 293
550 303
555 312
559 322
564 331
565 341
563 358
555 365
545 368
544 358
544 348
539 339
539 329
536 319
532 309
524 302
515 297
507 290
498 285
488 283
480 290
479 302
474 312
469 322
459 325
450 330
440 330
430 335
425 345
418 353
410 360
403 368
395 375
390 385
390 395
390 405
395 414
400 423
405 432
410 441
419 446
425 454
430 463
435 472
427 484
419 492
409 495
400 490
394 500
386 494
384 484
384 474
379 465
374 456
366 450
357 445
348 440
338 443
330 450
321 455
312 460
302 460
292 460
283 455
274 450
265 445
257 439
249 432
245 422
237 415
230 407
222 400
213 395
203 398
193 403
185 410
175 415
167 424
162 434
154 442
146 450
136 449
132 439
127 430
124 420
124 410
119 401
114 392
109 383
102 375
93 370
83 370
74 365
64 365
56 359
