39 132
39 142
47 149
57 150
67 150
77 149
87 145
96 150
106 150
116 150
126 153
134 159
139 168
144 177
144 187
149 196
154 205
159 214
161 224
164 234
164 244
169 253
174 262
174 272
179 281
186 289
194 295
203 300
213 300
220 308
228 315
232 325
234 335
232 349
227 359
219 367
224 376
234 380
244 377
252 369
262 364
270 355
278 348
280 335
280 325
280 315
280 305
280 295
280 285
280 275
289 270
299 270
309 267
319 265
329 265
339 265
349 265
359 265
369 265
379 265
385 273
390 282
399 277
405 265
415 265
425 265
434 260
444 260
453 255
463 255
472 260
479 268
484 277
484 287
489 296
494 305
499 314
499 327
497 339
493 349
485 356
477 364
469 372
469 382
479 385
488 380
495 370
505 370
515 370
525 365
533 358
535 340
535 330
535 320
535 310
540 300
540 290
540 280
540 270
540 260
545 250
554 245
559 254
559 264
559 274
559 284
559 294
554 307
554 317
554 327
554 337
554 347
564 337
569 327
570 310
570 300
575 285
575 275
575 265
575 255
572 245
570 235
570 225
570 215
575 202
575 192
575 182
575 172
575 162
575 152
575 142
575 132
575 122
575 112
570 103
570 93
565 84
556 79
546 79
537 74
527 74
518 79
508 79
498 79
488 79
478 79
468 79
458 79
448 79
438 79
428 79
418 79
408 79
398 79
388 79
378 79
368 79
358 79
348 75
338 74
328 74
318 74
308 74
298 74
288 74
279 69
269 69
259 66
249 64
239 64
230 59
220 59
210 59
201 54
192 49
182 45
173 40
163 39
153 39
143 39
134 44
124 41
116 34
107 29
98 34
88 34
78 34
68 34
59 39
49 36
39 37
44 46
54 50
54 67
54 77
54 87
54 97
49 107
44 122
