139 107
139 97
144 87
154 82
164 77
174 72
182 64
190 56
198 49
205 41
215 36
223 29
232 24
241 29
250 34
260 37
267 45
270 55
272 65
280 72
288 79
297 84
306 89
314 96
320 104
325 113
333 120
340 128
345 137
352 145
362 149
369 157
377 164
384 172
392 179
395 189
403 195
410 203
415 212
422 220
432 224
435 234
443 240
450 248
458 255
467 260
475 267
483 274
492 279
499 287
507 294
516 299
524 306
530 314
538 320
547 325
555 332
562 340
570 347
577 355
585 362
594 367
602 374
609 382
615 390
615 400
615 410
610 420
605 430
600 440
593 448
585 455
578 463
570 470
565 480
555 485
547 494
539 500
530 505
520 510
510 515
503 528
495 535
490 545
483 558
475 565
468 573
460 580
452 589
444 597
434 602
424 600
422 590
413 585
404 590
396 584
387 579
379 572
379 562
389 559
399 559
409 559
422 554
431 549
436 540
444 532
445 520
436 525
427 530
419 537
414 547
404 550
394 550
383 550
374 545
369 536
364 527
374 524
384 524
394 524
403 519
413 519
419 502
424 492
429 477
429 467
434 455
425 450
415 450
405 447
395 445
385 445
376 440
366 438
356 435
346 435
336 434
334 424
334 414
329 405
321 399
317 389
309 382
304 373
298 365
288 363
278 368
268 373
260 380
253 393
245 400
235 410
225 410
217 404
209 397
209 387
219 382
229 379
238 374
245 366
250 356
249 345
239 347
229 352
221 360
212 365
204 372
196 380
187 385
178 380
169 375
159 372
159 362
167 354
177 354
187 349
197 344
204 332
209 322
209 312
209 302
204 293
201 283
196 274
194 264
194 254
189 245
189 235
189 225
184 216
179 207
179 197
179 187
179 177
174 168
169 159
164 150
164 140
159 131
154 122
147 114
