34 107
34 126
44 130
53 135
63 135
73 133
83 130
93 130
103 130
112 135
117 144
124 152
129 161
136 169
141 178
145 188
149 198
154 207
159 216
164 225
167 235
175 242
182 250
190 257
200 260
209 265
209 275
214 284
209 302
209 312
204 327
199 337
199 347
199 357
209 360
219 357
225 340
230 325
230 315
230 305
239 300
245 308
249 318
244 332
244 342
244 366
254 370
264 367
270 354
270 344
270 334
270 324
270 314
265 305
265 295
265 285
265 275
265 265
265 255
265 245
275 240
285 240
295 240
305 240
315 240
325 240
335 242
345 245
355 245
365 245
375 245
385 245
395 245
404 240
414 240
424 240
433 245
437 255
445 262
455 265
465 267
475 270
484 275
484 285
484 295
484 305
479 322
474 332
470 351
462 359
459 376
469 380
479 377
489 372
494 362
499 352
500 340
505 325
505 315
510 305
515 290
520 280
525 270
525 260
525 250
534 255
537 265
542 274
544 284
544 294
549 303
549 313
549 323
547 339
539 347
539 357
549 360
559 360
569 357
575 345
580 335
577 325
575 315
575 305
575 295
580 277
580 267
580 257
580 247
575 238
575 228
575 218
570 209
570 199
570 189
565 180
570 165
570 155
570 145
567 135
565 125
565 115
565 105
565 95
565 85
565 75
560 66
555 57
547 50
538 45
528 44
519 39
509 39
499 39
489 39
479 39
469 39
460 44
450 44
440 46
430 49
420 49
411 54
401 54
391 54
381 55
371 59
362 54
352 54
342 54
332 54
322 54
312 54
302 54
292 54
282 54
272 54
262 54
253 49
243 49
233 49
223 49
213 49
204 54
194 54
184 54
174 54
165 49
159 41
149 39
139 39
130 34
127 24
117 24
107 24
97 24
87 29
77 29
68 34
59 39
49 42
39 47
44 56
51 64
54 74
49 87
44 102
