24 272
24 262
29 252
34 242
42 234
52 229
60 221
68 214
69 198
65 188
58 180
50 173
44 165
39 156
34 147
34 137
34 127
39 117
44 107
52 99
62 94
70 86
80 81
90 79
100 79
110 79
120 79
129 84
139 86
149 89
158 94
167 99
175 105
180 114
185 123
185 133
185 143
185 153
185 163
185 173
185 183
180 195
175 205
177 215
182 224
185 234
190 243
195 252
195 262
195 272
200 281
200 291
200 301
200 311
203 321
208 330
210 340
210 350
212 360
217 369
220 379
220 389
220 399
225 408
230 417
225 430
223 443
218 453
213 463
208 473
200 480
195 490
200 499
200 509
195 525
190 535
190 545
185 560
180 575
175 590
170 600
172 610
177 619
186 624
195 629
205 632
214 637
215 650
209 662
199 667
191 675
182 680
172 680
162 680
152 680
142 680
132 680
123 675
114 670
104 670
96 664
89 656
84 647
84 637
89 625
87 615
84 605
84 595
84 585
79 576
74 567
79 552
79 542
84 529
84 519
84 509
82 499
74 492
65 487
59 479
54 470
54 460
46 454
44 444
44 434
44 424
44 414
39 405
37 395
34 385
29 376
29 366
29 356
24 347
24 337
29 321
24 312
24 302
24 292
24 282
