24 257
24 276
29 285
32 295
34 305
34 315
34 325
34 335
34 345
39 354
41 364
46 373
49 383
49 393
50 403
54 413
54 423
59 432
59 442
64 451
64 461
69 470
75 478
83 485
87 495
89 505
89 515
84 527
79 542
74 552
74 562
74 572
79 581
79 591
79 601
79 611
79 621
79 631
79 651
86 659
96 660
105 665
115 667
125 670
135 670
145 670
155 670
165 670
175 665
185 665
194 660
203 655
212 649
211 634
202 629
193 624
183 620
175 613
170 604
165 595
170 585
170 575
170 565
175 555
175 545
175 535
180 525
185 510
190 495
190 485
195 475
203 468
213 463
215 450
215 440
220 430
228 423
230 410
227 400
225 390
220 381
218 371
215 361
210 352
210 342
205 333
200 324
197 314
192 305
190 295
190 285
195 271
190 262
189 252
185 242
184 232
177 224
172 215
170 205
170 195
175 180
180 166
180 156
180 146
180 136
180 126
179 116
174 107
170 97
162 90
153 85
143 81
134 76
124 74
115 69
105 69
95 69
85 69
76 74
67 79
58 84
50 91
42 99
34 107
29 117
29 127
34 136
34 146
39 155
45 163
53 170
54 180
59 189
59 199
59 209
52 219
42 224
34 232
29 242
