19 181
22 164
32 164
37 154
39 141
34 132
42 124
50 116
60 114
69 109
78 104
88 104
97 109
99 97
112 89
112 74
121 79
129 86
139 84
149 84
159 84
169 84
179 81
189 81
199 81
209 81
219 77
229 77
229 50
220 45
214 37
224 32
234 29
244 27
254 24
264 24
274 22
284 22
294 19
304 19
314 19
324 19
334 17
344 17
354 17
364 17
374 17
384 17
394 17
404 17
414 17
424 17
434 19
444 19
454 19
464 19
474 21
484 24
494 24
503 29
513 30
520 38
525 47
525 57
525 67
525 77
520 90
525 99
525 109
530 118
535 127
545 124
545 135
553 141
545 150
535 150
550 160
555 170
554 180
544 177
535 182
525 180
520 190
515 200
507 209
499 217
489 217
479 220
470 215
460 212
452 205
449 195
440 190
431 195
421 195
411 195
401 195
391 195
381 195
372 200
362 200
352 200
342 204
332 204
322 204
312 204
302 205
292 205
282 205
272 205
262 205
252 205
242 205
235 197
225 195
215 195
205 195
195 200
190 215
185 225
185 235
175 240
165 245
157 254
147 254
137 254
127 250
120 242
110 238
104 230
104 220
95 215
86 220
76 220
66 219
57 214
47 210
43 200
35 193
29 185
