24 177
24 167
29 157
39 152
49 149
58 144
67 149
76 154
85 159
90 168
95 177
95 187
100 196
105 205
110 214
118 220
125 228
133 234
142 239
149 247
159 249
169 249
178 244
187 239
197 234
207 229
212 219
217 209
219 196
214 187
207 179
197 175
188 170
179 165
169 162
160 157
152 150
149 140
144 131
139 122
139 112
147 104
155 96
163 89
170 81
180 76
190 74
200 77
209 82
217 89
226 94
230 104
235 113
240 122
240 132
240 142
245 151
250 160
255 169
263 175
270 183
278 189
287 194
297 194
307 194
317 194
327 194
336 189
346 185
354 177
359 165
359 155
357 145
353 135
345 128
339 120
334 111
329 102
329 92
334 82
339 72
344 62
354 57
364 52
374 49
384 49
393 54
403 55
412 60
420 67
424 77
429 86
430 96
430 106
428 118
423 128
418 138
410 145
405 155
410 164
415 173
420 182
429 187
439 189
448 194
458 195
468 199
478 199
488 199
497 194
502 184
509 172
517 164
524 152
529 142
529 132
529 122
534 112
542 104
550 96
558 89
567 84
577 84
587 84
596 89
604 96
608 106
613 115
615 125
615 135
608 148
600 155
590 160
580 165
570 170
563 178
558 188
550 195
545 205
540 220
545 229
553 235
557 245
565 252
574 257
584 259
593 254
603 254
612 249
621 244
630 239
639 234
648 229
655 221
663 214
667 204
669 192
674 182
682 174
690 166
700 161
710 159
720 159
728 165
735 173
740 182
740 192
735 210
734 222
729 232
719 237
709 242
699 245
690 250
680 250
670 255
663 263
655 270
647 279
637 284
629 290
620 295
615 305
610 315
603 328
595 335
595 345
595 355
595 365
593 383
588 393
580 400
571 405
562 410
552 410
542 414
532 415
522 415
512 415
502 415
492 415
482 415
472 415
462 415
452 415
442 415
432 415
422 415
412 415
402 415
392 415
382 415
372 415
362 415
352 415
342 415
332 415
322 415
312 415
302 415
292 415
282 414
272 410
262 410
252 409
242 405
232 405
222 405
212 405
202 405
192 405
182 405
173 400
164 395
154 392
149 383
145 373
144 363
144 353
144 343
144 333
139 324
134 315
129 306
124 297
124 287
119 278
110 273
103 265
95 258
89 250
81 244
74 236
66 230
57 225
48 220
40 213
34 205
29 196
24 187
