24 381
27 364
34 352
39 342
39 332
49 327
59 324
68 329
77 324
87 319
97 319
107 319
116 314
124 321
130 329
135 338
143 345
150 353
158 359
165 351
170 341
178 334
187 329
196 334
206 334
214 328
210 318
204 310
194 310
185 315
175 312
165 308
158 300
150 293
144 285
139 276
139 266
139 256
134 247
134 237
134 227
139 217
147 209
156 204
165 199
175 199
184 204
192 210
202 214
211 219
220 224
230 227
235 236
238 246
240 256
235 265
230 280
238 286
248 289
258 289
265 281
269 262
274 252
282 244
292 239
301 244
311 244
321 240
323 230
313 230
303 230
294 225
285 220
275 220
266 215
257 210
254 200
249 191
249 181
249 171
249 161
244 152
249 142
249 132
249 122
249 112
254 101
254 91
249 82
249 72
254 62
262 54
272 49
282 44
292 44
301 49
309 56
315 64
324 69
334 69
342 75
350 82
354 92
364 94
373 99
380 107
385 116
390 125
395 134
400 143
400 153
395 170
393 183
385 190
385 200
390 209
399 197
404 187
414 182
424 179
433 184
442 189
451 194
459 185
459 175
450 170
440 167
430 165
422 159
414 152
410 142
405 131
409 117
414 102
419 86
419 67
427 59
436 54
445 49
455 49
465 52
474 57
480 65
485 74
490 83
500 87
509 92
515 100
520 109
515 125
515 135
508 143
500 150
500 160
505 169
510 178
520 176
530 171
538 164
545 156
553 149
557 139
559 126
562 109
570 101
575 91
580 81
588 74
597 69
602 59
611 54
620 49
629 44
639 44
648 49
657 54
660 64
665 73
670 82
670 92
663 103
655 110
645 107
635 105
635 115
640 124
640 134
640 144
640 154
635 165
630 175
625 185
625 195
625 205
620 215
620 225
622 235
627 244
634 252
639 261
640 271
635 280
630 295
632 305
635 315
635 325
635 335
637 345
640 355
645 364
645 374
650 383
650 393
645 410
640 420
633 428
625 435
618 443
610 450
601 455
592 460
584 467
574 472
564 477
554 482
546 490
537 495
528 500
519 505
510 510
500 515
490 520
481 525
472 530
464 537
454 542
444 545
435 550
425 550
415 555
405 560
396 565
386 565
377 570
367 574
357 575
347 575
337 579
327 580
318 575
309 570
299 570
291 564
287 554
282 545
275 537
270 528
263 520
254 515
246 509
244 499
239 490
229 490
219 490
211 483
206 474
202 464
197 455
190 447
180 443
171 438
161 435
152 430
143 425
133 425
124 420
114 420
104 416
99 407
92 399
82 399
72 404
64 410
55 415
45 412
35 408
29 400
24 391
