194 232
194 222
202 214
209 202
214 192
222 184
229 192
235 200
235 210
240 219
240 229
240 239
240 249
240 259
240 269
245 278
245 288
250 297
250 307
254 317
255 327
255 337
260 346
264 332
264 321
264 311
264 301
264 291
259 282
259 272
259 262
264 247
269 232
274 217
279 202
279 192
279 182
279 172
284 162
284 152
289 137
297 129
302 119
311 114
319 107
327 99
330 109
338 115
342 125
345 135
340 145
335 160
335 170
330 180
325 195
325 205
325 215
320 225
320 235
320 245
320 255
320 265
320 275
322 285
327 294
330 304
337 294
339 282
339 272
339 262
339 252
339 242
339 232
339 222
344 212
344 202
349 192
354 177
359 162
359 152
364 137
364 127
364 117
364 107
369 92
379 89
385 81
393 74
402 69
409 77
414 86
420 94
420 104
420 114
415 125
415 135
415 145
410 160
410 170
405 185
405 195
405 205
405 215
405 225
405 235
405 245
400 260
400 270
400 280
400 290
402 300
405 310
413 304
419 287
419 277
424 267
424 257
424 247
429 237
429 227
429 217
434 202
434 192
439 177
439 167
439 157
444 142
444 132
449 117
459 112
469 107
479 106
483 116
485 126
490 135
492 145
495 155
495 165
495 175
490 190
490 200
490 210
490 220
490 230
490 240
485 250
485 260
485 270
485 280
480 295
480 305
480 315
475 325
475 335
475 345
475 355
477 365
480 375
480 385
480 395
480 405
482 415
485 425
485 435
485 445
490 454
490 464
499 442
504 432
512 424
514 407
514 397
519 387
519 377
524 367
529 357
534 342
539 332
544 322
554 319
564 317
574 314
580 322
585 331
588 341
590 351
585 360
580 375
580 385
580 395
580 405
580 415
578 428
573 438
568 448
560 455
555 470
555 480
555 490
550 505
545 520
543 533
535 540
528 553
520 560
515 570
510 580
503 593
495 600
495 610
485 620
480 630
473 638
468 648
460 655
450 660
443 668
435 675
429 687
424 697
414 700
404 700
394 700
384 700
374 700
364 700
354 700
344 700
334 700
324 700
314 700
304 700
294 700
284 700
274 700
264 700
254 700
244 700
234 700
224 700
214 697
214 687
222 679
227 669
234 655
234 645
234 635
234 625
234 615
234 605
229 596
229 586
224 577
224 567
219 558
219 548
219 538
214 529
214 519
214 509
214 499
214 489
214 479
214 469
214 459
214 449
214 439
209 430
209 420
209 410
209 400
209 390
209 380
209 370
209 360
207 350
204 340
204 330
199 321
199 311
199 301
199 291
194 282
194 272
194 262
194 252
194 242
