234 272
234 262
242 254
247 244
255 236
265 234
273 240
280 248
280 258
280 268
280 278
280 288
280 298
280 308
280 318
285 327
290 336
295 345
300 354
300 364
300 374
305 383
315 384
319 371
319 361
319 351
319 341
319 331
319 321
319 311
314 302
314 292
314 282
319 267
319 257
319 247
319 237
319 227
319 217
319 207
319 197
319 187
319 177
319 167
319 157
327 149
335 141
343 134
353 135
360 143
365 152
365 162
365 172
370 181
370 191
370 201
370 211
365 220
365 230
365 240
365 250
370 259
370 269
370 279
375 288
375 298
380 307
384 317
389 326
393 336
399 344
404 332
404 322
404 312
409 302
409 292
409 282
409 272
409 262
409 252
414 237
419 222
424 207
429 197
429 187
429 177
429 167
429 157
429 147
434 132
434 122
442 114
452 109
461 104
471 104
479 111
483 121
488 130
490 140
490 150
485 160
485 170
485 180
480 195
480 205
475 215
475 225
475 235
470 250
470 260
470 270
470 280
470 290
470 300
470 310
470 320
470 330
470 340
480 336
485 326
489 307
494 297
494 287
494 277
499 267
499 257
499 247
504 232
509 222
509 212
514 202
514 192
514 182
514 172
514 162
519 152
527 144
535 136
543 129
550 137
554 147
555 157
559 167
564 176
565 186
565 196
565 206
560 220
560 230
560 240
560 250
560 260
555 270
555 280
555 290
555 300
555 310
555 320
550 335
550 345
550 355
545 365
545 375
545 385
545 395
547 405
550 415
550 425
550 435
550 445
555 454
555 464
555 474
555 484
555 494
560 503
569 497
579 492
579 482
584 472
592 464
594 447
599 437
599 427
599 417
599 407
604 392
612 384
617 374
622 364
632 364
640 356
646 364
650 374
655 383
655 393
655 403
655 413
655 423
655 433
655 443
660 452
660 462
658 473
653 483
648 493
640 500
640 510
635 520
630 535
625 550
620 565
618 578
610 585
603 593
595 600
590 610
583 618
578 628
573 638
565 645
558 658
553 668
545 675
535 685
525 690
515 695
507 705
502 714
494 722
484 725
474 725
465 720
455 720
445 720
435 720
425 720
415 717
405 715
395 715
385 715
375 715
365 712
355 710
345 710
335 710
325 710
315 707
305 705
295 705
289 697
294 687
299 671
299 661
299 651
299 641
294 632
290 622
285 613
284 603
279 594
279 584
279 574
279 564
279 554
279 544
279 534
279 524
274 515
274 505
274 495
269 486
269 476
269 466
264 457
264 447
264 437
259 428
259 418
259 408
254 399
251 389
249 379
244 370
244 360
239 351
239 341
239 331
234 322
234 312
234 302
234 292
234 282
