24 307
24 297
29 282
37 274
42 264
50 256
58 249
68 249
77 244
87 244
97 244
107 244
117 244
127 244
137 244
146 249
155 254
163 260
170 268
178 275
185 283
193 289
203 289
212 284
222 279
232 274
242 274
251 269
261 269
271 265
281 264
291 264
301 260
311 259
321 259
331 259
341 259
350 264
360 264
370 267
380 269
390 272
400 274
409 279
419 281
425 289
435 292
443 299
452 304
461 309
470 314
478 320
487 325
497 329
504 337
514 341
523 346
530 354
540 357
547 365
557 369
566 374
574 381
583 386
593 390
600 398
610 402
618 409
627 414
636 419
645 424
654 429
663 434
673 435
682 440
692 444
701 449
711 449
720 454
730 454
739 459
749 461
759 464
768 469
778 469
788 469
798 469
808 470
818 474
828 474
837 469
847 469
857 469
867 469
876 464
885 470
878 478
870 485
861 490
852 495
843 500
834 505
824 505
815 510
805 510
795 510
785 510
776 515
766 515
756 515
746 515
736 515
726 515
717 520
707 520
697 520
687 524
677 525
667 525
657 525
647 525
637 525
627 525
617 525
607 525
597 525
587 524
577 520
567 520
557 520
547 520
537 519
527 515
517 515
507 515
498 510
488 510
478 510
469 505
460 510
462 520
470 527
477 535
485 542
485 552
480 565
475 580
477 590
480 600
482 610
487 619
490 629
490 640
490 650
480 655
470 660
460 660
450 660
440 660
431 665
421 663
411 659
404 651
399 642
407 634
415 626
425 624
435 621
439 608
435 598
429 590
429 580
429 570
425 560
415 560
405 560
395 560
388 568
380 575
370 580
365 590
360 605
350 610
345 620
347 630
352 639
350 650
342 659
332 664
322 665
312 665
302 665
292 665
282 664
272 664
262 665
252 669
244 662
244 652
244 642
249 632
257 624
267 624
276 619
286 619
294 607
299 597
299 587
304 573
304 563
304 553
299 544
294 535
293 525
285 518
284 508
275 503
269 495
259 492
252 484
244 477
239 468
232 460
225 452
217 445
214 435
204 435
198 443
190 450
190 460
195 469
187 480
179 487
169 485
164 476
159 467
159 457
164 447
169 437
165 425
158 433
148 435
139 440
130 445
125 455
117 449
109 442
109 432
119 427
129 424
138 419
144 409
144 399
139 390
139 380
137 370
133 360
124 355
115 360
110 370
101 375
92 380
83 375
74 370
64 367
64 357
72 349
77 339
82 329
89 317
90 305
80 310
75 320
68 328
60 335
50 340
40 340
32 334
24 327
24 317
