24 142
24 132
32 124
40 116
45 106
50 96
54 82
59 67
59 57
59 47
67 39
76 44
86 44
94 37
102 29
112 29
115 39
123 45
130 53
138 60
145 68
153 75
160 83
168 90
172 100
180 107
187 115
195 122
202 130
210 137
219 142
229 146
239 149
248 154
258 154
267 159
277 159
286 164
296 164
306 164
316 164
326 164
336 164
346 164
355 169
365 169
374 174
384 174
394 174
403 179
413 180
423 184
432 189
441 194
449 201
453 211
458 220
460 230
462 240
465 250
465 260
470 269
470 279
470 289
470 299
470 309
470 319
470 329
475 338
475 348
480 357
485 366
485 376
480 385
480 395
480 405
480 415
480 425
480 435
480 445
477 459
472 469
462 474
452 475
442 474
439 457
444 447
444 437
447 420
444 410
435 415
430 425
430 435
425 445
424 457
416 465
407 470
397 474
389 467
389 457
394 447
399 437
404 419
399 410
398 400
390 393
384 385
375 380
367 374
359 367
352 359
347 350
343 340
334 335
324 335
314 337
306 345
296 345
287 350
278 355
268 358
258 363
248 365
239 370
229 370
220 375
220 385
220 395
215 405
215 415
210 425
203 433
195 440
190 450
182 459
174 465
165 470
156 475
146 475
137 480
128 475
119 470
109 466
104 457
112 449
121 444
124 429
124 419
124 409
124 399
124 389
124 379
124 369
122 359
117 350
113 340
105 333
99 325
91 318
86 309
82 299
77 290
74 280
66 274
62 264
57 255
54 245
49 236
49 226
49 216
44 207
49 197
49 187
54 178
54 168
48 160
39 155
30 150
