24 177
24 167
29 152
37 144
44 132
49 117
54 99
51 89
49 79
44 70
39 61
34 52
34 42
42 34
51 39
59 46
68 51
75 59
85 62
95 61
99 42
107 34
116 29
126 29
130 39
135 48
135 58
143 65
145 75
147 85
155 92
159 102
165 110
173 116
175 126
180 135
185 144
190 153
190 163
195 172
199 182
207 189
216 194
225 199
235 199
245 202
255 204
264 209
273 214
283 215
293 219
302 224
312 224
322 224
332 224
342 224
352 224
362 224
372 224
382 224
392 224
401 229
411 229
421 229
431 229
440 234
450 234
459 239
469 241
478 246
488 250
498 254
508 254
518 255
528 259
537 264
546 269
554 276
558 286
560 296
563 306
568 315
570 325
575 334
575 344
580 353
580 363
585 372
585 382
585 392
590 401
593 411
595 421
598 431
605 439
610 448
615 457
622 465
630 472
637 480
645 487
645 497
635 500
625 498
618 490
610 483
603 475
594 470
589 461
584 452
580 442
575 433
569 425
569 415
564 406
559 397
559 387
559 377
559 367
559 357
555 347
550 338
549 328
546 318
540 310
530 310
530 320
530 330
530 340
532 350
535 360
540 369
540 379
540 389
545 398
550 407
555 416
555 426
561 434
565 444
570 453
575 462
579 472
585 480
590 489
598 495
600 505
605 514
605 524
605 534
610 543
610 553
610 563
610 573
610 583
610 593
610 603
605 620
600 630
591 635
581 634
574 626
569 617
569 607
574 597
579 582
584 564
581 554
579 544
577 534
572 525
569 515
559 512
555 502
547 495
539 488
532 480
528 470
520 463
513 455
505 447
495 445
497 455
505 462
509 472
515 480
520 489
520 499
520 509
520 519
520 529
520 539
520 549
520 559
515 575
514 587
504 592
494 595
484 591
479 582
479 572
489 567
489 557
494 539
494 529
494 519
489 510
485 500
477 494
472 485
465 477
457 470
450 462
442 455
434 449
429 440
424 431
419 422
414 413
409 404
406 394
404 384
402 374
397 365
393 355
383 355
373 355
363 355
354 360
344 362
334 365
325 370
315 370
305 375
295 380
288 388
278 390
269 395
259 395
250 400
240 405
235 420
235 430
235 440
235 450
235 460
230 475
230 485
230 495
230 505
230 515
230 525
230 535
230 545
230 555
230 565
225 580
220 595
218 613
210 620
200 630
190 635
182 629
182 614
187 604
192 594
194 580
194 570
194 560
194 550
194 539
194 529
194 519
194 509
194 499
194 489
194 479
194 469
194 459
194 449
194 439
189 430
180 435
180 445
180 455
180 465
180 475
180 485
180 495
180 505
180 515
180 525
182 535
185 545
180 555
175 565
170 580
170 590
168 603
160 610
156 620
146 620
136 624
129 616
124 607
129 597
137 589
144 577
149 562
149 552
149 542
149 532
149 522
149 512
149 502
144 493
144 483
140 473
139 463
139 453
139 443
139 433
134 424
134 414
134 404
131 394
129 384
124 375
124 365
124 355
119 346
114 337
114 327
114 317
114 307
114 297
114 287
114 277
119 268
119 258
119 248
119 238
114 229
114 219
114 209
111 199
109 189
109 179
101 173
91 175
81 175
72 180
62 184
52 185
42 185
32 184
