49 167
49 157
59 152
69 147
77 139
87 134
97 134
102 124
111 119
119 105
114 96
114 86
109 77
119 76
125 84
133 90
140 98
144 82
144 72
144 62
144 52
154 49
164 51
168 61
175 69
180 78
185 87
189 97
195 105
195 115
200 124
208 130
215 138
223 145
227 155
235 162
240 171
246 179
254 186
264 189
273 194
282 199
292 199
301 204
311 204
320 209
330 212
340 214
350 217
360 219
370 222
380 224
390 224
400 224
410 227
420 229
430 229
440 232
449 237
457 244
464 252
472 259
479 267
487 274
494 282
500 290
505 299
505 309
505 319
510 328
515 337
515 347
519 357
529 359
539 361
540 371
540 381
540 391
540 401
540 411
540 421
540 431
540 441
540 451
540 461
535 470
525 475
515 475
505 475
495 475
489 467
494 457
504 454
510 446
514 427
514 417
509 408
509 398
503 390
494 385
485 380
485 390
485 400
490 409
490 419
485 430
485 440
484 457
479 467
469 470
459 470
449 470
439 467
439 457
447 449
457 444
462 434
459 417
459 407
459 397
452 389
442 385
433 380
424 375
415 370
407 364
397 360
393 350
383 348
373 350
364 355
354 357
344 360
334 362
324 365
314 367
304 365
295 370
295 380
295 390
295 400
290 410
290 420
290 430
290 440
292 450
290 465
290 475
285 485
285 495
280 510
280 520
275 530
265 530
255 530
245 530
239 522
239 512
249 502
254 492
259 480
259 470
259 460
259 450
259 440
255 420
255 430
250 445
250 455
250 465
248 478
243 488
235 495
230 505
220 505
214 520
204 520
194 516
189 507
194 497
204 494
213 489
219 477
224 465
222 455
219 445
219 435
219 425
219 415
217 405
214 395
214 385
212 375
209 365
209 355
201 349
197 339
189 332
185 322
180 313
174 305
169 296
164 287
164 277
164 267
159 258
159 248
156 238
151 229
144 221
139 212
134 203
128 195
118 195
108 195
98 195
88 195
79 190
69 190
61 184
54 176
