24 162
24 152
34 147
42 139
52 139
61 134
66 125
71 115
79 107
87 99
96 94
105 89
115 89
125 89
135 89
145 87
155 89
164 94
173 99
182 104
189 112
195 120
200 129
200 139
208 145
212 155
217 164
224 172
229 181
235 189
244 194
252 200
260 207
269 212
277 219
286 224
296 224
305 229
315 229
325 232
335 234
345 237
355 239
365 239
375 239
385 239
395 239
405 239
414 244
424 244
434 246
444 249
454 251
463 256
470 264
479 269
487 275
495 282
502 290
512 294
519 302
527 309
534 317
544 321
554 324
564 326
574 329
584 329
593 334
603 334
613 334
622 339
631 344
640 349
641 365
632 370
622 370
612 370
602 370
592 370
583 365
573 365
564 360
554 360
544 360
535 355
525 355
525 365
527 375
532 384
535 394
540 403
545 412
549 422
554 431
558 441
568 445
575 453
575 463
575 473
580 482
580 492
580 502
585 511
588 521
590 531
587 549
579 557
569 560
559 560
549 560
540 555
534 547
542 539
549 530
549 520
549 510
549 500
549 490
544 481
536 475
527 470
518 465
510 458
504 450
495 445
485 450
485 460
485 470
485 480
485 490
485 500
485 510
490 519
485 530
479 540
469 540
459 540
449 537
449 527
454 517
459 504
456 494
454 484
449 475
444 466
439 457
432 449
422 445
413 440
405 433
399 425
391 419
382 414
372 410
363 405
353 405
344 410
334 410
325 415
315 415
305 415
298 423
288 425
278 428
270 435
270 445
270 455
270 465
270 475
270 485
270 495
270 505
270 515
270 525
270 535
265 545
265 555
260 565
253 575
244 580
234 580
224 580
214 576
209 567
217 559
224 547
229 538
229 528
229 518
229 508
229 498
229 488
229 478
229 468
229 458
229 448
224 439
219 430
218 420
209 415
200 420
195 435
195 445
195 455
195 465
190 480
190 490
190 500
185 510
185 520
180 535
179 547
174 557
164 560
154 560
144 560
134 560
125 555
119 547
127 539
137 534
147 529
154 520
154 510
154 500
154 490
154 480
154 470
154 460
154 450
152 440
149 430
149 420
144 411
144 401
139 392
139 382
139 372
134 363
130 353
129 343
129 333
129 323
129 313
125 303
124 293
124 283
120 273
119 263
114 254
114 244
111 234
109 224
109 214
104 205
94 205
84 205
74 205
65 200
55 197
45 193
39 185
29 181
24 172
