49 502
49 492
57 484
67 479
74 467
82 459
87 449
94 437
99 427
107 419
112 409
117 399
124 387
132 379
137 369
144 357
149 347
154 337
159 327
164 317
169 307
167 289
159 282
159 272
159 262
159 252
159 242
167 234
169 218
162 210
159 200
159 190
159 180
157 170
148 165
139 160
129 160
119 160
109 162
99 160
89 156
84 147
77 134
69 127
69 117
69 107
79 102
89 99
98 94
108 94
117 89
127 89
134 77
142 69
152 64
162 59
172 59
182 54
192 54
202 54
211 59
220 64
228 70
235 78
243 85
250 93
255 102
259 112
264 121
265 131
271 139
280 144
289 149
299 151
309 154
318 159
328 160
335 168
345 169
354 174
364 174
374 174
384 174
394 174
404 174
414 174
424 172
434 169
444 169
454 167
464 164
473 169
483 169
493 169
502 164
510 156
514 137
519 127
519 117
524 107
519 98
512 90
503 85
494 80
485 85
478 93
470 100
469 112
464 122
454 121
449 112
449 102
449 92
454 82
459 72
464 62
472 54
481 49
491 49
501 49
511 49
521 49
525 59
535 62
539 72
547 79
550 89
550 99
550 109
550 119
550 129
545 140
540 150
535 165
528 178
523 188
515 195
515 205
520 214
515 225
515 235
515 245
515 255
510 270
508 283
503 293
495 300
495 310
500 319
500 329
500 339
500 349
505 358
505 368
510 377
510 387
510 397
505 410
505 420
507 430
502 439
492 440
482 440
479 430
479 420
481 410
484 400
484 390
475 385
475 395
470 405
470 415
465 425
465 435
460 445
455 455
450 465
443 478
433 483
425 490
418 498
408 500
399 505
390 500
382 494
379 477
387 469
396 464
406 460
416 455
424 442
429 432
429 422
434 407
439 396
439 386
439 376
439 366
439 356
434 347
434 337
429 328
422 320
415 312
410 303
404 295
395 300
385 300
375 305
365 305
355 310
345 310
335 315
325 315
315 320
305 320
295 325
285 325
275 330
265 335
265 345
265 355
265 365
265 375
270 384
270 394
270 404
270 414
270 424
270 434
275 443
268 453
260 460
257 479
247 480
238 485
229 490
219 490
209 487
209 477
209 467
219 462
227 454
234 442
234 432
234 422
229 413
225 403
224 393
220 383
219 373
216 363
210 355
200 360
195 375
185 385
179 397
169 402
159 405
153 413
145 420
140 430
135 445
130 460
123 470
113 473
105 480
100 490
92 504
82 509
74 515
64 515
54 511
