24 157
24 147
32 139
41 134
50 129
59 122
59 112
67 104
75 96
85 91
95 89
104 84
114 82
124 79
134 79
143 84
152 89
155 99
160 108
168 115
175 123
180 132
184 142
189 151
193 161
200 169
205 178
210 187
217 195
227 199
236 204
244 211
253 216
263 219
272 224
282 224
291 229
300 234
310 234
320 234
329 239
339 239
349 239
359 239
369 239
379 241
389 244
399 244
409 244
419 244
429 244
439 246
449 249
459 249
468 254
477 259
486 264
496 264
506 264
516 264
526 264
536 264
546 264
555 259
565 259
574 254
583 249
592 244
602 244
612 239
622 234
618 250
609 255
600 260
591 265
581 265
572 270
562 270
553 275
543 278
535 285
535 295
540 304
540 314
545 323
550 332
550 342
555 351
555 361
555 371
560 380
560 390
565 399
565 409
570 418
578 425
585 433
590 442
597 450
605 457
613 464
622 469
631 474
639 481
645 489
650 498
650 508
650 518
650 528
650 538
650 548
655 557
655 567
655 577
655 587
649 597
639 600
629 600
620 595
614 587
622 579
629 565
629 555
629 545
627 535
624 525
616 518
610 510
600 510
600 520
600 530
600 540
600 550
600 565
600 575
590 580
581 585
571 584
562 579
562 564
572 559
577 549
574 535
572 525
569 515
564 506
559 497
552 489
544 482
535 477
525 473
518 465
509 460
500 455
492 449
484 442
475 437
467 430
460 422
455 413
454 403
448 395
440 388
434 380
424 380
414 380
404 380
395 375
387 369
377 365
367 365
357 365
347 365
337 369
327 370
317 370
308 375
298 375
288 378
278 380
268 383
258 388
248 393
240 400
240 410
240 420
240 430
240 440
240 450
240 460
240 470
240 480
240 490
240 500
240 510
240 520
240 530
238 543
233 553
225 560
225 570
220 585
210 595
200 595
190 595
180 593
174 585
164 581
159 572
167 564
177 559
187 554
194 542
194 532
194 522
194 512
194 502
189 493
189 483
189 473
185 463
184 453
184 443
180 433
179 423
175 413
174 403
170 393
166 383
161 374
159 364
154 355
146 349
142 339
137 330
134 320
129 311
124 302
124 292
129 274
129 264
129 254
124 245
122 235
119 225
119 215
119 205
114 196
114 186
106 180
96 180
86 180
76 180
66 180
56 180
46 178
36 174
29 166
