24 127
24 117
34 114
44 116
54 119
63 124
73 125
83 129
93 130
103 134
113 135
122 140
132 144
141 149
150 154
160 157
169 162
179 166
185 174
195 174
204 179
213 174
222 169
232 169
241 164
251 164
261 164
265 174
265 185
260 195
260 205
260 215
260 225
265 234
273 240
280 248
288 255
295 263
303 269
312 274
319 282
327 289
336 294
346 294
356 294
366 290
376 294
380 304
380 314
385 323
385 333
390 342
394 352
402 359
412 359
422 359
431 364
441 364
451 364
455 374
455 384
455 394
455 404
445 415
435 415
427 424
422 434
414 440
404 436
399 427
394 418
389 409
389 399
384 390
382 380
379 370
369 367
360 362
350 360
341 355
332 350
323 345
314 340
305 335
296 330
286 330
276 330
266 330
256 330
246 330
236 329
232 319
227 310
224 300
219 291
211 285
201 284
194 276
186 270
177 265
168 260
159 255
150 260
140 265
133 273
125 280
115 285
107 299
97 299
89 292
89 282
89 272
89 262
94 247
99 230
99 220
98 210
90 203
83 195
74 190
66 184
62 174
57 165
50 157
44 149
39 140
30 135
