94 527
94 517
99 507
107 499
112 489
120 481
128 474
132 464
140 456
148 449
155 441
163 434
170 426
175 416
183 409
190 401
195 391
203 384
210 376
218 369
225 361
233 354
239 342
247 334
249 322
254 312
259 303
259 293
259 283
254 274
252 264
247 255
244 245
239 236
239 226
234 217
229 208
225 198
219 190
209 190
199 190
190 195
183 203
178 213
170 220
163 228
155 235
147 245
139 252
131 260
121 264
114 256
109 247
114 237
119 227
127 219
132 209
139 200
135 190
129 182
129 172
129 162
129 152
129 142
129 132
139 129
149 129
159 129
169 129
179 129
189 129
198 124
207 119
217 114
227 114
237 114
247 109
249 91
249 81
244 72
244 62
249 52
257 44
262 34
271 29
280 24
290 22
300 24
308 30
315 38
320 47
325 56
330 65
330 75
330 85
332 95
337 104
346 109
356 109
366 109
376 109
385 114
395 117
403 124
412 129
422 129
432 129
442 129
452 129
462 129
472 129
482 129
485 139
485 149
485 159
485 169
485 179
475 190
465 190
470 199
475 208
483 215
490 223
495 232
497 249
489 255
479 252
470 247
460 243
453 235
445 228
438 220
430 213
423 205
415 198
409 190
399 190
389 190
379 190
369 190
360 195
360 205
360 215
355 230
355 240
355 250
350 260
350 270
350 280
350 290
350 300
355 309
360 318
368 325
375 333
383 340
390 348
398 355
405 363
413 370
420 378
428 384
437 389
444 397
452 404
455 414
463 420
470 428
475 437
479 447
485 455
490 464
495 473
500 482
500 492
504 502
505 512
505 522
505 532
505 542
500 560
498 573
488 575
479 570
474 561
469 552
469 542
469 532
464 523
461 513
456 504
454 494
449 485
444 476
439 467
432 459
424 452
420 442
412 435
403 430
395 423
388 415
379 410
371 404
364 396
356 390
347 385
338 380
329 375
320 370
310 370
300 370
293 378
283 383
275 390
268 398
260 405
253 413
245 420
238 428
230 435
223 443
215 450
208 458
200 465
193 473
185 480
175 485
170 495
162 504
152 509
144 517
136 525
127 530
118 535
109 540
99 536
