69 287
69 297
69 307
69 317
69 327
74 345
84 345
94 345
104 345
114 345
124 345
133 350
143 350
153 350
163 350
173 350
183 350
193 350
194 362
189 372
182 384
178 394
170 401
165 411
157 419
152 429
147 439
142 449
137 459
132 469
124 477
119 487
119 497
124 506
129 515
138 510
147 504
155 495
164 490
170 480
178 473
185 460
193 453
203 448
208 438
213 428
220 420
230 410
238 403
245 390
253 383
260 375
269 370
278 375
285 383
293 390
297 400
305 407
314 412
314 422
322 429
326 439
331 448
339 455
344 464
350 472
354 482
362 489
369 497
377 504
386 509
396 510
405 499
405 489
405 479
400 470
395 461
390 452
385 443
380 434
375 425
367 414
362 405
358 395
350 389
347 379
342 370
340 360
351 365
361 365
371 365
381 365
391 365
401 365
411 365
421 368
431 370
441 370
451 370
461 370
471 370
480 365
480 355
485 338
485 328
485 318
480 309
470 309
460 309
450 309
440 309
430 309
420 307
410 304
400 304
390 304
380 304
370 304
360 304
350 302
340 299
330 299
320 299
315 290
315 280
320 270
320 260
325 250
325 240
325 230
330 220
330 210
335 195
340 185
349 180
359 180
368 185
375 193
384 198
389 207
394 216
401 224
409 230
414 239
420 247
427 255
436 260
444 266
454 270
464 267
465 254
462 244
457 235
450 227
442 220
435 212
434 202
430 192
425 183
418 175
410 168
403 160
395 153
390 144
387 134
377 130
369 124
360 119
351 114
341 114
331 114
322 109
312 105
310 95
310 85
310 75
310 65
310 52
300 49
297 39
289 32
282 24
272 24
262 24
253 29
245 36
237 44
232 54
224 62
224 72
224 82
229 91
225 106
218 114
208 110
198 109
189 114
180 119
171 124
162 129
153 134
145 141
137 149
132 159
127 169
119 177
114 187
106 199
97 204
92 214
84 222
79 232
79 242
87 249
95 255
103 248
108 238
118 233
125 225
134 220
142 214
147 204
157 199
165 190
174 185
183 180
193 180
197 190
199 200
202 210
204 220
209 229
211 239
214 249
216 259
219 277
224 286
217 294
207 294
198 289
188 289
178 289
168 289
158 289
148 289
138 289
129 284
119 284
109 284
99 284
89 284
79 284
