94 257
94 247
99 237
104 227
112 219
117 209
124 197
132 189
137 179
144 162
149 152
157 144
165 136
175 131
183 124
192 119
202 114
212 114
222 114
232 109
234 96
234 86
229 77
229 67
229 57
237 49
242 39
250 31
260 26
270 24
280 24
290 27
297 35
305 42
309 52
314 61
315 71
310 85
315 94
320 103
330 107
340 106
350 104
359 99
369 99
379 99
388 94
398 94
408 94
418 94
428 94
435 102
435 112
427 124
419 130
410 135
403 143
393 148
385 155
377 164
367 169
359 175
350 180
345 195
345 205
345 215
340 225
340 235
340 245
335 260
335 270
335 280
335 290
335 300
340 309
345 318
350 327
354 337
360 345
365 354
373 360
377 370
385 377
390 386
396 394
405 399
410 408
418 415
425 423
430 432
435 441
441 449
445 459
453 465
460 473
465 482
470 491
475 500
480 509
480 519
476 530
466 529
457 524
449 517
440 512
432 505
425 497
420 488
414 480
406 473
396 469
389 461
384 452
377 444
369 437
362 429
354 422
349 413
342 405
335 397
325 393
318 385
310 378
304 370
294 370
285 375
278 383
273 393
268 403
263 413
258 423
250 430
245 440
240 450
233 463
228 473
223 483
218 493
213 503
208 513
200 520
195 530
187 539
179 547
169 552
159 551
154 542
154 532
154 522
159 507
164 497
169 487
174 477
179 462
184 452
189 437
194 427
199 417
204 407
209 392
214 382
219 372
224 362
229 347
234 337
234 327
239 317
244 305
244 295
244 285
239 276
239 266
234 257
229 248
225 238
224 228
219 219
214 210
212 200
209 190
200 185
190 185
180 190
173 198
165 205
160 215
153 223
145 230
138 238
130 245
122 254
114 262
104 260
