84 302
84 292
89 282
97 274
102 264
109 252
114 242
119 232
127 224
134 212
139 197
147 189
157 184
165 176
175 171
185 166
195 164
205 164
215 161
223 154
222 135
219 125
219 115
209 115
199 115
189 111
189 101
189 91
189 81
184 72
184 62
194 59
204 59
210 51
219 37
229 34
239 34
249 34
259 34
269 34
279 34
289 34
299 34
309 36
310 46
320 49
330 49
335 58
335 68
343 74
350 82
350 92
350 102
350 112
340 115
330 115
320 115
310 115
300 115
300 125
300 135
302 145
307 154
316 159
326 159
336 159
346 159
355 164
365 167
374 172
384 176
390 184
395 193
403 200
410 208
418 215
422 225
430 232
440 234
450 234
460 234
470 237
477 245
470 260
460 265
451 270
442 275
432 275
423 270
413 270
405 263
399 255
391 249
382 244
377 235
368 230
359 225
350 220
340 225
335 235
335 245
330 255
330 265
330 275
325 290
325 300
325 310
320 325
320 335
322 345
325 355
330 364
335 373
340 382
344 392
349 401
355 409
363 415
367 425
375 432
380 441
389 446
393 456
400 464
405 473
413 480
420 488
425 497
432 505
440 512
447 520
455 527
463 534
472 539
481 544
490 549
492 564
482 565
472 565
463 560
453 560
444 555
434 552
425 547
415 543
408 535
399 530
391 523
381 519
377 509
369 502
362 494
354 487
347 479
339 472
334 463
327 455
320 447
312 440
308 430
299 425
290 420
280 420
270 425
263 433
258 443
253 453
245 460
238 473
230 480
225 490
220 500
213 513
205 520
200 535
200 545
200 555
205 564
205 574
202 589
192 590
182 589
174 582
167 574
159 567
159 557
159 547
159 537
159 527
159 517
159 507
164 497
169 487
174 477
179 467
184 457
189 447
197 439
202 429
207 419
212 409
217 399
222 389
224 372
229 363
229 353
229 343
229 333
224 324
224 314
219 305
214 296
214 286
209 277
205 267
200 258
199 248
192 240
183 235
173 238
163 243
155 250
148 263
140 270
133 283
125 290
115 295
107 304
99 312
89 311
