19 312
19 331
26 339
34 332
44 327
49 317
55 305
60 295
68 288
70 275
75 260
83 253
85 240
90 225
95 215
100 205
108 198
115 190
123 183
133 180
143 180
153 180
163 180
172 185
169 202
169 212
169 222
169 232
169 242
169 252
169 262
169 272
164 282
164 292
159 302
154 317
149 327
149 337
144 347
139 362
134 387
130 406
122 414
114 422
114 432
114 442
124 445
130 453
140 455
150 450
159 455
169 452
179 450
189 447
199 442
205 430
202 415
200 405
200 395
205 380
213 373
215 360
220 345
226 353
229 363
229 373
234 382
234 392
239 401
242 414
237 424
229 432
224 442
224 452
229 461
239 465
248 470
258 470
268 470
278 470
288 470
298 468
308 465
315 449
315 439
315 429
315 419
310 410
310 398
310 388
305 379
305 369
300 360
300 348
300 338
295 329
295 319
290 310
290 300
300 302
310 305
319 310
329 310
339 312
349 310
344 327
344 337
339 347
339 357
334 367
334 377
334 387
329 397
325 417
325 432
335 435
345 437
355 440
364 435
374 435
384 435
394 432
400 415
400 405
400 395
405 380
405 370
410 360
410 350
419 345
429 345
432 355
442 355
450 362
459 367
469 370
478 375
482 385
477 394
469 402
464 412
464 422
464 432
474 435
483 440
493 440
503 440
512 445
521 440
531 440
540 435
550 430
555 412
554 402
550 392
545 383
545 373
545 363
540 354
537 344
529 337
522 329
517 320
510 312
505 303
498 295
490 289
485 280
495 280
503 273
508 263
513 253
515 240
520 229
515 220
515 210
515 198
510 189
504 181
499 172
492 164
484 157
477 149
469 142
462 134
457 125
448 120
440 113
433 105
423 104
415 97
405 94
395 91
385 92
375 92
365 92
355 92
345 89
340 80
337 70
328 65
320 59
310 59
301 54
291 54
282 49
272 49
262 49
252 49
242 49
233 44
228 35
220 29
214 21
205 16
195 16
185 19
175 17
165 19
155 19
145 19
135 21
128 29
120 36
113 44
105 51
97 59
89 67
84 77
84 101
84 121
82 149
72 149
63 144
55 137
47 130
39 124
29 127
35 135
47 154
55 160
64 165
73 170
74 180
69 202
64 217
59 232
54 242
49 257
45 277
37 284
32 294
27 304
