74 317
74 307
82 299
91 294
100 289
109 281
104 272
104 262
104 252
104 242
104 232
104 222
104 212
104 202
104 192
109 177
109 167
114 157
114 147
119 132
124 122
129 112
134 102
142 94
149 82
157 74
165 66
173 59
180 51
188 44
197 39
206 34
215 29
224 24
234 24
244 24
254 24
264 24
274 26
284 29
293 34
302 39
311 44
320 49
329 54
338 49
347 44
357 44
367 44
377 44
386 49
395 54
403 60
410 68
415 77
420 86
425 95
430 104
430 114
430 124
430 134
430 144
430 154
430 164
430 174
430 184
430 194
430 204
430 214
430 224
430 234
430 244
435 253
440 262
447 270
450 280
450 290
445 300
445 310
445 320
445 330
445 340
445 350
440 365
435 380
425 390
415 395
415 405
415 415
410 430
405 440
400 455
395 465
390 480
390 490
390 500
390 510
390 520
385 530
380 545
373 558
365 565
360 575
353 583
345 590
338 598
330 605
320 610
312 619
302 624
292 629
282 630
272 630
263 625
254 620
246 613
236 609
229 601
221 595
212 590
204 583
198 575
190 568
184 560
179 551
174 542
169 533
169 523
169 513
169 503
169 493
163 485
155 478
149 470
144 461
139 452
139 442
139 432
139 422
132 414
124 407
120 397
112 390
109 380
104 371
99 362
95 352
87 345
84 335
79 326
