24 297
24 307
24 331
29 340
32 350
37 359
44 367
49 376
54 385
60 393
68 400
75 408
83 415
89 423
94 432
94 442
99 451
99 461
99 471
99 481
99 491
99 501
99 511
99 521
102 539
106 549
111 558
114 568
119 577
124 586
134 590
140 598
145 607
152 615
160 622
170 625
179 630
188 635
198 635
207 640
216 635
225 630
235 630
243 623
250 615
260 610
268 603
278 598
285 590
295 585
303 578
310 570
310 560
315 550
320 535
320 525
325 515
325 505
325 495
325 485
330 475
338 468
345 455
350 440
355 425
355 415
355 405
363 398
370 390
375 380
375 370
380 360
380 350
380 340
380 330
385 317
385 307
385 297
385 287
380 278
375 269
375 259
375 249
375 239
375 229
375 219
375 209
375 199
375 189
375 179
375 169
375 159
375 149
375 139
370 130
370 120
367 110
363 100
355 94
352 84
342 80
333 75
325 69
316 64
307 59
297 59
287 59
278 54
273 45
265 39
256 34
246 34
237 29
227 29
217 29
207 29
198 34
189 39
180 44
170 46
160 51
150 54
141 59
132 64
123 69
115 76
105 81
97 89
87 94
82 104
77 114
69 122
64 132
59 142
54 157
49 167
49 177
49 187
49 197
49 207
49 217
49 227
49 237
49 247
49 257
45 271
37 279
29 287
