24 317
24 307
29 292
34 282
44 272
49 260
49 250
44 241
44 231
39 222
39 212
39 202
39 192
39 182
39 172
39 162
39 152
44 137
49 127
54 117
59 107
67 99
74 87
82 79
90 71
98 64
105 56
115 51
125 46
133 39
142 34
152 34
162 29
172 29
181 24
191 24
200 19
209 24
219 24
229 24
239 24
247 30
255 37
264 42
272 49
279 57
289 59
299 59
309 61
315 69
324 74
333 79
342 84
351 89
355 99
363 105
365 115
367 125
370 135
370 145
370 155
370 165
370 175
370 185
370 195
370 205
375 214
375 224
375 234
375 244
375 254
375 264
380 273
385 282
390 291
390 301
390 311
390 321
390 331
390 341
385 350
383 368
375 375
368 388
358 393
350 400
350 410
350 420
350 430
345 440
340 450
340 460
333 468
325 475
325 485
320 500
320 510
315 525
315 535
310 550
308 563
300 570
293 578
285 585
275 590
265 595
258 603
250 610
240 615
230 620
220 625
211 630
201 630
191 629
182 624
172 620
163 615
155 608
149 600
140 595
132 589
127 580
120 572
114 564
109 555
107 545
104 535
99 526
99 516
99 506
99 496
99 486
99 476
99 466
99 456
99 446
99 436
94 427
89 418
82 410
73 405
65 398
59 390
54 381
49 372
44 363
37 355
34 345
29 336
24 327
