164 187
164 177
169 167
177 159
187 154
197 149
207 149
216 144
226 144
236 140
244 132
252 124
261 119
269 112
279 107
289 102
299 97
309 94
319 92
329 89
339 89
348 84
357 89
367 89
376 94
386 94
395 99
405 102
414 107
424 111
433 116
440 124
450 127
454 137
462 144
469 152
470 162
477 170
485 177
493 184
502 189
511 194
520 199
528 205
537 210
545 217
553 224
560 232
565 241
570 250
573 263
565 270
561 280
555 288
549 280
549 270
541 264
532 259
524 252
515 247
505 245
495 242
485 240
475 240
465 240
455 240
448 253
440 260
440 270
445 279
450 288
450 298
455 307
460 316
463 326
465 336
470 345
475 354
475 364
480 373
485 382
489 392
490 402
490 412
485 430
485 440
480 450
475 465
470 475
465 485
460 495
455 505
448 518
443 528
438 538
430 545
423 558
418 568
410 575
401 580
392 585
382 589
372 590
362 594
352 595
342 595
332 594
322 590
312 589
302 585
293 580
284 575
276 569
269 561
264 552
260 542
252 535
242 539
234 547
224 552
214 557
204 560
194 556
194 546
189 537
189 527
189 517
194 507
194 497
199 487
204 472
209 462
209 452
209 436
209 426
204 417
204 407
204 397
209 382
214 372
219 362
224 347
229 332
233 315
224 320
214 316
214 306
209 297
209 287
209 277
214 267
214 257
219 242
224 227
227 215
224 205
222 195
219 185
209 185
199 185
189 187
184 197
176 204
169 196
