34 492
34 502
29 517
34 526
34 536
39 545
42 555
52 554
62 550
64 560
74 560
80 550
89 555
92 565
102 564
107 554
114 562
124 560
134 560
144 557
145 545
155 545
160 530
170 530
180 520
180 510
190 510
199 505
209 505
219 505
228 500
238 500
248 500
258 500
268 500
277 490
275 480
285 480
295 480
305 480
315 470
324 465
333 460
343 460
352 465
359 473
360 483
368 490
377 495
387 495
396 500
404 506
411 514
421 518
431 520
439 512
449 507
450 495
460 487
460 477
460 467
454 459
445 454
436 449
427 444
419 437
410 432
400 429
390 425
390 415
390 405
395 395
395 385
405 385
413 378
420 370
420 360
420 350
430 340
437 330
435 320
443 313
445 295
450 285
450 275
447 265
445 255
450 245
450 235
450 225
452 210
450 200
460 195
470 195
480 195
485 180
485 170
485 160
493 151
485 145
493 138
503 133
513 130
522 124
514 114
504 117
494 124
485 129
475 125
480 115
485 105
493 99
502 94
512 89
518 80
508 79
499 84
490 89
480 85
485 73
491 65
494 49
486 55
480 64
470 64
465 55
475 50
480 40
477 29
467 34
462 44
454 52
453 64
445 71
438 79
420 75
430 72
424 64
414 67
409 77
402 89
394 97
389 107
389 117
379 127
369 132
367 144
359 152
354 162
349 172
347 184
337 189
329 197
324 207
319 217
314 227
314 237
314 247
309 262
304 277
304 287
294 297
289 312
288 329
280 336
273 344
264 349
254 349
244 349
234 349
224 352
219 362
209 367
215 375
225 375
234 380
228 394
218 394
208 394
199 399
190 404
180 406
170 409
160 411
154 419
144 422
134 427
124 429
114 429
106 435
101 445
91 450
85 459
75 461
67 469
62 479
52 484
42 484
