39 442
45 450
54 445
39 462
44 475
54 472
60 460
69 465
64 474
57 484
49 492
49 505
59 502
69 500
69 515
79 512
87 519
97 519
105 510
114 515
124 515
134 512
142 505
151 500
161 500
165 490
175 490
184 485
193 480
203 480
212 475
222 475
232 474
242 470
252 470
262 469
267 460
276 455
285 450
293 443
300 430
310 425
320 420
330 415
335 405
340 395
349 390
358 385
359 395
359 405
359 415
359 425
359 435
359 445
359 455
364 464
364 474
372 480
381 475
391 475
401 475
411 475
420 470
430 470
440 460
450 455
460 450
468 443
475 430
485 425
493 418
495 405
505 395
510 380
510 370
515 354
515 344
509 336
499 334
489 334
479 334
470 329
460 329
450 329
440 329
430 329
420 329
410 325
420 315
430 310
440 305
450 300
460 295
465 285
473 278
479 270
485 260
493 253
503 248
508 238
510 225
515 215
515 205
515 195
525 185
530 170
535 160
540 150
550 140
555 130
564 125
570 110
570 100
569 84
555 80
564 75
565 64
555 64
555 54
553 44
544 49
535 54
525 54
525 44
525 34
515 36
508 44
499 49
490 54
486 40
481 49
472 54
467 64
462 74
452 79
444 87
436 99
427 104
419 112
419 122
409 127
404 137
399 152
394 162
384 172
377 189
367 194
359 202
357 214
347 219
337 224
329 232
320 241
313 249
304 244
294 241
284 239
274 239
264 242
264 252
264 262
269 271
269 287
261 299
252 304
244 312
234 317
225 329
215 331
208 339
199 344
189 347
183 359
173 359
164 364
154 364
145 369
136 374
126 375
121 385
111 389
102 394
94 402
84 407
79 417
69 422
59 427
49 432
