69 102
69 112
77 119
87 120
96 125
106 125
116 125
125 130
135 130
145 130
154 135
164 135
174 135
183 140
174 154
164 154
155 149
145 149
136 144
126 144
116 144
106 144
97 139
87 139
77 139
69 147
69 157
75 165
85 167
95 170
105 170
115 170
125 170
134 175
144 175
153 180
163 180
169 188
166 205
156 209
146 209
137 204
127 204
117 204
107 204
97 204
87 204
77 204
69 212
72 229
81 234
89 240
99 237
109 235
119 235
129 235
138 240
148 240
158 240
168 240
177 245
187 245
197 249
207 250
217 250
227 250
237 249
247 244
252 234
255 215
255 200
264 195
273 200
283 200
292 205
302 205
312 205
322 205
331 200
341 203
351 205
361 205
371 205
380 210
390 210
400 212
410 215
420 217
430 220
440 220
450 220
460 220
470 220
480 222
490 225
499 230
509 230
519 230
529 230
535 238
545 240
554 235
564 235
574 232
584 230
590 220
598 213
595 197
595 187
587 180
580 172
572 165
563 160
553 159
543 155
533 154
523 154
513 154
503 154
493 154
484 159
474 159
464 159
454 159
444 159
435 154
425 154
416 149
406 149
397 144
387 140
378 135
368 134
358 130
348 129
339 124
329 121
319 119
309 119
300 114
290 114
280 110
280 100
285 90
285 80
290 67
282 60
273 55
263 54
253 50
243 49
233 49
223 45
213 44
203 44
193 44
183 44
173 44
163 44
154 39
144 36
134 34
124 34
114 31
105 26
97 34
87 34
79 42
79 61
89 65
98 70
108 70
117 75
127 75
137 79
147 80
157 80
166 85
176 88
186 85
194 91
188 104
178 104
168 104
158 100
148 99
138 99
128 99
119 94
109 94
99 94
89 94
79 97
