94 396
89 387
99 382
107 374
117 369
125 361
133 354
142 349
152 349
162 344
172 339
182 339
191 334
201 334
210 329
220 329
230 329
240 327
250 329
260 332
270 334
275 343
285 344
293 350
297 360
302 369
311 374
320 369
339 352
349 347
359 342
367 334
377 329
387 324
396 319
405 314
415 311
423 304
432 299
441 294
450 289
459 282
469 277
479 272
489 267
497 259
507 254
517 249
526 244
536 244
541 235
551 230
561 229
570 224
579 219
588 214
598 214
608 214
618 215
627 220
632 229
635 239
645 242
645 252
639 260
630 265
620 270
614 280
605 285
595 290
585 295
575 300
567 309
557 314
547 319
537 320
527 324
519 332
511 340
502 345
493 350
483 350
474 355
465 360
455 360
445 365
435 370
425 375
415 375
407 384
397 389
387 390
377 394
367 395
358 400
349 405
340 410
335 420
335 430
335 440
330 455
330 465
325 475
320 490
315 505
309 520
300 525
290 535
285 545
275 550
265 555
258 568
248 573
238 578
228 580
218 583
208 585
199 580
204 557
214 552
219 542
229 537
239 527
247 519
255 511
263 504
270 496
275 486
283 479
290 471
293 460
283 463
275 470
265 475
257 485
252 494
243 500
234 505
225 510
216 515
207 520
198 525
189 530
179 526
179 502
189 497
194 487
204 482
214 477
219 467
229 462
239 457
247 449
255 441
265 436
267 420
257 420
247 424
237 425
227 429
217 434
209 440
200 445
191 450
181 450
171 453
161 455
152 460
142 460
132 459
132 444
137 434
142 424
152 419
162 414
171 409
180 404
189 399
199 396
209 392
219 389
229 389
239 387
249 387
259 384
269 380
261 370
252 365
242 365
232 365
223 360
214 355
204 355
195 360
185 360
175 365
165 365
155 370
145 375
138 383
130 390
126 400
117 405
108 410
99 405
