34 332
34 322
39 312
44 302
52 294
60 286
68 279
77 274
86 269
94 257
104 252
114 249
124 247
129 237
134 227
144 222
154 217
164 212
174 209
184 207
194 204
204 202
214 199
224 199
233 194
243 194
247 184
252 174
257 164
259 150
259 140
259 130
259 120
259 110
249 110
239 110
229 110
219 106
214 97
224 92
234 89
244 87
254 84
264 82
264 72
264 62
264 52
264 42
264 32
272 24
281 29
285 39
290 48
290 58
295 67
300 76
306 84
315 89
325 89
335 89
345 89
355 92
355 102
345 105
335 110
325 115
315 120
305 120
300 130
300 140
300 150
305 159
305 169
310 178
318 184
328 185
338 189
348 190
358 194
368 195
378 199
387 204
397 204
406 209
416 209
426 209
435 214
440 223
440 233
448 239
457 244
466 249
475 254
485 257
489 267
499 271
503 281
513 285
520 293
528 299
535 307
535 317
530 330
528 348
520 355
513 363
503 368
493 373
483 378
475 385
465 390
455 395
446 400
437 405
428 410
419 415
409 415
399 415
390 420
380 420
370 420
360 420
350 420
340 420
330 420
320 420
310 420
300 420
290 420
280 420
270 420
260 420
250 420
240 420
230 420
220 420
210 420
200 420
191 415
181 415
171 415
162 410
152 410
143 405
134 400
124 397
115 392
105 388
96 383
86 379
77 374
67 370
58 365
50 358
44 350
39 341
