34 317
34 307
42 299
50 291
58 284
67 279
75 271
83 264
92 259
101 254
110 249
119 244
128 239
132 229
137 219
147 214
157 209
167 204
177 204
187 199
197 199
207 194
217 194
227 189
237 189
247 184
249 169
249 159
249 149
249 139
249 129
249 119
244 110
234 110
224 110
214 106
209 97
217 89
227 84
237 84
246 79
256 79
265 74
269 57
269 47
269 37
274 27
284 24
292 30
295 40
295 50
300 59
300 69
305 78
315 79
325 79
335 79
345 82
350 91
345 105
335 105
325 105
315 110
305 110
300 120
300 130
300 140
300 150
300 160
300 170
302 180
307 189
316 194
326 194
335 199
345 199
354 204
364 204
374 204
384 204
394 204
404 204
414 204
423 209
432 214
435 224
435 234
435 244
440 253
448 259
457 264
466 269
476 269
486 269
496 269
505 274
515 277
522 285
527 294
530 304
530 314
525 325
520 335
515 345
505 350
497 359
487 364
477 369
467 374
457 379
447 384
437 389
427 394
417 399
407 400
397 400
387 400
377 400
367 400
357 400
347 400
337 400
327 399
317 395
307 395
297 395
287 395
277 395
267 395
257 395
247 395
237 395
227 394
217 390
207 390
197 390
187 389
177 385
167 385
157 385
148 380
138 380
128 380
119 375
109 375
99 375
90 370
80 370
71 365
62 360
55 352
49 344
44 335
39 326
