24 302
24 292
29 282
39 277
49 272
59 267
69 262
77 254
86 249
95 244
105 241
109 227
114 217
124 212
134 207
144 204
154 202
164 197
172 189
182 184
192 184
202 184
211 179
221 179
231 179
241 179
251 179
254 165
254 155
254 145
254 135
254 125
245 120
235 118
229 110
224 101
219 92
219 82
229 77
239 79
249 79
254 62
254 52
259 42
264 32
272 24
282 24
289 32
285 45
285 55
285 65
290 74
299 79
309 79
319 79
329 79
339 81
337 94
329 100
320 105
310 105
300 105
290 105
290 115
290 125
290 135
290 145
290 155
290 165
290 175
290 185
300 189
310 189
320 189
330 189
340 189
350 189
360 189
370 189
380 192
389 197
399 199
409 201
418 206
425 214
425 224
433 230
443 234
453 235
462 240
472 244
479 252
487 259
496 264
500 274
508 280
515 288
520 297
520 307
520 317
518 333
510 340
502 349
492 354
482 355
472 359
462 364
452 365
442 369
432 374
422 375
412 379
402 380
392 384
382 385
372 389
362 390
352 390
342 390
332 390
322 390
312 390
302 394
292 395
282 395
272 395
262 395
252 395
242 395
232 395
222 395
212 395
202 395
192 395
182 394
172 390
162 389
152 385
142 384
132 380
122 379
112 375
102 374
92 370
82 369
72 365
63 360
54 355
46 349
42 339
37 330
34 320
29 311
