94 291
89 282
97 274
105 266
113 259
117 249
124 237
132 229
137 219
144 207
152 199
159 187
169 186
178 191
188 195
197 200
205 207
210 216
205 225
198 233
190 240
185 250
187 260
195 267
205 269
213 275
222 280
227 289
236 294
245 299
254 304
262 310
272 309
279 317
289 321
299 321
308 326
318 330
325 338
335 342
343 349
352 354
361 359
369 366
378 371
388 375
395 383
403 390
412 395
420 402
430 404
439 409
445 417
453 424
462 429
471 434
479 441
485 449
490 458
498 464
505 472
514 477
524 479
530 487
538 494
547 499
554 507
555 517
549 532
541 540
531 540
522 535
513 530
504 525
495 520
485 518
479 510
469 510
460 505
450 502
442 495
432 494
422 490
415 482
405 478
399 470
389 470
381 464
372 459
367 450
357 449
347 445
338 440
330 433
323 425
315 418
309 410
300 405
291 400
282 395
275 387
267 380
263 370
255 363
249 355
244 346
239 337
230 332
224 324
219 315
209 315
201 309
192 304
184 297
177 289
167 285
157 289
152 299
144 307
137 315
128 310
118 310
109 305
101 299
