29 312
37 289
45 282
44 272
44 262
44 252
44 242
44 232
44 222
44 212
44 197
49 182
49 172
54 162
67 139
72 129
79 117
87 109
92 99
97 89
102 79
110 71
119 62
129 57
137 49
147 44
157 39
167 34
176 29
186 25
196 24
205 19
215 16
220 25
210 35
210 50
205 65
205 80
200 90
200 100
200 110
195 120
195 130
195 140
190 150
190 160
190 170
190 180
200 184
210 184
220 184
229 189
238 184
248 184
258 184
268 185
278 184
288 185
298 184
308 184
318 184
328 184
337 189
346 184
356 184
365 189
374 184
384 184
394 184
404 184
413 189
422 184
432 184
442 184
452 184
462 184
472 184
482 184
492 184
502 184
512 184
522 184
532 184
542 184
552 184
561 189
570 184
580 184
590 187
600 184
610 184
620 184
629 189
638 184
648 184
658 184
668 185
670 195
670 205
670 215
670 225
670 235
670 245
670 255
670 265
661 275
651 275
641 275
631 275
622 270
613 275
603 275
593 275
583 275
573 275
563 275
554 270
545 275
535 275
526 270
517 275
507 275
497 275
487 275
477 275
467 275
457 274
447 274
437 274
427 274
417 275
407 275
397 275
388 270
379 275
369 275
359 275
349 275
339 275
329 275
319 275
310 270
301 275
292 270
283 275
273 275
263 275
254 270
245 275
235 275
225 275
215 275
205 275
195 275
195 285
205 289
210 298
210 308
210 318
210 328
210 338
210 348
210 358
210 368
207 384
197 385
187 385
177 385
167 385
157 385
147 385
137 385
127 385
117 385
107 385
97 385
87 385
77 385
67 385
57 385
47 385
37 384
