204 237
204 227
214 224
224 224
234 226
240 234
250 237
254 247
262 254
265 264
270 273
275 282
282 290
290 297
294 307
302 314
305 324
314 329
323 334
315 313
309 305
307 295
300 287
294 279
289 270
289 260
284 251
279 242
274 233
271 223
266 214
264 204
264 194
274 192
284 189
294 189
304 191
310 199
315 208
320 217
327 225
332 234
339 242
344 251
348 261
355 269
364 274
364 263
359 254
356 244
354 234
349 225
344 216
344 206
339 197
339 187
349 184
359 184
369 184
379 184
389 184
399 186
400 196
405 205
407 215
410 225
412 235
415 245
417 255
427 259
434 249
434 239
434 229
429 220
429 210
424 201
424 191
419 182
429 179
439 179
449 179
458 174
468 174
478 175
485 183
485 193
485 203
490 212
490 222
490 232
494 242
495 252
500 261
503 271
505 281
508 291
515 299
515 309
520 318
525 327
534 332
542 339
549 347
559 349
568 344
572 334
579 322
579 312
584 297
584 287
589 277
589 267
589 257
594 247
602 239
609 227
617 219
626 214
635 209
645 209
653 215
660 223
658 238
650 245
650 255
650 265
650 275
650 285
648 303
640 310
640 320
640 330
635 340
635 350
635 360
630 370
630 380
625 395
620 410
615 420
610 430
605 445
605 455
603 468
595 475
593 488
588 498
580 505
570 510
565 525
564 542
554 545
544 545
534 545
524 545
514 545
504 545
494 545
484 545
474 545
464 545
454 545
444 545
434 545
424 545
414 545
404 545
394 545
384 545
374 545
364 541
359 532
352 524
344 517
340 507
335 498
329 490
327 480
324 470
322 460
319 450
317 440
310 432
305 423
304 413
299 404
294 395
294 385
289 376
284 367
277 359
272 350
268 340
260 333
254 325
249 316
244 307
239 298
232 290
228 280
220 273
214 265
214 255
209 246
