24 167
24 157
32 149
41 154
51 154
60 159
70 159
80 159
90 159
100 159
110 156
120 151
132 149
127 140
123 130
115 123
109 115
104 106
99 97
109 92
117 84
124 92
129 101
135 109
143 115
150 123
155 132
163 139
172 134
182 134
192 129
202 129
212 129
222 129
232 129
242 124
252 124
262 124
272 124
281 119
291 115
301 110
311 105
321 100
331 95
341 90
351 89
360 84
369 79
378 74
388 74
397 69
407 64
417 64
427 64
437 64
447 64
450 74
455 83
450 95
445 105
435 110
426 115
417 120
407 120
398 125
388 128
378 133
368 138
358 140
349 145
340 150
330 155
330 165
335 174
344 169
354 167
364 164
374 162
384 159
394 159
403 154
413 154
423 154
433 154
443 154
452 149
461 144
471 144
481 140
491 139
501 139
511 139
521 139
531 139
539 146
543 156
543 173
538 183
528 188
520 195
510 195
500 195
490 195
481 200
471 200
462 205
452 205
442 205
433 210
423 213
413 215
403 215
394 220
385 225
375 225
380 234
390 234
400 234
410 231
420 229
430 229
440 229
450 229
460 229
470 229
480 226
490 224
500 224
510 224
520 224
530 224
540 224
550 224
560 224
570 227
575 236
580 245
578 263
573 273
565 280
555 280
546 285
536 285
526 285
516 285
506 285
496 285
486 285
476 285
466 285
457 290
447 290
437 290
427 290
417 290
407 290
398 295
389 290
380 295
370 295
375 304
384 309
394 309
404 309
414 311
424 314
434 316
444 319
454 319
464 319
474 319
483 314
493 314
503 314
513 314
523 315
533 319
542 324
549 332
550 342
545 355
538 363
528 368
518 370
508 370
498 370
488 370
479 375
469 375
460 370
450 370
440 370
430 370
420 370
410 370
400 370
390 367
380 365
370 365
360 365
350 365
355 374
363 380
370 388
375 397
382 405
390 412
395 421
401 429
409 436
415 444
420 453
428 460
421 475
412 480
404 487
396 494
389 486
384 477
377 469
372 460
365 452
359 444
354 435
346 429
342 419
334 412
329 403
322 395
315 387
310 378
304 370
295 365
285 365
275 370
268 378
258 383
250 390
250 400
255 409
265 412
273 419
282 424
289 432
299 436
305 444
313 450
320 458
325 467
330 476
335 485
340 494
340 504
335 520
331 530
322 535
313 530
305 523
298 515
289 510
279 507
275 497
265 493
258 485
249 480
239 477
232 469
222 465
213 460
204 455
195 450
186 445
177 440
168 435
159 430
150 425
141 420
132 415
125 407
115 403
108 395
100 388
94 380
86 373
81 364
77 354
69 347
62 339
52 335
43 330
34 325
29 316
29 306
29 296
29 286
29 276
29 266
29 256
29 246
24 237
24 227
24 217
24 207
24 197
24 187
24 177
