69 182
69 172
77 164
87 164
97 164
106 169
114 176
118 186
120 196
123 206
125 216
125 226
130 235
132 245
140 252
140 262
144 272
149 281
153 291
160 299
169 289
169 279
166 269
164 259
164 249
159 240
159 230
159 220
159 210
159 200
159 190
159 180
154 171
149 162
149 152
149 142
149 132
149 122
149 112
149 102
149 92
157 84
166 79
176 79
186 79
194 86
200 94
205 103
205 113
205 123
205 133
205 143
210 152
210 162
210 172
210 182
214 192
215 202
219 212
220 222
220 232
225 241
225 251
234 246
234 232
234 222
234 212
234 202
234 192
234 182
234 172
234 162
234 152
234 142
234 132
234 122
234 112
234 102
234 92
234 82
234 72
239 57
247 49
257 49
267 49
277 49
284 57
290 65
295 74
295 84
295 94
295 104
295 114
295 124
295 134
290 150
290 160
295 169
295 179
295 189
295 199
295 209
295 219
295 229
295 239
295 249
295 259
304 264
309 247
309 237
314 227
314 217
319 207
319 197
324 182
324 172
324 162
324 152
324 142
324 132
324 122
324 112
329 97
337 89
346 84
356 84
365 89
373 95
377 105
380 115
380 125
380 135
380 145
380 155
380 165
375 180
375 190
375 200
375 210
375 220
370 235
370 245
365 255
365 265
365 275
365 285
365 295
365 305
365 315
360 330
360 340
360 350
365 359
365 369
375 372
379 382
387 389
397 389
402 379
410 371
415 361
423 354
430 346
438 339
445 331
453 324
462 319
471 314
480 309
489 304
499 304
509 304
518 309
527 314
530 324
530 334
523 343
513 348
505 355
495 365
488 373
483 383
475 390
468 403
460 410
453 423
448 433
440 440
438 453
430 460
423 473
415 480
410 490
403 503
395 510
388 518
380 525
373 533
365 540
357 549
349 555
339 555
330 560
323 568
315 575
310 585
309 597
299 600
289 600
279 600
269 600
259 600
249 600
239 600
229 600
219 600
209 600
199 600
189 600
179 600
169 600
159 600
149 600
139 600
129 597
129 587
134 572
139 562
139 552
144 543
144 533
144 523
140 513
139 503
134 494
131 484
129 474
126 464
124 454
124 444
119 435
119 425
119 415
119 405
119 395
119 385
119 375
119 365
119 355
117 345
114 335
112 325
109 315
104 306
99 297
94 288
89 279
89 269
84 260
82 250
79 240
74 231
74 221
69 212
69 202
69 192
