24 87
24 77
29 67
34 57
39 47
49 42
59 37
69 32
79 27
89 24
99 24
109 24
119 24
129 24
139 24
148 29
157 34
166 39
175 44
185 47
194 52
200 60
202 70
205 80
205 90
205 100
205 110
205 120
205 130
205 140
210 149
215 158
220 167
227 175
232 184
239 192
247 199
250 209
258 215
265 223
270 232
280 231
288 224
295 216
300 206
305 196
310 186
318 179
325 171
330 161
335 151
340 141
345 131
349 117
349 107
349 97
349 87
354 72
354 62
359 52
367 44
377 39
387 34
397 34
407 34
417 34
427 34
436 39
445 44
455 47
464 52
474 56
483 61
493 65
500 73
508 79
515 87
520 96
525 105
530 114
535 123
535 133
540 142
540 152
540 162
540 172
540 182
540 192
535 210
535 220
530 230
530 240
525 250
520 260
515 270
508 283
500 290
495 300
488 308
480 315
476 325
467 330
462 339
454 345
445 350
437 359
429 365
420 370
412 379
402 384
394 390
385 395
377 404
367 409
357 414
347 419
337 424
328 430
319 435
310 440
302 449
292 454
284 462
274 460
264 457
257 449
249 442
245 432
237 425
228 420
220 413
214 405
204 402
197 394
189 387
180 382
172 375
163 370
155 363
149 355
140 350
132 344
127 335
118 330
109 325
104 316
99 307
104 297
109 287
114 277
119 261
119 251
114 242
110 232
102 225
95 217
87 210
83 200
74 195
69 186
64 177
57 169
49 162
44 153
39 144
34 135
29 126
24 117
24 107
24 97
