54 126
49 117
57 109
64 117
69 107
77 99
87 99
96 104
106 104
116 104
125 109
135 112
145 114
154 119
164 121
173 126
183 130
193 134
202 139
211 144
220 149
230 152
239 157
249 161
255 169
265 172
274 177
284 179
293 174
303 174
312 169
322 169
332 169
342 169
352 169
362 169
365 179
370 188
370 198
370 208
375 217
375 227
375 245
365 250
370 259
378 265
385 273
393 280
400 288
408 295
415 303
423 310
430 318
438 325
445 333
453 339
462 344
469 352
479 356
489 359
499 359
508 364
518 364
528 365
538 369
548 369
558 370
567 375
577 379
584 387
578 398
568 400
559 405
549 405
539 405
529 405
519 405
510 410
500 410
495 420
500 429
500 439
500 449
500 459
505 468
505 478
505 488
500 505
490 503
483 495
475 488
471 478
466 469
459 461
454 452
449 443
444 434
439 425
434 416
429 407
422 399
412 399
402 399
392 395
382 395
372 395
362 395
352 395
342 395
332 395
322 395
313 390
305 383
301 373
296 364
291 355
282 350
273 345
263 345
254 340
244 337
235 332
225 330
225 340
224 352
216 360
207 365
197 369
189 362
189 352
189 342
189 332
194 319
189 310
181 304
172 299
164 292
155 287
147 280
140 272
132 265
128 255
120 248
114 240
106 234
102 224
97 215
90 207
82 200
79 190
71 184
67 174
62 165
59 155
54 146
54 136
