139 502
139 492
149 487
159 484
168 479
178 479
184 467
192 459
199 447
204 437
209 427
214 417
219 407
224 397
229 387
234 377
239 367
244 357
249 342
254 331
254 321
249 312
254 297
259 282
259 272
264 262
272 254
277 244
285 236
293 229
299 217
307 209
309 197
314 182
319 172
324 157
329 147
334 137
339 119
339 109
334 100
325 95
317 89
307 85
298 80
289 75
279 75
271 69
264 61
259 52
259 42
267 34
277 29
286 34
296 34
306 34
316 34
326 34
336 34
346 34
356 34
366 30
376 25
386 24
390 40
395 49
400 58
405 67
409 77
414 86
415 96
420 105
420 115
420 125
420 135
420 145
420 155
425 164
425 174
425 184
425 194
425 204
425 214
430 223
430 233
435 242
440 251
440 261
440 271
445 280
447 290
450 300
455 309
460 318
468 325
475 333
483 339
492 344
499 352
507 359
516 364
525 369
534 374
543 379
552 384
559 392
567 399
574 407
582 414
589 422
595 430
600 439
605 448
613 455
622 460
630 467
637 475
642 484
645 494
645 504
645 514
643 528
638 538
633 548
625 555
620 565
613 573
605 580
598 588
590 595
583 603
578 613
570 620
565 630
560 640
553 653
545 660
537 669
527 674
518 680
509 675
499 672
499 662
504 652
504 642
509 632
514 622
519 607
524 597
529 587
530 575
520 580
515 590
510 600
505 610
503 623
498 633
493 643
488 653
480 660
473 668
463 673
458 683
450 690
445 700
438 708
430 715
420 720
410 725
404 735
394 735
385 730
379 722
387 714
397 709
407 704
416 699
425 694
431 685
439 677
447 669
452 659
457 649
462 639
464 627
469 617
474 602
474 592
474 575
465 580
460 590
455 605
455 615
447 624
437 629
429 635
419 637
409 642
401 650
392 655
383 660
374 665
365 670
356 675
347 680
339 687
329 685
319 681
314 672
322 664
332 659
342 659
351 654
361 650
371 649
379 642
389 637
397 629
405 621
413 614
417 604
424 587
429 572
434 557
439 542
444 527
444 517
447 499
442 490
439 480
431 473
421 469
412 464
402 460
393 455
385 448
378 440
369 435
361 429
354 421
349 412
344 403
337 395
328 390
318 388
310 395
303 403
295 410
290 420
283 428
278 438
270 445
263 458
255 465
248 473
240 480
235 490
227 504
222 514
212 519
204 527
194 530
184 526
179 517
187 509
197 504
207 499
215 491
223 484
227 474
234 462
239 452
244 442
249 432
258 419
264 410
260 400
253 408
248 418
240 425
233 433
225 440
218 453
210 460
203 468
198 478
193 488
185 495
177 504
167 509
157 510
147 509
