24 142
24 132
32 124
37 114
39 102
44 92
49 82
54 72
59 62
64 52
69 42
77 34
87 34
97 34
106 29
115 24
124 29
133 34
142 39
151 44
161 44
170 49
179 54
187 60
195 67
202 75
210 82
217 90
225 97
232 105
240 112
244 122
249 131
255 139
265 142
272 150
282 149
291 144
301 144
309 151
315 159
325 162
335 161
345 156
353 149
357 139
366 134
376 130
386 134
390 144
390 154
398 160
408 164
417 159
427 159
437 159
446 154
456 154
466 154
476 154
486 154
496 154
506 154
514 147
519 137
527 129
537 124
547 124
557 124
567 124
576 129
585 134
593 140
597 150
600 160
605 169
605 179
610 188
615 197
615 207
620 216
625 225
630 234
635 243
635 253
640 262
640 272
640 282
635 300
635 310
630 320
628 333
623 343
615 350
607 364
597 365
594 355
594 345
594 335
592 325
588 315
580 308
574 300
574 290
569 281
569 271
569 261
564 252
564 242
564 232
564 214
564 204
564 194
559 185
550 180
540 180
540 190
545 199
545 209
550 218
555 227
555 237
555 247
555 257
555 267
560 276
560 286
560 296
560 306
560 316
563 326
568 335
575 343
580 352
584 362
585 372
583 383
575 390
575 400
575 410
575 420
575 430
575 440
575 450
575 460
575 470
575 480
575 490
569 502
559 500
549 497
549 487
549 477
549 467
549 457
549 447
549 437
549 427
549 417
544 408
541 398
536 389
529 381
524 372
517 364
507 360
498 355
489 350
480 345
480 355
485 364
490 373
490 383
490 393
490 403
490 413
488 423
480 430
480 440
475 455
470 470
470 480
468 493
460 500
450 500
442 494
442 479
447 469
449 457
449 447
449 437
449 427
449 417
449 407
449 397
444 388
438 380
430 373
424 365
419 356
414 347
407 339
402 330
395 322
387 315
379 322
369 327
359 332
349 337
339 342
329 347
319 352
309 355
300 360
290 360
280 365
275 375
275 385
275 395
275 405
275 415
275 425
275 435
270 450
270 460
270 470
270 480
270 490
270 500
270 510
264 527
254 530
244 530
239 521
234 512
239 497
244 479
244 469
244 459
239 450
230 455
230 465
225 480
225 490
225 500
220 510
222 520
214 535
204 535
194 531
194 507
194 497
194 487
194 477
194 467
194 457
194 447
199 431
194 422
194 412
194 402
199 385
199 375
199 365
197 355
194 345
189 336
184 327
180 317
174 309
169 300
164 291
159 282
159 272
159 262
164 253
164 243
160 233
159 223
159 213
155 203
154 193
154 183
149 174
146 164
142 154
137 145
130 137
120 135
110 140
100 145
91 155
82 160
73 165
63 168
53 170
43 170
34 165
24 162
24 152
