109 207
109 197
114 187
114 177
122 169
130 161
140 156
150 151
160 146
170 144
180 141
188 134
197 129
207 129
216 124
226 124
235 119
245 119
255 119
264 114
274 114
284 114
294 112
304 109
314 109
324 109
334 109
344 109
354 109
364 109
373 114
382 119
389 127
394 136
400 144
405 153
405 163
413 169
422 174
429 182
439 184
449 184
459 186
469 184
479 184
489 184
499 184
509 186
519 184
529 184
539 184
549 184
559 184
568 189
577 184
587 184
597 184
607 184
616 189
625 184
635 184
645 187
654 192
662 199
657 214
652 224
644 232
634 237
624 242
614 245
604 245
595 240
586 245
576 244
567 239
557 235
547 239
537 244
527 245
517 245
507 245
498 240
489 235
479 237
469 240
460 245
453 253
445 260
440 270
430 270
420 275
413 283
405 290
400 300
395 310
388 318
380 325
371 330
361 330
351 330
341 330
331 330
322 325
312 325
303 320
293 320
283 320
273 320
263 320
254 315
244 315
234 315
225 310
215 310
205 310
196 305
187 300
177 299
167 295
157 294
147 290
138 285
129 280
121 274
114 266
109 257
109 247
109 237
109 227
109 217
