24 152
24 142
29 127
37 119
46 114
54 107
64 102
72 94
82 94
84 77
92 69
99 57
99 47
109 44
118 39
127 34
135 26
145 24
153 30
160 38
168 45
170 55
178 61
185 69
194 74
204 71
214 72
224 76
228 86
238 89
247 84
254 92
262 99
270 105
280 107
290 107
300 104
309 99
319 99
329 99
339 99
349 99
359 99
369 99
379 99
389 97
399 96
409 94
418 99
428 99
437 94
447 94
457 94
467 94
477 94
487 89
496 94
506 94
516 90
526 90
536 94
545 99
553 105
560 113
560 123
560 133
558 143
550 150
542 159
534 167
524 165
514 165
504 165
495 160
485 160
475 160
465 160
455 160
445 160
437 169
428 175
418 175
408 178
398 180
388 180
378 180
368 180
358 180
348 180
338 180
328 180
318 183
308 188
300 195
292 204
284 212
274 215
264 215
255 220
245 225
235 225
225 232
215 230
208 238
200 245
193 253
185 260
178 268
168 273
158 275
148 275
138 275
130 268
121 263
111 259
109 249
107 239
97 235
94 225
94 215
85 210
76 205
66 204
57 199
47 195
39 189
34 180
29 171
24 162
