24 127
32 109
39 87
39 77
44 67
57 49
67 44
77 44
86 39
94 32
104 32
114 27
124 24
134 24
144 24
154 24
164 24
172 30
182 34
192 34
199 42
207 49
210 59
220 62
225 71
234 76
240 84
240 94
248 100
258 99
268 99
278 99
288 99
298 99
308 99
318 99
327 104
337 104
347 104
357 104
367 104
377 104
387 104
396 109
406 109
416 109
426 109
436 109
446 109
456 109
466 105
476 104
485 109
495 109
505 109
515 109
525 112
535 114
544 119
545 129
555 132
555 145
552 159
542 164
534 172
526 180
517 185
507 185
497 185
487 185
478 180
469 175
459 175
450 180
440 185
431 180
422 185
414 179
409 170
399 170
389 170
379 170
370 175
363 183
353 185
343 183
333 185
323 185
313 185
303 188
295 195
287 204
277 205
270 197
260 195
250 195
240 195
230 200
223 208
215 215
209 225
200 230
190 235
184 245
175 250
167 259
157 259
147 259
137 260
127 260
117 260
107 259
98 254
90 248
84 240
75 235
65 237
55 233
49 225
49 215
41 209
39 199
34 190
29 181
29 171
24 162
29 136
