124 232
124 222
129 207
137 199
145 191
153 184
162 179
164 162
164 152
169 137
177 129
186 124
195 119
205 119
215 116
225 117
235 119
245 119
255 119
265 119
275 119
285 122
295 124
305 124
315 124
325 127
334 132
342 139
345 149
350 158
350 168
358 174
368 175
378 179
388 179
398 180
402 190
405 200
410 209
419 204
428 209
437 214
447 209
457 209
467 209
477 209
486 214
495 219
504 224
514 224
523 219
532 214
542 214
552 214
561 219
571 219
579 226
589 227
599 224
609 224
619 224
629 224
639 224
645 232
652 240
657 249
664 257
664 270
655 275
645 280
635 280
625 280
615 280
605 280
595 280
585 280
575 280
565 280
555 280
545 280
535 280
525 280
515 280
505 280
495 280
485 280
475 280
465 280
455 280
445 280
435 277
425 275
415 275
405 275
395 275
385 275
375 275
375 285
369 295
359 295
350 300
343 308
335 315
330 325
323 335
314 340
304 340
294 340
284 340
274 340
265 345
255 345
246 340
236 340
226 340
216 340
206 340
196 340
187 335
177 334
167 330
164 320
159 311
159 301
159 291
154 282
145 277
139 269
134 260
129 251
124 242
