25 215
19 207
27 199
37 199
46 194
56 190
64 182
74 177
84 172
94 167
104 162
114 157
124 154
133 149
140 141
150 136
158 129
165 121
173 114
177 104
185 96
190 86
195 76
200 66
208 59
212 49
219 37
227 29
235 21
243 14
253 14
262 19
269 27
277 34
284 42
292 49
301 54
309 61
315 69
320 78
328 85
335 93
340 102
345 111
348 121
350 131
355 140
355 150
360 159
360 169
370 172
379 177
380 187
378 198
370 205
372 215
382 219
392 219
402 219
412 219
422 219
432 219
441 224
451 224
461 224
471 224
481 224
491 224
501 224
511 224
521 224
531 224
541 224
551 224
561 224
571 224
581 224
591 224
601 224
610 229
627 234
619 240
609 240
599 240
589 240
579 242
569 245
559 245
549 245
539 245
529 245
519 245
510 250
500 250
490 250
480 250
470 250
460 250
450 250
440 255
430 255
420 255
410 255
400 260
390 260
380 265
375 275
375 290
368 298
360 305
353 313
345 320
340 335
335 350
328 358
320 365
315 375
307 384
299 390
290 395
280 400
272 409
263 415
254 420
245 425
236 430
227 435
218 430
209 425
201 419
194 411
189 402
185 392
180 383
174 375
174 365
166 359
164 349
159 340
157 330
153 320
145 313
138 305
130 298
123 290
115 283
108 275
99 270
91 264
84 256
76 250
67 245
60 237
52 230
43 225
34 220
