134 662
139 651
142 634
151 629
161 629
171 629
181 629
191 629
201 629
210 634
215 643
223 649
232 644
241 649
251 645
259 633
259 623
253 615
245 608
239 600
229 582
229 572
234 557
239 542
239 532
239 522
244 512
249 502
249 492
259 483
259 473
259 463
252 455
249 445
240 440
233 448
225 455
215 455
207 465
199 472
189 477
179 482
169 485
160 480
154 472
164 467
164 457
164 447
172 439
174 427
189 407
189 397
197 389
199 377
199 367
204 352
212 344
209 332
214 322
214 312
222 304
224 282
224 272
229 262
234 237
239 223
239 213
233 205
224 200
216 193
210 185
202 179
199 162
199 152
199 142
199 132
199 122
199 112
199 102
204 92
212 84
219 67
229 64
239 61
249 64
259 64
269 64
279 64
289 61
299 64
309 66
318 71
328 75
337 80
342 89
345 99
350 108
355 117
355 127
350 145
352 155
362 159
364 147
369 132
377 124
384 112
394 107
402 99
412 99
420 91
428 85
438 89
448 89
458 89
468 89
478 89
487 94
496 99
506 99
510 109
510 119
520 122
524 132
530 140
535 149
540 158
545 167
540 185
535 195
535 205
530 215
525 225
515 230
510 240
505 250
500 260
492 269
482 270
472 270
462 270
452 270
442 270
435 262
425 260
415 260
415 270
413 283
403 288
395 295
385 305
383 318
375 325
365 330
360 340
365 349
375 352
384 357
392 364
400 370
408 376
415 384
415 394
424 399
430 407
438 414
448 414
458 415
468 414
478 414
485 422
494 427
502 434
507 444
499 450
489 450
480 445
471 440
461 440
452 445
442 449
437 440
427 440
423 430
414 425
413 415
405 408
398 400
390 393
383 385
374 380
365 385
365 395
365 405
365 415
365 425
365 435
365 450
370 459
375 468
375 478
375 490
380 499
380 510
385 519
390 528
398 534
408 534
418 535
425 543
435 547
445 549
455 549
465 549
475 549
484 537
494 527
499 517
507 509
515 501
524 496
524 477
524 467
524 457
524 442
524 432
529 422
529 412
534 402
539 392
547 384
556 379
565 374
574 369
583 364
593 369
588 378
580 385
570 385
563 393
553 398
545 405
545 415
545 425
545 435
545 445
545 455
545 465
545 475
543 493
535 500
535 510
530 520
525 530
520 540
510 540
500 545
494 555
485 560
477 569
468 575
459 570
449 570
439 572
429 570
420 565
410 570
400 570
390 570
390 580
385 590
385 600
378 613
370 620
360 630
360 640
370 639
380 639
390 642
400 639
410 639
420 639
430 639
440 637
449 632
459 629
468 634
475 642
475 652
467 665
457 665
447 669
437 665
427 665
417 665
407 665
397 665
387 665
377 665
367 665
357 665
347 665
337 664
329 657
329 647
339 627
344 610
344 600
343 590
333 588
323 590
313 588
303 588
293 590
283 588
275 595
270 610
270 620
270 630
270 640
272 650
280 657
274 665
264 665
254 665
244 665
234 665
224 665
214 665
204 665
194 665
184 665
174 665
164 665
154 665
144 665
