279 202
279 192
284 182
289 172
294 162
299 152
307 144
314 132
322 124
330 116
338 109
345 101
355 96
363 89
372 84
381 79
390 74
399 67
407 59
417 54
427 49
437 49
446 44
456 44
466 40
476 39
485 34
495 31
505 29
515 29
525 26
535 24
544 19
554 19
564 21
574 24
584 24
594 24
604 24
614 24
624 26
634 29
644 29
654 31
664 34
673 39
682 44
692 44
702 44
711 49
719 56
728 61
735 69
745 72
753 79
760 87
769 92
775 100
780 109
788 115
795 123
803 130
807 140
812 149
815 159
820 168
820 178
825 187
820 200
820 210
820 220
815 230
815 240
810 250
805 260
803 273
798 283
793 293
785 300
778 313
773 323
765 330
760 340
760 350
753 358
745 365
738 378
730 385
723 393
715 400
709 412
701 420
692 425
683 430
674 435
665 440
658 450
649 455
643 463
635 470
625 475
615 480
605 485
598 493
590 500
590 510
595 519
600 528
605 537
614 542
620 550
625 559
633 565
640 573
650 577
660 579
665 588
673 595
682 600
687 609
694 617
702 624
709 632
714 641
715 651
715 661
720 670
722 680
725 690
725 700
725 710
725 720
725 730
720 745
715 755
708 763
703 773
695 780
688 788
680 795
670 800
660 805
650 810
640 815
630 820
622 829
612 834
602 839
593 845
584 850
575 855
563 863
555 870
548 878
540 885
530 895
522 904
514 910
512 899
520 891
528 884
535 876
543 869
550 861
558 854
567 849
576 844
581 835
591 830
599 824
608 819
617 814
625 806
635 804
644 799
653 794
662 789
670 781
678 774
682 764
691 759
699 747
692 739
684 745
674 742
679 732
687 724
692 714
699 700
699 690
694 681
689 672
682 664
674 657
669 648
665 638
659 630
650 625
640 623
633 615
625 608
618 600
610 593
603 585
594 580
584 577
579 568
572 560
565 552
559 544
554 535
546 529
544 519
539 510
539 500
530 495
521 490
511 490
502 485
493 480
485 473
479 465
471 459
462 454
452 450
443 445
434 440
424 437
417 429
409 422
404 413
397 405
390 397
380 393
373 385
365 378
361 368
355 360
347 354
339 347
335 337
329 329
324 320
316 314
314 304
312 294
307 285
304 275
296 269
294 259
289 250
289 240
284 231
279 222
279 212
