199 222
199 212
204 197
209 187
219 182
224 167
234 162
244 157
249 147
259 144
268 139
275 131
283 124
292 119
302 114
310 106
320 104
329 97
337 89
347 84
357 79
367 74
375 66
385 64
391 55
399 49
408 44
417 39
425 31
433 24
443 24
453 24
462 29
471 34
475 44
485 44
493 50
500 58
508 64
517 69
526 74
535 79
544 84
554 86
558 96
568 100
575 108
585 112
592 120
602 124
609 132
617 139
626 144
635 149
643 155
650 163
660 167
669 172
675 180
683 186
690 194
695 203
700 212
695 230
693 243
688 253
683 263
675 270
675 280
668 288
660 295
655 305
655 315
648 323
640 330
635 340
630 350
623 363
615 370
610 385
600 390
595 400
590 410
583 418
575 425
567 434
559 440
553 448
543 453
535 460
535 470
530 480
522 489
514 495
504 495
495 500
493 513
485 520
485 530
485 540
485 550
485 560
485 570
485 580
485 590
485 600
485 610
485 620
485 630
485 640
480 655
480 665
480 675
480 685
480 695
480 705
485 714
485 724
485 734
485 744
485 754
480 770
480 780
480 790
470 798
469 788
469 778
469 768
464 759
464 749
464 739
464 729
459 720
459 710
458 700
449 695
439 692
439 682
447 674
449 655
449 645
449 635
449 625
449 615
449 605
449 595
447 585
444 575
444 565
444 555
442 545
439 535
439 525
434 516
426 510
417 505
407 505
398 500
389 495
380 490
374 482
369 473
369 463
363 455
354 450
344 447
335 442
329 434
324 425
316 419
309 411
304 402
297 394
289 387
284 378
278 370
269 365
267 355
260 347
252 340
249 330
241 323
236 314
229 306
224 297
220 287
212 280
209 270
204 261
204 251
199 242
199 232
