29 277
29 287
34 296
41 304
49 310
55 318
65 322
72 330
81 335
89 341
96 349
104 355
109 364
115 372
122 380
130 387
137 395
145 402
152 410
160 417
167 425
177 429
187 430
197 434
207 435
217 435
226 430
235 425
239 435
242 459
252 459
257 449
264 457
264 467
264 477
269 486
269 496
274 505
274 515
269 532
267 544
262 554
254 562
249 572
243 584
235 591
227 599
218 604
209 609
199 609
189 612
179 614
170 609
161 604
152 599
143 594
134 589
124 589
114 586
104 582
97 574
87 574
77 574
67 579
59 587
49 589
39 589
29 592
32 609
42 610
52 610
62 610
72 610
82 614
89 622
99 625
108 630
117 635
127 635
137 635
146 640
156 643
166 645
175 640
184 645
194 645
204 645
213 640
223 638
233 633
243 628
250 620
260 615
270 610
278 603
285 595
290 585
298 578
305 570
310 560
315 550
323 543
325 525
333 518
335 505
335 495
344 490
347 500
355 507
362 499
370 490
370 480
375 465
375 455
380 445
389 450
395 458
403 465
410 455
415 445
420 435
430 435
440 435
450 435
460 430
470 425
480 420
488 413
495 405
503 398
510 385
515 375
523 368
530 360
535 350
544 345
552 339
560 330
568 323
578 318
585 310
595 305
603 298
610 281
605 272
604 262
597 254
587 250
580 242
570 239
563 231
554 226
544 222
535 217
525 214
516 209
507 204
498 199
490 193
483 185
475 178
468 170
460 163
453 155
445 148
438 140
430 133
425 124
421 114
415 106
410 97
402 90
395 82
387 75
379 69
370 64
360 63
353 55
345 48
340 39
335 30
327 24
317 24
309 32
304 42
299 52
291 59
282 64
272 69
263 74
255 81
248 89
240 96
232 104
227 114
223 124
215 131
208 139
200 146
195 156
187 164
179 172
171 179
162 184
152 189
143 194
135 201
125 206
115 211
107 219
97 224
88 229
80 236
70 241
62 249
52 254
44 262
34 267
