24 327
24 317
32 309
40 301
48 294
55 286
63 279
72 274
81 269
89 262
97 254
107 249
115 241
125 236
135 231
145 226
155 221
163 214
172 209
182 204
191 199
200 194
209 189
218 184
227 179
236 174
245 169
255 166
263 159
272 154
280 146
288 139
297 134
306 129
314 122
324 119
334 119
343 124
352 129
361 134
370 139
378 145
385 153
390 162
397 170
405 177
412 185
420 192
429 197
439 201
445 209
453 215
462 220
472 224
481 229
490 234
499 239
508 244
517 249
524 257
532 264
541 269
549 276
555 284
563 290
570 298
578 305
585 313
593 320
600 328
605 337
610 346
605 360
605 370
605 380
600 390
598 403
590 410
583 418
575 425
565 430
558 438
550 445
543 453
535 460
528 468
518 473
508 478
498 483
488 488
480 495
470 500
460 505
451 510
442 515
434 522
424 527
414 532
404 535
395 540
385 540
375 540
375 550
377 560
380 570
375 580
365 590
355 595
348 603
340 610
335 620
335 630
335 640
335 650
335 660
335 670
335 680
335 690
335 700
335 710
335 720
328 733
323 743
318 753
310 760
303 773
295 780
287 789
277 790
267 789
264 772
272 764
277 754
282 744
287 734
289 717
294 707
294 697
299 679
299 669
299 659
299 649
299 639
296 629
292 619
287 610
280 602
274 594
269 585
259 585
249 582
249 572
249 562
249 552
252 539
242 535
232 535
222 535
213 530
205 523
196 518
186 514
179 506
171 500
162 495
155 487
147 480
138 475
130 468
124 460
115 455
107 449
99 442
92 434
84 427
77 419
69 412
62 404
54 397
45 392
39 384
34 375
34 365
29 356
24 347
24 337
