24 477
24 467
32 459
40 451
50 446
60 441
70 436
80 431
88 424
97 419
105 411
115 406
125 401
135 396
145 391
155 386
163 379
172 374
174 362
184 357
194 352
202 345
208 335
198 335
188 335
179 330
169 330
159 330
149 330
139 330
130 325
120 325
114 317
119 307
124 297
129 287
137 279
147 279
157 279
166 284
176 284
186 284
196 284
205 289
215 289
217 275
207 275
197 274
197 259
205 251
215 246
225 244
234 237
239 222
244 207
249 192
249 182
254 172
259 157
264 147
272 139
280 131
288 124
297 119
307 119
315 125
320 134
325 143
330 152
335 161
340 170
345 179
354 184
363 179
370 171
380 169
388 175
390 185
395 194
389 202
379 205
369 205
360 210
362 220
370 227
374 237
375 247
380 256
385 265
395 269
405 266
415 264
425 261
435 259
444 254
454 252
464 249
473 244
482 239
489 227
494 217
499 207
504 192
509 182
514 172
519 162
529 157
539 156
545 164
550 173
550 183
555 192
560 201
565 210
567 220
575 227
580 236
583 246
588 255
592 265
595 275
595 290
586 295
576 295
566 293
556 290
546 288
536 285
527 280
517 280
508 275
498 278
488 283
478 288
468 293
460 300
450 305
440 310
448 316
458 319
468 319
478 319
488 320
498 324
508 324
518 324
528 325
538 329
548 330
550 340
550 350
550 360
543 370
533 370
524 365
514 365
504 365
494 365
484 365
475 360
465 360
455 360
445 360
435 360
437 370
442 379
449 387
459 382
467 374
477 374
484 382
490 390
490 400
480 410
470 410
460 410
460 420
462 430
467 439
470 449
475 458
480 467
484 477
478 493
470 500
460 500
451 505
441 503
431 500
422 495
412 495
403 490
394 485
385 480
376 475
367 470
357 470
347 470
337 470
328 475
319 480
309 480
299 480
289 477
289 467
299 461
299 451
291 445
282 440
273 435
264 430
255 425
245 425
235 425
226 430
217 435
207 434
197 430
188 435
178 438
168 440
159 445
149 447
139 452
129 455
120 460
110 460
100 465
90 470
81 475
71 475
62 480
52 484
42 485
32 484
