139 82
139 67
144 52
152 44
162 44
172 44
182 44
191 49
195 59
204 64
212 70
220 77
220 87
229 92
239 91
249 94
258 99
267 104
276 109
284 116
290 124
300 127
307 135
312 144
319 152
329 156
333 166
340 174
348 180
350 190
355 199
360 208
365 217
370 226
373 236
375 246
375 256
380 265
382 275
385 285
390 294
390 304
398 310
403 319
410 327
420 329
430 329
440 329
450 329
460 329
470 329
480 329
490 329
499 324
509 322
519 319
528 314
537 309
547 309
556 304
565 309
575 312
584 317
589 326
593 336
595 346
585 355
575 355
565 355
555 355
545 355
535 360
525 360
515 360
505 365
495 365
485 370
475 370
465 370
455 370
445 370
435 370
425 370
415 370
405 367
395 365
385 362
377 355
368 350
359 345
351 339
347 329
339 322
332 314
324 307
320 297
315 288
309 280
300 275
293 283
283 288
273 290
264 295
255 300
245 305
245 315
240 325
240 335
235 345
230 360
225 370
220 380
215 395
215 405
215 415
215 425
210 435
210 445
205 455
200 465
200 475
192 484
182 480
173 475
164 470
159 461
154 452
162 444
170 436
180 434
189 427
194 407
199 392
204 377
209 362
214 352
214 342
214 332
219 307
224 287
232 279
237 269
247 264
256 259
264 252
272 244
282 239
287 229
293 220
285 213
278 205
269 200
260 195
251 190
242 185
235 177
227 170
218 165
210 158
204 150
196 143
191 134
189 124
184 115
176 109
171 100
161 98
151 99
147 89
