119 182
119 172
129 162
134 152
144 149
154 149
163 154
173 154
183 154
193 154
202 159
212 159
222 159
232 159
242 154
252 149
262 144
272 144
282 139
292 139
302 134
312 134
321 139
318 153
308 158
303 168
295 175
290 185
295 194
300 203
305 212
312 220
320 227
328 234
337 239
344 247
352 254
359 262
367 269
374 277
382 284
389 292
399 296
409 299
417 305
425 312
429 322
434 331
443 336
453 339
462 334
472 329
482 324
492 319
502 319
511 314
521 314
531 310
541 309
551 309
550 320
541 325
532 330
522 334
513 340
504 345
495 350
488 363
483 373
475 380
470 390
470 400
465 410
465 420
465 430
465 440
465 450
465 460
465 470
460 483
454 475
449 466
449 456
444 447
444 437
439 428
439 418
439 408
439 398
435 388
434 378
434 368
427 360
417 360
407 360
397 360
388 355
379 350
370 345
360 342
350 340
343 348
335 355
330 370
320 375
314 367
309 358
309 348
304 339
299 330
291 324
282 319
272 315
263 310
254 305
246 299
237 294
229 287
220 282
210 278
204 270
195 275
195 285
195 295
190 305
180 303
174 295
169 286
169 276
169 266
169 256
169 246
164 237
157 229
149 222
142 214
134 207
127 199
119 192
