64 272
64 262
74 252
74 242
79 227
84 217
94 214
103 209
109 197
109 187
109 177
119 172
119 162
119 152
124 137
129 127
139 117
149 112
159 109
169 102
177 94
187 94
197 94
207 94
216 99
226 99
230 109
239 102
249 97
249 87
259 82
269 79
278 74
288 74
298 74
307 79
317 79
326 84
336 84
346 80
349 67
359 64
368 59
378 59
388 59
397 64
407 64
410 74
420 74
430 77
439 67
449 64
458 59
468 59
478 59
487 64
497 64
505 70
513 76
518 85
520 95
525 104
525 114
535 114
545 117
549 127
559 131
565 139
570 148
578 155
580 165
580 175
580 185
580 195
580 205
570 215
570 225
575 234
580 243
585 252
592 260
595 270
595 280
585 290
585 300
585 310
580 320
580 330
570 335
565 345
557 354
549 362
539 365
529 365
520 370
515 385
515 395
505 405
499 422
494 432
484 437
474 440
464 440
458 448
448 450
438 450
429 445
420 440
410 440
410 450
405 460
395 465
393 478
385 485
375 490
365 490
362 504
352 505
342 509
332 510
322 509
312 505
302 505
292 505
284 512
279 522
269 525
260 530
250 535
240 535
230 535
220 532
212 525
209 515
209 505
199 505
194 496
194 486
189 477
185 467
177 460
167 460
157 459
152 450
148 440
139 435
137 425
127 425
118 420
108 420
100 413
93 405
84 400
79 391
79 381
74 372
74 362
74 352
79 337
81 319
79 309
74 300
70 290
64 282
