69 102
69 92
79 89
89 89
99 89
109 87
119 84
129 84
139 84
149 84
159 84
169 84
179 84
189 84
199 84
209 84
219 84
229 84
239 84
249 84
259 84
269 84
279 84
289 84
299 84
309 84
319 77
329 74
339 74
349 74
359 74
369 74
379 74
389 74
399 74
409 74
419 74
429 74
439 74
449 74
459 74
469 74
479 74
489 74
499 74
509 74
519 74
528 69
538 69
547 74
555 80
555 90
555 100
555 110
555 120
555 130
555 140
555 150
555 160
555 170
555 180
555 190
555 200
555 210
555 220
555 230
555 240
555 250
555 260
560 269
560 279
560 289
560 299
560 309
560 319
560 329
560 339
560 349
550 360
540 360
530 360
520 360
510 360
500 360
490 360
490 370
495 379
495 389
505 392
509 402
510 412
518 419
525 427
530 436
539 441
540 451
544 467
534 465
524 461
516 455
507 450
504 440
494 440
485 435
475 432
465 428
458 420
449 415
439 415
434 406
426 400
416 399
411 390
401 389
394 381
386 375
376 375
366 373
356 370
346 370
336 370
326 370
316 370
306 370
296 370
286 370
276 370
266 370
256 370
246 370
236 370
226 370
216 370
206 370
196 370
186 370
176 370
166 370
157 375
147 375
137 375
127 375
117 375
107 375
97 375
87 375
84 365
84 355
84 345
84 335
82 325
79 315
79 305
79 295
79 285
79 275
79 265
79 255
79 245
79 235
79 225
79 215
79 205
79 195
79 185
79 175
79 165
79 155
79 145
79 135
79 125
79 115
69 112
