94 277
94 267
99 257
99 247
109 242
109 232
119 227
124 217
134 214
139 197
139 187
144 177
144 167
154 162
154 152
159 137
164 127
174 124
183 119
192 114
202 114
207 104
217 104
227 104
237 104
247 104
255 110
265 114
271 105
276 95
286 94
289 82
299 79
309 77
319 74
329 74
339 76
349 79
355 87
362 95
372 99
379 87
379 77
387 69
397 69
405 61
415 59
425 62
433 69
442 74
452 74
461 79
470 74
479 69
489 62
499 59
509 59
515 67
525 69
535 72
540 81
540 91
549 96
553 106
555 116
565 119
575 122
584 127
592 134
595 144
600 153
600 163
600 173
605 182
605 192
605 202
605 212
605 222
605 232
605 242
615 244
620 253
620 263
620 273
625 282
620 300
620 310
615 325
605 325
600 340
592 349
584 357
579 367
569 370
560 375
550 375
550 385
540 395
540 405
535 415
535 425
531 435
522 440
517 449
508 455
498 455
488 458
478 460
469 455
459 455
450 450
440 450
430 460
425 470
420 485
413 495
404 500
395 505
385 505
375 505
365 515
355 515
345 513
338 505
328 505
319 500
311 494
309 484
304 475
295 470
285 475
275 475
270 485
260 485
250 485
245 500
244 512
234 517
224 520
215 525
205 525
202 539
193 545
184 550
174 550
164 550
154 550
144 546
139 537
139 527
139 517
139 507
147 499
154 487
154 477
159 462
167 454
164 442
157 434
147 430
139 424
134 415
124 412
119 403
112 395
109 385
99 382
99 372
99 362
109 352
109 342
119 330
111 324
109 314
104 305
99 296
94 287
