124 252
124 262
124 272
129 281
129 291
136 299
144 305
147 315
156 320
159 330
165 338
173 345
182 350
191 355
201 358
211 360
220 365
230 367
240 370
249 375
258 380
268 380
278 380
285 388
295 390
305 390
315 390
325 390
335 390
345 390
355 390
365 390
375 392
385 395
395 395
405 397
409 407
417 414
424 422
429 431
436 439
444 445
447 455
456 460
464 466
469 475
472 485
480 492
484 502
494 502
495 485
500 469
500 459
500 449
495 440
503 433
505 415
505 405
505 395
505 385
505 375
515 370
525 370
535 360
545 360
554 355
564 352
574 350
580 340
590 340
595 325
605 325
613 318
623 313
628 303
638 298
645 285
655 280
660 270
665 255
670 240
670 230
670 220
675 207
667 200
665 190
662 180
655 172
650 163
645 154
639 146
630 141
629 131
621 124
612 119
602 119
593 114
583 111
575 105
567 99
557 99
547 99
538 94
528 95
520 89
510 89
500 87
490 84
480 86
470 89
464 81
454 79
444 79
434 79
424 79
414 81
404 79
394 79
384 79
374 79
364 82
356 89
346 89
336 89
326 89
316 89
307 94
303 104
293 104
283 104
273 104
264 109
254 109
246 115
241 124
231 125
221 129
211 130
206 139
196 140
190 149
180 151
172 159
164 167
154 172
149 187
139 197
139 207
134 217
134 227
124 232
129 241
