89 282
89 272
94 262
99 252
99 242
109 237
119 227
129 224
138 219
139 207
139 197
144 182
144 172
154 167
154 157
159 142
167 134
177 134
182 124
192 119
202 119
207 109
217 109
227 109
235 115
245 119
255 122
265 124
274 117
274 107
284 104
293 99
297 89
307 89
316 84
326 84
336 84
345 89
355 92
359 102
369 99
375 91
383 84
393 84
402 79
412 79
422 79
431 84
440 89
445 98
454 92
464 89
473 84
483 84
492 79
502 79
512 79
521 84
530 89
540 92
540 102
549 107
550 117
555 126
561 134
570 139
580 142
584 152
594 156
600 164
600 174
605 183
605 193
605 203
605 213
600 225
600 235
605 244
605 254
614 259
620 267
620 277
620 287
620 297
615 310
605 310
605 320
600 335
595 350
585 360
583 373
575 380
565 380
555 380
550 390
540 400
540 410
535 425
532 439
523 445
514 450
508 458
498 460
488 460
479 465
469 465
459 465
450 460
440 460
430 465
430 475
425 485
420 495
413 505
404 510
395 515
385 515
375 515
370 530
360 530
350 530
355 539
355 549
345 555
340 570
330 575
320 575
325 584
330 593
324 605
318 613
310 620
302 635
297 644
287 645
277 645
274 635
269 626
269 616
269 606
264 597
264 587
269 574
264 565
260 555
254 547
254 537
264 527
264 517
272 509
282 509
292 504
299 495
299 485
289 487
279 490
269 490
259 490
250 495
240 495
230 495
220 495
210 493
201 488
191 484
187 474
182 465
179 455
170 450
161 445
151 445
142 440
134 433
125 428
118 420
109 415
109 405
109 395
99 392
99 382
99 372
109 367
109 357
109 347
119 342
112 334
102 330
99 320
94 311
89 302
89 292
