69 237
69 227
74 212
74 202
84 197
84 187
89 172
99 167
104 152
114 147
119 137
129 134
138 129
148 129
152 119
162 119
171 114
179 107
189 104
198 99
208 99
215 91
225 89
234 84
244 84
254 84
264 77
274 74
284 74
294 74
304 74
314 74
323 69
333 69
343 69
353 69
363 69
372 74
382 74
392 74
402 74
412 74
422 74
425 84
435 84
445 84
455 84
465 87
475 89
480 98
490 99
500 102
510 104
515 113
525 114
534 119
544 121
550 129
560 132
570 134
575 143
583 150
585 160
593 166
600 174
600 184
610 187
610 197
615 206
615 216
621 224
625 234
625 244
615 250
615 260
610 275
604 290
595 295
589 310
583 318
575 325
569 335
559 337
549 340
540 345
530 345
525 355
515 355
505 355
495 360
485 360
475 370
465 370
455 375
445 375
435 375
425 375
420 385
410 385
400 385
390 385
380 385
370 385
360 390
350 390
340 390
330 390
320 390
310 390
306 400
297 405
292 414
284 420
275 425
269 435
260 440
254 450
245 455
239 465
230 470
225 480
215 485
211 495
202 500
197 509
189 515
180 520
174 530
164 532
164 522
169 507
169 497
179 487
179 477
179 467
184 457
184 447
184 437
194 427
194 417
194 407
199 397
199 387
199 377
195 360
185 357
175 355
165 352
157 345
148 340
138 340
130 333
123 325
114 320
104 316
99 307
99 297
90 292
84 284
79 275
74 266
74 256
69 247
