119 132
119 122
129 119
139 119
149 119
159 119
169 119
178 114
188 114
198 114
208 114
218 114
228 114
238 114
248 114
258 114
268 114
278 114
288 114
298 114
308 114
318 114
328 114
338 114
348 114
358 114
368 114
375 106
385 104
395 104
405 104
415 104
425 104
435 104
445 104
455 104
465 104
475 104
485 104
495 104
505 104
515 104
525 104
535 104
545 104
555 104
565 104
575 104
585 104
595 102
604 107
605 117
605 127
605 137
605 147
605 157
605 167
605 177
605 187
605 197
605 207
605 217
605 227
605 237
605 247
605 257
609 267
610 277
610 287
610 297
610 307
610 317
610 327
610 337
610 347
610 357
610 367
610 377
610 387
610 397
600 400
590 400
580 400
570 400
560 400
550 400
540 400
530 400
530 410
525 420
525 430
525 440
525 450
525 460
525 470
525 480
525 490
516 495
506 495
496 495
486 495
476 495
466 495
456 495
446 495
436 493
431 484
429 474
429 464
424 455
419 446
414 437
414 427
414 417
405 412
397 405
387 405
377 405
367 405
357 405
347 405
337 405
327 405
317 405
307 405
297 405
287 405
277 405
267 405
257 405
247 405
237 405
227 405
222 414
212 415
202 415
192 415
182 415
172 415
162 415
152 415
142 415
132 415
129 405
129 395
129 385
129 375
129 365
129 355
129 345
129 335
119 332
119 322
119 312
119 302
119 292
119 282
119 272
119 262
119 252
119 242
119 232
119 222
119 212
119 202
119 192
119 182
119 172
119 162
119 152
119 142
