284 392
284 382
292 374
302 374
311 369
320 374
330 374
340 374
350 371
359 362
369 359
379 359
389 359
399 357
409 354
419 354
428 349
438 349
447 344
457 344
467 339
477 339
487 334
494 322
502 314
511 309
520 304
530 304
540 307
549 312
555 320
545 325
535 325
525 325
520 335
522 345
532 349
542 349
552 349
555 360
548 368
538 370
529 375
519 372
510 367
500 365
490 365
480 365
471 370
461 370
452 375
442 375
433 380
423 383
413 385
403 388
393 390
384 395
374 397
364 400
355 405
347 414
337 415
329 422
319 427
309 430
299 430
289 426
284 417
294 414
304 414
313 409
304 397
294 395
