94 412
94 402
99 392
104 382
112 374
120 366
128 359
137 354
147 354
152 344
157 334
165 326
169 312
174 302
182 294
187 284
194 272
202 264
210 256
218 249
225 241
233 234
237 224
245 216
253 209
260 201
268 194
275 186
283 179
287 169
297 164
306 159
315 154
324 149
333 144
343 144
352 139
361 134
370 129
379 124
389 122
399 119
408 114
418 114
428 114
437 119
447 119
457 119
467 119
477 114
487 114
497 114
507 114
517 114
527 114
536 119
544 126
553 131
563 135
572 140
582 144
591 149
600 154
609 159
617 165
627 169
630 179
638 185
645 193
650 202
655 211
660 220
665 229
665 239
670 248
670 258
678 265
682 275
690 282
698 289
708 289
718 290
722 300
725 310
725 320
725 330
727 340
730 350
725 360
718 368
708 373
700 380
702 390
710 397
719 402
727 409
736 414
744 421
745 431
748 441
745 455
737 469
732 479
722 480
712 484
702 485
692 485
682 485
672 484
664 477
664 467
664 457
659 440
658 430
650 423
641 418
631 420
621 420
612 425
602 425
594 432
584 435
575 440
566 445
557 450
547 454
537 455
528 460
518 463
508 465
498 468
488 470
478 470
468 473
458 475
448 475
438 475
429 470
419 470
409 470
390 465
395 474
404 479
412 485
422 489
431 494
439 501
448 506
455 514
460 525
458 543
450 550
440 550
430 550
426 560
416 560
407 555
397 555
387 554
377 550
370 542
362 535
355 527
345 523
339 515
329 511
321 505
312 500
305 492
299 484
297 474
289 467
285 457
275 455
266 450
257 445
247 445
238 440
230 433
224 425
215 430
205 435
210 444
215 453
223 460
230 468
224 485
215 480
207 494
197 494
189 500
181 493
171 490
161 489
152 484
144 478
144 468
140 458
133 450
124 445
114 445
106 439
99 431
99 421
