114 522
114 532
114 551
124 555
134 555
144 555
154 555
164 552
172 545
182 544
192 540
202 539
212 539
221 544
229 552
229 562
229 582
229 592
237 599
245 605
254 610
264 610
274 612
282 605
292 604
290 594
290 584
290 574
285 565
293 558
303 555
307 565
316 570
324 576
334 580
343 585
352 590
359 598
360 608
368 615
375 623
385 625
393 618
399 610
408 605
417 599
415 581
410 572
410 562
400 559
398 549
390 542
380 538
375 529
385 525
394 520
403 515
412 509
422 504
432 500
442 499
452 495
462 495
460 485
470 485
478 478
488 478
493 468
503 463
509 455
519 455
525 445
534 440
535 425
543 418
553 415
562 420
572 419
582 419
592 415
601 410
609 416
616 424
624 430
634 430
644 427
654 427
664 422
665 410
665 400
665 390
675 390
685 385
695 385
700 375
710 370
720 365
725 355
735 350
737 339
727 339
717 344
707 349
697 354
687 359
678 364
670 358
663 350
655 344
650 335
650 325
660 325
663 315
655 309
655 299
645 297
644 287
635 282
628 274
618 274
608 274
600 268
593 260
585 254
576 249
567 254
557 254
548 259
543 250
533 249
524 244
515 239
505 239
496 234
487 229
477 229
467 229
457 234
447 234
437 234
432 244
422 244
412 244
402 244
392 244
382 244
372 249
362 254
354 262
345 276
335 281
330 291
322 299
312 299
304 307
294 312
286 325
281 335
276 345
271 354
262 359
257 369
249 387
249 397
244 407
244 417
237 444
232 454
224 462
220 476
210 479
200 479
190 476
180 479
170 479
161 484
151 485
145 494
135 496
127 504
119 512
