<?xml version="1.0" encoding="UTF-8" standalone="no"?>
<!-- Created with CurveBenchmark -->
<svg
	xmlns:dc="http://purl.org/dc/elements/1.1/"
	xmlns:cc="http://creativecommons.org/ns#"
	xmlns:rdf="http://www.w3.org/1999/02/22-rdf-syntax-ns#"
	xmlns:svg="http://www.w3.org/2000/svg"
	xmlns="http://www.w3.org/2000/svg"
	xmlns:sodipodi="http://sodipodi.sourceforge.net/DTD/sodipodi-0.dtd"
	xmlns:inkscape="http://www.inkscape.org/namespaces/inkscape"
	width="1000"
	height="1000"
	id="svg2"
	version="1.1"
	sodipodi:docname="noisy-0.03/ccrust-mc29.txt">
<defs
	id="defs4" />
<metadata
	id="metadata7">
	<rdf:RDF>
		<cc:Work
			rdf:about="">
			<dc:format>image/svg+xml</dc:format>
			<dc:type
				rdf:resource="http://purl.org/dc/dcmitype/StillImage" />
			<dc:title></dc:title>
		</cc:Work>
	</rdf:RDF>
</metadata>
<g
	inkscape:label="Layer 1"
	inkscape:groupmode="layer"
	id="layer1">
	<path style="fill:none;stroke:red;stroke-width:1px;stroke-linecap:butt;stroke-linejoin:miter;stroke-opacity:1" d="M 203.402,71.2425 213.608,105.256 z" id="boundary" inkscape:connector-curvature="0" />
	<path style="fill:none;stroke:red;stroke-width:1px;stroke-linecap:butt;stroke-linejoin:miter;stroke-opacity:1" d="M 213.608,105.256 189.646,143.488 z" id="boundary" inkscape:connector-curvature="0" />
	<path style="fill:none;stroke:red;stroke-width:1px;stroke-linecap:butt;stroke-linejoin:miter;stroke-opacity:1" d="M 162.33,279.675 172.648,218.709 z" id="boundary" inkscape:connector-curvature="0" />
	<path style="fill:none;stroke:red;stroke-width:1px;stroke-linecap:butt;stroke-linejoin:miter;stroke-opacity:1" d="M 59.097,294.587 75.8492,281.61 z" id="boundary" inkscape:connector-curvature="0" />
	<path style="fill:none;stroke:red;stroke-width:1px;stroke-linecap:butt;stroke-linejoin:miter;stroke-opacity:1" d="M 162.33,279.675 158.201,290.225 z" id="boundary" inkscape:connector-curvature="0" />
	<path style="fill:none;stroke:red;stroke-width:1px;stroke-linecap:butt;stroke-linejoin:miter;stroke-opacity:1" d="M 103.47,364.332 84.5371,331.609 z" id="boundary" inkscape:connector-curvature="0" />
	<path style="fill:none;stroke:red;stroke-width:1px;stroke-linecap:butt;stroke-linejoin:miter;stroke-opacity:1" d="M 189.646,143.488 243.593,185.844 z" id="boundary" inkscape:connector-curvature="0" />
	<path style="fill:none;stroke:red;stroke-width:1px;stroke-linecap:butt;stroke-linejoin:miter;stroke-opacity:1" d="M 84.5371,331.609 41.0772,349.583 z" id="boundary" inkscape:connector-curvature="0" />
	<path style="fill:none;stroke:red;stroke-width:1px;stroke-linecap:butt;stroke-linejoin:miter;stroke-opacity:1" d="M 243.278,66.8276 243.341,77.0786 z" id="boundary" inkscape:connector-curvature="0" />
	<path style="fill:none;stroke:red;stroke-width:1px;stroke-linecap:butt;stroke-linejoin:miter;stroke-opacity:1" d="M 271.185,94.9376 243.341,77.0786 z" id="boundary" inkscape:connector-curvature="0" />
	<path style="fill:none;stroke:red;stroke-width:1px;stroke-linecap:butt;stroke-linejoin:miter;stroke-opacity:1" d="M 273.738,175.972 381.129,168.956 z" id="boundary" inkscape:connector-curvature="0" />
	<path style="fill:none;stroke:red;stroke-width:1px;stroke-linecap:butt;stroke-linejoin:miter;stroke-opacity:1" d="M 273.738,175.972 243.593,185.844 z" id="boundary" inkscape:connector-curvature="0" />
	<path style="fill:none;stroke:red;stroke-width:1px;stroke-linecap:butt;stroke-linejoin:miter;stroke-opacity:1" d="M 236.425,232.866 243.593,185.844 z" id="boundary" inkscape:connector-curvature="0" />
	<path style="fill:none;stroke:red;stroke-width:1px;stroke-linecap:butt;stroke-linejoin:miter;stroke-opacity:1" d="M 304.924,309.066 327.748,307.202 z" id="boundary" inkscape:connector-curvature="0" />
	<path style="fill:none;stroke:red;stroke-width:1px;stroke-linecap:butt;stroke-linejoin:miter;stroke-opacity:1" d="M 312.866,330.547 304.924,309.066 z" id="boundary" inkscape:connector-curvature="0" />
	<path style="fill:none;stroke:red;stroke-width:1px;stroke-linecap:butt;stroke-linejoin:miter;stroke-opacity:1" d="M 304.924,309.066 236.425,232.866 z" id="boundary" inkscape:connector-curvature="0" />
	<path style="fill:none;stroke:red;stroke-width:1px;stroke-linecap:butt;stroke-linejoin:miter;stroke-opacity:1" d="M 288.463,352.001 312.866,330.547 z" id="boundary" inkscape:connector-curvature="0" />
	<path style="fill:none;stroke:red;stroke-width:1px;stroke-linecap:butt;stroke-linejoin:miter;stroke-opacity:1" d="M 36.407,424.714 41.0772,349.583 z" id="boundary" inkscape:connector-curvature="0" />
	<path style="fill:none;stroke:red;stroke-width:1px;stroke-linecap:butt;stroke-linejoin:miter;stroke-opacity:1" d="M 122.521,373.922 103.47,364.332 z" id="boundary" inkscape:connector-curvature="0" />
	<path style="fill:none;stroke:red;stroke-width:1px;stroke-linecap:butt;stroke-linejoin:miter;stroke-opacity:1" d="M 214.826,430.089 122.521,373.922 z" id="boundary" inkscape:connector-curvature="0" />
	<path style="fill:none;stroke:red;stroke-width:1px;stroke-linecap:butt;stroke-linejoin:miter;stroke-opacity:1" d="M 33.2965,495.342 91.0416,531.351 z" id="boundary" inkscape:connector-curvature="0" />
	<path style="fill:none;stroke:red;stroke-width:1px;stroke-linecap:butt;stroke-linejoin:miter;stroke-opacity:1" d="M 33.2965,495.342 36.407,424.714 z" id="boundary" inkscape:connector-curvature="0" />
	<path style="fill:none;stroke:red;stroke-width:1px;stroke-linecap:butt;stroke-linejoin:miter;stroke-opacity:1" d="M 238.375,611.939 183.745,600.867 z" id="boundary" inkscape:connector-curvature="0" />
	<path style="fill:none;stroke:red;stroke-width:1px;stroke-linecap:butt;stroke-linejoin:miter;stroke-opacity:1" d="M 183.745,600.867 91.0416,531.351 z" id="boundary" inkscape:connector-curvature="0" />
	<path style="fill:none;stroke:red;stroke-width:1px;stroke-linecap:butt;stroke-linejoin:miter;stroke-opacity:1" d="M 214.826,430.089 256.705,456.266 z" id="boundary" inkscape:connector-curvature="0" />
	<path style="fill:none;stroke:red;stroke-width:1px;stroke-linecap:butt;stroke-linejoin:miter;stroke-opacity:1" d="M 257.061,476.662 261.885,466.025 z" id="boundary" inkscape:connector-curvature="0" />
	<path style="fill:none;stroke:red;stroke-width:1px;stroke-linecap:butt;stroke-linejoin:miter;stroke-opacity:1" d="M 256.705,456.266 261.885,466.025 z" id="boundary" inkscape:connector-curvature="0" />
	<path style="fill:none;stroke:red;stroke-width:1px;stroke-linecap:butt;stroke-linejoin:miter;stroke-opacity:1" d="M 339.93,458.693 279.276,450.255 z" id="boundary" inkscape:connector-curvature="0" />
	<path style="fill:none;stroke:red;stroke-width:1px;stroke-linecap:butt;stroke-linejoin:miter;stroke-opacity:1" d="M 304.217,644.869 238.375,611.939 z" id="boundary" inkscape:connector-curvature="0" />
	<path style="fill:none;stroke:red;stroke-width:1px;stroke-linecap:butt;stroke-linejoin:miter;stroke-opacity:1" d="M 277.888,801.342 265.516,757.993 z" id="boundary" inkscape:connector-curvature="0" />
	<path style="fill:none;stroke:red;stroke-width:1px;stroke-linecap:butt;stroke-linejoin:miter;stroke-opacity:1" d="M 277.888,801.342 338.09,825.86 z" id="boundary" inkscape:connector-curvature="0" />
	<path style="fill:none;stroke:red;stroke-width:1px;stroke-linecap:butt;stroke-linejoin:miter;stroke-opacity:1" d="M 349.011,687.295 307.175,671.645 z" id="boundary" inkscape:connector-curvature="0" />
	<path style="fill:none;stroke:red;stroke-width:1px;stroke-linecap:butt;stroke-linejoin:miter;stroke-opacity:1" d="M 307.175,671.645 304.217,644.869 z" id="boundary" inkscape:connector-curvature="0" />
	<path style="fill:none;stroke:red;stroke-width:1px;stroke-linecap:butt;stroke-linejoin:miter;stroke-opacity:1" d="M 432.423,111.078 446.785,95.3421 z" id="boundary" inkscape:connector-curvature="0" />
	<path style="fill:none;stroke:red;stroke-width:1px;stroke-linecap:butt;stroke-linejoin:miter;stroke-opacity:1" d="M 433.656,115.133 432.423,111.078 z" id="boundary" inkscape:connector-curvature="0" />
	<path style="fill:none;stroke:red;stroke-width:1px;stroke-linecap:butt;stroke-linejoin:miter;stroke-opacity:1" d="M 425.684,28.6562 446.785,95.3421 z" id="boundary" inkscape:connector-curvature="0" />
	<path style="fill:none;stroke:red;stroke-width:1px;stroke-linecap:butt;stroke-linejoin:miter;stroke-opacity:1" d="M 425.684,28.6562 421.951,4 z" id="boundary" inkscape:connector-curvature="0" />
	<path style="fill:none;stroke:red;stroke-width:1px;stroke-linecap:butt;stroke-linejoin:miter;stroke-opacity:1" d="M 399.066,283.026 398.868,299.698 z" id="boundary" inkscape:connector-curvature="0" />
	<path style="fill:none;stroke:red;stroke-width:1px;stroke-linecap:butt;stroke-linejoin:miter;stroke-opacity:1" d="M 381.129,168.956 410.394,193.135 z" id="boundary" inkscape:connector-curvature="0" />
	<path style="fill:none;stroke:red;stroke-width:1px;stroke-linecap:butt;stroke-linejoin:miter;stroke-opacity:1" d="M 404.56,305.961 398.868,299.698 z" id="boundary" inkscape:connector-curvature="0" />
	<path style="fill:none;stroke:red;stroke-width:1px;stroke-linecap:butt;stroke-linejoin:miter;stroke-opacity:1" d="M 438.404,212.439 410.394,193.135 z" id="boundary" inkscape:connector-curvature="0" />
	<path style="fill:none;stroke:red;stroke-width:1px;stroke-linecap:butt;stroke-linejoin:miter;stroke-opacity:1" d="M 433.656,115.133 445.152,130.278 z" id="boundary" inkscape:connector-curvature="0" />
	<path style="fill:none;stroke:red;stroke-width:1px;stroke-linecap:butt;stroke-linejoin:miter;stroke-opacity:1" d="M 462.04,153.695 445.152,130.278 z" id="boundary" inkscape:connector-curvature="0" />
	<path style="fill:none;stroke:red;stroke-width:1px;stroke-linecap:butt;stroke-linejoin:miter;stroke-opacity:1" d="M 635.761,220.667 623.878,250.225 z" id="boundary" inkscape:connector-curvature="0" />
	<path style="fill:none;stroke:red;stroke-width:1px;stroke-linecap:butt;stroke-linejoin:miter;stroke-opacity:1" d="M 462.283,235.205 443.113,249.544 z" id="boundary" inkscape:connector-curvature="0" />
	<path style="fill:none;stroke:red;stroke-width:1px;stroke-linecap:butt;stroke-linejoin:miter;stroke-opacity:1" d="M 494.968,290.484 442.359,301.378 z" id="boundary" inkscape:connector-curvature="0" />
	<path style="fill:none;stroke:red;stroke-width:1px;stroke-linecap:butt;stroke-linejoin:miter;stroke-opacity:1" d="M 593.744,280.844 623.878,250.225 z" id="boundary" inkscape:connector-curvature="0" />
	<path style="fill:none;stroke:red;stroke-width:1px;stroke-linecap:butt;stroke-linejoin:miter;stroke-opacity:1" d="M 622.993,309.326 593.744,280.844 z" id="boundary" inkscape:connector-curvature="0" />
	<path style="fill:none;stroke:red;stroke-width:1px;stroke-linecap:butt;stroke-linejoin:miter;stroke-opacity:1" d="M 533.725,319.845 494.968,290.484 z" id="boundary" inkscape:connector-curvature="0" />
	<path style="fill:none;stroke:red;stroke-width:1px;stroke-linecap:butt;stroke-linejoin:miter;stroke-opacity:1" d="M 442.359,301.378 404.56,305.961 z" id="boundary" inkscape:connector-curvature="0" />
	<path style="fill:none;stroke:red;stroke-width:1px;stroke-linecap:butt;stroke-linejoin:miter;stroke-opacity:1" d="M 344.907,458.861 368.185,451.121 z" id="boundary" inkscape:connector-curvature="0" />
	<path style="fill:none;stroke:red;stroke-width:1px;stroke-linecap:butt;stroke-linejoin:miter;stroke-opacity:1" d="M 344.907,458.861 339.93,458.693 z" id="boundary" inkscape:connector-curvature="0" />
	<path style="fill:none;stroke:red;stroke-width:1px;stroke-linecap:butt;stroke-linejoin:miter;stroke-opacity:1" d="M 368.185,451.121 398.112,457.296 z" id="boundary" inkscape:connector-curvature="0" />
	<path style="fill:none;stroke:red;stroke-width:1px;stroke-linecap:butt;stroke-linejoin:miter;stroke-opacity:1" d="M 385.991,334.038 402.932,433.104 z" id="boundary" inkscape:connector-curvature="0" />
	<path style="fill:none;stroke:red;stroke-width:1px;stroke-linecap:butt;stroke-linejoin:miter;stroke-opacity:1" d="M 433.31,606.429 397.667,635.941 z" id="boundary" inkscape:connector-curvature="0" />
	<path style="fill:none;stroke:red;stroke-width:1px;stroke-linecap:butt;stroke-linejoin:miter;stroke-opacity:1" d="M 397.667,635.941 349.011,687.295 z" id="boundary" inkscape:connector-curvature="0" />
	<path style="fill:none;stroke:red;stroke-width:1px;stroke-linecap:butt;stroke-linejoin:miter;stroke-opacity:1" d="M 349.011,687.295 364.463,741.105 z" id="boundary" inkscape:connector-curvature="0" />
	<path style="fill:none;stroke:red;stroke-width:1px;stroke-linecap:butt;stroke-linejoin:miter;stroke-opacity:1" d="M 386.764,972.761 361.212,996 z" id="boundary" inkscape:connector-curvature="0" />
	<path style="fill:none;stroke:red;stroke-width:1px;stroke-linecap:butt;stroke-linejoin:miter;stroke-opacity:1" d="M 361.212,996 322.115,960.305 z" id="boundary" inkscape:connector-curvature="0" />
	<path style="fill:none;stroke:red;stroke-width:1px;stroke-linecap:butt;stroke-linejoin:miter;stroke-opacity:1" d="M 533.725,319.845 533.892,321.617 z" id="boundary" inkscape:connector-curvature="0" />
	<path style="fill:none;stroke:red;stroke-width:1px;stroke-linecap:butt;stroke-linejoin:miter;stroke-opacity:1" d="M 619.905,426.719 554.392,464.232 z" id="boundary" inkscape:connector-curvature="0" />
	<path style="fill:none;stroke:red;stroke-width:1px;stroke-linecap:butt;stroke-linejoin:miter;stroke-opacity:1" d="M 398.112,457.296 402.932,433.104 z" id="boundary" inkscape:connector-curvature="0" />
	<path style="fill:none;stroke:red;stroke-width:1px;stroke-linecap:butt;stroke-linejoin:miter;stroke-opacity:1" d="M 402.932,433.104 423.866,439.892 z" id="boundary" inkscape:connector-curvature="0" />
	<path style="fill:none;stroke:red;stroke-width:1px;stroke-linecap:butt;stroke-linejoin:miter;stroke-opacity:1" d="M 554.392,464.232 575.861,521.13 z" id="boundary" inkscape:connector-curvature="0" />
	<path style="fill:none;stroke:red;stroke-width:1px;stroke-linecap:butt;stroke-linejoin:miter;stroke-opacity:1" d="M 423.866,439.892 554.392,464.232 z" id="boundary" inkscape:connector-curvature="0" />
	<circle cx="338.09" cy="825.86" r="4" fill="#0" id="circle0"/>
	<circle cx="277.888" cy="801.342" r="4" fill="#0" id="circle1"/>
	<circle cx="265.516" cy="757.993" r="4" fill="#0" id="circle2"/>
	<circle cx="307.175" cy="671.645" r="4" fill="#0" id="circle3"/>
	<circle cx="304.217" cy="644.869" r="4" fill="#0" id="circle4"/>
	<circle cx="238.375" cy="611.939" r="4" fill="#0" id="circle5"/>
	<circle cx="183.745" cy="600.867" r="4" fill="#0" id="circle6"/>
	<circle cx="91.0416" cy="531.351" r="4" fill="#0" id="circle7"/>
	<circle cx="33.2965" cy="495.342" r="4" fill="#0" id="circle8"/>
	<circle cx="36.407" cy="424.714" r="4" fill="#0" id="circle9"/>
	<circle cx="41.0772" cy="349.583" r="4" fill="#0" id="circle10"/>
	<circle cx="75.8492" cy="281.61" r="4" fill="#0" id="circle11"/>
	<circle cx="84.5371" cy="331.609" r="4" fill="#0" id="circle12"/>
	<circle cx="122.521" cy="373.922" r="4" fill="#0" id="circle13"/>
	<circle cx="103.47" cy="364.332" r="4" fill="#0" id="circle14"/>
	<circle cx="158.201" cy="290.225" r="4" fill="#0" id="circle15"/>
	<circle cx="162.33" cy="279.675" r="4" fill="#0" id="circle16"/>
	<circle cx="172.648" cy="218.709" r="4" fill="#0" id="circle17"/>
	<circle cx="189.646" cy="143.488" r="4" fill="#0" id="circle18"/>
	<circle cx="213.608" cy="105.256" r="4" fill="#0" id="circle19"/>
	<circle cx="203.402" cy="71.2425" r="4" fill="#0" id="circle20"/>
	<circle cx="243.278" cy="66.8276" r="4" fill="#0" id="circle21"/>
	<circle cx="243.341" cy="77.0786" r="4" fill="#0" id="circle22"/>
	<circle cx="198.992" cy="9.73133" r="4" fill="#0" id="circle23"/>
	<circle cx="271.185" cy="94.9376" r="4" fill="#0" id="circle24"/>
	<circle cx="243.593" cy="185.844" r="4" fill="#0" id="circle25"/>
	<circle cx="273.738" cy="175.972" r="4" fill="#0" id="circle26"/>
	<circle cx="236.425" cy="232.866" r="4" fill="#0" id="circle27"/>
	<circle cx="304.924" cy="309.066" r="4" fill="#0" id="circle28"/>
	<circle cx="288.463" cy="352.001" r="4" fill="#0" id="circle29"/>
	<circle cx="327.748" cy="307.202" r="4" fill="#0" id="circle30"/>
	<circle cx="312.866" cy="330.547" r="4" fill="#0" id="circle31"/>
	<circle cx="385.991" cy="334.038" r="4" fill="#0" id="circle32"/>
	<circle cx="404.56" cy="305.961" r="4" fill="#0" id="circle33"/>
	<circle cx="399.066" cy="283.026" r="4" fill="#0" id="circle34"/>
	<circle cx="398.868" cy="299.698" r="4" fill="#0" id="circle35"/>
	<circle cx="410.394" cy="193.135" r="4" fill="#0" id="circle36"/>
	<circle cx="381.129" cy="168.956" r="4" fill="#0" id="circle37"/>
	<circle cx="462.04" cy="153.695" r="4" fill="#0" id="circle38"/>
	<circle cx="438.404" cy="212.439" r="4" fill="#0" id="circle39"/>
	<circle cx="443.113" cy="249.544" r="4" fill="#0" id="circle40"/>
	<circle cx="462.283" cy="235.205" r="4" fill="#0" id="circle41"/>
	<circle cx="442.359" cy="301.378" r="4" fill="#0" id="circle42"/>
	<circle cx="494.968" cy="290.484" r="4" fill="#0" id="circle43"/>
	<circle cx="533.725" cy="319.845" r="4" fill="#0" id="circle44"/>
	<circle cx="533.892" cy="321.617" r="4" fill="#0" id="circle45"/>
	<circle cx="593.744" cy="280.844" r="4" fill="#0" id="circle46"/>
	<circle cx="623.878" cy="250.225" r="4" fill="#0" id="circle47"/>
	<circle cx="635.761" cy="220.667" r="4" fill="#0" id="circle48"/>
	<circle cx="622.993" cy="309.326" r="4" fill="#0" id="circle49"/>
	<circle cx="619.905" cy="426.719" r="4" fill="#0" id="circle50"/>
	<circle cx="554.392" cy="464.232" r="4" fill="#0" id="circle51"/>
	<circle cx="575.861" cy="521.13" r="4" fill="#0" id="circle52"/>
	<circle cx="433.31" cy="606.429" r="4" fill="#0" id="circle53"/>
	<circle cx="397.667" cy="635.941" r="4" fill="#0" id="circle54"/>
	<circle cx="349.011" cy="687.295" r="4" fill="#0" id="circle55"/>
	<circle cx="364.463" cy="741.105" r="4" fill="#0" id="circle56"/>
	<circle cx="386.764" cy="972.761" r="4" fill="#0" id="circle57"/>
	<circle cx="361.212" cy="996" r="4" fill="#0" id="circle58"/>
	<circle cx="322.115" cy="960.305" r="4" fill="#0" id="circle59"/>
	<circle cx="326.062" cy="509.196" r="4" fill="#0" id="circle60"/>
	<circle cx="261.885" cy="466.025" r="4" fill="#0" id="circle61"/>
	<circle cx="214.826" cy="430.089" r="4" fill="#0" id="circle62"/>
	<circle cx="256.705" cy="456.266" r="4" fill="#0" id="circle63"/>
	<circle cx="279.276" cy="450.255" r="4" fill="#0" id="circle64"/>
	<circle cx="339.93" cy="458.693" r="4" fill="#0" id="circle65"/>
	<circle cx="344.907" cy="458.861" r="4" fill="#0" id="circle66"/>
	<circle cx="402.932" cy="433.104" r="4" fill="#0" id="circle67"/>
	<circle cx="423.866" cy="439.892" r="4" fill="#0" id="circle68"/>
	<circle cx="398.112" cy="457.296" r="4" fill="#0" id="circle69"/>
	<circle cx="368.185" cy="451.121" r="4" fill="#0" id="circle70"/>
	<circle cx="257.061" cy="476.662" r="4" fill="#0" id="circle71"/>
	<circle cx="59.097" cy="294.587" r="4" fill="#0" id="circle72"/>
	<circle cx="4" cy="226.355" r="4" fill="#0" id="circle73"/>
	<circle cx="403.133" cy="109.747" r="4" fill="#0" id="circle74"/>
	<circle cx="432.423" cy="111.078" r="4" fill="#0" id="circle75"/>
	<circle cx="445.152" cy="130.278" r="4" fill="#0" id="circle76"/>
	<circle cx="433.656" cy="115.133" r="4" fill="#0" id="circle77"/>
	<circle cx="446.785" cy="95.3421" r="4" fill="#0" id="circle78"/>
	<circle cx="425.684" cy="28.6562" r="4" fill="#0" id="circle79"/>
	<circle cx="421.951" cy="4" r="4" fill="#0" id="circle80"/>
	</g>
</svg>