<?xml version="1.0" encoding="UTF-8" standalone="no"?>
<!-- Created with CurveBenchmark -->
<svg
	xmlns:dc="http://purl.org/dc/elements/1.1/"
	xmlns:cc="http://creativecommons.org/ns#"
	xmlns:rdf="http://www.w3.org/1999/02/22-rdf-syntax-ns#"
	xmlns:svg="http://www.w3.org/2000/svg"
	xmlns="http://www.w3.org/2000/svg"
	xmlns:sodipodi="http://sodipodi.sourceforge.net/DTD/sodipodi-0.dtd"
	xmlns:inkscape="http://www.inkscape.org/namespaces/inkscape"
	width="1000"
	height="1000"
	id="svg2"
	version="1.1"
	sodipodi:docname="noisy-0.03/ccrust-mc20.txt">
<defs
	id="defs4" />
<metadata
	id="metadata7">
	<rdf:RDF>
		<cc:Work
			rdf:about="">
			<dc:format>image/svg+xml</dc:format>
			<dc:type
				rdf:resource="http://purl.org/dc/dcmitype/StillImage" />
			<dc:title></dc:title>
		</cc:Work>
	</rdf:RDF>
</metadata>
<g
	inkscape:label="Layer 1"
	inkscape:groupmode="layer"
	id="layer1">
	<path style="fill:none;stroke:red;stroke-width:1px;stroke-linecap:butt;stroke-linejoin:miter;stroke-opacity:1" d="M 170.081,482.821 176.52,346.753 z" id="boundary" inkscape:connector-curvature="0" />
	<path style="fill:none;stroke:red;stroke-width:1px;stroke-linecap:butt;stroke-linejoin:miter;stroke-opacity:1" d="M 139.287,619.222 153.942,698.332 z" id="boundary" inkscape:connector-curvature="0" />
	<path style="fill:none;stroke:red;stroke-width:1px;stroke-linecap:butt;stroke-linejoin:miter;stroke-opacity:1" d="M 153.942,698.332 98.5302,761.141 z" id="boundary" inkscape:connector-curvature="0" />
	<path style="fill:none;stroke:red;stroke-width:1px;stroke-linecap:butt;stroke-linejoin:miter;stroke-opacity:1" d="M 289.22,778.146 153.942,698.332 z" id="boundary" inkscape:connector-curvature="0" />
	<path style="fill:none;stroke:red;stroke-width:1px;stroke-linecap:butt;stroke-linejoin:miter;stroke-opacity:1" d="M 139.287,619.222 170.081,482.821 z" id="boundary" inkscape:connector-curvature="0" />
	<path style="fill:none;stroke:red;stroke-width:1px;stroke-linecap:butt;stroke-linejoin:miter;stroke-opacity:1" d="M 234.783,218.235 286.851,91.1021 z" id="boundary" inkscape:connector-curvature="0" />
	<path style="fill:none;stroke:red;stroke-width:1px;stroke-linecap:butt;stroke-linejoin:miter;stroke-opacity:1" d="M 394.793,353.544 392.918,429.688 z" id="boundary" inkscape:connector-curvature="0" />
	<path style="fill:none;stroke:red;stroke-width:1px;stroke-linecap:butt;stroke-linejoin:miter;stroke-opacity:1" d="M 176.52,346.753 234.783,218.235 z" id="boundary" inkscape:connector-curvature="0" />
	<path style="fill:none;stroke:red;stroke-width:1px;stroke-linecap:butt;stroke-linejoin:miter;stroke-opacity:1" d="M 286.851,91.1021 333.147,56.6289 z" id="boundary" inkscape:connector-curvature="0" />
	<path style="fill:none;stroke:red;stroke-width:1px;stroke-linecap:butt;stroke-linejoin:miter;stroke-opacity:1" d="M 4,951.486 18.8355,824.979 z" id="boundary" inkscape:connector-curvature="0" />
	<path style="fill:none;stroke:red;stroke-width:1px;stroke-linecap:butt;stroke-linejoin:miter;stroke-opacity:1" d="M 98.5302,761.141 18.8355,824.979 z" id="boundary" inkscape:connector-curvature="0" />
	<path style="fill:none;stroke:red;stroke-width:1px;stroke-linecap:butt;stroke-linejoin:miter;stroke-opacity:1" d="M 159.383,930.853 44.6124,996 z" id="boundary" inkscape:connector-curvature="0" />
	<path style="fill:none;stroke:red;stroke-width:1px;stroke-linecap:butt;stroke-linejoin:miter;stroke-opacity:1" d="M 44.6124,996 4,951.486 z" id="boundary" inkscape:connector-curvature="0" />
	<path style="fill:none;stroke:red;stroke-width:1px;stroke-linecap:butt;stroke-linejoin:miter;stroke-opacity:1" d="M 289.22,778.146 346.814,764.872 z" id="boundary" inkscape:connector-curvature="0" />
	<path style="fill:none;stroke:red;stroke-width:1px;stroke-linecap:butt;stroke-linejoin:miter;stroke-opacity:1" d="M 244.212,867.074 289.22,778.146 z" id="boundary" inkscape:connector-curvature="0" />
	<path style="fill:none;stroke:red;stroke-width:1px;stroke-linecap:butt;stroke-linejoin:miter;stroke-opacity:1" d="M 159.383,930.853 244.212,867.074 z" id="boundary" inkscape:connector-curvature="0" />
	<path style="fill:none;stroke:red;stroke-width:1px;stroke-linecap:butt;stroke-linejoin:miter;stroke-opacity:1" d="M 394.631,701.673 346.814,764.872 z" id="boundary" inkscape:connector-curvature="0" />
	<path style="fill:none;stroke:red;stroke-width:1px;stroke-linecap:butt;stroke-linejoin:miter;stroke-opacity:1" d="M 542.999,183.215 463.156,193.389 z" id="boundary" inkscape:connector-curvature="0" />
	<path style="fill:none;stroke:red;stroke-width:1px;stroke-linecap:butt;stroke-linejoin:miter;stroke-opacity:1" d="M 602.397,203.183 542.999,183.215 z" id="boundary" inkscape:connector-curvature="0" />
	<path style="fill:none;stroke:red;stroke-width:1px;stroke-linecap:butt;stroke-linejoin:miter;stroke-opacity:1" d="M 602.397,203.183 624.932,300.701 z" id="boundary" inkscape:connector-curvature="0" />
	<path style="fill:none;stroke:red;stroke-width:1px;stroke-linecap:butt;stroke-linejoin:miter;stroke-opacity:1" d="M 527.729,4 677.461,30.4247 z" id="boundary" inkscape:connector-curvature="0" />
	<path style="fill:none;stroke:red;stroke-width:1px;stroke-linecap:butt;stroke-linejoin:miter;stroke-opacity:1" d="M 463.156,193.389 394.793,353.544 z" id="boundary" inkscape:connector-curvature="0" />
	<path style="fill:none;stroke:red;stroke-width:1px;stroke-linecap:butt;stroke-linejoin:miter;stroke-opacity:1" d="M 665.597,375.473 624.932,300.701 z" id="boundary" inkscape:connector-curvature="0" />
	<path style="fill:none;stroke:red;stroke-width:1px;stroke-linecap:butt;stroke-linejoin:miter;stroke-opacity:1" d="M 794.406,133.633 856.038,226.318 z" id="boundary" inkscape:connector-curvature="0" />
	<path style="fill:none;stroke:red;stroke-width:1px;stroke-linecap:butt;stroke-linejoin:miter;stroke-opacity:1" d="M 677.461,30.4247 794.406,133.633 z" id="boundary" inkscape:connector-curvature="0" />
	<path style="fill:none;stroke:red;stroke-width:1px;stroke-linecap:butt;stroke-linejoin:miter;stroke-opacity:1" d="M 392.918,429.688 524.277,449.42 z" id="boundary" inkscape:connector-curvature="0" />
	<path style="fill:none;stroke:red;stroke-width:1px;stroke-linecap:butt;stroke-linejoin:miter;stroke-opacity:1" d="M 394.631,701.673 576.709,727.182 z" id="boundary" inkscape:connector-curvature="0" />
	<path style="fill:none;stroke:red;stroke-width:1px;stroke-linecap:butt;stroke-linejoin:miter;stroke-opacity:1" d="M 650.426,698.749 576.709,727.182 z" id="boundary" inkscape:connector-curvature="0" />
	<path style="fill:none;stroke:red;stroke-width:1px;stroke-linecap:butt;stroke-linejoin:miter;stroke-opacity:1" d="M 665.597,375.473 819.488,385.945 z" id="boundary" inkscape:connector-curvature="0" />
	<path style="fill:none;stroke:red;stroke-width:1px;stroke-linecap:butt;stroke-linejoin:miter;stroke-opacity:1" d="M 764.791,585.31 650.426,698.749 z" id="boundary" inkscape:connector-curvature="0" />
	<path style="fill:none;stroke:red;stroke-width:1px;stroke-linecap:butt;stroke-linejoin:miter;stroke-opacity:1" d="M 856.038,226.318 819.488,385.945 z" id="boundary" inkscape:connector-curvature="0" />
	<circle cx="4" cy="951.486" r="4" fill="#0" id="circle0"/>
	<circle cx="18.8355" cy="824.979" r="4" fill="#0" id="circle1"/>
	<circle cx="44.6124" cy="996" r="4" fill="#0" id="circle2"/>
	<circle cx="98.5302" cy="761.141" r="4" fill="#0" id="circle3"/>
	<circle cx="159.383" cy="930.853" r="4" fill="#0" id="circle4"/>
	<circle cx="153.942" cy="698.332" r="4" fill="#0" id="circle5"/>
	<circle cx="170.081" cy="482.821" r="4" fill="#0" id="circle6"/>
	<circle cx="139.287" cy="619.222" r="4" fill="#0" id="circle7"/>
	<circle cx="176.52" cy="346.753" r="4" fill="#0" id="circle8"/>
	<circle cx="234.783" cy="218.235" r="4" fill="#0" id="circle9"/>
	<circle cx="244.212" cy="867.074" r="4" fill="#0" id="circle10"/>
	<circle cx="286.851" cy="91.1021" r="4" fill="#0" id="circle11"/>
	<circle cx="289.22" cy="778.146" r="4" fill="#0" id="circle12"/>
	<circle cx="346.814" cy="764.872" r="4" fill="#0" id="circle13"/>
	<circle cx="333.147" cy="56.6289" r="4" fill="#0" id="circle14"/>
	<circle cx="394.631" cy="701.673" r="4" fill="#0" id="circle15"/>
	<circle cx="394.793" cy="353.544" r="4" fill="#0" id="circle16"/>
	<circle cx="392.918" cy="429.688" r="4" fill="#0" id="circle17"/>
	<circle cx="463.156" cy="193.389" r="4" fill="#0" id="circle18"/>
	<circle cx="524.277" cy="449.42" r="4" fill="#0" id="circle19"/>
	<circle cx="527.729" cy="4" r="4" fill="#0" id="circle20"/>
	<circle cx="542.999" cy="183.215" r="4" fill="#0" id="circle21"/>
	<circle cx="576.709" cy="727.182" r="4" fill="#0" id="circle22"/>
	<circle cx="602.397" cy="203.183" r="4" fill="#0" id="circle23"/>
	<circle cx="665.597" cy="375.473" r="4" fill="#0" id="circle24"/>
	<circle cx="650.426" cy="698.749" r="4" fill="#0" id="circle25"/>
	<circle cx="677.461" cy="30.4247" r="4" fill="#0" id="circle26"/>
	<circle cx="624.932" cy="300.701" r="4" fill="#0" id="circle27"/>
	<circle cx="794.406" cy="133.633" r="4" fill="#0" id="circle28"/>
	<circle cx="764.791" cy="585.31" r="4" fill="#0" id="circle29"/>
	<circle cx="856.038" cy="226.318" r="4" fill="#0" id="circle30"/>
	<circle cx="819.488" cy="385.945" r="4" fill="#0" id="circle31"/>
	</g>
</svg>