<?xml version="1.0" encoding="UTF-8" standalone="no"?>
<!-- Created with CurveBenchmark -->
<svg
	xmlns:dc="http://purl.org/dc/elements/1.1/"
	xmlns:cc="http://creativecommons.org/ns#"
	xmlns:rdf="http://www.w3.org/1999/02/22-rdf-syntax-ns#"
	xmlns:svg="http://www.w3.org/2000/svg"
	xmlns="http://www.w3.org/2000/svg"
	xmlns:sodipodi="http://sodipodi.sourceforge.net/DTD/sodipodi-0.dtd"
	xmlns:inkscape="http://www.inkscape.org/namespaces/inkscape"
	width="1000"
	height="1000"
	id="svg2"
	version="1.1"
	sodipodi:docname="noisy-0.03/crawl-mc7.txt">
<defs
	id="defs4" />
<metadata
	id="metadata7">
	<rdf:RDF>
		<cc:Work
			rdf:about="">
			<dc:format>image/svg+xml</dc:format>
			<dc:type
				rdf:resource="http://purl.org/dc/dcmitype/StillImage" />
			<dc:title></dc:title>
		</cc:Work>
	</rdf:RDF>
</metadata>
<g
	inkscape:label="Layer 1"
	inkscape:groupmode="layer"
	id="layer1">
	<path style="fill:none;stroke:red;stroke-width:1px;stroke-linecap:butt;stroke-linejoin:miter;stroke-opacity:1" d="M 458.78,960.508 460.107,960.282 z" id="boundary" inkscape:connector-curvature="0" />
	<path style="fill:none;stroke:red;stroke-width:1px;stroke-linecap:butt;stroke-linejoin:miter;stroke-opacity:1" d="M 458.78,960.508 446.88,949.984 z" id="boundary" inkscape:connector-curvature="0" />
	<path style="fill:none;stroke:red;stroke-width:1px;stroke-linecap:butt;stroke-linejoin:miter;stroke-opacity:1" d="M 446.88,949.984 408.447,972.724 z" id="boundary" inkscape:connector-curvature="0" />
	<path style="fill:none;stroke:red;stroke-width:1px;stroke-linecap:butt;stroke-linejoin:miter;stroke-opacity:1" d="M 408.447,972.724 391.758,943.795 z" id="boundary" inkscape:connector-curvature="0" />
	<path style="fill:none;stroke:red;stroke-width:1px;stroke-linecap:butt;stroke-linejoin:miter;stroke-opacity:1" d="M 391.758,943.795 366.591,933.013 z" id="boundary" inkscape:connector-curvature="0" />
	<path style="fill:none;stroke:red;stroke-width:1px;stroke-linecap:butt;stroke-linejoin:miter;stroke-opacity:1" d="M 366.591,933.013 355.604,983.783 z" id="boundary" inkscape:connector-curvature="0" />
	<path style="fill:none;stroke:red;stroke-width:1px;stroke-linecap:butt;stroke-linejoin:miter;stroke-opacity:1" d="M 355.604,983.783 288.66,988.382 z" id="boundary" inkscape:connector-curvature="0" />
	<path style="fill:none;stroke:red;stroke-width:1px;stroke-linecap:butt;stroke-linejoin:miter;stroke-opacity:1" d="M 288.66,988.382 256.959,996 z" id="boundary" inkscape:connector-curvature="0" />
	<path style="fill:none;stroke:red;stroke-width:1px;stroke-linecap:butt;stroke-linejoin:miter;stroke-opacity:1" d="M 256.959,996 240.579,978.719 z" id="boundary" inkscape:connector-curvature="0" />
	<path style="fill:none;stroke:red;stroke-width:1px;stroke-linecap:butt;stroke-linejoin:miter;stroke-opacity:1" d="M 240.579,978.719 235.648,985.058 z" id="boundary" inkscape:connector-curvature="0" />
	<path style="fill:none;stroke:red;stroke-width:1px;stroke-linecap:butt;stroke-linejoin:miter;stroke-opacity:1" d="M 235.648,985.058 202.865,975.809 z" id="boundary" inkscape:connector-curvature="0" />
	<path style="fill:none;stroke:red;stroke-width:1px;stroke-linecap:butt;stroke-linejoin:miter;stroke-opacity:1" d="M 202.865,975.809 172.549,977.947 z" id="boundary" inkscape:connector-curvature="0" />
	<path style="fill:none;stroke:red;stroke-width:1px;stroke-linecap:butt;stroke-linejoin:miter;stroke-opacity:1" d="M 172.549,977.947 169.644,939.48 z" id="boundary" inkscape:connector-curvature="0" />
	<path style="fill:none;stroke:red;stroke-width:1px;stroke-linecap:butt;stroke-linejoin:miter;stroke-opacity:1" d="M 169.644,939.48 186.385,941.33 z" id="boundary" inkscape:connector-curvature="0" />
	<path style="fill:none;stroke:red;stroke-width:1px;stroke-linecap:butt;stroke-linejoin:miter;stroke-opacity:1" d="M 460.107,960.282 456.673,882.95 z" id="boundary" inkscape:connector-curvature="0" />
	<path style="fill:none;stroke:red;stroke-width:1px;stroke-linecap:butt;stroke-linejoin:miter;stroke-opacity:1" d="M 456.673,882.95 468.682,838.041 z" id="boundary" inkscape:connector-curvature="0" />
	<path style="fill:none;stroke:red;stroke-width:1px;stroke-linecap:butt;stroke-linejoin:miter;stroke-opacity:1" d="M 468.682,838.041 449.469,823.626 z" id="boundary" inkscape:connector-curvature="0" />
	<path style="fill:none;stroke:red;stroke-width:1px;stroke-linecap:butt;stroke-linejoin:miter;stroke-opacity:1" d="M 449.469,823.626 433.701,808.003 z" id="boundary" inkscape:connector-curvature="0" />
	<path style="fill:none;stroke:red;stroke-width:1px;stroke-linecap:butt;stroke-linejoin:miter;stroke-opacity:1" d="M 433.701,808.003 417.2,826.232 z" id="boundary" inkscape:connector-curvature="0" />
	<path style="fill:none;stroke:red;stroke-width:1px;stroke-linecap:butt;stroke-linejoin:miter;stroke-opacity:1" d="M 417.2,826.232 357.9,788.263 z" id="boundary" inkscape:connector-curvature="0" />
	<path style="fill:none;stroke:red;stroke-width:1px;stroke-linecap:butt;stroke-linejoin:miter;stroke-opacity:1" d="M 357.9,788.263 331.654,781.214 z" id="boundary" inkscape:connector-curvature="0" />
	<path style="fill:none;stroke:red;stroke-width:1px;stroke-linecap:butt;stroke-linejoin:miter;stroke-opacity:1" d="M 331.654,781.214 324.199,761.47 z" id="boundary" inkscape:connector-curvature="0" />
	<path style="fill:none;stroke:red;stroke-width:1px;stroke-linecap:butt;stroke-linejoin:miter;stroke-opacity:1" d="M 324.199,761.47 303.557,765.401 z" id="boundary" inkscape:connector-curvature="0" />
	<path style="fill:none;stroke:red;stroke-width:1px;stroke-linecap:butt;stroke-linejoin:miter;stroke-opacity:1" d="M 303.557,765.401 305.591,778.039 z" id="boundary" inkscape:connector-curvature="0" />
	<path style="fill:none;stroke:red;stroke-width:1px;stroke-linecap:butt;stroke-linejoin:miter;stroke-opacity:1" d="M 305.591,778.039 286.607,758.724 z" id="boundary" inkscape:connector-curvature="0" />
	<path style="fill:none;stroke:red;stroke-width:1px;stroke-linecap:butt;stroke-linejoin:miter;stroke-opacity:1" d="M 286.607,758.724 347.108,704.175 z" id="boundary" inkscape:connector-curvature="0" />
	<path style="fill:none;stroke:red;stroke-width:1px;stroke-linecap:butt;stroke-linejoin:miter;stroke-opacity:1" d="M 347.108,704.175 352.113,727.032 z" id="boundary" inkscape:connector-curvature="0" />
	<path style="fill:none;stroke:red;stroke-width:1px;stroke-linecap:butt;stroke-linejoin:miter;stroke-opacity:1" d="M 352.113,727.032 356.596,731.638 z" id="boundary" inkscape:connector-curvature="0" />
	<path style="fill:none;stroke:red;stroke-width:1px;stroke-linecap:butt;stroke-linejoin:miter;stroke-opacity:1" d="M 356.596,731.638 376.364,675.437 z" id="boundary" inkscape:connector-curvature="0" />
	<path style="fill:none;stroke:red;stroke-width:1px;stroke-linecap:butt;stroke-linejoin:miter;stroke-opacity:1" d="M 376.364,675.437 381.966,659.788 z" id="boundary" inkscape:connector-curvature="0" />
	<path style="fill:none;stroke:red;stroke-width:1px;stroke-linecap:butt;stroke-linejoin:miter;stroke-opacity:1" d="M 381.966,659.788 386.82,603.195 z" id="boundary" inkscape:connector-curvature="0" />
	<path style="fill:none;stroke:red;stroke-width:1px;stroke-linecap:butt;stroke-linejoin:miter;stroke-opacity:1" d="M 386.82,603.195 384.843,573.828 z" id="boundary" inkscape:connector-curvature="0" />
	<path style="fill:none;stroke:red;stroke-width:1px;stroke-linecap:butt;stroke-linejoin:miter;stroke-opacity:1" d="M 384.843,573.828 403.293,546.517 z" id="boundary" inkscape:connector-curvature="0" />
	<path style="fill:none;stroke:red;stroke-width:1px;stroke-linecap:butt;stroke-linejoin:miter;stroke-opacity:1" d="M 403.293,546.517 393.183,494.012 z" id="boundary" inkscape:connector-curvature="0" />
	<path style="fill:none;stroke:red;stroke-width:1px;stroke-linecap:butt;stroke-linejoin:miter;stroke-opacity:1" d="M 393.183,494.012 413.294,483.833 z" id="boundary" inkscape:connector-curvature="0" />
	<path style="fill:none;stroke:red;stroke-width:1px;stroke-linecap:butt;stroke-linejoin:miter;stroke-opacity:1" d="M 413.294,483.833 413.194,464.759 z" id="boundary" inkscape:connector-curvature="0" />
	<path style="fill:none;stroke:red;stroke-width:1px;stroke-linecap:butt;stroke-linejoin:miter;stroke-opacity:1" d="M 413.194,464.759 424.803,463.379 z" id="boundary" inkscape:connector-curvature="0" />
	<path style="fill:none;stroke:red;stroke-width:1px;stroke-linecap:butt;stroke-linejoin:miter;stroke-opacity:1" d="M 424.803,463.379 396.412,435.673 z" id="boundary" inkscape:connector-curvature="0" />
	<path style="fill:none;stroke:red;stroke-width:1px;stroke-linecap:butt;stroke-linejoin:miter;stroke-opacity:1" d="M 396.412,435.673 400.862,415.262 z" id="boundary" inkscape:connector-curvature="0" />
	<path style="fill:none;stroke:red;stroke-width:1px;stroke-linecap:butt;stroke-linejoin:miter;stroke-opacity:1" d="M 400.862,415.262 398.047,385.866 z" id="boundary" inkscape:connector-curvature="0" />
	<path style="fill:none;stroke:red;stroke-width:1px;stroke-linecap:butt;stroke-linejoin:miter;stroke-opacity:1" d="M 398.047,385.866 420.293,340.234 z" id="boundary" inkscape:connector-curvature="0" />
	<path style="fill:none;stroke:red;stroke-width:1px;stroke-linecap:butt;stroke-linejoin:miter;stroke-opacity:1" d="M 420.293,340.234 371.223,319.753 z" id="boundary" inkscape:connector-curvature="0" />
	<path style="fill:none;stroke:red;stroke-width:1px;stroke-linecap:butt;stroke-linejoin:miter;stroke-opacity:1" d="M 371.223,319.753 378.327,300.088 z" id="boundary" inkscape:connector-curvature="0" />
	<path style="fill:none;stroke:red;stroke-width:1px;stroke-linecap:butt;stroke-linejoin:miter;stroke-opacity:1" d="M 378.327,300.088 332.636,307.973 z" id="boundary" inkscape:connector-curvature="0" />
	<path style="fill:none;stroke:red;stroke-width:1px;stroke-linecap:butt;stroke-linejoin:miter;stroke-opacity:1" d="M 332.636,307.973 319.642,295.711 z" id="boundary" inkscape:connector-curvature="0" />
	<path style="fill:none;stroke:red;stroke-width:1px;stroke-linecap:butt;stroke-linejoin:miter;stroke-opacity:1" d="M 319.642,295.711 309.164,298.71 z" id="boundary" inkscape:connector-curvature="0" />
	<path style="fill:none;stroke:red;stroke-width:1px;stroke-linecap:butt;stroke-linejoin:miter;stroke-opacity:1" d="M 309.164,298.71 277.79,255.142 z" id="boundary" inkscape:connector-curvature="0" />
	<path style="fill:none;stroke:red;stroke-width:1px;stroke-linecap:butt;stroke-linejoin:miter;stroke-opacity:1" d="M 277.79,255.142 260.779,257.665 z" id="boundary" inkscape:connector-curvature="0" />
	<path style="fill:none;stroke:red;stroke-width:1px;stroke-linecap:butt;stroke-linejoin:miter;stroke-opacity:1" d="M 260.779,257.665 252.895,200.577 z" id="boundary" inkscape:connector-curvature="0" />
	<path style="fill:none;stroke:red;stroke-width:1px;stroke-linecap:butt;stroke-linejoin:miter;stroke-opacity:1" d="M 252.895,200.577 295.831,226.437 z" id="boundary" inkscape:connector-curvature="0" />
	<path style="fill:none;stroke:red;stroke-width:1px;stroke-linecap:butt;stroke-linejoin:miter;stroke-opacity:1" d="M 295.831,226.437 302.404,240.569 z" id="boundary" inkscape:connector-curvature="0" />
	<path style="fill:none;stroke:red;stroke-width:1px;stroke-linecap:butt;stroke-linejoin:miter;stroke-opacity:1" d="M 302.404,240.569 300.87,157.175 z" id="boundary" inkscape:connector-curvature="0" />
	<path style="fill:none;stroke:red;stroke-width:1px;stroke-linecap:butt;stroke-linejoin:miter;stroke-opacity:1" d="M 300.87,157.175 292.944,167.374 z" id="boundary" inkscape:connector-curvature="0" />
	<path style="fill:none;stroke:red;stroke-width:1px;stroke-linecap:butt;stroke-linejoin:miter;stroke-opacity:1" d="M 292.944,167.374 191.01,135.982 z" id="boundary" inkscape:connector-curvature="0" />
	<path style="fill:none;stroke:red;stroke-width:1px;stroke-linecap:butt;stroke-linejoin:miter;stroke-opacity:1" d="M 191.01,135.982 163.748,113.209 z" id="boundary" inkscape:connector-curvature="0" />
	<path style="fill:none;stroke:red;stroke-width:1px;stroke-linecap:butt;stroke-linejoin:miter;stroke-opacity:1" d="M 163.748,113.209 169.28,89.4059 z" id="boundary" inkscape:connector-curvature="0" />
	<path style="fill:none;stroke:red;stroke-width:1px;stroke-linecap:butt;stroke-linejoin:miter;stroke-opacity:1" d="M 169.28,89.4059 177.437,83.9361 z" id="boundary" inkscape:connector-curvature="0" />
	<path style="fill:none;stroke:red;stroke-width:1px;stroke-linecap:butt;stroke-linejoin:miter;stroke-opacity:1" d="M 177.437,83.9361 181.288,83.6103 z" id="boundary" inkscape:connector-curvature="0" />
	<path style="fill:none;stroke:red;stroke-width:1px;stroke-linecap:butt;stroke-linejoin:miter;stroke-opacity:1" d="M 181.288,83.6103 209.826,46.328 z" id="boundary" inkscape:connector-curvature="0" />
	<path style="fill:none;stroke:red;stroke-width:1px;stroke-linecap:butt;stroke-linejoin:miter;stroke-opacity:1" d="M 209.826,46.328 227.693,34.2097 z" id="boundary" inkscape:connector-curvature="0" />
	<path style="fill:none;stroke:red;stroke-width:1px;stroke-linecap:butt;stroke-linejoin:miter;stroke-opacity:1" d="M 227.693,34.2097 194.479,16.6769 z" id="boundary" inkscape:connector-curvature="0" />
	<path style="fill:none;stroke:red;stroke-width:1px;stroke-linecap:butt;stroke-linejoin:miter;stroke-opacity:1" d="M 194.479,16.6769 142.5,61.982 z" id="boundary" inkscape:connector-curvature="0" />
	<path style="fill:none;stroke:red;stroke-width:1px;stroke-linecap:butt;stroke-linejoin:miter;stroke-opacity:1" d="M 142.5,61.982 113.418,112.784 z" id="boundary" inkscape:connector-curvature="0" />
	<path style="fill:none;stroke:red;stroke-width:1px;stroke-linecap:butt;stroke-linejoin:miter;stroke-opacity:1" d="M 113.418,112.784 78.5143,115.452 z" id="boundary" inkscape:connector-curvature="0" />
	<path style="fill:none;stroke:red;stroke-width:1px;stroke-linecap:butt;stroke-linejoin:miter;stroke-opacity:1" d="M 78.5143,115.452 104.465,164.387 z" id="boundary" inkscape:connector-curvature="0" />
	<path style="fill:none;stroke:red;stroke-width:1px;stroke-linecap:butt;stroke-linejoin:miter;stroke-opacity:1" d="M 104.465,164.387 95.2634,183.065 z" id="boundary" inkscape:connector-curvature="0" />
	<path style="fill:none;stroke:red;stroke-width:1px;stroke-linecap:butt;stroke-linejoin:miter;stroke-opacity:1" d="M 95.2634,183.065 104.213,203.309 z" id="boundary" inkscape:connector-curvature="0" />
	<path style="fill:none;stroke:red;stroke-width:1px;stroke-linecap:butt;stroke-linejoin:miter;stroke-opacity:1" d="M 104.213,203.309 107.749,215.806 z" id="boundary" inkscape:connector-curvature="0" />
	<path style="fill:none;stroke:red;stroke-width:1px;stroke-linecap:butt;stroke-linejoin:miter;stroke-opacity:1" d="M 107.749,215.806 106.314,228.305 z" id="boundary" inkscape:connector-curvature="0" />
	<path style="fill:none;stroke:red;stroke-width:1px;stroke-linecap:butt;stroke-linejoin:miter;stroke-opacity:1" d="M 106.314,228.305 121.142,215.314 z" id="boundary" inkscape:connector-curvature="0" />
	<path style="fill:none;stroke:red;stroke-width:1px;stroke-linecap:butt;stroke-linejoin:miter;stroke-opacity:1" d="M 121.142,215.314 116.645,255.948 z" id="boundary" inkscape:connector-curvature="0" />
	<path style="fill:none;stroke:red;stroke-width:1px;stroke-linecap:butt;stroke-linejoin:miter;stroke-opacity:1" d="M 116.645,255.948 145.519,268.96 z" id="boundary" inkscape:connector-curvature="0" />
	<path style="fill:none;stroke:red;stroke-width:1px;stroke-linecap:butt;stroke-linejoin:miter;stroke-opacity:1" d="M 145.519,268.96 171.461,253.74 z" id="boundary" inkscape:connector-curvature="0" />
	<path style="fill:none;stroke:red;stroke-width:1px;stroke-linecap:butt;stroke-linejoin:miter;stroke-opacity:1" d="M 171.461,253.74 170.404,250.058 z" id="boundary" inkscape:connector-curvature="0" />
	<path style="fill:none;stroke:red;stroke-width:1px;stroke-linecap:butt;stroke-linejoin:miter;stroke-opacity:1" d="M 170.404,250.058 187.72,228.507 z" id="boundary" inkscape:connector-curvature="0" />
	<path style="fill:none;stroke:red;stroke-width:1px;stroke-linecap:butt;stroke-linejoin:miter;stroke-opacity:1" d="M 187.72,228.507 162.599,219.612 z" id="boundary" inkscape:connector-curvature="0" />
	<path style="fill:none;stroke:red;stroke-width:1px;stroke-linecap:butt;stroke-linejoin:miter;stroke-opacity:1" d="M 162.599,219.612 170.52,188.217 z" id="boundary" inkscape:connector-curvature="0" />
	<path style="fill:none;stroke:red;stroke-width:1px;stroke-linecap:butt;stroke-linejoin:miter;stroke-opacity:1" d="M 170.52,188.217 136.831,174.925 z" id="boundary" inkscape:connector-curvature="0" />
	<path style="fill:none;stroke:red;stroke-width:1px;stroke-linecap:butt;stroke-linejoin:miter;stroke-opacity:1" d="M 186.385,941.33 134.78,844.566 z" id="boundary" inkscape:connector-curvature="0" />
	<path style="fill:none;stroke:red;stroke-width:1px;stroke-linecap:butt;stroke-linejoin:miter;stroke-opacity:1" d="M 134.78,844.566 123.55,825.242 z" id="boundary" inkscape:connector-curvature="0" />
	<path style="fill:none;stroke:red;stroke-width:1px;stroke-linecap:butt;stroke-linejoin:miter;stroke-opacity:1" d="M 123.55,825.242 144.903,815.7 z" id="boundary" inkscape:connector-curvature="0" />
	<path style="fill:none;stroke:red;stroke-width:1px;stroke-linecap:butt;stroke-linejoin:miter;stroke-opacity:1" d="M 144.903,815.7 154.179,772.555 z" id="boundary" inkscape:connector-curvature="0" />
	<path style="fill:none;stroke:red;stroke-width:1px;stroke-linecap:butt;stroke-linejoin:miter;stroke-opacity:1" d="M 154.179,772.555 146.434,742.393 z" id="boundary" inkscape:connector-curvature="0" />
	<path style="fill:none;stroke:red;stroke-width:1px;stroke-linecap:butt;stroke-linejoin:miter;stroke-opacity:1" d="M 146.434,742.393 154.4,729.585 z" id="boundary" inkscape:connector-curvature="0" />
	<path style="fill:none;stroke:red;stroke-width:1px;stroke-linecap:butt;stroke-linejoin:miter;stroke-opacity:1" d="M 154.4,729.585 185.738,731.152 z" id="boundary" inkscape:connector-curvature="0" />
	<path style="fill:none;stroke:red;stroke-width:1px;stroke-linecap:butt;stroke-linejoin:miter;stroke-opacity:1" d="M 185.738,731.152 199.889,770.521 z" id="boundary" inkscape:connector-curvature="0" />
	<path style="fill:none;stroke:red;stroke-width:1px;stroke-linecap:butt;stroke-linejoin:miter;stroke-opacity:1" d="M 199.889,770.521 209.318,792.934 z" id="boundary" inkscape:connector-curvature="0" />
	<path style="fill:none;stroke:red;stroke-width:1px;stroke-linecap:butt;stroke-linejoin:miter;stroke-opacity:1" d="M 33.3472,932.228 36.5733,932.398 z" id="boundary" inkscape:connector-curvature="0" />
	<path style="fill:none;stroke:red;stroke-width:1px;stroke-linecap:butt;stroke-linejoin:miter;stroke-opacity:1" d="M 36.5733,932.398 63.5434,945.387 z" id="boundary" inkscape:connector-curvature="0" />
	<path style="fill:none;stroke:red;stroke-width:1px;stroke-linecap:butt;stroke-linejoin:miter;stroke-opacity:1" d="M 33.3472,932.228 4,947.081 z" id="boundary" inkscape:connector-curvature="0" />
	<path style="fill:none;stroke:red;stroke-width:1px;stroke-linecap:butt;stroke-linejoin:miter;stroke-opacity:1" d="M 4,947.081 23.453,971.416 z" id="boundary" inkscape:connector-curvature="0" />
	<path style="fill:none;stroke:red;stroke-width:1px;stroke-linecap:butt;stroke-linejoin:miter;stroke-opacity:1" d="M 63.5434,945.387 118.483,985.855 z" id="boundary" inkscape:connector-curvature="0" />
	<path style="fill:none;stroke:red;stroke-width:1px;stroke-linecap:butt;stroke-linejoin:miter;stroke-opacity:1" d="M 118.483,985.855 121.434,982.31 z" id="boundary" inkscape:connector-curvature="0" />
	<path style="fill:none;stroke:red;stroke-width:1px;stroke-linecap:butt;stroke-linejoin:miter;stroke-opacity:1" d="M 330.113,96.1128 336.181,103.23 z" id="boundary" inkscape:connector-curvature="0" />
	<path style="fill:none;stroke:red;stroke-width:1px;stroke-linecap:butt;stroke-linejoin:miter;stroke-opacity:1" d="M 330.113,96.1128 296.906,82.9019 z" id="boundary" inkscape:connector-curvature="0" />
	<path style="fill:none;stroke:red;stroke-width:1px;stroke-linecap:butt;stroke-linejoin:miter;stroke-opacity:1" d="M 296.906,82.9019 328.869,45.7713 z" id="boundary" inkscape:connector-curvature="0" />
	<path style="fill:none;stroke:red;stroke-width:1px;stroke-linecap:butt;stroke-linejoin:miter;stroke-opacity:1" d="M 328.869,45.7713 305.847,33.9528 z" id="boundary" inkscape:connector-curvature="0" />
	<path style="fill:none;stroke:red;stroke-width:1px;stroke-linecap:butt;stroke-linejoin:miter;stroke-opacity:1" d="M 305.847,33.9528 296.755,23.073 z" id="boundary" inkscape:connector-curvature="0" />
	<path style="fill:none;stroke:red;stroke-width:1px;stroke-linecap:butt;stroke-linejoin:miter;stroke-opacity:1" d="M 296.755,23.073 262.598,4 z" id="boundary" inkscape:connector-curvature="0" />
	<path style="fill:none;stroke:red;stroke-width:1px;stroke-linecap:butt;stroke-linejoin:miter;stroke-opacity:1" d="M 31.9711,877.365 39.3188,868.606 z" id="boundary" inkscape:connector-curvature="0" />
	<path style="fill:none;stroke:red;stroke-width:1px;stroke-linecap:butt;stroke-linejoin:miter;stroke-opacity:1" d="M 39.3188,868.606 63.316,850.473 z" id="boundary" inkscape:connector-curvature="0" />
	<path style="fill:none;stroke:red;stroke-width:1px;stroke-linecap:butt;stroke-linejoin:miter;stroke-opacity:1" d="M 63.316,850.473 81.0578,843.516 z" id="boundary" inkscape:connector-curvature="0" />
	<path style="fill:none;stroke:red;stroke-width:1px;stroke-linecap:butt;stroke-linejoin:miter;stroke-opacity:1" d="M 81.0578,843.516 95.0402,848.122 z" id="boundary" inkscape:connector-curvature="0" />
	<path style="fill:none;stroke:red;stroke-width:1px;stroke-linecap:butt;stroke-linejoin:miter;stroke-opacity:1" d="M 31.9711,877.365 50.5794,818.809 z" id="boundary" inkscape:connector-curvature="0" />
	<path style="fill:none;stroke:red;stroke-width:1px;stroke-linecap:butt;stroke-linejoin:miter;stroke-opacity:1" d="M 50.5794,818.809 125.219,715.454 z" id="boundary" inkscape:connector-curvature="0" />
	<path style="fill:none;stroke:red;stroke-width:1px;stroke-linecap:butt;stroke-linejoin:miter;stroke-opacity:1" d="M 125.219,715.454 95.384,684.465 z" id="boundary" inkscape:connector-curvature="0" />
	<path style="fill:none;stroke:red;stroke-width:1px;stroke-linecap:butt;stroke-linejoin:miter;stroke-opacity:1" d="M 95.384,684.465 87.1839,624.88 z" id="boundary" inkscape:connector-curvature="0" />
	<path style="fill:none;stroke:red;stroke-width:1px;stroke-linecap:butt;stroke-linejoin:miter;stroke-opacity:1" d="M 87.1839,624.88 84.2109,612.735 z" id="boundary" inkscape:connector-curvature="0" />
	<path style="fill:none;stroke:red;stroke-width:1px;stroke-linecap:butt;stroke-linejoin:miter;stroke-opacity:1" d="M 84.2109,612.735 86.3114,590.915 z" id="boundary" inkscape:connector-curvature="0" />
	<path style="fill:none;stroke:red;stroke-width:1px;stroke-linecap:butt;stroke-linejoin:miter;stroke-opacity:1" d="M 86.3114,590.915 124.521,620.532 z" id="boundary" inkscape:connector-curvature="0" />
	<path style="fill:none;stroke:red;stroke-width:1px;stroke-linecap:butt;stroke-linejoin:miter;stroke-opacity:1" d="M 124.521,620.532 87.2519,510.288 z" id="boundary" inkscape:connector-curvature="0" />
	<path style="fill:none;stroke:red;stroke-width:1px;stroke-linecap:butt;stroke-linejoin:miter;stroke-opacity:1" d="M 87.2519,510.288 71.5356,523.696 z" id="boundary" inkscape:connector-curvature="0" />
	<path style="fill:none;stroke:red;stroke-width:1px;stroke-linecap:butt;stroke-linejoin:miter;stroke-opacity:1" d="M 71.5356,523.696 84.6798,479.716 z" id="boundary" inkscape:connector-curvature="0" />
	<path style="fill:none;stroke:red;stroke-width:1px;stroke-linecap:butt;stroke-linejoin:miter;stroke-opacity:1" d="M 84.6798,479.716 68.9023,462.219 z" id="boundary" inkscape:connector-curvature="0" />
	<path style="fill:none;stroke:red;stroke-width:1px;stroke-linecap:butt;stroke-linejoin:miter;stroke-opacity:1" d="M 68.9023,462.219 50.1906,455.367 z" id="boundary" inkscape:connector-curvature="0" />
	<path style="fill:none;stroke:red;stroke-width:1px;stroke-linecap:butt;stroke-linejoin:miter;stroke-opacity:1" d="M 50.1906,455.367 60.3091,411.091 z" id="boundary" inkscape:connector-curvature="0" />
	<path style="fill:none;stroke:red;stroke-width:1px;stroke-linecap:butt;stroke-linejoin:miter;stroke-opacity:1" d="M 60.3091,411.091 88.1006,429.81 z" id="boundary" inkscape:connector-curvature="0" />
	<path style="fill:none;stroke:red;stroke-width:1px;stroke-linecap:butt;stroke-linejoin:miter;stroke-opacity:1" d="M 88.1006,429.81 95.6933,395.3 z" id="boundary" inkscape:connector-curvature="0" />
	<path style="fill:none;stroke:red;stroke-width:1px;stroke-linecap:butt;stroke-linejoin:miter;stroke-opacity:1" d="M 95.6933,395.3 71.3078,373.888 z" id="boundary" inkscape:connector-curvature="0" />
	<path style="fill:none;stroke:red;stroke-width:1px;stroke-linecap:butt;stroke-linejoin:miter;stroke-opacity:1" d="M 71.3078,373.888 86.8041,352.965 z" id="boundary" inkscape:connector-curvature="0" />
	<path style="fill:none;stroke:red;stroke-width:1px;stroke-linecap:butt;stroke-linejoin:miter;stroke-opacity:1" d="M 86.8041,352.965 70.4137,333.703 z" id="boundary" inkscape:connector-curvature="0" />
	<path style="fill:none;stroke:red;stroke-width:1px;stroke-linecap:butt;stroke-linejoin:miter;stroke-opacity:1" d="M 70.4137,333.703 68.1025,294.214 z" id="boundary" inkscape:connector-curvature="0" />
	<path style="fill:none;stroke:red;stroke-width:1px;stroke-linecap:butt;stroke-linejoin:miter;stroke-opacity:1" d="M 68.1025,294.214 76.1427,282.531 z" id="boundary" inkscape:connector-curvature="0" />
	<path style="fill:none;stroke:red;stroke-width:1px;stroke-linecap:butt;stroke-linejoin:miter;stroke-opacity:1" d="M 76.1427,282.531 126.352,294.616 z" id="boundary" inkscape:connector-curvature="0" />
	<path style="fill:none;stroke:red;stroke-width:1px;stroke-linecap:butt;stroke-linejoin:miter;stroke-opacity:1" d="M 126.352,294.616 144.167,327.04 z" id="boundary" inkscape:connector-curvature="0" />
	<path style="fill:none;stroke:red;stroke-width:1px;stroke-linecap:butt;stroke-linejoin:miter;stroke-opacity:1" d="M 144.167,327.04 117.659,339.248 z" id="boundary" inkscape:connector-curvature="0" />
	<path style="fill:none;stroke:red;stroke-width:1px;stroke-linecap:butt;stroke-linejoin:miter;stroke-opacity:1" d="M 173.357,299.719 198.375,310.131 z" id="boundary" inkscape:connector-curvature="0" />
	<path style="fill:none;stroke:red;stroke-width:1px;stroke-linecap:butt;stroke-linejoin:miter;stroke-opacity:1" d="M 198.375,310.131 353.024,349.439 z" id="boundary" inkscape:connector-curvature="0" />
	<circle cx="70.4137" cy="333.703" r="4" fill="#0" id="circle0"/>
	<circle cx="76.1427" cy="282.531" r="4" fill="#0" id="circle1"/>
	<circle cx="68.1025" cy="294.214" r="4" fill="#0" id="circle2"/>
	<circle cx="106.314" cy="228.305" r="4" fill="#0" id="circle3"/>
	<circle cx="107.749" cy="215.806" r="4" fill="#0" id="circle4"/>
	<circle cx="95.2634" cy="183.065" r="4" fill="#0" id="circle5"/>
	<circle cx="104.465" cy="164.387" r="4" fill="#0" id="circle6"/>
	<circle cx="78.5143" cy="115.452" r="4" fill="#0" id="circle7"/>
	<circle cx="113.418" cy="112.784" r="4" fill="#0" id="circle8"/>
	<circle cx="163.748" cy="113.209" r="4" fill="#0" id="circle9"/>
	<circle cx="191.01" cy="135.982" r="4" fill="#0" id="circle10"/>
	<circle cx="181.288" cy="83.6103" r="4" fill="#0" id="circle11"/>
	<circle cx="169.28" cy="89.4059" r="4" fill="#0" id="circle12"/>
	<circle cx="177.437" cy="83.9361" r="4" fill="#0" id="circle13"/>
	<circle cx="142.5" cy="61.982" r="4" fill="#0" id="circle14"/>
	<circle cx="194.479" cy="16.6769" r="4" fill="#0" id="circle15"/>
	<circle cx="209.826" cy="46.328" r="4" fill="#0" id="circle16"/>
	<circle cx="227.693" cy="34.2097" r="4" fill="#0" id="circle17"/>
	<circle cx="262.598" cy="4" r="4" fill="#0" id="circle18"/>
	<circle cx="296.755" cy="23.073" r="4" fill="#0" id="circle19"/>
	<circle cx="305.847" cy="33.9528" r="4" fill="#0" id="circle20"/>
	<circle cx="328.869" cy="45.7713" r="4" fill="#0" id="circle21"/>
	<circle cx="336.181" cy="103.23" r="4" fill="#0" id="circle22"/>
	<circle cx="296.906" cy="82.9019" r="4" fill="#0" id="circle23"/>
	<circle cx="330.113" cy="96.1128" r="4" fill="#0" id="circle24"/>
	<circle cx="292.944" cy="167.374" r="4" fill="#0" id="circle25"/>
	<circle cx="300.87" cy="157.175" r="4" fill="#0" id="circle26"/>
	<circle cx="252.895" cy="200.577" r="4" fill="#0" id="circle27"/>
	<circle cx="302.404" cy="240.569" r="4" fill="#0" id="circle28"/>
	<circle cx="277.79" cy="255.142" r="4" fill="#0" id="circle29"/>
	<circle cx="295.831" cy="226.437" r="4" fill="#0" id="circle30"/>
	<circle cx="260.779" cy="257.665" r="4" fill="#0" id="circle31"/>
	<circle cx="309.164" cy="298.71" r="4" fill="#0" id="circle32"/>
	<circle cx="319.642" cy="295.711" r="4" fill="#0" id="circle33"/>
	<circle cx="332.636" cy="307.973" r="4" fill="#0" id="circle34"/>
	<circle cx="353.024" cy="349.439" r="4" fill="#0" id="circle35"/>
	<circle cx="378.327" cy="300.088" r="4" fill="#0" id="circle36"/>
	<circle cx="371.223" cy="319.753" r="4" fill="#0" id="circle37"/>
	<circle cx="420.293" cy="340.234" r="4" fill="#0" id="circle38"/>
	<circle cx="398.047" cy="385.866" r="4" fill="#0" id="circle39"/>
	<circle cx="71.3078" cy="373.888" r="4" fill="#0" id="circle40"/>
	<circle cx="86.8041" cy="352.965" r="4" fill="#0" id="circle41"/>
	<circle cx="60.3091" cy="411.091" r="4" fill="#0" id="circle42"/>
	<circle cx="95.6933" cy="395.3" r="4" fill="#0" id="circle43"/>
	<circle cx="88.1006" cy="429.81" r="4" fill="#0" id="circle44"/>
	<circle cx="50.1906" cy="455.367" r="4" fill="#0" id="circle45"/>
	<circle cx="68.9023" cy="462.219" r="4" fill="#0" id="circle46"/>
	<circle cx="84.6798" cy="479.716" r="4" fill="#0" id="circle47"/>
	<circle cx="87.2519" cy="510.288" r="4" fill="#0" id="circle48"/>
	<circle cx="71.5356" cy="523.696" r="4" fill="#0" id="circle49"/>
	<circle cx="86.3114" cy="590.915" r="4" fill="#0" id="circle50"/>
	<circle cx="50.5794" cy="818.809" r="4" fill="#0" id="circle51"/>
	<circle cx="124.521" cy="620.532" r="4" fill="#0" id="circle52"/>
	<circle cx="87.1839" cy="624.88" r="4" fill="#0" id="circle53"/>
	<circle cx="84.2109" cy="612.735" r="4" fill="#0" id="circle54"/>
	<circle cx="95.384" cy="684.465" r="4" fill="#0" id="circle55"/>
	<circle cx="125.219" cy="715.454" r="4" fill="#0" id="circle56"/>
	<circle cx="154.4" cy="729.585" r="4" fill="#0" id="circle57"/>
	<circle cx="146.434" cy="742.393" r="4" fill="#0" id="circle58"/>
	<circle cx="185.738" cy="731.152" r="4" fill="#0" id="circle59"/>
	<circle cx="209.318" cy="792.934" r="4" fill="#0" id="circle60"/>
	<circle cx="199.889" cy="770.521" r="4" fill="#0" id="circle61"/>
	<circle cx="154.179" cy="772.555" r="4" fill="#0" id="circle62"/>
	<circle cx="144.903" cy="815.7" r="4" fill="#0" id="circle63"/>
	<circle cx="123.55" cy="825.242" r="4" fill="#0" id="circle64"/>
	<circle cx="134.78" cy="844.566" r="4" fill="#0" id="circle65"/>
	<circle cx="95.0402" cy="848.122" r="4" fill="#0" id="circle66"/>
	<circle cx="81.0578" cy="843.516" r="4" fill="#0" id="circle67"/>
	<circle cx="63.316" cy="850.473" r="4" fill="#0" id="circle68"/>
	<circle cx="39.3188" cy="868.606" r="4" fill="#0" id="circle69"/>
	<circle cx="31.9711" cy="877.365" r="4" fill="#0" id="circle70"/>
	<circle cx="33.3472" cy="932.228" r="4" fill="#0" id="circle71"/>
	<circle cx="23.453" cy="971.416" r="4" fill="#0" id="circle72"/>
	<circle cx="4" cy="947.081" r="4" fill="#0" id="circle73"/>
	<circle cx="36.5733" cy="932.398" r="4" fill="#0" id="circle74"/>
	<circle cx="63.5434" cy="945.387" r="4" fill="#0" id="circle75"/>
	<circle cx="121.434" cy="982.31" r="4" fill="#0" id="circle76"/>
	<circle cx="118.483" cy="985.855" r="4" fill="#0" id="circle77"/>
	<circle cx="172.549" cy="977.947" r="4" fill="#0" id="circle78"/>
	<circle cx="169.644" cy="939.48" r="4" fill="#0" id="circle79"/>
	<circle cx="186.385" cy="941.33" r="4" fill="#0" id="circle80"/>
	<circle cx="240.579" cy="978.719" r="4" fill="#0" id="circle81"/>
	<circle cx="202.865" cy="975.809" r="4" fill="#0" id="circle82"/>
	<circle cx="235.648" cy="985.058" r="4" fill="#0" id="circle83"/>
	<circle cx="256.959" cy="996" r="4" fill="#0" id="circle84"/>
	<circle cx="288.66" cy="988.382" r="4" fill="#0" id="circle85"/>
	<circle cx="366.591" cy="933.013" r="4" fill="#0" id="circle86"/>
	<circle cx="355.604" cy="983.783" r="4" fill="#0" id="circle87"/>
	<circle cx="408.447" cy="972.724" r="4" fill="#0" id="circle88"/>
	<circle cx="391.758" cy="943.795" r="4" fill="#0" id="circle89"/>
	<circle cx="458.78" cy="960.508" r="4" fill="#0" id="circle90"/>
	<circle cx="460.107" cy="960.282" r="4" fill="#0" id="circle91"/>
	<circle cx="446.88" cy="949.984" r="4" fill="#0" id="circle92"/>
	<circle cx="456.673" cy="882.95" r="4" fill="#0" id="circle93"/>
	<circle cx="468.682" cy="838.041" r="4" fill="#0" id="circle94"/>
	<circle cx="449.469" cy="823.626" r="4" fill="#0" id="circle95"/>
	<circle cx="417.2" cy="826.232" r="4" fill="#0" id="circle96"/>
	<circle cx="433.701" cy="808.003" r="4" fill="#0" id="circle97"/>
	<circle cx="357.9" cy="788.263" r="4" fill="#0" id="circle98"/>
	<circle cx="331.654" cy="781.214" r="4" fill="#0" id="circle99"/>
	<circle cx="305.591" cy="778.039" r="4" fill="#0" id="circle100"/>
	<circle cx="286.607" cy="758.724" r="4" fill="#0" id="circle101"/>
	<circle cx="303.557" cy="765.401" r="4" fill="#0" id="circle102"/>
	<circle cx="356.596" cy="731.638" r="4" fill="#0" id="circle103"/>
	<circle cx="324.199" cy="761.47" r="4" fill="#0" id="circle104"/>
	<circle cx="352.113" cy="727.032" r="4" fill="#0" id="circle105"/>
	<circle cx="400.862" cy="415.262" r="4" fill="#0" id="circle106"/>
	<circle cx="396.412" cy="435.673" r="4" fill="#0" id="circle107"/>
	<circle cx="413.194" cy="464.759" r="4" fill="#0" id="circle108"/>
	<circle cx="424.803" cy="463.379" r="4" fill="#0" id="circle109"/>
	<circle cx="413.294" cy="483.833" r="4" fill="#0" id="circle110"/>
	<circle cx="393.183" cy="494.012" r="4" fill="#0" id="circle111"/>
	<circle cx="403.293" cy="546.517" r="4" fill="#0" id="circle112"/>
	<circle cx="121.142" cy="215.314" r="4" fill="#0" id="circle113"/>
	<circle cx="384.843" cy="573.828" r="4" fill="#0" id="circle114"/>
	<circle cx="350.953" cy="608.586" r="4" fill="#0" id="circle115"/>
	<circle cx="386.82" cy="603.195" r="4" fill="#0" id="circle116"/>
	<circle cx="376.364" cy="675.437" r="4" fill="#0" id="circle117"/>
	<circle cx="381.966" cy="659.788" r="4" fill="#0" id="circle118"/>
	<circle cx="347.108" cy="704.175" r="4" fill="#0" id="circle119"/>
	<circle cx="136.831" cy="174.925" r="4" fill="#0" id="circle120"/>
	<circle cx="170.52" cy="188.217" r="4" fill="#0" id="circle121"/>
	<circle cx="162.599" cy="219.612" r="4" fill="#0" id="circle122"/>
	<circle cx="170.404" cy="250.058" r="4" fill="#0" id="circle123"/>
	<circle cx="187.72" cy="228.507" r="4" fill="#0" id="circle124"/>
	<circle cx="171.461" cy="253.74" r="4" fill="#0" id="circle125"/>
	<circle cx="198.375" cy="310.131" r="4" fill="#0" id="circle126"/>
	<circle cx="173.357" cy="299.719" r="4" fill="#0" id="circle127"/>
	<circle cx="144.167" cy="327.04" r="4" fill="#0" id="circle128"/>
	<circle cx="117.659" cy="339.248" r="4" fill="#0" id="circle129"/>
	<circle cx="104.213" cy="203.309" r="4" fill="#0" id="circle130"/>
	<circle cx="116.645" cy="255.948" r="4" fill="#0" id="circle131"/>
	<circle cx="126.352" cy="294.616" r="4" fill="#0" id="circle132"/>
	<circle cx="145.519" cy="268.96" r="4" fill="#0" id="circle133"/>
	</g>
</svg>