<?xml version="1.0" encoding="UTF-8" standalone="no"?>
<!-- Created with CurveBenchmark -->
<svg
	xmlns:dc="http://purl.org/dc/elements/1.1/"
	xmlns:cc="http://creativecommons.org/ns#"
	xmlns:rdf="http://www.w3.org/1999/02/22-rdf-syntax-ns#"
	xmlns:svg="http://www.w3.org/2000/svg"
	xmlns="http://www.w3.org/2000/svg"
	xmlns:sodipodi="http://sodipodi.sourceforge.net/DTD/sodipodi-0.dtd"
	xmlns:inkscape="http://www.inkscape.org/namespaces/inkscape"
	width="1000"
	height="1000"
	id="svg2"
	version="1.1"
	sodipodi:docname="noisy-0.03/crawl-mc24.txt">
<defs
	id="defs4" />
<metadata
	id="metadata7">
	<rdf:RDF>
		<cc:Work
			rdf:about="">
			<dc:format>image/svg+xml</dc:format>
			<dc:type
				rdf:resource="http://purl.org/dc/dcmitype/StillImage" />
			<dc:title></dc:title>
		</cc:Work>
	</rdf:RDF>
</metadata>
<g
	inkscape:label="Layer 1"
	inkscape:groupmode="layer"
	id="layer1">
	<path style="fill:none;stroke:red;stroke-width:1px;stroke-linecap:butt;stroke-linejoin:miter;stroke-opacity:1" d="M 942.861,189.125 916.879,193.153 z" id="boundary" inkscape:connector-curvature="0" />
	<path style="fill:none;stroke:red;stroke-width:1px;stroke-linecap:butt;stroke-linejoin:miter;stroke-opacity:1" d="M 942.861,189.125 945.208,153.415 z" id="boundary" inkscape:connector-curvature="0" />
	<path style="fill:none;stroke:red;stroke-width:1px;stroke-linecap:butt;stroke-linejoin:miter;stroke-opacity:1" d="M 916.879,193.153 817.492,215.944 z" id="boundary" inkscape:connector-curvature="0" />
	<path style="fill:none;stroke:red;stroke-width:1px;stroke-linecap:butt;stroke-linejoin:miter;stroke-opacity:1" d="M 817.492,215.944 797.22,280.796 z" id="boundary" inkscape:connector-curvature="0" />
	<path style="fill:none;stroke:red;stroke-width:1px;stroke-linecap:butt;stroke-linejoin:miter;stroke-opacity:1" d="M 797.22,280.796 754.197,265.087 z" id="boundary" inkscape:connector-curvature="0" />
	<path style="fill:none;stroke:red;stroke-width:1px;stroke-linecap:butt;stroke-linejoin:miter;stroke-opacity:1" d="M 754.197,265.087 662.357,234.33 z" id="boundary" inkscape:connector-curvature="0" />
	<path style="fill:none;stroke:red;stroke-width:1px;stroke-linecap:butt;stroke-linejoin:miter;stroke-opacity:1" d="M 662.357,234.33 605.573,94.4081 z" id="boundary" inkscape:connector-curvature="0" />
	<path style="fill:none;stroke:red;stroke-width:1px;stroke-linecap:butt;stroke-linejoin:miter;stroke-opacity:1" d="M 605.573,94.4081 547.878,11.116 z" id="boundary" inkscape:connector-curvature="0" />
	<path style="fill:none;stroke:red;stroke-width:1px;stroke-linecap:butt;stroke-linejoin:miter;stroke-opacity:1" d="M 547.878,11.116 391.647,31.9016 z" id="boundary" inkscape:connector-curvature="0" />
	<path style="fill:none;stroke:red;stroke-width:1px;stroke-linecap:butt;stroke-linejoin:miter;stroke-opacity:1" d="M 391.647,31.9016 319.705,4 z" id="boundary" inkscape:connector-curvature="0" />
	<path style="fill:none;stroke:red;stroke-width:1px;stroke-linecap:butt;stroke-linejoin:miter;stroke-opacity:1" d="M 319.705,4 135.746,29.7535 z" id="boundary" inkscape:connector-curvature="0" />
	<path style="fill:none;stroke:red;stroke-width:1px;stroke-linecap:butt;stroke-linejoin:miter;stroke-opacity:1" d="M 135.746,29.7535 18.2074,72.8843 z" id="boundary" inkscape:connector-curvature="0" />
	<path style="fill:none;stroke:red;stroke-width:1px;stroke-linecap:butt;stroke-linejoin:miter;stroke-opacity:1" d="M 18.2074,72.8843 4,176.236 z" id="boundary" inkscape:connector-curvature="0" />
	<path style="fill:none;stroke:red;stroke-width:1px;stroke-linecap:butt;stroke-linejoin:miter;stroke-opacity:1" d="M 4,176.236 46.245,310.16 z" id="boundary" inkscape:connector-curvature="0" />
	<path style="fill:none;stroke:red;stroke-width:1px;stroke-linecap:butt;stroke-linejoin:miter;stroke-opacity:1" d="M 46.245,310.16 160.122,413.619 z" id="boundary" inkscape:connector-curvature="0" />
	<path style="fill:none;stroke:red;stroke-width:1px;stroke-linecap:butt;stroke-linejoin:miter;stroke-opacity:1" d="M 160.122,413.619 276.635,364.913 z" id="boundary" inkscape:connector-curvature="0" />
	<path style="fill:none;stroke:red;stroke-width:1px;stroke-linecap:butt;stroke-linejoin:miter;stroke-opacity:1" d="M 276.635,364.913 274.513,323.848 z" id="boundary" inkscape:connector-curvature="0" />
	<path style="fill:none;stroke:red;stroke-width:1px;stroke-linecap:butt;stroke-linejoin:miter;stroke-opacity:1" d="M 274.513,323.848 251.846,240.376 z" id="boundary" inkscape:connector-curvature="0" />
	<path style="fill:none;stroke:red;stroke-width:1px;stroke-linecap:butt;stroke-linejoin:miter;stroke-opacity:1" d="M 251.846,240.376 365.816,260.389 z" id="boundary" inkscape:connector-curvature="0" />
	<path style="fill:none;stroke:red;stroke-width:1px;stroke-linecap:butt;stroke-linejoin:miter;stroke-opacity:1" d="M 365.816,260.389 434.37,269.935 z" id="boundary" inkscape:connector-curvature="0" />
	<path style="fill:none;stroke:red;stroke-width:1px;stroke-linecap:butt;stroke-linejoin:miter;stroke-opacity:1" d="M 434.37,269.935 474.852,277.228 z" id="boundary" inkscape:connector-curvature="0" />
	<path style="fill:none;stroke:red;stroke-width:1px;stroke-linecap:butt;stroke-linejoin:miter;stroke-opacity:1" d="M 474.852,277.228 494.118,309.623 z" id="boundary" inkscape:connector-curvature="0" />
	<path style="fill:none;stroke:red;stroke-width:1px;stroke-linecap:butt;stroke-linejoin:miter;stroke-opacity:1" d="M 494.118,309.623 437.181,413.254 z" id="boundary" inkscape:connector-curvature="0" />
	<path style="fill:none;stroke:red;stroke-width:1px;stroke-linecap:butt;stroke-linejoin:miter;stroke-opacity:1" d="M 437.181,413.254 376.107,414.89 z" id="boundary" inkscape:connector-curvature="0" />
	<path style="fill:none;stroke:red;stroke-width:1px;stroke-linecap:butt;stroke-linejoin:miter;stroke-opacity:1" d="M 376.107,414.89 230.432,518.932 z" id="boundary" inkscape:connector-curvature="0" />
	<path style="fill:none;stroke:red;stroke-width:1px;stroke-linecap:butt;stroke-linejoin:miter;stroke-opacity:1" d="M 230.432,518.932 357.206,644.37 z" id="boundary" inkscape:connector-curvature="0" />
	<path style="fill:none;stroke:red;stroke-width:1px;stroke-linecap:butt;stroke-linejoin:miter;stroke-opacity:1" d="M 357.206,644.37 426.249,697.014 z" id="boundary" inkscape:connector-curvature="0" />
	<path style="fill:none;stroke:red;stroke-width:1px;stroke-linecap:butt;stroke-linejoin:miter;stroke-opacity:1" d="M 426.249,697.014 531.201,692.361 z" id="boundary" inkscape:connector-curvature="0" />
	<path style="fill:none;stroke:red;stroke-width:1px;stroke-linecap:butt;stroke-linejoin:miter;stroke-opacity:1" d="M 531.201,692.361 625.02,636.192 z" id="boundary" inkscape:connector-curvature="0" />
	<path style="fill:none;stroke:red;stroke-width:1px;stroke-linecap:butt;stroke-linejoin:miter;stroke-opacity:1" d="M 945.208,153.415 996,340.228 z" id="boundary" inkscape:connector-curvature="0" />
	<path style="fill:none;stroke:red;stroke-width:1px;stroke-linecap:butt;stroke-linejoin:miter;stroke-opacity:1" d="M 996,340.228 960.831,410.91 z" id="boundary" inkscape:connector-curvature="0" />
	<path style="fill:none;stroke:red;stroke-width:1px;stroke-linecap:butt;stroke-linejoin:miter;stroke-opacity:1" d="M 960.831,410.91 831.128,552.662 z" id="boundary" inkscape:connector-curvature="0" />
	<path style="fill:none;stroke:red;stroke-width:1px;stroke-linecap:butt;stroke-linejoin:miter;stroke-opacity:1" d="M 831.128,552.662 625.02,636.192 z" id="boundary" inkscape:connector-curvature="0" />
	<circle cx="4" cy="176.236" r="4" fill="#0" id="circle0"/>
	<circle cx="18.2074" cy="72.8843" r="4" fill="#0" id="circle1"/>
	<circle cx="46.245" cy="310.16" r="4" fill="#0" id="circle2"/>
	<circle cx="135.746" cy="29.7535" r="4" fill="#0" id="circle3"/>
	<circle cx="160.122" cy="413.619" r="4" fill="#0" id="circle4"/>
	<circle cx="230.432" cy="518.932" r="4" fill="#0" id="circle5"/>
	<circle cx="274.513" cy="323.848" r="4" fill="#0" id="circle6"/>
	<circle cx="251.846" cy="240.376" r="4" fill="#0" id="circle7"/>
	<circle cx="276.635" cy="364.913" r="4" fill="#0" id="circle8"/>
	<circle cx="319.705" cy="4" r="4" fill="#0" id="circle9"/>
	<circle cx="365.816" cy="260.389" r="4" fill="#0" id="circle10"/>
	<circle cx="357.206" cy="644.37" r="4" fill="#0" id="circle11"/>
	<circle cx="376.107" cy="414.89" r="4" fill="#0" id="circle12"/>
	<circle cx="434.37" cy="269.935" r="4" fill="#0" id="circle13"/>
	<circle cx="391.647" cy="31.9016" r="4" fill="#0" id="circle14"/>
	<circle cx="426.249" cy="697.014" r="4" fill="#0" id="circle15"/>
	<circle cx="437.181" cy="413.254" r="4" fill="#0" id="circle16"/>
	<circle cx="474.852" cy="277.228" r="4" fill="#0" id="circle17"/>
	<circle cx="494.118" cy="309.623" r="4" fill="#0" id="circle18"/>
	<circle cx="547.878" cy="11.116" r="4" fill="#0" id="circle19"/>
	<circle cx="531.201" cy="692.361" r="4" fill="#0" id="circle20"/>
	<circle cx="605.573" cy="94.4081" r="4" fill="#0" id="circle21"/>
	<circle cx="662.357" cy="234.33" r="4" fill="#0" id="circle22"/>
	<circle cx="625.02" cy="636.192" r="4" fill="#0" id="circle23"/>
	<circle cx="754.197" cy="265.087" r="4" fill="#0" id="circle24"/>
	<circle cx="797.22" cy="280.796" r="4" fill="#0" id="circle25"/>
	<circle cx="831.128" cy="552.662" r="4" fill="#0" id="circle26"/>
	<circle cx="817.492" cy="215.944" r="4" fill="#0" id="circle27"/>
	<circle cx="916.879" cy="193.153" r="4" fill="#0" id="circle28"/>
	<circle cx="945.208" cy="153.415" r="4" fill="#0" id="circle29"/>
	<circle cx="960.831" cy="410.91" r="4" fill="#0" id="circle30"/>
	<circle cx="942.861" cy="189.125" r="4" fill="#0" id="circle31"/>
	<circle cx="996" cy="340.228" r="4" fill="#0" id="circle32"/>
	</g>
</svg>