<?xml version="1.0" encoding="UTF-8" standalone="no"?>
<!-- Created with CurveBenchmark -->
<svg
	xmlns:dc="http://purl.org/dc/elements/1.1/"
	xmlns:cc="http://creativecommons.org/ns#"
	xmlns:rdf="http://www.w3.org/1999/02/22-rdf-syntax-ns#"
	xmlns:svg="http://www.w3.org/2000/svg"
	xmlns="http://www.w3.org/2000/svg"
	xmlns:sodipodi="http://sodipodi.sourceforge.net/DTD/sodipodi-0.dtd"
	xmlns:inkscape="http://www.inkscape.org/namespaces/inkscape"
	width="1000"
	height="1000"
	id="svg2"
	version="1.1"
	sodipodi:docname="noisy-0.03/crust-mc3.txt">
<defs
	id="defs4" />
<metadata
	id="metadata7">
	<rdf:RDF>
		<cc:Work
			rdf:about="">
			<dc:format>image/svg+xml</dc:format>
			<dc:type
				rdf:resource="http://purl.org/dc/dcmitype/StillImage" />
			<dc:title></dc:title>
		</cc:Work>
	</rdf:RDF>
</metadata>
<g
	inkscape:label="Layer 1"
	inkscape:groupmode="layer"
	id="layer1">
	<path style="fill:none;stroke:red;stroke-width:1px;stroke-linecap:butt;stroke-linejoin:miter;stroke-opacity:1" d="M 167.802,330.574 139.18,386.682 z" id="boundary" inkscape:connector-curvature="0" />
	<path style="fill:none;stroke:red;stroke-width:1px;stroke-linecap:butt;stroke-linejoin:miter;stroke-opacity:1" d="M 201.878,267.201 167.802,330.574 z" id="boundary" inkscape:connector-curvature="0" />
	<path style="fill:none;stroke:red;stroke-width:1px;stroke-linecap:butt;stroke-linejoin:miter;stroke-opacity:1" d="M 139.18,386.682 63.7439,397.822 z" id="boundary" inkscape:connector-curvature="0" />
	<path style="fill:none;stroke:red;stroke-width:1px;stroke-linecap:butt;stroke-linejoin:miter;stroke-opacity:1" d="M 264.825,236.943 259.121,214.343 z" id="boundary" inkscape:connector-curvature="0" />
	<path style="fill:none;stroke:red;stroke-width:1px;stroke-linecap:butt;stroke-linejoin:miter;stroke-opacity:1" d="M 264.343,188.008 259.121,214.343 z" id="boundary" inkscape:connector-curvature="0" />
	<path style="fill:none;stroke:red;stroke-width:1px;stroke-linecap:butt;stroke-linejoin:miter;stroke-opacity:1" d="M 201.878,267.201 242.443,285.177 z" id="boundary" inkscape:connector-curvature="0" />
	<path style="fill:none;stroke:red;stroke-width:1px;stroke-linecap:butt;stroke-linejoin:miter;stroke-opacity:1" d="M 264.825,236.943 242.443,285.177 z" id="boundary" inkscape:connector-curvature="0" />
	<path style="fill:none;stroke:red;stroke-width:1px;stroke-linecap:butt;stroke-linejoin:miter;stroke-opacity:1" d="M 42.0019,475.915 34.5127,498.225 z" id="boundary" inkscape:connector-curvature="0" />
	<path style="fill:none;stroke:red;stroke-width:1px;stroke-linecap:butt;stroke-linejoin:miter;stroke-opacity:1" d="M 43.2982,413.766 42.0019,475.915 z" id="boundary" inkscape:connector-curvature="0" />
	<path style="fill:none;stroke:red;stroke-width:1px;stroke-linecap:butt;stroke-linejoin:miter;stroke-opacity:1" d="M 28.0135,496.822 34.5127,498.225 z" id="boundary" inkscape:connector-curvature="0" />
	<path style="fill:none;stroke:red;stroke-width:1px;stroke-linecap:butt;stroke-linejoin:miter;stroke-opacity:1" d="M 34.5127,498.225 43.9141,553.847 z" id="boundary" inkscape:connector-curvature="0" />
	<path style="fill:none;stroke:red;stroke-width:1px;stroke-linecap:butt;stroke-linejoin:miter;stroke-opacity:1" d="M 43.2982,413.766 63.7439,397.822 z" id="boundary" inkscape:connector-curvature="0" />
	<path style="fill:none;stroke:red;stroke-width:1px;stroke-linecap:butt;stroke-linejoin:miter;stroke-opacity:1" d="M 43.9141,553.847 21.5686,591.601 z" id="boundary" inkscape:connector-curvature="0" />
	<path style="fill:none;stroke:red;stroke-width:1px;stroke-linecap:butt;stroke-linejoin:miter;stroke-opacity:1" d="M 369.427,221.487 344.31,217.129 z" id="boundary" inkscape:connector-curvature="0" />
	<path style="fill:none;stroke:red;stroke-width:1px;stroke-linecap:butt;stroke-linejoin:miter;stroke-opacity:1" d="M 369.427,221.487 418.061,248.068 z" id="boundary" inkscape:connector-curvature="0" />
	<path style="fill:none;stroke:red;stroke-width:1px;stroke-linecap:butt;stroke-linejoin:miter;stroke-opacity:1" d="M 418.061,248.068 437.371,268.395 z" id="boundary" inkscape:connector-curvature="0" />
	<path style="fill:none;stroke:red;stroke-width:1px;stroke-linecap:butt;stroke-linejoin:miter;stroke-opacity:1" d="M 344.408,532.682 372.848,562.4 z" id="boundary" inkscape:connector-curvature="0" />
	<path style="fill:none;stroke:red;stroke-width:1px;stroke-linecap:butt;stroke-linejoin:miter;stroke-opacity:1" d="M 372.848,562.4 368.969,578.205 z" id="boundary" inkscape:connector-curvature="0" />
	<path style="fill:none;stroke:red;stroke-width:1px;stroke-linecap:butt;stroke-linejoin:miter;stroke-opacity:1" d="M 390.819,476.649 344.408,532.682 z" id="boundary" inkscape:connector-curvature="0" />
	<path style="fill:none;stroke:red;stroke-width:1px;stroke-linecap:butt;stroke-linejoin:miter;stroke-opacity:1" d="M 402.775,348.718 420.004,356.627 z" id="boundary" inkscape:connector-curvature="0" />
	<path style="fill:none;stroke:red;stroke-width:1px;stroke-linecap:butt;stroke-linejoin:miter;stroke-opacity:1" d="M 420.004,356.627 427.23,435.447 z" id="boundary" inkscape:connector-curvature="0" />
	<path style="fill:none;stroke:red;stroke-width:1px;stroke-linecap:butt;stroke-linejoin:miter;stroke-opacity:1" d="M 408.549,444.017 427.23,435.447 z" id="boundary" inkscape:connector-curvature="0" />
	<path style="fill:none;stroke:red;stroke-width:1px;stroke-linecap:butt;stroke-linejoin:miter;stroke-opacity:1" d="M 390.819,476.649 408.549,444.017 z" id="boundary" inkscape:connector-curvature="0" />
	<path style="fill:none;stroke:red;stroke-width:1px;stroke-linecap:butt;stroke-linejoin:miter;stroke-opacity:1" d="M 21.5686,591.601 31.7902,627.967 z" id="boundary" inkscape:connector-curvature="0" />
	<path style="fill:none;stroke:red;stroke-width:1px;stroke-linecap:butt;stroke-linejoin:miter;stroke-opacity:1" d="M 42.9468,712.579 68.7548,743.054 z" id="boundary" inkscape:connector-curvature="0" />
	<path style="fill:none;stroke:red;stroke-width:1px;stroke-linecap:butt;stroke-linejoin:miter;stroke-opacity:1" d="M 4,704.443 42.9468,712.579 z" id="boundary" inkscape:connector-curvature="0" />
	<path style="fill:none;stroke:red;stroke-width:1px;stroke-linecap:butt;stroke-linejoin:miter;stroke-opacity:1" d="M 75.9691,841.444 68.7548,743.054 z" id="boundary" inkscape:connector-curvature="0" />
	<path style="fill:none;stroke:red;stroke-width:1px;stroke-linecap:butt;stroke-linejoin:miter;stroke-opacity:1" d="M 38.7373,852.148 34.9717,902.767 z" id="boundary" inkscape:connector-curvature="0" />
	<path style="fill:none;stroke:red;stroke-width:1px;stroke-linecap:butt;stroke-linejoin:miter;stroke-opacity:1" d="M 75.9691,841.444 38.7373,852.148 z" id="boundary" inkscape:connector-curvature="0" />
	<path style="fill:none;stroke:red;stroke-width:1px;stroke-linecap:butt;stroke-linejoin:miter;stroke-opacity:1" d="M 148.628,966.566 169.763,943.207 z" id="boundary" inkscape:connector-curvature="0" />
	<path style="fill:none;stroke:red;stroke-width:1px;stroke-linecap:butt;stroke-linejoin:miter;stroke-opacity:1" d="M 121.241,996 123.952,961.842 z" id="boundary" inkscape:connector-curvature="0" />
	<path style="fill:none;stroke:red;stroke-width:1px;stroke-linecap:butt;stroke-linejoin:miter;stroke-opacity:1" d="M 123.952,961.842 148.628,966.566 z" id="boundary" inkscape:connector-curvature="0" />
	<path style="fill:none;stroke:red;stroke-width:1px;stroke-linecap:butt;stroke-linejoin:miter;stroke-opacity:1" d="M 306.788,657.91 302.81,744.754 z" id="boundary" inkscape:connector-curvature="0" />
	<path style="fill:none;stroke:red;stroke-width:1px;stroke-linecap:butt;stroke-linejoin:miter;stroke-opacity:1" d="M 301.546,770.618 302.81,744.754 z" id="boundary" inkscape:connector-curvature="0" />
	<path style="fill:none;stroke:red;stroke-width:1px;stroke-linecap:butt;stroke-linejoin:miter;stroke-opacity:1" d="M 269.495,823.094 301.546,770.618 z" id="boundary" inkscape:connector-curvature="0" />
	<path style="fill:none;stroke:red;stroke-width:1px;stroke-linecap:butt;stroke-linejoin:miter;stroke-opacity:1" d="M 301.546,770.618 323.44,784.036 z" id="boundary" inkscape:connector-curvature="0" />
	<path style="fill:none;stroke:red;stroke-width:1px;stroke-linecap:butt;stroke-linejoin:miter;stroke-opacity:1" d="M 329.67,654.555 306.788,657.91 z" id="boundary" inkscape:connector-curvature="0" />
	<path style="fill:none;stroke:red;stroke-width:1px;stroke-linecap:butt;stroke-linejoin:miter;stroke-opacity:1" d="M 329.67,654.555 368.969,578.205 z" id="boundary" inkscape:connector-curvature="0" />
	<path style="fill:none;stroke:red;stroke-width:1px;stroke-linecap:butt;stroke-linejoin:miter;stroke-opacity:1" d="M 274.205,947.151 254.506,967.048 z" id="boundary" inkscape:connector-curvature="0" />
	<path style="fill:none;stroke:red;stroke-width:1px;stroke-linecap:butt;stroke-linejoin:miter;stroke-opacity:1" d="M 232.48,991.705 254.506,967.048 z" id="boundary" inkscape:connector-curvature="0" />
	<path style="fill:none;stroke:red;stroke-width:1px;stroke-linecap:butt;stroke-linejoin:miter;stroke-opacity:1" d="M 269.495,823.094 307.629,850.537 z" id="boundary" inkscape:connector-curvature="0" />
	<path style="fill:none;stroke:red;stroke-width:1px;stroke-linecap:butt;stroke-linejoin:miter;stroke-opacity:1" d="M 323.44,784.036 307.629,850.537 z" id="boundary" inkscape:connector-curvature="0" />
	<path style="fill:none;stroke:red;stroke-width:1px;stroke-linecap:butt;stroke-linejoin:miter;stroke-opacity:1" d="M 274.205,947.151 293.194,961.997 z" id="boundary" inkscape:connector-curvature="0" />
	<path style="fill:none;stroke:red;stroke-width:1px;stroke-linecap:butt;stroke-linejoin:miter;stroke-opacity:1" d="M 614.815,147.957 589.139,180.733 z" id="boundary" inkscape:connector-curvature="0" />
	<path style="fill:none;stroke:red;stroke-width:1px;stroke-linecap:butt;stroke-linejoin:miter;stroke-opacity:1" d="M 646.045,104.559 614.815,147.957 z" id="boundary" inkscape:connector-curvature="0" />
	<path style="fill:none;stroke:red;stroke-width:1px;stroke-linecap:butt;stroke-linejoin:miter;stroke-opacity:1" d="M 640.191,59.01 646.045,104.559 z" id="boundary" inkscape:connector-curvature="0" />
	<path style="fill:none;stroke:red;stroke-width:1px;stroke-linecap:butt;stroke-linejoin:miter;stroke-opacity:1" d="M 703.95,4 640.191,59.01 z" id="boundary" inkscape:connector-curvature="0" />
	<path style="fill:none;stroke:red;stroke-width:1px;stroke-linecap:butt;stroke-linejoin:miter;stroke-opacity:1" d="M 609.427,215.371 589.139,180.733 z" id="boundary" inkscape:connector-curvature="0" />
	<path style="fill:none;stroke:red;stroke-width:1px;stroke-linecap:butt;stroke-linejoin:miter;stroke-opacity:1" d="M 703.95,4 733.898,10.2757 z" id="boundary" inkscape:connector-curvature="0" />
	<path style="fill:none;stroke:red;stroke-width:1px;stroke-linecap:butt;stroke-linejoin:miter;stroke-opacity:1" d="M 614.535,235.685 601.531,274.941 z" id="boundary" inkscape:connector-curvature="0" />
	<path style="fill:none;stroke:red;stroke-width:1px;stroke-linecap:butt;stroke-linejoin:miter;stroke-opacity:1" d="M 601.531,274.941 629.868,373.197 z" id="boundary" inkscape:connector-curvature="0" />
	<path style="fill:none;stroke:red;stroke-width:1px;stroke-linecap:butt;stroke-linejoin:miter;stroke-opacity:1" d="M 609.427,215.371 614.535,235.685 z" id="boundary" inkscape:connector-curvature="0" />
	<path style="fill:none;stroke:red;stroke-width:1px;stroke-linecap:butt;stroke-linejoin:miter;stroke-opacity:1" d="M 629.868,373.197 642.745,376.325 z" id="boundary" inkscape:connector-curvature="0" />
	<path style="fill:none;stroke:red;stroke-width:1px;stroke-linecap:butt;stroke-linejoin:miter;stroke-opacity:1" d="M 642.745,376.325 647.825,439.137 z" id="boundary" inkscape:connector-curvature="0" />
	<path style="fill:none;stroke:red;stroke-width:1px;stroke-linecap:butt;stroke-linejoin:miter;stroke-opacity:1" d="M 733.898,10.2757 740.925,10.6899 z" id="boundary" inkscape:connector-curvature="0" />
	<path style="fill:none;stroke:red;stroke-width:1px;stroke-linecap:butt;stroke-linejoin:miter;stroke-opacity:1" d="M 740.112,60.2338 787.244,73.6771 z" id="boundary" inkscape:connector-curvature="0" />
	<path style="fill:none;stroke:red;stroke-width:1px;stroke-linecap:butt;stroke-linejoin:miter;stroke-opacity:1" d="M 787.244,73.6771 812.761,103.934 z" id="boundary" inkscape:connector-curvature="0" />
	<path style="fill:none;stroke:red;stroke-width:1px;stroke-linecap:butt;stroke-linejoin:miter;stroke-opacity:1" d="M 880.365,150.881 812.761,103.934 z" id="boundary" inkscape:connector-curvature="0" />
	<path style="fill:none;stroke:red;stroke-width:1px;stroke-linecap:butt;stroke-linejoin:miter;stroke-opacity:1" d="M 880.365,150.881 875.727,184.116 z" id="boundary" inkscape:connector-curvature="0" />
	<path style="fill:none;stroke:red;stroke-width:1px;stroke-linecap:butt;stroke-linejoin:miter;stroke-opacity:1" d="M 880.365,150.881 926.035,184.059 z" id="boundary" inkscape:connector-curvature="0" />
	<path style="fill:none;stroke:red;stroke-width:1px;stroke-linecap:butt;stroke-linejoin:miter;stroke-opacity:1" d="M 950.751,251.447 968.252,275.941 z" id="boundary" inkscape:connector-curvature="0" />
	<path style="fill:none;stroke:red;stroke-width:1px;stroke-linecap:butt;stroke-linejoin:miter;stroke-opacity:1" d="M 950.751,251.447 941.896,213.321 z" id="boundary" inkscape:connector-curvature="0" />
	<path style="fill:none;stroke:red;stroke-width:1px;stroke-linecap:butt;stroke-linejoin:miter;stroke-opacity:1" d="M 982.006,343.069 968.252,275.941 z" id="boundary" inkscape:connector-curvature="0" />
	<path style="fill:none;stroke:red;stroke-width:1px;stroke-linecap:butt;stroke-linejoin:miter;stroke-opacity:1" d="M 941.896,213.321 926.035,184.059 z" id="boundary" inkscape:connector-curvature="0" />
	<path style="fill:none;stroke:red;stroke-width:1px;stroke-linecap:butt;stroke-linejoin:miter;stroke-opacity:1" d="M 982.006,343.069 977.145,405.161 z" id="boundary" inkscape:connector-curvature="0" />
	<path style="fill:none;stroke:red;stroke-width:1px;stroke-linecap:butt;stroke-linejoin:miter;stroke-opacity:1" d="M 977.145,405.161 950.312,437.07 z" id="boundary" inkscape:connector-curvature="0" />
	<path style="fill:none;stroke:red;stroke-width:1px;stroke-linecap:butt;stroke-linejoin:miter;stroke-opacity:1" d="M 950.312,437.07 935.48,397.869 z" id="boundary" inkscape:connector-curvature="0" />
	<path style="fill:none;stroke:red;stroke-width:1px;stroke-linecap:butt;stroke-linejoin:miter;stroke-opacity:1" d="M 633.19,501.786 606.336,558.404 z" id="boundary" inkscape:connector-curvature="0" />
	<path style="fill:none;stroke:red;stroke-width:1px;stroke-linecap:butt;stroke-linejoin:miter;stroke-opacity:1" d="M 633.19,501.786 624.846,478.541 z" id="boundary" inkscape:connector-curvature="0" />
	<path style="fill:none;stroke:red;stroke-width:1px;stroke-linecap:butt;stroke-linejoin:miter;stroke-opacity:1" d="M 624.846,478.541 647.825,439.137 z" id="boundary" inkscape:connector-curvature="0" />
	<path style="fill:none;stroke:red;stroke-width:1px;stroke-linecap:butt;stroke-linejoin:miter;stroke-opacity:1" d="M 586.842,645.754 592.143,660.01 z" id="boundary" inkscape:connector-curvature="0" />
	<path style="fill:none;stroke:red;stroke-width:1px;stroke-linecap:butt;stroke-linejoin:miter;stroke-opacity:1" d="M 615.076,691.286 592.143,660.01 z" id="boundary" inkscape:connector-curvature="0" />
	<path style="fill:none;stroke:red;stroke-width:1px;stroke-linecap:butt;stroke-linejoin:miter;stroke-opacity:1" d="M 586.842,645.754 606.336,558.404 z" id="boundary" inkscape:connector-curvature="0" />
	<path style="fill:none;stroke:red;stroke-width:1px;stroke-linecap:butt;stroke-linejoin:miter;stroke-opacity:1" d="M 615.076,691.286 584.009,703.914 z" id="boundary" inkscape:connector-curvature="0" />
	<path style="fill:none;stroke:red;stroke-width:1px;stroke-linecap:butt;stroke-linejoin:miter;stroke-opacity:1" d="M 659.992,770.999 657.695,823.998 z" id="boundary" inkscape:connector-curvature="0" />
	<path style="fill:none;stroke:red;stroke-width:1px;stroke-linecap:butt;stroke-linejoin:miter;stroke-opacity:1" d="M 657.695,823.998 695.223,854.968 z" id="boundary" inkscape:connector-curvature="0" />
	<path style="fill:none;stroke:red;stroke-width:1px;stroke-linecap:butt;stroke-linejoin:miter;stroke-opacity:1" d="M 659.992,770.999 736.136,781.102 z" id="boundary" inkscape:connector-curvature="0" />
	<path style="fill:none;stroke:red;stroke-width:1px;stroke-linecap:butt;stroke-linejoin:miter;stroke-opacity:1" d="M 758.665,833.567 720.868,853.023 z" id="boundary" inkscape:connector-curvature="0" />
	<path style="fill:none;stroke:red;stroke-width:1px;stroke-linecap:butt;stroke-linejoin:miter;stroke-opacity:1" d="M 720.868,853.023 695.223,854.968 z" id="boundary" inkscape:connector-curvature="0" />
	<path style="fill:none;stroke:red;stroke-width:1px;stroke-linecap:butt;stroke-linejoin:miter;stroke-opacity:1" d="M 944.851,512.016 950.312,437.07 z" id="boundary" inkscape:connector-curvature="0" />
	<path style="fill:none;stroke:red;stroke-width:1px;stroke-linecap:butt;stroke-linejoin:miter;stroke-opacity:1" d="M 983.829,596.713 944.851,512.016 z" id="boundary" inkscape:connector-curvature="0" />
	<path style="fill:none;stroke:red;stroke-width:1px;stroke-linecap:butt;stroke-linejoin:miter;stroke-opacity:1" d="M 956.65,664.643 933.956,638.93 z" id="boundary" inkscape:connector-curvature="0" />
	<path style="fill:none;stroke:red;stroke-width:1px;stroke-linecap:butt;stroke-linejoin:miter;stroke-opacity:1" d="M 933.956,638.93 904.489,649.169 z" id="boundary" inkscape:connector-curvature="0" />
	<path style="fill:none;stroke:red;stroke-width:1px;stroke-linecap:butt;stroke-linejoin:miter;stroke-opacity:1" d="M 736.136,781.102 782.28,799.823 z" id="boundary" inkscape:connector-curvature="0" />
	<path style="fill:none;stroke:red;stroke-width:1px;stroke-linecap:butt;stroke-linejoin:miter;stroke-opacity:1" d="M 758.665,833.567 782.28,799.823 z" id="boundary" inkscape:connector-curvature="0" />
	<path style="fill:none;stroke:red;stroke-width:1px;stroke-linecap:butt;stroke-linejoin:miter;stroke-opacity:1" d="M 887.959,769.365 782.28,799.823 z" id="boundary" inkscape:connector-curvature="0" />
	<path style="fill:none;stroke:red;stroke-width:1px;stroke-linecap:butt;stroke-linejoin:miter;stroke-opacity:1" d="M 873.208,690.275 904.489,649.169 z" id="boundary" inkscape:connector-curvature="0" />
	<path style="fill:none;stroke:red;stroke-width:1px;stroke-linecap:butt;stroke-linejoin:miter;stroke-opacity:1" d="M 887.959,769.365 873.208,690.275 z" id="boundary" inkscape:connector-curvature="0" />
	<circle cx="408.549" cy="444.017" r="4" fill="#0" id="circle0"/>
	<circle cx="420.004" cy="356.627" r="4" fill="#0" id="circle1"/>
	<circle cx="402.775" cy="348.718" r="4" fill="#0" id="circle2"/>
	<circle cx="437.371" cy="268.395" r="4" fill="#0" id="circle3"/>
	<circle cx="418.061" cy="248.068" r="4" fill="#0" id="circle4"/>
	<circle cx="369.427" cy="221.487" r="4" fill="#0" id="circle5"/>
	<circle cx="344.31" cy="217.129" r="4" fill="#0" id="circle6"/>
	<circle cx="264.343" cy="188.008" r="4" fill="#0" id="circle7"/>
	<circle cx="259.121" cy="214.343" r="4" fill="#0" id="circle8"/>
	<circle cx="264.825" cy="236.943" r="4" fill="#0" id="circle9"/>
	<circle cx="242.443" cy="285.177" r="4" fill="#0" id="circle10"/>
	<circle cx="201.878" cy="267.201" r="4" fill="#0" id="circle11"/>
	<circle cx="167.802" cy="330.574" r="4" fill="#0" id="circle12"/>
	<circle cx="139.18" cy="386.682" r="4" fill="#0" id="circle13"/>
	<circle cx="43.2982" cy="413.766" r="4" fill="#0" id="circle14"/>
	<circle cx="63.7439" cy="397.822" r="4" fill="#0" id="circle15"/>
	<circle cx="42.0019" cy="475.915" r="4" fill="#0" id="circle16"/>
	<circle cx="28.0135" cy="496.822" r="4" fill="#0" id="circle17"/>
	<circle cx="34.5127" cy="498.225" r="4" fill="#0" id="circle18"/>
	<circle cx="43.9141" cy="553.847" r="4" fill="#0" id="circle19"/>
	<circle cx="21.5686" cy="591.601" r="4" fill="#0" id="circle20"/>
	<circle cx="31.7902" cy="627.967" r="4" fill="#0" id="circle21"/>
	<circle cx="42.9468" cy="712.579" r="4" fill="#0" id="circle22"/>
	<circle cx="4" cy="704.443" r="4" fill="#0" id="circle23"/>
	<circle cx="68.7548" cy="743.054" r="4" fill="#0" id="circle24"/>
	<circle cx="38.7373" cy="852.148" r="4" fill="#0" id="circle25"/>
	<circle cx="75.9691" cy="841.444" r="4" fill="#0" id="circle26"/>
	<circle cx="34.9717" cy="902.767" r="4" fill="#0" id="circle27"/>
	<circle cx="123.952" cy="961.842" r="4" fill="#0" id="circle28"/>
	<circle cx="121.241" cy="996" r="4" fill="#0" id="circle29"/>
	<circle cx="169.763" cy="943.207" r="4" fill="#0" id="circle30"/>
	<circle cx="148.628" cy="966.566" r="4" fill="#0" id="circle31"/>
	<circle cx="232.48" cy="991.705" r="4" fill="#0" id="circle32"/>
	<circle cx="254.506" cy="967.048" r="4" fill="#0" id="circle33"/>
	<circle cx="274.205" cy="947.151" r="4" fill="#0" id="circle34"/>
	<circle cx="293.194" cy="961.997" r="4" fill="#0" id="circle35"/>
	<circle cx="307.629" cy="850.537" r="4" fill="#0" id="circle36"/>
	<circle cx="269.495" cy="823.094" r="4" fill="#0" id="circle37"/>
	<circle cx="323.44" cy="784.036" r="4" fill="#0" id="circle38"/>
	<circle cx="301.546" cy="770.618" r="4" fill="#0" id="circle39"/>
	<circle cx="302.81" cy="744.754" r="4" fill="#0" id="circle40"/>
	<circle cx="329.67" cy="654.555" r="4" fill="#0" id="circle41"/>
	<circle cx="306.788" cy="657.91" r="4" fill="#0" id="circle42"/>
	<circle cx="368.969" cy="578.205" r="4" fill="#0" id="circle43"/>
	<circle cx="372.848" cy="562.4" r="4" fill="#0" id="circle44"/>
	<circle cx="344.408" cy="532.682" r="4" fill="#0" id="circle45"/>
	<circle cx="390.819" cy="476.649" r="4" fill="#0" id="circle46"/>
	<circle cx="427.23" cy="435.447" r="4" fill="#0" id="circle47"/>
	<circle cx="647.825" cy="439.137" r="4" fill="#0" id="circle48"/>
	<circle cx="629.868" cy="373.197" r="4" fill="#0" id="circle49"/>
	<circle cx="642.745" cy="376.325" r="4" fill="#0" id="circle50"/>
	<circle cx="601.531" cy="274.941" r="4" fill="#0" id="circle51"/>
	<circle cx="661.242" cy="240.46" r="4" fill="#0" id="circle52"/>
	<circle cx="614.535" cy="235.685" r="4" fill="#0" id="circle53"/>
	<circle cx="609.427" cy="215.371" r="4" fill="#0" id="circle54"/>
	<circle cx="589.139" cy="180.733" r="4" fill="#0" id="circle55"/>
	<circle cx="614.815" cy="147.957" r="4" fill="#0" id="circle56"/>
	<circle cx="646.045" cy="104.559" r="4" fill="#0" id="circle57"/>
	<circle cx="640.191" cy="59.01" r="4" fill="#0" id="circle58"/>
	<circle cx="703.95" cy="4" r="4" fill="#0" id="circle59"/>
	<circle cx="740.112" cy="60.2338" r="4" fill="#0" id="circle60"/>
	<circle cx="740.925" cy="10.6899" r="4" fill="#0" id="circle61"/>
	<circle cx="733.898" cy="10.2757" r="4" fill="#0" id="circle62"/>
	<circle cx="787.244" cy="73.6771" r="4" fill="#0" id="circle63"/>
	<circle cx="812.761" cy="103.934" r="4" fill="#0" id="circle64"/>
	<circle cx="880.365" cy="150.881" r="4" fill="#0" id="circle65"/>
	<circle cx="875.727" cy="184.116" r="4" fill="#0" id="circle66"/>
	<circle cx="926.035" cy="184.059" r="4" fill="#0" id="circle67"/>
	<circle cx="941.896" cy="213.321" r="4" fill="#0" id="circle68"/>
	<circle cx="950.751" cy="251.447" r="4" fill="#0" id="circle69"/>
	<circle cx="968.252" cy="275.941" r="4" fill="#0" id="circle70"/>
	<circle cx="982.006" cy="343.069" r="4" fill="#0" id="circle71"/>
	<circle cx="977.145" cy="405.161" r="4" fill="#0" id="circle72"/>
	<circle cx="935.48" cy="397.869" r="4" fill="#0" id="circle73"/>
	<circle cx="950.312" cy="437.07" r="4" fill="#0" id="circle74"/>
	<circle cx="944.851" cy="512.016" r="4" fill="#0" id="circle75"/>
	<circle cx="983.829" cy="596.713" r="4" fill="#0" id="circle76"/>
	<circle cx="933.956" cy="638.93" r="4" fill="#0" id="circle77"/>
	<circle cx="956.65" cy="664.643" r="4" fill="#0" id="circle78"/>
	<circle cx="904.489" cy="649.169" r="4" fill="#0" id="circle79"/>
	<circle cx="873.208" cy="690.275" r="4" fill="#0" id="circle80"/>
	<circle cx="887.959" cy="769.365" r="4" fill="#0" id="circle81"/>
	<circle cx="782.28" cy="799.823" r="4" fill="#0" id="circle82"/>
	<circle cx="758.665" cy="833.567" r="4" fill="#0" id="circle83"/>
	<circle cx="720.868" cy="853.023" r="4" fill="#0" id="circle84"/>
	<circle cx="695.223" cy="854.968" r="4" fill="#0" id="circle85"/>
	<circle cx="736.136" cy="781.102" r="4" fill="#0" id="circle86"/>
	<circle cx="657.695" cy="823.998" r="4" fill="#0" id="circle87"/>
	<circle cx="659.992" cy="770.999" r="4" fill="#0" id="circle88"/>
	<circle cx="584.009" cy="703.914" r="4" fill="#0" id="circle89"/>
	<circle cx="615.076" cy="691.286" r="4" fill="#0" id="circle90"/>
	<circle cx="592.143" cy="660.01" r="4" fill="#0" id="circle91"/>
	<circle cx="586.842" cy="645.754" r="4" fill="#0" id="circle92"/>
	<circle cx="606.336" cy="558.404" r="4" fill="#0" id="circle93"/>
	<circle cx="633.19" cy="501.786" r="4" fill="#0" id="circle94"/>
	<circle cx="624.846" cy="478.541" r="4" fill="#0" id="circle95"/>
	</g>
</svg>