<?xml version="1.0" encoding="UTF-8" standalone="no"?>
<!-- Created with CurveBenchmark -->
<svg
	xmlns:dc="http://purl.org/dc/elements/1.1/"
	xmlns:cc="http://creativecommons.org/ns#"
	xmlns:rdf="http://www.w3.org/1999/02/22-rdf-syntax-ns#"
	xmlns:svg="http://www.w3.org/2000/svg"
	xmlns="http://www.w3.org/2000/svg"
	xmlns:sodipodi="http://sodipodi.sourceforge.net/DTD/sodipodi-0.dtd"
	xmlns:inkscape="http://www.inkscape.org/namespaces/inkscape"
	width="1000"
	height="1000"
	id="svg2"
	version="1.1"
	sodipodi:docname="noisy-0.03/fitconnect-mc6.txt">
<defs
	id="defs4" />
<metadata
	id="metadata7">
	<rdf:RDF>
		<cc:Work
			rdf:about="">
			<dc:format>image/svg+xml</dc:format>
			<dc:type
				rdf:resource="http://purl.org/dc/dcmitype/StillImage" />
			<dc:title></dc:title>
		</cc:Work>
	</rdf:RDF>
</metadata>
<g
	inkscape:label="Layer 1"
	inkscape:groupmode="layer"
	id="layer1">
	<path style="fill:none;stroke:red;stroke-width:1px;stroke-linecap:butt;stroke-linejoin:miter;stroke-opacity:1" d="M 7.02807,621.653 37.1153,584.207 z" id="boundary" inkscape:connector-curvature="0" />
	<path style="fill:none;stroke:red;stroke-width:1px;stroke-linecap:butt;stroke-linejoin:miter;stroke-opacity:1" d="M 7.02807,621.653 4,652.32 z" id="boundary" inkscape:connector-curvature="0" />
	<path style="fill:none;stroke:red;stroke-width:1px;stroke-linecap:butt;stroke-linejoin:miter;stroke-opacity:1" d="M 37.1153,584.207 57.084,626.841 z" id="boundary" inkscape:connector-curvature="0" />
	<path style="fill:none;stroke:red;stroke-width:1px;stroke-linecap:butt;stroke-linejoin:miter;stroke-opacity:1" d="M 57.084,626.841 45.904,658.71 z" id="boundary" inkscape:connector-curvature="0" />
	<path style="fill:none;stroke:red;stroke-width:1px;stroke-linecap:butt;stroke-linejoin:miter;stroke-opacity:1" d="M 329.611,468.829 352.257,509.351 z" id="boundary" inkscape:connector-curvature="0" />
	<path style="fill:none;stroke:red;stroke-width:1px;stroke-linecap:butt;stroke-linejoin:miter;stroke-opacity:1" d="M 352.257,509.351 296.056,551.755 z" id="boundary" inkscape:connector-curvature="0" />
	<path style="fill:none;stroke:red;stroke-width:1px;stroke-linecap:butt;stroke-linejoin:miter;stroke-opacity:1" d="M 36.7761,183.429 103.413,256.561 z" id="boundary" inkscape:connector-curvature="0" />
	<path style="fill:none;stroke:red;stroke-width:1px;stroke-linecap:butt;stroke-linejoin:miter;stroke-opacity:1" d="M 36.7761,183.429 92.3819,156.183 z" id="boundary" inkscape:connector-curvature="0" />
	<path style="fill:none;stroke:red;stroke-width:1px;stroke-linecap:butt;stroke-linejoin:miter;stroke-opacity:1" d="M 103.413,256.561 198.561,341.061 z" id="boundary" inkscape:connector-curvature="0" />
	<path style="fill:none;stroke:red;stroke-width:1px;stroke-linecap:butt;stroke-linejoin:miter;stroke-opacity:1" d="M 198.561,341.061 250,377.266 z" id="boundary" inkscape:connector-curvature="0" />
	<path style="fill:none;stroke:red;stroke-width:1px;stroke-linecap:butt;stroke-linejoin:miter;stroke-opacity:1" d="M 44.2499,102.841 62.3655,99.9107 z" id="boundary" inkscape:connector-curvature="0" />
	<path style="fill:none;stroke:red;stroke-width:1px;stroke-linecap:butt;stroke-linejoin:miter;stroke-opacity:1" d="M 44.2499,102.841 339.662,45.6623 z" id="boundary" inkscape:connector-curvature="0" />
	<path style="fill:none;stroke:red;stroke-width:1px;stroke-linecap:butt;stroke-linejoin:miter;stroke-opacity:1" d="M 62.3655,99.9107 92.3819,156.183 z" id="boundary" inkscape:connector-curvature="0" />
	<path style="fill:none;stroke:red;stroke-width:1px;stroke-linecap:butt;stroke-linejoin:miter;stroke-opacity:1" d="M 377.549,237.606 344.1,181.01 z" id="boundary" inkscape:connector-curvature="0" />
	<path style="fill:none;stroke:red;stroke-width:1px;stroke-linecap:butt;stroke-linejoin:miter;stroke-opacity:1" d="M 377.549,237.606 428.43,247.535 z" id="boundary" inkscape:connector-curvature="0" />
	<path style="fill:none;stroke:red;stroke-width:1px;stroke-linecap:butt;stroke-linejoin:miter;stroke-opacity:1" d="M 344.1,181.01 347.526,160.989 z" id="boundary" inkscape:connector-curvature="0" />
	<path style="fill:none;stroke:red;stroke-width:1px;stroke-linecap:butt;stroke-linejoin:miter;stroke-opacity:1" d="M 299.834,77.4058 295.286,68.213 z" id="boundary" inkscape:connector-curvature="0" />
	<path style="fill:none;stroke:red;stroke-width:1px;stroke-linecap:butt;stroke-linejoin:miter;stroke-opacity:1" d="M 299.834,77.4058 324.941,87.8837 z" id="boundary" inkscape:connector-curvature="0" />
	<path style="fill:none;stroke:red;stroke-width:1px;stroke-linecap:butt;stroke-linejoin:miter;stroke-opacity:1" d="M 295.286,68.213 339.662,45.6623 z" id="boundary" inkscape:connector-curvature="0" />
	<path style="fill:none;stroke:red;stroke-width:1px;stroke-linecap:butt;stroke-linejoin:miter;stroke-opacity:1" d="M 324.941,87.8837 334.188,100.363 z" id="boundary" inkscape:connector-curvature="0" />
	<path style="fill:none;stroke:red;stroke-width:1px;stroke-linecap:butt;stroke-linejoin:miter;stroke-opacity:1" d="M 334.188,100.363 348.845,131.858 z" id="boundary" inkscape:connector-curvature="0" />
	<path style="fill:none;stroke:red;stroke-width:1px;stroke-linecap:butt;stroke-linejoin:miter;stroke-opacity:1" d="M 348.845,131.858 347.526,160.989 z" id="boundary" inkscape:connector-curvature="0" />
	<path style="fill:none;stroke:red;stroke-width:1px;stroke-linecap:butt;stroke-linejoin:miter;stroke-opacity:1" d="M 428.43,247.535 421.722,278.509 z" id="boundary" inkscape:connector-curvature="0" />
	<path style="fill:none;stroke:red;stroke-width:1px;stroke-linecap:butt;stroke-linejoin:miter;stroke-opacity:1" d="M 421.722,278.509 418.511,329.615 z" id="boundary" inkscape:connector-curvature="0" />
	<path style="fill:none;stroke:red;stroke-width:1px;stroke-linecap:butt;stroke-linejoin:miter;stroke-opacity:1" d="M 418.511,329.615 431.309,358.489 z" id="boundary" inkscape:connector-curvature="0" />
	<path style="fill:none;stroke:red;stroke-width:1px;stroke-linecap:butt;stroke-linejoin:miter;stroke-opacity:1" d="M 431.309,358.489 420.26,393.429 z" id="boundary" inkscape:connector-curvature="0" />
	<path style="fill:none;stroke:red;stroke-width:1px;stroke-linecap:butt;stroke-linejoin:miter;stroke-opacity:1" d="M 420.26,393.429 439.244,411.963 z" id="boundary" inkscape:connector-curvature="0" />
	<path style="fill:none;stroke:red;stroke-width:1px;stroke-linecap:butt;stroke-linejoin:miter;stroke-opacity:1" d="M 439.244,411.963 449.853,442.576 z" id="boundary" inkscape:connector-curvature="0" />
	<path style="fill:none;stroke:red;stroke-width:1px;stroke-linecap:butt;stroke-linejoin:miter;stroke-opacity:1" d="M 449.853,442.576 448.644,472.727 z" id="boundary" inkscape:connector-curvature="0" />
	<path style="fill:none;stroke:red;stroke-width:1px;stroke-linecap:butt;stroke-linejoin:miter;stroke-opacity:1" d="M 448.644,472.727 465.087,535.81 z" id="boundary" inkscape:connector-curvature="0" />
	<path style="fill:none;stroke:red;stroke-width:1px;stroke-linecap:butt;stroke-linejoin:miter;stroke-opacity:1" d="M 465.087,535.81 501.384,542.57 z" id="boundary" inkscape:connector-curvature="0" />
	<path style="fill:none;stroke:red;stroke-width:1px;stroke-linecap:butt;stroke-linejoin:miter;stroke-opacity:1" d="M 501.384,542.57 456.381,615.783 z" id="boundary" inkscape:connector-curvature="0" />
	<path style="fill:none;stroke:red;stroke-width:1px;stroke-linecap:butt;stroke-linejoin:miter;stroke-opacity:1" d="M 456.381,615.783 471.854,629.232 z" id="boundary" inkscape:connector-curvature="0" />
	<path style="fill:none;stroke:red;stroke-width:1px;stroke-linecap:butt;stroke-linejoin:miter;stroke-opacity:1" d="M 471.854,629.232 476.934,662.506 z" id="boundary" inkscape:connector-curvature="0" />
	<path style="fill:none;stroke:red;stroke-width:1px;stroke-linecap:butt;stroke-linejoin:miter;stroke-opacity:1" d="M 476.934,662.506 476.104,681.344 z" id="boundary" inkscape:connector-curvature="0" />
	<path style="fill:none;stroke:red;stroke-width:1px;stroke-linecap:butt;stroke-linejoin:miter;stroke-opacity:1" d="M 476.104,681.344 518.506,704.258 z" id="boundary" inkscape:connector-curvature="0" />
	<path style="fill:none;stroke:red;stroke-width:1px;stroke-linecap:butt;stroke-linejoin:miter;stroke-opacity:1" d="M 502.038,709.494 518.506,704.258 z" id="boundary" inkscape:connector-curvature="0" />
	<path style="fill:none;stroke:red;stroke-width:1px;stroke-linecap:butt;stroke-linejoin:miter;stroke-opacity:1" d="M 502.038,709.494 508.837,725.716 z" id="boundary" inkscape:connector-curvature="0" />
	<path style="fill:none;stroke:red;stroke-width:1px;stroke-linecap:butt;stroke-linejoin:miter;stroke-opacity:1" d="M 508.837,725.716 505.19,779.644 z" id="boundary" inkscape:connector-curvature="0" />
	<path style="fill:none;stroke:red;stroke-width:1px;stroke-linecap:butt;stroke-linejoin:miter;stroke-opacity:1" d="M 505.19,779.644 480.554,835.92 z" id="boundary" inkscape:connector-curvature="0" />
	<path style="fill:none;stroke:red;stroke-width:1px;stroke-linecap:butt;stroke-linejoin:miter;stroke-opacity:1" d="M 480.554,835.92 509.776,821.891 z" id="boundary" inkscape:connector-curvature="0" />
	<path style="fill:none;stroke:red;stroke-width:1px;stroke-linecap:butt;stroke-linejoin:miter;stroke-opacity:1" d="M 509.776,821.891 533.6,850.642 z" id="boundary" inkscape:connector-curvature="0" />
	<path style="fill:none;stroke:red;stroke-width:1px;stroke-linecap:butt;stroke-linejoin:miter;stroke-opacity:1" d="M 533.6,850.642 521.731,904.467 z" id="boundary" inkscape:connector-curvature="0" />
	<path style="fill:none;stroke:red;stroke-width:1px;stroke-linecap:butt;stroke-linejoin:miter;stroke-opacity:1" d="M 523.48,922.224 521.731,904.467 z" id="boundary" inkscape:connector-curvature="0" />
	<path style="fill:none;stroke:red;stroke-width:1px;stroke-linecap:butt;stroke-linejoin:miter;stroke-opacity:1" d="M 523.48,922.224 473.183,937.474 z" id="boundary" inkscape:connector-curvature="0" />
	<path style="fill:none;stroke:red;stroke-width:1px;stroke-linecap:butt;stroke-linejoin:miter;stroke-opacity:1" d="M 473.183,937.474 475.844,943.993 z" id="boundary" inkscape:connector-curvature="0" />
	<path style="fill:none;stroke:red;stroke-width:1px;stroke-linecap:butt;stroke-linejoin:miter;stroke-opacity:1" d="M 475.844,943.993 478.934,970.586 z" id="boundary" inkscape:connector-curvature="0" />
	<path style="fill:none;stroke:red;stroke-width:1px;stroke-linecap:butt;stroke-linejoin:miter;stroke-opacity:1" d="M 478.934,970.586 439.918,971.834 z" id="boundary" inkscape:connector-curvature="0" />
	<path style="fill:none;stroke:red;stroke-width:1px;stroke-linecap:butt;stroke-linejoin:miter;stroke-opacity:1" d="M 4,652.32 13.6089,685.996 z" id="boundary" inkscape:connector-curvature="0" />
	<path style="fill:none;stroke:red;stroke-width:1px;stroke-linecap:butt;stroke-linejoin:miter;stroke-opacity:1" d="M 13.6089,685.996 53.603,677.565 z" id="boundary" inkscape:connector-curvature="0" />
	<path style="fill:none;stroke:red;stroke-width:1px;stroke-linecap:butt;stroke-linejoin:miter;stroke-opacity:1" d="M 45.904,658.71 53.603,677.565 z" id="boundary" inkscape:connector-curvature="0" />
	<path style="fill:none;stroke:red;stroke-width:1px;stroke-linecap:butt;stroke-linejoin:miter;stroke-opacity:1" d="M 91.7098,718.177 91.735,698.984 z" id="boundary" inkscape:connector-curvature="0" />
	<path style="fill:none;stroke:red;stroke-width:1px;stroke-linecap:butt;stroke-linejoin:miter;stroke-opacity:1" d="M 91.7098,718.177 102.722,731.506 z" id="boundary" inkscape:connector-curvature="0" />
	<path style="fill:none;stroke:red;stroke-width:1px;stroke-linecap:butt;stroke-linejoin:miter;stroke-opacity:1" d="M 91.735,698.984 264.97,681.128 z" id="boundary" inkscape:connector-curvature="0" />
	<path style="fill:none;stroke:red;stroke-width:1px;stroke-linecap:butt;stroke-linejoin:miter;stroke-opacity:1" d="M 102.722,731.506 126.246,727.312 z" id="boundary" inkscape:connector-curvature="0" />
	<path style="fill:none;stroke:red;stroke-width:1px;stroke-linecap:butt;stroke-linejoin:miter;stroke-opacity:1" d="M 119.064,750.979 126.246,727.312 z" id="boundary" inkscape:connector-curvature="0" />
	<path style="fill:none;stroke:red;stroke-width:1px;stroke-linecap:butt;stroke-linejoin:miter;stroke-opacity:1" d="M 119.064,750.979 164.304,768.157 z" id="boundary" inkscape:connector-curvature="0" />
	<path style="fill:none;stroke:red;stroke-width:1px;stroke-linecap:butt;stroke-linejoin:miter;stroke-opacity:1" d="M 164.304,768.157 190.965,794.211 z" id="boundary" inkscape:connector-curvature="0" />
	<path style="fill:none;stroke:red;stroke-width:1px;stroke-linecap:butt;stroke-linejoin:miter;stroke-opacity:1" d="M 190.965,794.211 211.193,820.214 z" id="boundary" inkscape:connector-curvature="0" />
	<path style="fill:none;stroke:red;stroke-width:1px;stroke-linecap:butt;stroke-linejoin:miter;stroke-opacity:1" d="M 211.193,820.214 250.322,816.191 z" id="boundary" inkscape:connector-curvature="0" />
	<path style="fill:none;stroke:red;stroke-width:1px;stroke-linecap:butt;stroke-linejoin:miter;stroke-opacity:1" d="M 263.454,823.631 250.322,816.191 z" id="boundary" inkscape:connector-curvature="0" />
	<path style="fill:none;stroke:red;stroke-width:1px;stroke-linecap:butt;stroke-linejoin:miter;stroke-opacity:1" d="M 263.454,823.631 261.48,845.308 z" id="boundary" inkscape:connector-curvature="0" />
	<path style="fill:none;stroke:red;stroke-width:1px;stroke-linecap:butt;stroke-linejoin:miter;stroke-opacity:1" d="M 261.48,845.308 271.386,854.761 z" id="boundary" inkscape:connector-curvature="0" />
	<path style="fill:none;stroke:red;stroke-width:1px;stroke-linecap:butt;stroke-linejoin:miter;stroke-opacity:1" d="M 271.386,854.761 297.489,899.578 z" id="boundary" inkscape:connector-curvature="0" />
	<path style="fill:none;stroke:red;stroke-width:1px;stroke-linecap:butt;stroke-linejoin:miter;stroke-opacity:1" d="M 322.863,872.453 297.489,899.578 z" id="boundary" inkscape:connector-curvature="0" />
	<path style="fill:none;stroke:red;stroke-width:1px;stroke-linecap:butt;stroke-linejoin:miter;stroke-opacity:1" d="M 322.863,872.453 343.738,930.015 z" id="boundary" inkscape:connector-curvature="0" />
	<path style="fill:none;stroke:red;stroke-width:1px;stroke-linecap:butt;stroke-linejoin:miter;stroke-opacity:1" d="M 343.738,930.015 386.892,946.133 z" id="boundary" inkscape:connector-curvature="0" />
	<path style="fill:none;stroke:red;stroke-width:1px;stroke-linecap:butt;stroke-linejoin:miter;stroke-opacity:1" d="M 400.453,945.956 402.319,949.661 z" id="boundary" inkscape:connector-curvature="0" />
	<path style="fill:none;stroke:red;stroke-width:1px;stroke-linecap:butt;stroke-linejoin:miter;stroke-opacity:1" d="M 400.453,945.956 386.892,946.133 z" id="boundary" inkscape:connector-curvature="0" />
	<path style="fill:none;stroke:red;stroke-width:1px;stroke-linecap:butt;stroke-linejoin:miter;stroke-opacity:1" d="M 402.319,949.661 439.918,971.834 z" id="boundary" inkscape:connector-curvature="0" />
	<path style="fill:none;stroke:red;stroke-width:1px;stroke-linecap:butt;stroke-linejoin:miter;stroke-opacity:1" d="M 285.57,690.966 292.037,715.241 z" id="boundary" inkscape:connector-curvature="0" />
	<path style="fill:none;stroke:red;stroke-width:1px;stroke-linecap:butt;stroke-linejoin:miter;stroke-opacity:1" d="M 285.57,690.966 283.932,689.073 z" id="boundary" inkscape:connector-curvature="0" />
	<path style="fill:none;stroke:red;stroke-width:1px;stroke-linecap:butt;stroke-linejoin:miter;stroke-opacity:1" d="M 320.46,719.945 292.037,715.241 z" id="boundary" inkscape:connector-curvature="0" />
	<path style="fill:none;stroke:red;stroke-width:1px;stroke-linecap:butt;stroke-linejoin:miter;stroke-opacity:1" d="M 320.46,719.945 334.936,705.38 z" id="boundary" inkscape:connector-curvature="0" />
	<path style="fill:none;stroke:red;stroke-width:1px;stroke-linecap:butt;stroke-linejoin:miter;stroke-opacity:1" d="M 334.936,705.38 336.609,699.751 z" id="boundary" inkscape:connector-curvature="0" />
	<path style="fill:none;stroke:red;stroke-width:1px;stroke-linecap:butt;stroke-linejoin:miter;stroke-opacity:1" d="M 264.97,681.128 283.932,689.073 z" id="boundary" inkscape:connector-curvature="0" />
	<path style="fill:none;stroke:red;stroke-width:1px;stroke-linecap:butt;stroke-linejoin:miter;stroke-opacity:1" d="M 245.875,551.064 266.849,567.045 z" id="boundary" inkscape:connector-curvature="0" />
	<path style="fill:none;stroke:red;stroke-width:1px;stroke-linecap:butt;stroke-linejoin:miter;stroke-opacity:1" d="M 266.849,567.045 296.056,551.755 z" id="boundary" inkscape:connector-curvature="0" />
	<path style="fill:none;stroke:red;stroke-width:1px;stroke-linecap:butt;stroke-linejoin:miter;stroke-opacity:1" d="M 343.83,617.956 344.828,637.628 z" id="boundary" inkscape:connector-curvature="0" />
	<path style="fill:none;stroke:red;stroke-width:1px;stroke-linecap:butt;stroke-linejoin:miter;stroke-opacity:1" d="M 348.95,637.941 351.033,669.545 z" id="boundary" inkscape:connector-curvature="0" />
	<path style="fill:none;stroke:red;stroke-width:1px;stroke-linecap:butt;stroke-linejoin:miter;stroke-opacity:1" d="M 348.95,637.941 344.828,637.628 z" id="boundary" inkscape:connector-curvature="0" />
	<path style="fill:none;stroke:red;stroke-width:1px;stroke-linecap:butt;stroke-linejoin:miter;stroke-opacity:1" d="M 351.033,669.545 333.632,684.621 z" id="boundary" inkscape:connector-curvature="0" />
	<path style="fill:none;stroke:red;stroke-width:1px;stroke-linecap:butt;stroke-linejoin:miter;stroke-opacity:1" d="M 336.609,699.751 333.632,684.621 z" id="boundary" inkscape:connector-curvature="0" />
	<circle cx="7.02807" cy="621.653" r="4" fill="#0" id="circle0"/>
	<circle cx="37.1153" cy="584.207" r="4" fill="#0" id="circle1"/>
	<circle cx="57.084" cy="626.841" r="4" fill="#0" id="circle2"/>
	<circle cx="122.645" cy="597.474" r="4" fill="#0" id="circle3"/>
	<circle cx="150.872" cy="620.757" r="4" fill="#0" id="circle4"/>
	<circle cx="158.702" cy="625.34" r="4" fill="#0" id="circle5"/>
	<circle cx="184.838" cy="640.35" r="4" fill="#0" id="circle6"/>
	<circle cx="150.616" cy="591.673" r="4" fill="#0" id="circle7"/>
	<circle cx="167.316" cy="581.913" r="4" fill="#0" id="circle8"/>
	<circle cx="191.733" cy="570.194" r="4" fill="#0" id="circle9"/>
	<circle cx="197.951" cy="574.886" r="4" fill="#0" id="circle10"/>
	<circle cx="184.473" cy="506.533" r="4" fill="#0" id="circle11"/>
	<circle cx="188.872" cy="506.215" r="4" fill="#0" id="circle12"/>
	<circle cx="211.35" cy="510.025" r="4" fill="#0" id="circle13"/>
	<circle cx="177.764" cy="501.063" r="4" fill="#0" id="circle14"/>
	<circle cx="228.051" cy="459.023" r="4" fill="#0" id="circle15"/>
	<circle cx="238.57" cy="477.177" r="4" fill="#0" id="circle16"/>
	<circle cx="259.585" cy="452.987" r="4" fill="#0" id="circle17"/>
	<circle cx="285.865" cy="423.981" r="4" fill="#0" id="circle18"/>
	<circle cx="312.068" cy="448.321" r="4" fill="#0" id="circle19"/>
	<circle cx="310.116" cy="463.498" r="4" fill="#0" id="circle20"/>
	<circle cx="329.611" cy="468.829" r="4" fill="#0" id="circle21"/>
	<circle cx="352.257" cy="509.351" r="4" fill="#0" id="circle22"/>
	<circle cx="335.31" cy="470.822" r="4" fill="#0" id="circle23"/>
	<circle cx="398.122" cy="455.664" r="4" fill="#0" id="circle24"/>
	<circle cx="36.7761" cy="183.429" r="4" fill="#0" id="circle25"/>
	<circle cx="67.7891" cy="166.84" r="4" fill="#0" id="circle26"/>
	<circle cx="39.614" cy="204.14" r="4" fill="#0" id="circle27"/>
	<circle cx="110.009" cy="244.264" r="4" fill="#0" id="circle28"/>
	<circle cx="103.413" cy="256.561" r="4" fill="#0" id="circle29"/>
	<circle cx="136.457" cy="214.835" r="4" fill="#0" id="circle30"/>
	<circle cx="110.487" cy="237.661" r="4" fill="#0" id="circle31"/>
	<circle cx="166.675" cy="270.984" r="4" fill="#0" id="circle32"/>
	<circle cx="172.853" cy="268.037" r="4" fill="#0" id="circle33"/>
	<circle cx="180.939" cy="287.218" r="4" fill="#0" id="circle34"/>
	<circle cx="198.561" cy="341.061" r="4" fill="#0" id="circle35"/>
	<circle cx="217.837" cy="302.19" r="4" fill="#0" id="circle36"/>
	<circle cx="201.024" cy="330.913" r="4" fill="#0" id="circle37"/>
	<circle cx="256.035" cy="339.201" r="4" fill="#0" id="circle38"/>
	<circle cx="250" cy="377.266" r="4" fill="#0" id="circle39"/>
	<circle cx="261.987" cy="402.629" r="4" fill="#0" id="circle40"/>
	<circle cx="293.095" cy="369.643" r="4" fill="#0" id="circle41"/>
	<circle cx="283.014" cy="418.396" r="4" fill="#0" id="circle42"/>
	<circle cx="336.917" cy="393.292" r="4" fill="#0" id="circle43"/>
	<circle cx="347.921" cy="421.745" r="4" fill="#0" id="circle44"/>
	<circle cx="323.804" cy="439.398" r="4" fill="#0" id="circle45"/>
	<circle cx="352.58" cy="440.788" r="4" fill="#0" id="circle46"/>
	<circle cx="44.2499" cy="102.841" r="4" fill="#0" id="circle47"/>
	<circle cx="63.8791" cy="100.476" r="4" fill="#0" id="circle48"/>
	<circle cx="62.3655" cy="99.9107" r="4" fill="#0" id="circle49"/>
	<circle cx="92.3819" cy="156.183" r="4" fill="#0" id="circle50"/>
	<circle cx="79.0967" cy="123.83" r="4" fill="#0" id="circle51"/>
	<circle cx="149.86" cy="139.553" r="4" fill="#0" id="circle52"/>
	<circle cx="133.032" cy="181.798" r="4" fill="#0" id="circle53"/>
	<circle cx="151.391" cy="202.87" r="4" fill="#0" id="circle54"/>
	<circle cx="159.481" cy="218.132" r="4" fill="#0" id="circle55"/>
	<circle cx="200.259" cy="236.59" r="4" fill="#0" id="circle56"/>
	<circle cx="230.241" cy="244.661" r="4" fill="#0" id="circle57"/>
	<circle cx="225.237" cy="252.559" r="4" fill="#0" id="circle58"/>
	<circle cx="270.994" cy="235.933" r="4" fill="#0" id="circle59"/>
	<circle cx="292.26" cy="301.511" r="4" fill="#0" id="circle60"/>
	<circle cx="285.745" cy="273.677" r="4" fill="#0" id="circle61"/>
	<circle cx="269.183" cy="273.702" r="4" fill="#0" id="circle62"/>
	<circle cx="303.687" cy="322.59" r="4" fill="#0" id="circle63"/>
	<circle cx="316.432" cy="334.842" r="4" fill="#0" id="circle64"/>
	<circle cx="362.868" cy="353.092" r="4" fill="#0" id="circle65"/>
	<circle cx="347.862" cy="327.794" r="4" fill="#0" id="circle66"/>
	<circle cx="373.923" cy="269.855" r="4" fill="#0" id="circle67"/>
	<circle cx="377.549" cy="237.606" r="4" fill="#0" id="circle68"/>
	<circle cx="369.394" cy="221.881" r="4" fill="#0" id="circle69"/>
	<circle cx="367.646" cy="182.226" r="4" fill="#0" id="circle70"/>
	<circle cx="357.755" cy="183.544" r="4" fill="#0" id="circle71"/>
	<circle cx="344.1" cy="181.01" r="4" fill="#0" id="circle72"/>
	<circle cx="298.242" cy="120.871" r="4" fill="#0" id="circle73"/>
	<circle cx="299.834" cy="77.4058" r="4" fill="#0" id="circle74"/>
	<circle cx="295.286" cy="68.213" r="4" fill="#0" id="circle75"/>
	<circle cx="324.941" cy="87.8837" r="4" fill="#0" id="circle76"/>
	<circle cx="299.227" cy="70.8083" r="4" fill="#0" id="circle77"/>
	<circle cx="339.662" cy="45.6623" r="4" fill="#0" id="circle78"/>
	<circle cx="333.196" cy="4" r="4" fill="#0" id="circle79"/>
	<circle cx="342.928" cy="23.2295" r="4" fill="#0" id="circle80"/>
	<circle cx="386.076" cy="82.6313" r="4" fill="#0" id="circle81"/>
	<circle cx="334.188" cy="100.363" r="4" fill="#0" id="circle82"/>
	<circle cx="348.845" cy="131.858" r="4" fill="#0" id="circle83"/>
	<circle cx="347.526" cy="160.989" r="4" fill="#0" id="circle84"/>
	<circle cx="363.299" cy="178.662" r="4" fill="#0" id="circle85"/>
	<circle cx="426.874" cy="142.493" r="4" fill="#0" id="circle86"/>
	<circle cx="396.275" cy="209.382" r="4" fill="#0" id="circle87"/>
	<circle cx="427.906" cy="212.685" r="4" fill="#0" id="circle88"/>
	<circle cx="388.834" cy="205.742" r="4" fill="#0" id="circle89"/>
	<circle cx="428.43" cy="247.535" r="4" fill="#0" id="circle90"/>
	<circle cx="421.722" cy="278.509" r="4" fill="#0" id="circle91"/>
	<circle cx="418.511" cy="329.615" r="4" fill="#0" id="circle92"/>
	<circle cx="428.638" cy="309.707" r="4" fill="#0" id="circle93"/>
	<circle cx="445.173" cy="324.679" r="4" fill="#0" id="circle94"/>
	<circle cx="431.309" cy="358.489" r="4" fill="#0" id="circle95"/>
	<circle cx="420.26" cy="393.429" r="4" fill="#0" id="circle96"/>
	<circle cx="473.874" cy="408.363" r="4" fill="#0" id="circle97"/>
	<circle cx="439.244" cy="411.963" r="4" fill="#0" id="circle98"/>
	<circle cx="449.853" cy="442.576" r="4" fill="#0" id="circle99"/>
	<circle cx="448.644" cy="472.727" r="4" fill="#0" id="circle100"/>
	<circle cx="449.792" cy="479.845" r="4" fill="#0" id="circle101"/>
	<circle cx="465.087" cy="535.81" r="4" fill="#0" id="circle102"/>
	<circle cx="501.384" cy="542.57" r="4" fill="#0" id="circle103"/>
	<circle cx="456.381" cy="615.783" r="4" fill="#0" id="circle104"/>
	<circle cx="471.854" cy="629.232" r="4" fill="#0" id="circle105"/>
	<circle cx="476.934" cy="662.506" r="4" fill="#0" id="circle106"/>
	<circle cx="476.104" cy="681.344" r="4" fill="#0" id="circle107"/>
	<circle cx="502.038" cy="709.494" r="4" fill="#0" id="circle108"/>
	<circle cx="518.506" cy="704.258" r="4" fill="#0" id="circle109"/>
	<circle cx="508.837" cy="725.716" r="4" fill="#0" id="circle110"/>
	<circle cx="490.273" cy="729.508" r="4" fill="#0" id="circle111"/>
	<circle cx="505.19" cy="779.644" r="4" fill="#0" id="circle112"/>
	<circle cx="480.554" cy="835.92" r="4" fill="#0" id="circle113"/>
	<circle cx="509.776" cy="821.891" r="4" fill="#0" id="circle114"/>
	<circle cx="490.508" cy="849.906" r="4" fill="#0" id="circle115"/>
	<circle cx="533.6" cy="850.642" r="4" fill="#0" id="circle116"/>
	<circle cx="523.48" cy="922.224" r="4" fill="#0" id="circle117"/>
	<circle cx="521.731" cy="904.467" r="4" fill="#0" id="circle118"/>
	<circle cx="473.183" cy="937.474" r="4" fill="#0" id="circle119"/>
	<circle cx="475.844" cy="943.993" r="4" fill="#0" id="circle120"/>
	<circle cx="478.934" cy="970.586" r="4" fill="#0" id="circle121"/>
	<circle cx="4" cy="652.32" r="4" fill="#0" id="circle122"/>
	<circle cx="13.6089" cy="685.996" r="4" fill="#0" id="circle123"/>
	<circle cx="45.904" cy="658.71" r="4" fill="#0" id="circle124"/>
	<circle cx="53.603" cy="677.565" r="4" fill="#0" id="circle125"/>
	<circle cx="91.7098" cy="718.177" r="4" fill="#0" id="circle126"/>
	<circle cx="91.735" cy="698.984" r="4" fill="#0" id="circle127"/>
	<circle cx="102.722" cy="731.506" r="4" fill="#0" id="circle128"/>
	<circle cx="119.064" cy="750.979" r="4" fill="#0" id="circle129"/>
	<circle cx="126.246" cy="727.312" r="4" fill="#0" id="circle130"/>
	<circle cx="164.304" cy="768.157" r="4" fill="#0" id="circle131"/>
	<circle cx="190.965" cy="794.211" r="4" fill="#0" id="circle132"/>
	<circle cx="225.522" cy="756.333" r="4" fill="#0" id="circle133"/>
	<circle cx="211.193" cy="820.214" r="4" fill="#0" id="circle134"/>
	<circle cx="263.454" cy="823.631" r="4" fill="#0" id="circle135"/>
	<circle cx="250.322" cy="816.191" r="4" fill="#0" id="circle136"/>
	<circle cx="261.48" cy="845.308" r="4" fill="#0" id="circle137"/>
	<circle cx="271.386" cy="854.761" r="4" fill="#0" id="circle138"/>
	<circle cx="322.863" cy="872.453" r="4" fill="#0" id="circle139"/>
	<circle cx="297.489" cy="899.578" r="4" fill="#0" id="circle140"/>
	<circle cx="324.61" cy="887.798" r="4" fill="#0" id="circle141"/>
	<circle cx="371.607" cy="907.401" r="4" fill="#0" id="circle142"/>
	<circle cx="318.008" cy="902.597" r="4" fill="#0" id="circle143"/>
	<circle cx="343.738" cy="930.015" r="4" fill="#0" id="circle144"/>
	<circle cx="400.453" cy="945.956" r="4" fill="#0" id="circle145"/>
	<circle cx="402.319" cy="949.661" r="4" fill="#0" id="circle146"/>
	<circle cx="386.892" cy="946.133" r="4" fill="#0" id="circle147"/>
	<circle cx="416.649" cy="996" r="4" fill="#0" id="circle148"/>
	<circle cx="439.918" cy="971.834" r="4" fill="#0" id="circle149"/>
	<circle cx="266.507" cy="654.624" r="4" fill="#0" id="circle150"/>
	<circle cx="241.987" cy="666.051" r="4" fill="#0" id="circle151"/>
	<circle cx="285.57" cy="690.966" r="4" fill="#0" id="circle152"/>
	<circle cx="320.46" cy="719.945" r="4" fill="#0" id="circle153"/>
	<circle cx="292.037" cy="715.241" r="4" fill="#0" id="circle154"/>
	<circle cx="334.936" cy="705.38" r="4" fill="#0" id="circle155"/>
	<circle cx="264.97" cy="681.128" r="4" fill="#0" id="circle156"/>
	<circle cx="302.348" cy="657.588" r="4" fill="#0" id="circle157"/>
	<circle cx="283.932" cy="689.073" r="4" fill="#0" id="circle158"/>
	<circle cx="293.866" cy="637.936" r="4" fill="#0" id="circle159"/>
	<circle cx="254.154" cy="619.172" r="4" fill="#0" id="circle160"/>
	<circle cx="281.751" cy="649.772" r="4" fill="#0" id="circle161"/>
	<circle cx="240.294" cy="646.857" r="4" fill="#0" id="circle162"/>
	<circle cx="257.941" cy="608.764" r="4" fill="#0" id="circle163"/>
	<circle cx="245.875" cy="551.064" r="4" fill="#0" id="circle164"/>
	<circle cx="208.125" cy="554.131" r="4" fill="#0" id="circle165"/>
	<circle cx="225.956" cy="533.911" r="4" fill="#0" id="circle166"/>
	<circle cx="266.849" cy="567.045" r="4" fill="#0" id="circle167"/>
	<circle cx="296.056" cy="551.755" r="4" fill="#0" id="circle168"/>
	<circle cx="301.032" cy="587.048" r="4" fill="#0" id="circle169"/>
	<circle cx="343.83" cy="617.956" r="4" fill="#0" id="circle170"/>
	<circle cx="357.949" cy="595.874" r="4" fill="#0" id="circle171"/>
	<circle cx="348.95" cy="637.941" r="4" fill="#0" id="circle172"/>
	<circle cx="351.033" cy="669.545" r="4" fill="#0" id="circle173"/>
	<circle cx="344.828" cy="637.628" r="4" fill="#0" id="circle174"/>
	<circle cx="336.609" cy="699.751" r="4" fill="#0" id="circle175"/>
	<circle cx="333.632" cy="684.621" r="4" fill="#0" id="circle176"/>
	<circle cx="344.712" cy="742.572" r="4" fill="#0" id="circle177"/>
	</g>
</svg>