<?xml version="1.0" encoding="UTF-8" standalone="no"?>
<!-- Created with CurveBenchmark -->
<svg
	xmlns:dc="http://purl.org/dc/elements/1.1/"
	xmlns:cc="http://creativecommons.org/ns#"
	xmlns:rdf="http://www.w3.org/1999/02/22-rdf-syntax-ns#"
	xmlns:svg="http://www.w3.org/2000/svg"
	xmlns="http://www.w3.org/2000/svg"
	xmlns:sodipodi="http://sodipodi.sourceforge.net/DTD/sodipodi-0.dtd"
	xmlns:inkscape="http://www.inkscape.org/namespaces/inkscape"
	width="1000"
	height="1000"
	id="svg2"
	version="1.1"
	sodipodi:docname="noisy-0.03/gathang-mc19.txt">
<defs
	id="defs4" />
<metadata
	id="metadata7">
	<rdf:RDF>
		<cc:Work
			rdf:about="">
			<dc:format>image/svg+xml</dc:format>
			<dc:type
				rdf:resource="http://purl.org/dc/dcmitype/StillImage" />
			<dc:title></dc:title>
		</cc:Work>
	</rdf:RDF>
</metadata>
<g
	inkscape:label="Layer 1"
	inkscape:groupmode="layer"
	id="layer1">
	<path style="fill:none;stroke:red;stroke-width:1px;stroke-linecap:butt;stroke-linejoin:miter;stroke-opacity:1" d="M 4,689.783 66.7918,720.641 z" id="boundary" inkscape:connector-curvature="0" />
	<path style="fill:none;stroke:red;stroke-width:1px;stroke-linecap:butt;stroke-linejoin:miter;stroke-opacity:1" d="M 4,689.783 80.8969,599.208 z" id="boundary" inkscape:connector-curvature="0" />
	<path style="fill:none;stroke:red;stroke-width:1px;stroke-linecap:butt;stroke-linejoin:miter;stroke-opacity:1" d="M 202.057,767.06 66.7918,720.641 z" id="boundary" inkscape:connector-curvature="0" />
	<path style="fill:none;stroke:red;stroke-width:1px;stroke-linecap:butt;stroke-linejoin:miter;stroke-opacity:1" d="M 266.985,460.875 80.8969,599.208 z" id="boundary" inkscape:connector-curvature="0" />
	<path style="fill:none;stroke:red;stroke-width:1px;stroke-linecap:butt;stroke-linejoin:miter;stroke-opacity:1" d="M 202.057,767.06 297.374,825.739 z" id="boundary" inkscape:connector-curvature="0" />
	<path style="fill:none;stroke:red;stroke-width:1px;stroke-linecap:butt;stroke-linejoin:miter;stroke-opacity:1" d="M 336.635,823.769 297.374,825.739 z" id="boundary" inkscape:connector-curvature="0" />
	<path style="fill:none;stroke:red;stroke-width:1px;stroke-linecap:butt;stroke-linejoin:miter;stroke-opacity:1" d="M 344.151,861.012 333.133,874.358 z" id="boundary" inkscape:connector-curvature="0" />
	<path style="fill:none;stroke:red;stroke-width:1px;stroke-linecap:butt;stroke-linejoin:miter;stroke-opacity:1" d="M 358.54,832.497 336.635,823.769 z" id="boundary" inkscape:connector-curvature="0" />
	<path style="fill:none;stroke:red;stroke-width:1px;stroke-linecap:butt;stroke-linejoin:miter;stroke-opacity:1" d="M 380.974,447.316 475.216,482.149 z" id="boundary" inkscape:connector-curvature="0" />
	<path style="fill:none;stroke:red;stroke-width:1px;stroke-linecap:butt;stroke-linejoin:miter;stroke-opacity:1" d="M 600.141,415.729 475.216,482.149 z" id="boundary" inkscape:connector-curvature="0" />
	<path style="fill:none;stroke:red;stroke-width:1px;stroke-linecap:butt;stroke-linejoin:miter;stroke-opacity:1" d="M 380.974,447.316 266.985,460.875 z" id="boundary" inkscape:connector-curvature="0" />
	<path style="fill:none;stroke:red;stroke-width:1px;stroke-linecap:butt;stroke-linejoin:miter;stroke-opacity:1" d="M 344.151,861.012 358.54,832.497 z" id="boundary" inkscape:connector-curvature="0" />
	<path style="fill:none;stroke:red;stroke-width:1px;stroke-linecap:butt;stroke-linejoin:miter;stroke-opacity:1" d="M 411.08,901.665 381.632,922.367 z" id="boundary" inkscape:connector-curvature="0" />
	<path style="fill:none;stroke:red;stroke-width:1px;stroke-linecap:butt;stroke-linejoin:miter;stroke-opacity:1" d="M 411.08,901.665 404.378,939.927 z" id="boundary" inkscape:connector-curvature="0" />
	<path style="fill:none;stroke:red;stroke-width:1px;stroke-linecap:butt;stroke-linejoin:miter;stroke-opacity:1" d="M 381.632,922.367 370.116,928.248 z" id="boundary" inkscape:connector-curvature="0" />
	<path style="fill:none;stroke:red;stroke-width:1px;stroke-linecap:butt;stroke-linejoin:miter;stroke-opacity:1" d="M 258.373,985.028 240.24,970.297 z" id="boundary" inkscape:connector-curvature="0" />
	<path style="fill:none;stroke:red;stroke-width:1px;stroke-linecap:butt;stroke-linejoin:miter;stroke-opacity:1" d="M 277.872,980.858 274.469,958.747 z" id="boundary" inkscape:connector-curvature="0" />
	<path style="fill:none;stroke:red;stroke-width:1px;stroke-linecap:butt;stroke-linejoin:miter;stroke-opacity:1" d="M 277.872,980.858 258.373,985.028 z" id="boundary" inkscape:connector-curvature="0" />
	<path style="fill:none;stroke:red;stroke-width:1px;stroke-linecap:butt;stroke-linejoin:miter;stroke-opacity:1" d="M 322.514,984.643 343.001,996 z" id="boundary" inkscape:connector-curvature="0" />
	<path style="fill:none;stroke:red;stroke-width:1px;stroke-linecap:butt;stroke-linejoin:miter;stroke-opacity:1" d="M 404.378,939.927 421.76,976.713 z" id="boundary" inkscape:connector-curvature="0" />
	<path style="fill:none;stroke:red;stroke-width:1px;stroke-linecap:butt;stroke-linejoin:miter;stroke-opacity:1" d="M 353.976,995.475 343.001,996 z" id="boundary" inkscape:connector-curvature="0" />
	<path style="fill:none;stroke:red;stroke-width:1px;stroke-linecap:butt;stroke-linejoin:miter;stroke-opacity:1" d="M 421.76,976.713 417.856,980.027 z" id="boundary" inkscape:connector-curvature="0" />
	<path style="fill:none;stroke:red;stroke-width:1px;stroke-linecap:butt;stroke-linejoin:miter;stroke-opacity:1" d="M 544.681,74.982 560.991,35.7565 z" id="boundary" inkscape:connector-curvature="0" />
	<path style="fill:none;stroke:red;stroke-width:1px;stroke-linecap:butt;stroke-linejoin:miter;stroke-opacity:1" d="M 560.991,35.7565 588.069,45.5621 z" id="boundary" inkscape:connector-curvature="0" />
	<path style="fill:none;stroke:red;stroke-width:1px;stroke-linecap:butt;stroke-linejoin:miter;stroke-opacity:1" d="M 489.102,93.2263 506.12,96.9952 z" id="boundary" inkscape:connector-curvature="0" />
	<path style="fill:none;stroke:red;stroke-width:1px;stroke-linecap:butt;stroke-linejoin:miter;stroke-opacity:1" d="M 528.518,103.484 567.471,97.11 z" id="boundary" inkscape:connector-curvature="0" />
	<path style="fill:none;stroke:red;stroke-width:1px;stroke-linecap:butt;stroke-linejoin:miter;stroke-opacity:1" d="M 528.518,103.484 506.12,96.9952 z" id="boundary" inkscape:connector-curvature="0" />
	<path style="fill:none;stroke:red;stroke-width:1px;stroke-linecap:butt;stroke-linejoin:miter;stroke-opacity:1" d="M 594.449,100.82 567.471,97.11 z" id="boundary" inkscape:connector-curvature="0" />
	<path style="fill:none;stroke:red;stroke-width:1px;stroke-linecap:butt;stroke-linejoin:miter;stroke-opacity:1" d="M 626.568,55.9995 588.069,45.5621 z" id="boundary" inkscape:connector-curvature="0" />
	<path style="fill:none;stroke:red;stroke-width:1px;stroke-linecap:butt;stroke-linejoin:miter;stroke-opacity:1" d="M 489.102,93.2263 461.16,87.001 z" id="boundary" inkscape:connector-curvature="0" />
	<path style="fill:none;stroke:red;stroke-width:1px;stroke-linecap:butt;stroke-linejoin:miter;stroke-opacity:1" d="M 626.568,55.9995 640.578,47.9535 z" id="boundary" inkscape:connector-curvature="0" />
	<path style="fill:none;stroke:red;stroke-width:1px;stroke-linecap:butt;stroke-linejoin:miter;stroke-opacity:1" d="M 648.615,10.0628 698.995,42.863 z" id="boundary" inkscape:connector-curvature="0" />
	<path style="fill:none;stroke:red;stroke-width:1px;stroke-linecap:butt;stroke-linejoin:miter;stroke-opacity:1" d="M 698.995,42.863 640.578,47.9535 z" id="boundary" inkscape:connector-curvature="0" />
	<path style="fill:none;stroke:red;stroke-width:1px;stroke-linecap:butt;stroke-linejoin:miter;stroke-opacity:1" d="M 623.396,4 648.615,10.0628 z" id="boundary" inkscape:connector-curvature="0" />
	<path style="fill:none;stroke:red;stroke-width:1px;stroke-linecap:butt;stroke-linejoin:miter;stroke-opacity:1" d="M 629.339,75.0911 645.137,83.2345 z" id="boundary" inkscape:connector-curvature="0" />
	<path style="fill:none;stroke:red;stroke-width:1px;stroke-linecap:butt;stroke-linejoin:miter;stroke-opacity:1" d="M 645.137,83.2345 594.449,100.82 z" id="boundary" inkscape:connector-curvature="0" />
	<path style="fill:none;stroke:red;stroke-width:1px;stroke-linecap:butt;stroke-linejoin:miter;stroke-opacity:1" d="M 719.047,75.2836 739.876,69.401 z" id="boundary" inkscape:connector-curvature="0" />
	<path style="fill:none;stroke:red;stroke-width:1px;stroke-linecap:butt;stroke-linejoin:miter;stroke-opacity:1" d="M 739.876,69.401 780.631,116.504 z" id="boundary" inkscape:connector-curvature="0" />
	<path style="fill:none;stroke:red;stroke-width:1px;stroke-linecap:butt;stroke-linejoin:miter;stroke-opacity:1" d="M 695.005,278.15 678.703,352.711 z" id="boundary" inkscape:connector-curvature="0" />
	<path style="fill:none;stroke:red;stroke-width:1px;stroke-linecap:butt;stroke-linejoin:miter;stroke-opacity:1" d="M 678.703,352.711 600.141,415.729 z" id="boundary" inkscape:connector-curvature="0" />
	<path style="fill:none;stroke:red;stroke-width:1px;stroke-linecap:butt;stroke-linejoin:miter;stroke-opacity:1" d="M 645.809,689.845 602.128,746.55 z" id="boundary" inkscape:connector-curvature="0" />
	<path style="fill:none;stroke:red;stroke-width:1px;stroke-linecap:butt;stroke-linejoin:miter;stroke-opacity:1" d="M 740.124,637.654 645.809,689.845 z" id="boundary" inkscape:connector-curvature="0" />
	<path style="fill:none;stroke:red;stroke-width:1px;stroke-linecap:butt;stroke-linejoin:miter;stroke-opacity:1" d="M 761.403,199.17 695.005,278.15 z" id="boundary" inkscape:connector-curvature="0" />
	<path style="fill:none;stroke:red;stroke-width:1px;stroke-linecap:butt;stroke-linejoin:miter;stroke-opacity:1" d="M 782.596,142.095 761.403,199.17 z" id="boundary" inkscape:connector-curvature="0" />
	<path style="fill:none;stroke:red;stroke-width:1px;stroke-linecap:butt;stroke-linejoin:miter;stroke-opacity:1" d="M 780.631,116.504 782.596,142.095 z" id="boundary" inkscape:connector-curvature="0" />
	<path style="fill:none;stroke:red;stroke-width:1px;stroke-linecap:butt;stroke-linejoin:miter;stroke-opacity:1" d="M 839.951,189.369 844.074,213.25 z" id="boundary" inkscape:connector-curvature="0" />
	<path style="fill:none;stroke:red;stroke-width:1px;stroke-linecap:butt;stroke-linejoin:miter;stroke-opacity:1" d="M 844.074,213.25 805.508,298.03 z" id="boundary" inkscape:connector-curvature="0" />
	<path style="fill:none;stroke:red;stroke-width:1px;stroke-linecap:butt;stroke-linejoin:miter;stroke-opacity:1" d="M 787.92,434.509 791.214,537.436 z" id="boundary" inkscape:connector-curvature="0" />
	<path style="fill:none;stroke:red;stroke-width:1px;stroke-linecap:butt;stroke-linejoin:miter;stroke-opacity:1" d="M 787.92,434.509 816.689,353.769 z" id="boundary" inkscape:connector-curvature="0" />
	<path style="fill:none;stroke:red;stroke-width:1px;stroke-linecap:butt;stroke-linejoin:miter;stroke-opacity:1" d="M 816.689,353.769 805.508,298.03 z" id="boundary" inkscape:connector-curvature="0" />
	<circle cx="4" cy="689.783" r="4" fill="#0" id="circle0"/>
	<circle cx="66.7918" cy="720.641" r="4" fill="#0" id="circle1"/>
	<circle cx="80.8969" cy="599.208" r="4" fill="#0" id="circle2"/>
	<circle cx="202.057" cy="767.06" r="4" fill="#0" id="circle3"/>
	<circle cx="266.985" cy="460.875" r="4" fill="#0" id="circle4"/>
	<circle cx="258.373" cy="985.028" r="4" fill="#0" id="circle5"/>
	<circle cx="277.872" cy="980.858" r="4" fill="#0" id="circle6"/>
	<circle cx="240.24" cy="970.297" r="4" fill="#0" id="circle7"/>
	<circle cx="274.469" cy="958.747" r="4" fill="#0" id="circle8"/>
	<circle cx="322.514" cy="984.643" r="4" fill="#0" id="circle9"/>
	<circle cx="336.635" cy="823.769" r="4" fill="#0" id="circle10"/>
	<circle cx="331.804" cy="948.165" r="4" fill="#0" id="circle11"/>
	<circle cx="343.001" cy="996" r="4" fill="#0" id="circle12"/>
	<circle cx="353.976" cy="995.475" r="4" fill="#0" id="circle13"/>
	<circle cx="297.374" cy="825.739" r="4" fill="#0" id="circle14"/>
	<circle cx="335.85" cy="923.735" r="4" fill="#0" id="circle15"/>
	<circle cx="333.133" cy="874.358" r="4" fill="#0" id="circle16"/>
	<circle cx="331.269" cy="914.216" r="4" fill="#0" id="circle17"/>
	<circle cx="344.151" cy="861.012" r="4" fill="#0" id="circle18"/>
	<circle cx="359.197" cy="965.709" r="4" fill="#0" id="circle19"/>
	<circle cx="358.54" cy="832.497" r="4" fill="#0" id="circle20"/>
	<circle cx="370.116" cy="928.248" r="4" fill="#0" id="circle21"/>
	<circle cx="380.974" cy="447.316" r="4" fill="#0" id="circle22"/>
	<circle cx="341.732" cy="959.341" r="4" fill="#0" id="circle23"/>
	<circle cx="399.063" cy="766.351" r="4" fill="#0" id="circle24"/>
	<circle cx="364.923" cy="968.951" r="4" fill="#0" id="circle25"/>
	<circle cx="389.9" cy="958.575" r="4" fill="#0" id="circle26"/>
	<circle cx="340.303" cy="925.316" r="4" fill="#0" id="circle27"/>
	<circle cx="411.08" cy="901.665" r="4" fill="#0" id="circle28"/>
	<circle cx="381.632" cy="922.367" r="4" fill="#0" id="circle29"/>
	<circle cx="404.378" cy="939.927" r="4" fill="#0" id="circle30"/>
	<circle cx="356.805" cy="970.701" r="4" fill="#0" id="circle31"/>
	<circle cx="421.76" cy="976.713" r="4" fill="#0" id="circle32"/>
	<circle cx="417.856" cy="980.027" r="4" fill="#0" id="circle33"/>
	<circle cx="446.593" cy="774.328" r="4" fill="#0" id="circle34"/>
	<circle cx="475.216" cy="482.149" r="4" fill="#0" id="circle35"/>
	<circle cx="489.102" cy="93.2263" r="4" fill="#0" id="circle36"/>
	<circle cx="461.16" cy="87.001" r="4" fill="#0" id="circle37"/>
	<circle cx="528.518" cy="103.484" r="4" fill="#0" id="circle38"/>
	<circle cx="506.12" cy="96.9952" r="4" fill="#0" id="circle39"/>
	<circle cx="524.68" cy="146.128" r="4" fill="#0" id="circle40"/>
	<circle cx="567.471" cy="97.11" r="4" fill="#0" id="circle41"/>
	<circle cx="544.681" cy="74.982" r="4" fill="#0" id="circle42"/>
	<circle cx="600.141" cy="415.729" r="4" fill="#0" id="circle43"/>
	<circle cx="602.128" cy="746.55" r="4" fill="#0" id="circle44"/>
	<circle cx="560.991" cy="35.7565" r="4" fill="#0" id="circle45"/>
	<circle cx="594.449" cy="100.82" r="4" fill="#0" id="circle46"/>
	<circle cx="623.396" cy="4" r="4" fill="#0" id="circle47"/>
	<circle cx="648.615" cy="10.0628" r="4" fill="#0" id="circle48"/>
	<circle cx="629.339" cy="75.0911" r="4" fill="#0" id="circle49"/>
	<circle cx="678.703" cy="352.711" r="4" fill="#0" id="circle50"/>
	<circle cx="645.809" cy="689.845" r="4" fill="#0" id="circle51"/>
	<circle cx="719.047" cy="75.2836" r="4" fill="#0" id="circle52"/>
	<circle cx="698.995" cy="42.863" r="4" fill="#0" id="circle53"/>
	<circle cx="700.603" cy="133.035" r="4" fill="#0" id="circle54"/>
	<circle cx="695.005" cy="278.15" r="4" fill="#0" id="circle55"/>
	<circle cx="739.876" cy="69.401" r="4" fill="#0" id="circle56"/>
	<circle cx="761.403" cy="199.17" r="4" fill="#0" id="circle57"/>
	<circle cx="740.124" cy="637.654" r="4" fill="#0" id="circle58"/>
	<circle cx="791.214" cy="537.436" r="4" fill="#0" id="circle59"/>
	<circle cx="808.838" cy="547.618" r="4" fill="#0" id="circle60"/>
	<circle cx="787.92" cy="434.509" r="4" fill="#0" id="circle61"/>
	<circle cx="753.941" cy="360.051" r="4" fill="#0" id="circle62"/>
	<circle cx="780.631" cy="116.504" r="4" fill="#0" id="circle63"/>
	<circle cx="782.596" cy="142.095" r="4" fill="#0" id="circle64"/>
	<circle cx="816.689" cy="353.769" r="4" fill="#0" id="circle65"/>
	<circle cx="805.508" cy="298.03" r="4" fill="#0" id="circle66"/>
	<circle cx="839.951" cy="189.369" r="4" fill="#0" id="circle67"/>
	<circle cx="844.074" cy="213.25" r="4" fill="#0" id="circle68"/>
	<circle cx="626.568" cy="55.9995" r="4" fill="#0" id="circle69"/>
	<circle cx="640.578" cy="47.9535" r="4" fill="#0" id="circle70"/>
	<circle cx="652.768" cy="75.1602" r="4" fill="#0" id="circle71"/>
	<circle cx="645.137" cy="83.2345" r="4" fill="#0" id="circle72"/>
	<circle cx="588.069" cy="45.5621" r="4" fill="#0" id="circle73"/>
	</g>
</svg>