<?xml version="1.0" encoding="UTF-8" standalone="no"?>
<!-- Created with CurveBenchmark -->
<svg
	xmlns:dc="http://purl.org/dc/elements/1.1/"
	xmlns:cc="http://creativecommons.org/ns#"
	xmlns:rdf="http://www.w3.org/1999/02/22-rdf-syntax-ns#"
	xmlns:svg="http://www.w3.org/2000/svg"
	xmlns="http://www.w3.org/2000/svg"
	xmlns:sodipodi="http://sodipodi.sourceforge.net/DTD/sodipodi-0.dtd"
	xmlns:inkscape="http://www.inkscape.org/namespaces/inkscape"
	width="1000"
	height="1000"
	id="svg2"
	version="1.1"
	sodipodi:docname="noisy-0.03/gathang-mc5.txt">
<defs
	id="defs4" />
<metadata
	id="metadata7">
	<rdf:RDF>
		<cc:Work
			rdf:about="">
			<dc:format>image/svg+xml</dc:format>
			<dc:type
				rdf:resource="http://purl.org/dc/dcmitype/StillImage" />
			<dc:title></dc:title>
		</cc:Work>
	</rdf:RDF>
</metadata>
<g
	inkscape:label="Layer 1"
	inkscape:groupmode="layer"
	id="layer1">
	<path style="fill:none;stroke:red;stroke-width:1px;stroke-linecap:butt;stroke-linejoin:miter;stroke-opacity:1" d="M 140.027,241.06 114.065,249.477 z" id="boundary" inkscape:connector-curvature="0" />
	<path style="fill:none;stroke:red;stroke-width:1px;stroke-linecap:butt;stroke-linejoin:miter;stroke-opacity:1" d="M 194.216,231.981 140.027,241.06 z" id="boundary" inkscape:connector-curvature="0" />
	<path style="fill:none;stroke:red;stroke-width:1px;stroke-linecap:butt;stroke-linejoin:miter;stroke-opacity:1" d="M 206.642,355.383 172.943,366.712 z" id="boundary" inkscape:connector-curvature="0" />
	<path style="fill:none;stroke:red;stroke-width:1px;stroke-linecap:butt;stroke-linejoin:miter;stroke-opacity:1" d="M 55.6224,419.754 32.4969,432.038 z" id="boundary" inkscape:connector-curvature="0" />
	<path style="fill:none;stroke:red;stroke-width:1px;stroke-linecap:butt;stroke-linejoin:miter;stroke-opacity:1" d="M 172.943,366.712 160.721,396.417 z" id="boundary" inkscape:connector-curvature="0" />
	<path style="fill:none;stroke:red;stroke-width:1px;stroke-linecap:butt;stroke-linejoin:miter;stroke-opacity:1" d="M 165.483,416.347 149.865,446.351 z" id="boundary" inkscape:connector-curvature="0" />
	<path style="fill:none;stroke:red;stroke-width:1px;stroke-linecap:butt;stroke-linejoin:miter;stroke-opacity:1" d="M 32.4969,432.038 4,486.188 z" id="boundary" inkscape:connector-curvature="0" />
	<path style="fill:none;stroke:red;stroke-width:1px;stroke-linecap:butt;stroke-linejoin:miter;stroke-opacity:1" d="M 220.459,178.5 247.636,133.014 z" id="boundary" inkscape:connector-curvature="0" />
	<path style="fill:none;stroke:red;stroke-width:1px;stroke-linecap:butt;stroke-linejoin:miter;stroke-opacity:1" d="M 267.249,108.959 290.094,82.9841 z" id="boundary" inkscape:connector-curvature="0" />
	<path style="fill:none;stroke:red;stroke-width:1px;stroke-linecap:butt;stroke-linejoin:miter;stroke-opacity:1" d="M 247.636,133.014 267.249,108.959 z" id="boundary" inkscape:connector-curvature="0" />
	<path style="fill:none;stroke:red;stroke-width:1px;stroke-linecap:butt;stroke-linejoin:miter;stroke-opacity:1" d="M 235.047,404.927 206.642,355.383 z" id="boundary" inkscape:connector-curvature="0" />
	<path style="fill:none;stroke:red;stroke-width:1px;stroke-linecap:butt;stroke-linejoin:miter;stroke-opacity:1" d="M 235.958,239.356 194.216,231.981 z" id="boundary" inkscape:connector-curvature="0" />
	<path style="fill:none;stroke:red;stroke-width:1px;stroke-linecap:butt;stroke-linejoin:miter;stroke-opacity:1" d="M 217.338,207.256 235.958,239.356 z" id="boundary" inkscape:connector-curvature="0" />
	<path style="fill:none;stroke:red;stroke-width:1px;stroke-linecap:butt;stroke-linejoin:miter;stroke-opacity:1" d="M 255.839,439.516 235.047,404.927 z" id="boundary" inkscape:connector-curvature="0" />
	<path style="fill:none;stroke:red;stroke-width:1px;stroke-linecap:butt;stroke-linejoin:miter;stroke-opacity:1" d="M 217.338,207.256 220.459,178.5 z" id="boundary" inkscape:connector-curvature="0" />
	<path style="fill:none;stroke:red;stroke-width:1px;stroke-linecap:butt;stroke-linejoin:miter;stroke-opacity:1" d="M 145.591,483.645 149.865,446.351 z" id="boundary" inkscape:connector-curvature="0" />
	<path style="fill:none;stroke:red;stroke-width:1px;stroke-linecap:butt;stroke-linejoin:miter;stroke-opacity:1" d="M 173.619,491.249 145.591,483.645 z" id="boundary" inkscape:connector-curvature="0" />
	<path style="fill:none;stroke:red;stroke-width:1px;stroke-linecap:butt;stroke-linejoin:miter;stroke-opacity:1" d="M 59.8477,587.375 4,486.188 z" id="boundary" inkscape:connector-curvature="0" />
	<path style="fill:none;stroke:red;stroke-width:1px;stroke-linecap:butt;stroke-linejoin:miter;stroke-opacity:1" d="M 136.469,641.602 154.872,648.261 z" id="boundary" inkscape:connector-curvature="0" />
	<path style="fill:none;stroke:red;stroke-width:1px;stroke-linecap:butt;stroke-linejoin:miter;stroke-opacity:1" d="M 154.872,648.261 179.991,676.421 z" id="boundary" inkscape:connector-curvature="0" />
	<path style="fill:none;stroke:red;stroke-width:1px;stroke-linecap:butt;stroke-linejoin:miter;stroke-opacity:1" d="M 136.469,641.602 59.8477,587.375 z" id="boundary" inkscape:connector-curvature="0" />
	<path style="fill:none;stroke:red;stroke-width:1px;stroke-linecap:butt;stroke-linejoin:miter;stroke-opacity:1" d="M 179.991,676.421 214.363,743.521 z" id="boundary" inkscape:connector-curvature="0" />
	<path style="fill:none;stroke:red;stroke-width:1px;stroke-linecap:butt;stroke-linejoin:miter;stroke-opacity:1" d="M 234.583,514.341 250.853,555.654 z" id="boundary" inkscape:connector-curvature="0" />
	<path style="fill:none;stroke:red;stroke-width:1px;stroke-linecap:butt;stroke-linejoin:miter;stroke-opacity:1" d="M 250.853,555.654 290.54,608.048 z" id="boundary" inkscape:connector-curvature="0" />
	<path style="fill:none;stroke:red;stroke-width:1px;stroke-linecap:butt;stroke-linejoin:miter;stroke-opacity:1" d="M 313.954,576.088 311.548,558.764 z" id="boundary" inkscape:connector-curvature="0" />
	<path style="fill:none;stroke:red;stroke-width:1px;stroke-linecap:butt;stroke-linejoin:miter;stroke-opacity:1" d="M 254.855,720.072 214.363,743.521 z" id="boundary" inkscape:connector-curvature="0" />
	<path style="fill:none;stroke:red;stroke-width:1px;stroke-linecap:butt;stroke-linejoin:miter;stroke-opacity:1" d="M 257.576,685.644 254.855,720.072 z" id="boundary" inkscape:connector-curvature="0" />
	<path style="fill:none;stroke:red;stroke-width:1px;stroke-linecap:butt;stroke-linejoin:miter;stroke-opacity:1" d="M 257.576,685.644 344.29,745.594 z" id="boundary" inkscape:connector-curvature="0" />
	<path style="fill:none;stroke:red;stroke-width:1px;stroke-linecap:butt;stroke-linejoin:miter;stroke-opacity:1" d="M 344.29,745.594 391.87,833.143 z" id="boundary" inkscape:connector-curvature="0" />
	<path style="fill:none;stroke:red;stroke-width:1px;stroke-linecap:butt;stroke-linejoin:miter;stroke-opacity:1" d="M 349.334,805.562 363.52,850.163 z" id="boundary" inkscape:connector-curvature="0" />
	<path style="fill:none;stroke:red;stroke-width:1px;stroke-linecap:butt;stroke-linejoin:miter;stroke-opacity:1" d="M 290.094,82.9841 349.486,77.3942 z" id="boundary" inkscape:connector-curvature="0" />
	<path style="fill:none;stroke:red;stroke-width:1px;stroke-linecap:butt;stroke-linejoin:miter;stroke-opacity:1" d="M 642.59,45.3203 617.817,44.1839 z" id="boundary" inkscape:connector-curvature="0" />
	<path style="fill:none;stroke:red;stroke-width:1px;stroke-linecap:butt;stroke-linejoin:miter;stroke-opacity:1" d="M 717.088,64.958 642.59,45.3203 z" id="boundary" inkscape:connector-curvature="0" />
	<path style="fill:none;stroke:red;stroke-width:1px;stroke-linecap:butt;stroke-linejoin:miter;stroke-opacity:1" d="M 421.62,50.5436 414.619,64.5063 z" id="boundary" inkscape:connector-curvature="0" />
	<path style="fill:none;stroke:red;stroke-width:1px;stroke-linecap:butt;stroke-linejoin:miter;stroke-opacity:1" d="M 414.619,64.5063 349.486,77.3942 z" id="boundary" inkscape:connector-curvature="0" />
	<path style="fill:none;stroke:red;stroke-width:1px;stroke-linecap:butt;stroke-linejoin:miter;stroke-opacity:1" d="M 421.62,50.5436 496.712,9.19496 z" id="boundary" inkscape:connector-curvature="0" />
	<path style="fill:none;stroke:red;stroke-width:1px;stroke-linecap:butt;stroke-linejoin:miter;stroke-opacity:1" d="M 823.814,37.8028 739.204,69.9846 z" id="boundary" inkscape:connector-curvature="0" />
	<path style="fill:none;stroke:red;stroke-width:1px;stroke-linecap:butt;stroke-linejoin:miter;stroke-opacity:1" d="M 739.204,69.9846 717.088,64.958 z" id="boundary" inkscape:connector-curvature="0" />
	<path style="fill:none;stroke:red;stroke-width:1px;stroke-linecap:butt;stroke-linejoin:miter;stroke-opacity:1" d="M 823.814,37.8028 876.727,44.9599 z" id="boundary" inkscape:connector-curvature="0" />
	<path style="fill:none;stroke:red;stroke-width:1px;stroke-linecap:butt;stroke-linejoin:miter;stroke-opacity:1" d="M 915.543,63.6898 876.727,44.9599 z" id="boundary" inkscape:connector-curvature="0" />
	<path style="fill:none;stroke:red;stroke-width:1px;stroke-linecap:butt;stroke-linejoin:miter;stroke-opacity:1" d="M 964.392,71.5547 915.543,63.6898 z" id="boundary" inkscape:connector-curvature="0" />
	<path style="fill:none;stroke:red;stroke-width:1px;stroke-linecap:butt;stroke-linejoin:miter;stroke-opacity:1" d="M 964.392,71.5547 996,137.958 z" id="boundary" inkscape:connector-curvature="0" />
	<path style="fill:none;stroke:red;stroke-width:1px;stroke-linecap:butt;stroke-linejoin:miter;stroke-opacity:1" d="M 996,137.958 989.312,201.823 z" id="boundary" inkscape:connector-curvature="0" />
	<path style="fill:none;stroke:red;stroke-width:1px;stroke-linecap:butt;stroke-linejoin:miter;stroke-opacity:1" d="M 935.137,268.754 941.478,408.741 z" id="boundary" inkscape:connector-curvature="0" />
	<path style="fill:none;stroke:red;stroke-width:1px;stroke-linecap:butt;stroke-linejoin:miter;stroke-opacity:1" d="M 941.478,408.741 925.157,440.389 z" id="boundary" inkscape:connector-curvature="0" />
	<path style="fill:none;stroke:red;stroke-width:1px;stroke-linecap:butt;stroke-linejoin:miter;stroke-opacity:1" d="M 989.312,201.823 977.853,359.477 z" id="boundary" inkscape:connector-curvature="0" />
	<path style="fill:none;stroke:red;stroke-width:1px;stroke-linecap:butt;stroke-linejoin:miter;stroke-opacity:1" d="M 942.765,216.642 937.692,193.167 z" id="boundary" inkscape:connector-curvature="0" />
	<path style="fill:none;stroke:red;stroke-width:1px;stroke-linecap:butt;stroke-linejoin:miter;stroke-opacity:1" d="M 935.137,268.754 942.765,216.642 z" id="boundary" inkscape:connector-curvature="0" />
	<path style="fill:none;stroke:red;stroke-width:1px;stroke-linecap:butt;stroke-linejoin:miter;stroke-opacity:1" d="M 977.853,359.477 967.742,440.688 z" id="boundary" inkscape:connector-curvature="0" />
	<path style="fill:none;stroke:red;stroke-width:1px;stroke-linecap:butt;stroke-linejoin:miter;stroke-opacity:1" d="M 925.157,440.389 904.448,493.222 z" id="boundary" inkscape:connector-curvature="0" />
	<path style="fill:none;stroke:red;stroke-width:1px;stroke-linecap:butt;stroke-linejoin:miter;stroke-opacity:1" d="M 363.52,850.163 379.36,909.029 z" id="boundary" inkscape:connector-curvature="0" />
	<path style="fill:none;stroke:red;stroke-width:1px;stroke-linecap:butt;stroke-linejoin:miter;stroke-opacity:1" d="M 459.196,882.91 391.87,833.143 z" id="boundary" inkscape:connector-curvature="0" />
	<path style="fill:none;stroke:red;stroke-width:1px;stroke-linecap:butt;stroke-linejoin:miter;stroke-opacity:1" d="M 476.991,927.672 379.36,909.029 z" id="boundary" inkscape:connector-curvature="0" />
	<path style="fill:none;stroke:red;stroke-width:1px;stroke-linecap:butt;stroke-linejoin:miter;stroke-opacity:1" d="M 740.394,825.913 680.594,905.443 z" id="boundary" inkscape:connector-curvature="0" />
	<path style="fill:none;stroke:red;stroke-width:1px;stroke-linecap:butt;stroke-linejoin:miter;stroke-opacity:1" d="M 548.213,909.534 476.991,927.672 z" id="boundary" inkscape:connector-curvature="0" />
	<path style="fill:none;stroke:red;stroke-width:1px;stroke-linecap:butt;stroke-linejoin:miter;stroke-opacity:1" d="M 459.196,882.91 485.559,911.037 z" id="boundary" inkscape:connector-curvature="0" />
	<path style="fill:none;stroke:red;stroke-width:1px;stroke-linecap:butt;stroke-linejoin:miter;stroke-opacity:1" d="M 548.213,909.534 604.101,910.4 z" id="boundary" inkscape:connector-curvature="0" />
	<path style="fill:none;stroke:red;stroke-width:1px;stroke-linecap:butt;stroke-linejoin:miter;stroke-opacity:1" d="M 658.126,921.932 604.101,910.4 z" id="boundary" inkscape:connector-curvature="0" />
	<path style="fill:none;stroke:red;stroke-width:1px;stroke-linecap:butt;stroke-linejoin:miter;stroke-opacity:1" d="M 680.594,905.443 658.126,921.932 z" id="boundary" inkscape:connector-curvature="0" />
	<path style="fill:none;stroke:red;stroke-width:1px;stroke-linecap:butt;stroke-linejoin:miter;stroke-opacity:1" d="M 765.804,882.682 729.252,944.886 z" id="boundary" inkscape:connector-curvature="0" />
	<path style="fill:none;stroke:red;stroke-width:1px;stroke-linecap:butt;stroke-linejoin:miter;stroke-opacity:1" d="M 844.168,626.008 837.833,674.016 z" id="boundary" inkscape:connector-curvature="0" />
	<path style="fill:none;stroke:red;stroke-width:1px;stroke-linecap:butt;stroke-linejoin:miter;stroke-opacity:1" d="M 837.833,674.016 814.456,721.444 z" id="boundary" inkscape:connector-curvature="0" />
	<path style="fill:none;stroke:red;stroke-width:1px;stroke-linecap:butt;stroke-linejoin:miter;stroke-opacity:1" d="M 967.742,440.688 933.284,587.806 z" id="boundary" inkscape:connector-curvature="0" />
	<path style="fill:none;stroke:red;stroke-width:1px;stroke-linecap:butt;stroke-linejoin:miter;stroke-opacity:1" d="M 904.448,493.222 844.168,626.008 z" id="boundary" inkscape:connector-curvature="0" />
	<path style="fill:none;stroke:red;stroke-width:1px;stroke-linecap:butt;stroke-linejoin:miter;stroke-opacity:1" d="M 933.284,587.806 862.309,722.191 z" id="boundary" inkscape:connector-curvature="0" />
	<path style="fill:none;stroke:red;stroke-width:1px;stroke-linecap:butt;stroke-linejoin:miter;stroke-opacity:1" d="M 740.394,825.913 795.249,813.173 z" id="boundary" inkscape:connector-curvature="0" />
	<path style="fill:none;stroke:red;stroke-width:1px;stroke-linecap:butt;stroke-linejoin:miter;stroke-opacity:1" d="M 806.48,755.878 795.249,813.173 z" id="boundary" inkscape:connector-curvature="0" />
	<path style="fill:none;stroke:red;stroke-width:1px;stroke-linecap:butt;stroke-linejoin:miter;stroke-opacity:1" d="M 816.996,829.515 765.804,882.682 z" id="boundary" inkscape:connector-curvature="0" />
	<path style="fill:none;stroke:red;stroke-width:1px;stroke-linecap:butt;stroke-linejoin:miter;stroke-opacity:1" d="M 862.309,722.191 816.996,829.515 z" id="boundary" inkscape:connector-curvature="0" />
	<path style="fill:none;stroke:red;stroke-width:1px;stroke-linecap:butt;stroke-linejoin:miter;stroke-opacity:1" d="M 806.48,755.878 814.456,721.444 z" id="boundary" inkscape:connector-curvature="0" />
	<circle cx="235.047" cy="404.927" r="4" fill="#0" id="circle0"/>
	<circle cx="206.642" cy="355.383" r="4" fill="#0" id="circle1"/>
	<circle cx="160.721" cy="396.417" r="4" fill="#0" id="circle2"/>
	<circle cx="172.943" cy="366.712" r="4" fill="#0" id="circle3"/>
	<circle cx="165.483" cy="416.347" r="4" fill="#0" id="circle4"/>
	<circle cx="149.865" cy="446.351" r="4" fill="#0" id="circle5"/>
	<circle cx="173.619" cy="491.249" r="4" fill="#0" id="circle6"/>
	<circle cx="145.591" cy="483.645" r="4" fill="#0" id="circle7"/>
	<circle cx="191.275" cy="520.124" r="4" fill="#0" id="circle8"/>
	<circle cx="250.853" cy="555.654" r="4" fill="#0" id="circle9"/>
	<circle cx="290.54" cy="608.048" r="4" fill="#0" id="circle10"/>
	<circle cx="313.954" cy="576.088" r="4" fill="#0" id="circle11"/>
	<circle cx="321.399" cy="574.761" r="4" fill="#0" id="circle12"/>
	<circle cx="311.548" cy="558.764" r="4" fill="#0" id="circle13"/>
	<circle cx="234.583" cy="514.341" r="4" fill="#0" id="circle14"/>
	<circle cx="269.617" cy="426.914" r="4" fill="#0" id="circle15"/>
	<circle cx="255.839" cy="439.516" r="4" fill="#0" id="circle16"/>
	<circle cx="235.958" cy="239.356" r="4" fill="#0" id="circle17"/>
	<circle cx="217.338" cy="207.256" r="4" fill="#0" id="circle18"/>
	<circle cx="194.216" cy="231.981" r="4" fill="#0" id="circle19"/>
	<circle cx="140.027" cy="241.06" r="4" fill="#0" id="circle20"/>
	<circle cx="114.065" cy="249.477" r="4" fill="#0" id="circle21"/>
	<circle cx="96.3136" cy="309.584" r="4" fill="#0" id="circle22"/>
	<circle cx="34.3645" cy="292.152" r="4" fill="#0" id="circle23"/>
	<circle cx="80.1466" cy="328.634" r="4" fill="#0" id="circle24"/>
	<circle cx="32.4969" cy="432.038" r="4" fill="#0" id="circle25"/>
	<circle cx="55.6224" cy="419.754" r="4" fill="#0" id="circle26"/>
	<circle cx="4" cy="486.188" r="4" fill="#0" id="circle27"/>
	<circle cx="77.5948" cy="547.782" r="4" fill="#0" id="circle28"/>
	<circle cx="61.7494" cy="577.284" r="4" fill="#0" id="circle29"/>
	<circle cx="93.8596" cy="545.133" r="4" fill="#0" id="circle30"/>
	<circle cx="59.8477" cy="587.375" r="4" fill="#0" id="circle31"/>
	<circle cx="136.469" cy="641.602" r="4" fill="#0" id="circle32"/>
	<circle cx="154.872" cy="648.261" r="4" fill="#0" id="circle33"/>
	<circle cx="179.991" cy="676.421" r="4" fill="#0" id="circle34"/>
	<circle cx="214.363" cy="743.521" r="4" fill="#0" id="circle35"/>
	<circle cx="257.576" cy="685.644" r="4" fill="#0" id="circle36"/>
	<circle cx="254.855" cy="720.072" r="4" fill="#0" id="circle37"/>
	<circle cx="344.29" cy="745.594" r="4" fill="#0" id="circle38"/>
	<circle cx="349.334" cy="805.562" r="4" fill="#0" id="circle39"/>
	<circle cx="363.52" cy="850.163" r="4" fill="#0" id="circle40"/>
	<circle cx="391.87" cy="833.143" r="4" fill="#0" id="circle41"/>
	<circle cx="379.36" cy="909.029" r="4" fill="#0" id="circle42"/>
	<circle cx="459.196" cy="882.91" r="4" fill="#0" id="circle43"/>
	<circle cx="485.559" cy="911.037" r="4" fill="#0" id="circle44"/>
	<circle cx="476.991" cy="927.672" r="4" fill="#0" id="circle45"/>
	<circle cx="548.213" cy="909.534" r="4" fill="#0" id="circle46"/>
	<circle cx="604.101" cy="910.4" r="4" fill="#0" id="circle47"/>
	<circle cx="658.126" cy="921.932" r="4" fill="#0" id="circle48"/>
	<circle cx="680.594" cy="905.443" r="4" fill="#0" id="circle49"/>
	<circle cx="729.252" cy="944.886" r="4" fill="#0" id="circle50"/>
	<circle cx="220.459" cy="178.5" r="4" fill="#0" id="circle51"/>
	<circle cx="286.24" cy="142.707" r="4" fill="#0" id="circle52"/>
	<circle cx="247.636" cy="133.014" r="4" fill="#0" id="circle53"/>
	<circle cx="267.249" cy="108.959" r="4" fill="#0" id="circle54"/>
	<circle cx="290.094" cy="82.9841" r="4" fill="#0" id="circle55"/>
	<circle cx="349.486" cy="77.3942" r="4" fill="#0" id="circle56"/>
	<circle cx="414.619" cy="64.5063" r="4" fill="#0" id="circle57"/>
	<circle cx="421.62" cy="50.5436" r="4" fill="#0" id="circle58"/>
	<circle cx="496.712" cy="9.19496" r="4" fill="#0" id="circle59"/>
	<circle cx="537.774" cy="67.2884" r="4" fill="#0" id="circle60"/>
	<circle cx="548.921" cy="17.6547" r="4" fill="#0" id="circle61"/>
	<circle cx="552.481" cy="4" r="4" fill="#0" id="circle62"/>
	<circle cx="617.817" cy="44.1839" r="4" fill="#0" id="circle63"/>
	<circle cx="642.59" cy="45.3203" r="4" fill="#0" id="circle64"/>
	<circle cx="717.088" cy="64.958" r="4" fill="#0" id="circle65"/>
	<circle cx="739.204" cy="69.9846" r="4" fill="#0" id="circle66"/>
	<circle cx="823.814" cy="37.8028" r="4" fill="#0" id="circle67"/>
	<circle cx="876.727" cy="44.9599" r="4" fill="#0" id="circle68"/>
	<circle cx="915.543" cy="63.6898" r="4" fill="#0" id="circle69"/>
	<circle cx="964.392" cy="71.5547" r="4" fill="#0" id="circle70"/>
	<circle cx="996" cy="137.958" r="4" fill="#0" id="circle71"/>
	<circle cx="989.312" cy="201.823" r="4" fill="#0" id="circle72"/>
	<circle cx="937.692" cy="193.167" r="4" fill="#0" id="circle73"/>
	<circle cx="942.765" cy="216.642" r="4" fill="#0" id="circle74"/>
	<circle cx="935.137" cy="268.754" r="4" fill="#0" id="circle75"/>
	<circle cx="977.853" cy="359.477" r="4" fill="#0" id="circle76"/>
	<circle cx="941.478" cy="408.741" r="4" fill="#0" id="circle77"/>
	<circle cx="967.742" cy="440.688" r="4" fill="#0" id="circle78"/>
	<circle cx="925.157" cy="440.389" r="4" fill="#0" id="circle79"/>
	<circle cx="904.448" cy="493.222" r="4" fill="#0" id="circle80"/>
	<circle cx="933.284" cy="587.806" r="4" fill="#0" id="circle81"/>
	<circle cx="844.168" cy="626.008" r="4" fill="#0" id="circle82"/>
	<circle cx="837.833" cy="674.016" r="4" fill="#0" id="circle83"/>
	<circle cx="814.456" cy="721.444" r="4" fill="#0" id="circle84"/>
	<circle cx="806.48" cy="755.878" r="4" fill="#0" id="circle85"/>
	<circle cx="862.309" cy="722.191" r="4" fill="#0" id="circle86"/>
	<circle cx="795.249" cy="813.173" r="4" fill="#0" id="circle87"/>
	<circle cx="816.996" cy="829.515" r="4" fill="#0" id="circle88"/>
	<circle cx="740.394" cy="825.913" r="4" fill="#0" id="circle89"/>
	<circle cx="765.804" cy="882.682" r="4" fill="#0" id="circle90"/>
	</g>
</svg>