<?xml version="1.0" encoding="UTF-8" standalone="no"?>
<!-- Created with CurveBenchmark -->
<svg
	xmlns:dc="http://purl.org/dc/elements/1.1/"
	xmlns:cc="http://creativecommons.org/ns#"
	xmlns:rdf="http://www.w3.org/1999/02/22-rdf-syntax-ns#"
	xmlns:svg="http://www.w3.org/2000/svg"
	xmlns="http://www.w3.org/2000/svg"
	xmlns:sodipodi="http://sodipodi.sourceforge.net/DTD/sodipodi-0.dtd"
	xmlns:inkscape="http://www.inkscape.org/namespaces/inkscape"
	width="1000"
	height="1000"
	id="svg2"
	version="1.1"
	sodipodi:docname="noisy-0.03/hnncrust-mc21.txt">
<defs
	id="defs4" />
<metadata
	id="metadata7">
	<rdf:RDF>
		<cc:Work
			rdf:about="">
			<dc:format>image/svg+xml</dc:format>
			<dc:type
				rdf:resource="http://purl.org/dc/dcmitype/StillImage" />
			<dc:title></dc:title>
		</cc:Work>
	</rdf:RDF>
</metadata>
<g
	inkscape:label="Layer 1"
	inkscape:groupmode="layer"
	id="layer1">
	<path style="fill:none;stroke:red;stroke-width:1px;stroke-linecap:butt;stroke-linejoin:miter;stroke-opacity:1" d="M 4,351.441 9.20472,325.142 z" id="boundary" inkscape:connector-curvature="0" />
	<path style="fill:none;stroke:red;stroke-width:1px;stroke-linecap:butt;stroke-linejoin:miter;stroke-opacity:1" d="M 4,351.441 8.79678,361.389 z" id="boundary" inkscape:connector-curvature="0" />
	<path style="fill:none;stroke:red;stroke-width:1px;stroke-linecap:butt;stroke-linejoin:miter;stroke-opacity:1" d="M 35.5068,300.964 51.9886,283.319 z" id="boundary" inkscape:connector-curvature="0" />
	<path style="fill:none;stroke:red;stroke-width:1px;stroke-linecap:butt;stroke-linejoin:miter;stroke-opacity:1" d="M 86.1952,366.536 88.8672,362.945 z" id="boundary" inkscape:connector-curvature="0" />
	<path style="fill:none;stroke:red;stroke-width:1px;stroke-linecap:butt;stroke-linejoin:miter;stroke-opacity:1" d="M 90.9812,943.857 98.0631,996 z" id="boundary" inkscape:connector-curvature="0" />
	<path style="fill:none;stroke:red;stroke-width:1px;stroke-linecap:butt;stroke-linejoin:miter;stroke-opacity:1" d="M 78.172,861.187 118.797,895.013 z" id="boundary" inkscape:connector-curvature="0" />
	<path style="fill:none;stroke:red;stroke-width:1px;stroke-linecap:butt;stroke-linejoin:miter;stroke-opacity:1" d="M 98.0631,996 165.745,971.928 z" id="boundary" inkscape:connector-curvature="0" />
	<path style="fill:none;stroke:red;stroke-width:1px;stroke-linecap:butt;stroke-linejoin:miter;stroke-opacity:1" d="M 156.783,298.094 191.205,328.992 z" id="boundary" inkscape:connector-curvature="0" />
	<path style="fill:none;stroke:red;stroke-width:1px;stroke-linecap:butt;stroke-linejoin:miter;stroke-opacity:1" d="M 156.783,298.094 197.202,240.199 z" id="boundary" inkscape:connector-curvature="0" />
	<path style="fill:none;stroke:red;stroke-width:1px;stroke-linecap:butt;stroke-linejoin:miter;stroke-opacity:1" d="M 167.222,882.07 118.797,895.013 z" id="boundary" inkscape:connector-curvature="0" />
	<path style="fill:none;stroke:red;stroke-width:1px;stroke-linecap:butt;stroke-linejoin:miter;stroke-opacity:1" d="M 167.222,882.07 174.571,933.668 z" id="boundary" inkscape:connector-curvature="0" />
	<path style="fill:none;stroke:red;stroke-width:1px;stroke-linecap:butt;stroke-linejoin:miter;stroke-opacity:1" d="M 165.745,971.928 173.908,935.156 z" id="boundary" inkscape:connector-curvature="0" />
	<path style="fill:none;stroke:red;stroke-width:1px;stroke-linecap:butt;stroke-linejoin:miter;stroke-opacity:1" d="M 171.768,383.377 177.564,376.541 z" id="boundary" inkscape:connector-curvature="0" />
	<path style="fill:none;stroke:red;stroke-width:1px;stroke-linecap:butt;stroke-linejoin:miter;stroke-opacity:1" d="M 191.205,328.992 177.564,376.541 z" id="boundary" inkscape:connector-curvature="0" />
	<path style="fill:none;stroke:red;stroke-width:1px;stroke-linecap:butt;stroke-linejoin:miter;stroke-opacity:1" d="M 174.571,933.668 173.908,935.156 z" id="boundary" inkscape:connector-curvature="0" />
	<path style="fill:none;stroke:red;stroke-width:1px;stroke-linecap:butt;stroke-linejoin:miter;stroke-opacity:1" d="M 197.202,240.199 259.405,203.025 z" id="boundary" inkscape:connector-curvature="0" />
	<path style="fill:none;stroke:red;stroke-width:1px;stroke-linecap:butt;stroke-linejoin:miter;stroke-opacity:1" d="M 250.257,350.416 294.785,348.429 z" id="boundary" inkscape:connector-curvature="0" />
	<path style="fill:none;stroke:red;stroke-width:1px;stroke-linecap:butt;stroke-linejoin:miter;stroke-opacity:1" d="M 259.405,203.025 338.919,169.589 z" id="boundary" inkscape:connector-curvature="0" />
	<path style="fill:none;stroke:red;stroke-width:1px;stroke-linecap:butt;stroke-linejoin:miter;stroke-opacity:1" d="M 294.785,348.429 394.926,384.313 z" id="boundary" inkscape:connector-curvature="0" />
	<path style="fill:none;stroke:red;stroke-width:1px;stroke-linecap:butt;stroke-linejoin:miter;stroke-opacity:1" d="M 338.919,169.589 395.132,112.678 z" id="boundary" inkscape:connector-curvature="0" />
	<path style="fill:none;stroke:red;stroke-width:1px;stroke-linecap:butt;stroke-linejoin:miter;stroke-opacity:1" d="M 327.713,75.9564 395.132,112.678 z" id="boundary" inkscape:connector-curvature="0" />
	<path style="fill:none;stroke:red;stroke-width:1px;stroke-linecap:butt;stroke-linejoin:miter;stroke-opacity:1" d="M 394.926,384.313 463.065,536.17 z" id="boundary" inkscape:connector-curvature="0" />
	<path style="fill:none;stroke:red;stroke-width:1px;stroke-linecap:butt;stroke-linejoin:miter;stroke-opacity:1" d="M 463.065,536.17 435.485,641.463 z" id="boundary" inkscape:connector-curvature="0" />
	<path style="fill:none;stroke:red;stroke-width:1px;stroke-linecap:butt;stroke-linejoin:miter;stroke-opacity:1" d="M 435.485,641.463 539.579,711.418 z" id="boundary" inkscape:connector-curvature="0" />
	<path style="fill:none;stroke:red;stroke-width:1px;stroke-linecap:butt;stroke-linejoin:miter;stroke-opacity:1" d="M 506.216,69.4548 555.593,54.2107 z" id="boundary" inkscape:connector-curvature="0" />
	<path style="fill:none;stroke:red;stroke-width:1px;stroke-linecap:butt;stroke-linejoin:miter;stroke-opacity:1" d="M 555.593,54.2107 675.732,4 z" id="boundary" inkscape:connector-curvature="0" />
	<path style="fill:none;stroke:red;stroke-width:1px;stroke-linecap:butt;stroke-linejoin:miter;stroke-opacity:1" d="M 591.07,303.624 613.545,273.79 z" id="boundary" inkscape:connector-curvature="0" />
	<path style="fill:none;stroke:red;stroke-width:1px;stroke-linecap:butt;stroke-linejoin:miter;stroke-opacity:1" d="M 591.07,303.624 623.61,359.366 z" id="boundary" inkscape:connector-curvature="0" />
	<path style="fill:none;stroke:red;stroke-width:1px;stroke-linecap:butt;stroke-linejoin:miter;stroke-opacity:1" d="M 539.579,711.418 748.513,785.105 z" id="boundary" inkscape:connector-curvature="0" />
	<path style="fill:none;stroke:red;stroke-width:1px;stroke-linecap:butt;stroke-linejoin:miter;stroke-opacity:1" d="M 613.545,273.79 631.277,238.289 z" id="boundary" inkscape:connector-curvature="0" />
	<path style="fill:none;stroke:red;stroke-width:1px;stroke-linecap:butt;stroke-linejoin:miter;stroke-opacity:1" d="M 623.61,359.366 650.706,419.24 z" id="boundary" inkscape:connector-curvature="0" />
	<path style="fill:none;stroke:red;stroke-width:1px;stroke-linecap:butt;stroke-linejoin:miter;stroke-opacity:1" d="M 631.277,238.289 642.288,245.319 z" id="boundary" inkscape:connector-curvature="0" />
	<path style="fill:none;stroke:red;stroke-width:1px;stroke-linecap:butt;stroke-linejoin:miter;stroke-opacity:1" d="M 675.732,4 805.458,38.1201 z" id="boundary" inkscape:connector-curvature="0" />
	<path style="fill:none;stroke:red;stroke-width:1px;stroke-linecap:butt;stroke-linejoin:miter;stroke-opacity:1" d="M 642.288,245.319 691.358,302.637 z" id="boundary" inkscape:connector-curvature="0" />
	<path style="fill:none;stroke:red;stroke-width:1px;stroke-linecap:butt;stroke-linejoin:miter;stroke-opacity:1" d="M 717.169,317.037 691.358,302.637 z" id="boundary" inkscape:connector-curvature="0" />
	<path style="fill:none;stroke:red;stroke-width:1px;stroke-linecap:butt;stroke-linejoin:miter;stroke-opacity:1" d="M 748.513,785.105 973.999,585.21 z" id="boundary" inkscape:connector-curvature="0" />
	<path style="fill:none;stroke:red;stroke-width:1px;stroke-linecap:butt;stroke-linejoin:miter;stroke-opacity:1" d="M 805.458,38.1201 896.287,173.859 z" id="boundary" inkscape:connector-curvature="0" />
	<path style="fill:none;stroke:red;stroke-width:1px;stroke-linecap:butt;stroke-linejoin:miter;stroke-opacity:1" d="M 896.287,173.859 987.77,242.405 z" id="boundary" inkscape:connector-curvature="0" />
	<path style="fill:none;stroke:red;stroke-width:1px;stroke-linecap:butt;stroke-linejoin:miter;stroke-opacity:1" d="M 973.999,585.21 959.248,371.37 z" id="boundary" inkscape:connector-curvature="0" />
	<path style="fill:none;stroke:red;stroke-width:1px;stroke-linecap:butt;stroke-linejoin:miter;stroke-opacity:1" d="M 987.77,242.405 959.248,371.37 z" id="boundary" inkscape:connector-curvature="0" />
	<path style="fill:none;stroke:red;stroke-width:1px;stroke-linecap:butt;stroke-linejoin:miter;stroke-opacity:1" d="M 9.20472,325.142 25.4918,334.472 z" id="boundary" inkscape:connector-curvature="0" />
	<path style="fill:none;stroke:red;stroke-width:1px;stroke-linecap:butt;stroke-linejoin:miter;stroke-opacity:1" d="M 25.4918,334.472 21.5422,360.175 z" id="boundary" inkscape:connector-curvature="0" />
	<path style="fill:none;stroke:red;stroke-width:1px;stroke-linecap:butt;stroke-linejoin:miter;stroke-opacity:1" d="M 21.5422,360.175 8.79678,361.389 z" id="boundary" inkscape:connector-curvature="0" />
	<circle cx="4" cy="351.441" r="4" fill="#0" id="circle0"/>
	<circle cx="35.5068" cy="300.964" r="4" fill="#0" id="circle1"/>
	<circle cx="33.3958" cy="932.508" r="4" fill="#0" id="circle2"/>
	<circle cx="86.1952" cy="366.536" r="4" fill="#0" id="circle3"/>
	<circle cx="90.9812" cy="943.857" r="4" fill="#0" id="circle4"/>
	<circle cx="78.172" cy="861.187" r="4" fill="#0" id="circle5"/>
	<circle cx="98.0631" cy="996" r="4" fill="#0" id="circle6"/>
	<circle cx="51.9886" cy="283.319" r="4" fill="#0" id="circle7"/>
	<circle cx="88.8672" cy="362.945" r="4" fill="#0" id="circle8"/>
	<circle cx="156.783" cy="298.094" r="4" fill="#0" id="circle9"/>
	<circle cx="167.222" cy="882.07" r="4" fill="#0" id="circle10"/>
	<circle cx="165.745" cy="971.928" r="4" fill="#0" id="circle11"/>
	<circle cx="171.768" cy="383.377" r="4" fill="#0" id="circle12"/>
	<circle cx="191.205" cy="328.992" r="4" fill="#0" id="circle13"/>
	<circle cx="118.797" cy="895.013" r="4" fill="#0" id="circle14"/>
	<circle cx="174.571" cy="933.668" r="4" fill="#0" id="circle15"/>
	<circle cx="173.908" cy="935.156" r="4" fill="#0" id="circle16"/>
	<circle cx="177.564" cy="376.541" r="4" fill="#0" id="circle17"/>
	<circle cx="197.202" cy="240.199" r="4" fill="#0" id="circle18"/>
	<circle cx="250.257" cy="350.416" r="4" fill="#0" id="circle19"/>
	<circle cx="259.405" cy="203.025" r="4" fill="#0" id="circle20"/>
	<circle cx="294.785" cy="348.429" r="4" fill="#0" id="circle21"/>
	<circle cx="338.919" cy="169.589" r="4" fill="#0" id="circle22"/>
	<circle cx="327.713" cy="75.9564" r="4" fill="#0" id="circle23"/>
	<circle cx="394.926" cy="384.313" r="4" fill="#0" id="circle24"/>
	<circle cx="395.132" cy="112.678" r="4" fill="#0" id="circle25"/>
	<circle cx="463.065" cy="536.17" r="4" fill="#0" id="circle26"/>
	<circle cx="435.485" cy="641.463" r="4" fill="#0" id="circle27"/>
	<circle cx="506.216" cy="69.4548" r="4" fill="#0" id="circle28"/>
	<circle cx="555.593" cy="54.2107" r="4" fill="#0" id="circle29"/>
	<circle cx="591.07" cy="303.624" r="4" fill="#0" id="circle30"/>
	<circle cx="539.579" cy="711.418" r="4" fill="#0" id="circle31"/>
	<circle cx="613.545" cy="273.79" r="4" fill="#0" id="circle32"/>
	<circle cx="623.61" cy="359.366" r="4" fill="#0" id="circle33"/>
	<circle cx="631.277" cy="238.289" r="4" fill="#0" id="circle34"/>
	<circle cx="650.706" cy="419.24" r="4" fill="#0" id="circle35"/>
	<circle cx="675.732" cy="4" r="4" fill="#0" id="circle36"/>
	<circle cx="642.288" cy="245.319" r="4" fill="#0" id="circle37"/>
	<circle cx="717.169" cy="317.037" r="4" fill="#0" id="circle38"/>
	<circle cx="691.358" cy="302.637" r="4" fill="#0" id="circle39"/>
	<circle cx="748.513" cy="785.105" r="4" fill="#0" id="circle40"/>
	<circle cx="805.458" cy="38.1201" r="4" fill="#0" id="circle41"/>
	<circle cx="896.287" cy="173.859" r="4" fill="#0" id="circle42"/>
	<circle cx="973.999" cy="585.21" r="4" fill="#0" id="circle43"/>
	<circle cx="987.77" cy="242.405" r="4" fill="#0" id="circle44"/>
	<circle cx="959.248" cy="371.37" r="4" fill="#0" id="circle45"/>
	<circle cx="9.20472" cy="325.142" r="4" fill="#0" id="circle46"/>
	<circle cx="25.4918" cy="334.472" r="4" fill="#0" id="circle47"/>
	<circle cx="21.5422" cy="360.175" r="4" fill="#0" id="circle48"/>
	<circle cx="8.79678" cy="361.389" r="4" fill="#0" id="circle49"/>
	<circle cx="36.6854" cy="419.302" r="4" fill="#0" id="circle50"/>
	</g>
</svg>