<?xml version="1.0" encoding="UTF-8" standalone="no"?>
<!-- Created with CurveBenchmark -->
<svg
	xmlns:dc="http://purl.org/dc/elements/1.1/"
	xmlns:cc="http://creativecommons.org/ns#"
	xmlns:rdf="http://www.w3.org/1999/02/22-rdf-syntax-ns#"
	xmlns:svg="http://www.w3.org/2000/svg"
	xmlns="http://www.w3.org/2000/svg"
	xmlns:sodipodi="http://sodipodi.sourceforge.net/DTD/sodipodi-0.dtd"
	xmlns:inkscape="http://www.inkscape.org/namespaces/inkscape"
	width="1000"
	height="1000"
	id="svg2"
	version="1.1"
	sodipodi:docname="noisy-0.03/hnncrust-mc52.txt">
<defs
	id="defs4" />
<metadata
	id="metadata7">
	<rdf:RDF>
		<cc:Work
			rdf:about="">
			<dc:format>image/svg+xml</dc:format>
			<dc:type
				rdf:resource="http://purl.org/dc/dcmitype/StillImage" />
			<dc:title></dc:title>
		</cc:Work>
	</rdf:RDF>
</metadata>
<g
	inkscape:label="Layer 1"
	inkscape:groupmode="layer"
	id="layer1">
	<path style="fill:none;stroke:red;stroke-width:1px;stroke-linecap:butt;stroke-linejoin:miter;stroke-opacity:1" d="M 4,228.776 76.3931,219.706 z" id="boundary" inkscape:connector-curvature="0" />
	<path style="fill:none;stroke:red;stroke-width:1px;stroke-linecap:butt;stroke-linejoin:miter;stroke-opacity:1" d="M 52.5955,168.431 73.8728,185.165 z" id="boundary" inkscape:connector-curvature="0" />
	<path style="fill:none;stroke:red;stroke-width:1px;stroke-linecap:butt;stroke-linejoin:miter;stroke-opacity:1" d="M 73.8728,185.165 76.3931,219.706 z" id="boundary" inkscape:connector-curvature="0" />
	<path style="fill:none;stroke:red;stroke-width:1px;stroke-linecap:butt;stroke-linejoin:miter;stroke-opacity:1" d="M 154.471,106.164 194.295,89.9608 z" id="boundary" inkscape:connector-curvature="0" />
	<path style="fill:none;stroke:red;stroke-width:1px;stroke-linecap:butt;stroke-linejoin:miter;stroke-opacity:1" d="M 194.295,89.9608 247.789,71.7105 z" id="boundary" inkscape:connector-curvature="0" />
	<path style="fill:none;stroke:red;stroke-width:1px;stroke-linecap:butt;stroke-linejoin:miter;stroke-opacity:1" d="M 247.789,71.7105 304.695,77.2907 z" id="boundary" inkscape:connector-curvature="0" />
	<path style="fill:none;stroke:red;stroke-width:1px;stroke-linecap:butt;stroke-linejoin:miter;stroke-opacity:1" d="M 304.695,77.2907 308.852,116.243 z" id="boundary" inkscape:connector-curvature="0" />
	<path style="fill:none;stroke:red;stroke-width:1px;stroke-linecap:butt;stroke-linejoin:miter;stroke-opacity:1" d="M 159.654,247.59 236.151,266.633 z" id="boundary" inkscape:connector-curvature="0" />
	<path style="fill:none;stroke:red;stroke-width:1px;stroke-linecap:butt;stroke-linejoin:miter;stroke-opacity:1" d="M 236.151,266.633 291.791,214.563 z" id="boundary" inkscape:connector-curvature="0" />
	<path style="fill:none;stroke:red;stroke-width:1px;stroke-linecap:butt;stroke-linejoin:miter;stroke-opacity:1" d="M 291.791,214.563 345.903,217.083 z" id="boundary" inkscape:connector-curvature="0" />
	<path style="fill:none;stroke:red;stroke-width:1px;stroke-linecap:butt;stroke-linejoin:miter;stroke-opacity:1" d="M 345.903,217.083 665.301,57.0845 z" id="boundary" inkscape:connector-curvature="0" />
	<path style="fill:none;stroke:red;stroke-width:1px;stroke-linecap:butt;stroke-linejoin:miter;stroke-opacity:1" d="M 700.428,89.9399 665.301,57.0845 z" id="boundary" inkscape:connector-curvature="0" />
	<path style="fill:none;stroke:red;stroke-width:1px;stroke-linecap:butt;stroke-linejoin:miter;stroke-opacity:1" d="M 700.428,89.9399 703.983,140.658 z" id="boundary" inkscape:connector-curvature="0" />
	<path style="fill:none;stroke:red;stroke-width:1px;stroke-linecap:butt;stroke-linejoin:miter;stroke-opacity:1" d="M 753.105,4 797.441,44.944 z" id="boundary" inkscape:connector-curvature="0" />
	<path style="fill:none;stroke:red;stroke-width:1px;stroke-linecap:butt;stroke-linejoin:miter;stroke-opacity:1" d="M 797.441,44.944 871.326,67.8543 z" id="boundary" inkscape:connector-curvature="0" />
	<path style="fill:none;stroke:red;stroke-width:1px;stroke-linecap:butt;stroke-linejoin:miter;stroke-opacity:1" d="M 945.161,73.9581 996,103.467 z" id="boundary" inkscape:connector-curvature="0" />
	<path style="fill:none;stroke:red;stroke-width:1px;stroke-linecap:butt;stroke-linejoin:miter;stroke-opacity:1" d="M 945.161,73.9581 908.03,134.952 z" id="boundary" inkscape:connector-curvature="0" />
	<path style="fill:none;stroke:red;stroke-width:1px;stroke-linecap:butt;stroke-linejoin:miter;stroke-opacity:1" d="M 908.03,134.952 842.672,150.36 z" id="boundary" inkscape:connector-curvature="0" />
	<path style="fill:none;stroke:red;stroke-width:1px;stroke-linecap:butt;stroke-linejoin:miter;stroke-opacity:1" d="M 842.672,150.36 810.658,186.042 z" id="boundary" inkscape:connector-curvature="0" />
	<path style="fill:none;stroke:red;stroke-width:1px;stroke-linecap:butt;stroke-linejoin:miter;stroke-opacity:1" d="M 810.658,186.042 702.996,160.036 z" id="boundary" inkscape:connector-curvature="0" />
	<path style="fill:none;stroke:red;stroke-width:1px;stroke-linecap:butt;stroke-linejoin:miter;stroke-opacity:1" d="M 702.996,160.036 703.983,140.658 z" id="boundary" inkscape:connector-curvature="0" />
	<circle cx="4" cy="228.776" r="4" fill="#0" id="circle0"/>
	<circle cx="52.5955" cy="168.431" r="4" fill="#0" id="circle1"/>
	<circle cx="73.8728" cy="185.165" r="4" fill="#0" id="circle2"/>
	<circle cx="154.471" cy="106.164" r="4" fill="#0" id="circle3"/>
	<circle cx="194.295" cy="89.9608" r="4" fill="#0" id="circle4"/>
	<circle cx="247.789" cy="71.7105" r="4" fill="#0" id="circle5"/>
	<circle cx="304.695" cy="77.2907" r="4" fill="#0" id="circle6"/>
	<circle cx="308.852" cy="116.243" r="4" fill="#0" id="circle7"/>
	<circle cx="76.3931" cy="219.706" r="4" fill="#0" id="circle8"/>
	<circle cx="159.654" cy="247.59" r="4" fill="#0" id="circle9"/>
	<circle cx="236.151" cy="266.633" r="4" fill="#0" id="circle10"/>
	<circle cx="291.791" cy="214.563" r="4" fill="#0" id="circle11"/>
	<circle cx="345.903" cy="217.083" r="4" fill="#0" id="circle12"/>
	<circle cx="700.428" cy="89.9399" r="4" fill="#0" id="circle13"/>
	<circle cx="665.301" cy="57.0845" r="4" fill="#0" id="circle14"/>
	<circle cx="753.105" cy="4" r="4" fill="#0" id="circle15"/>
	<circle cx="797.441" cy="44.944" r="4" fill="#0" id="circle16"/>
	<circle cx="871.326" cy="67.8543" r="4" fill="#0" id="circle17"/>
	<circle cx="945.161" cy="73.9581" r="4" fill="#0" id="circle18"/>
	<circle cx="996" cy="103.467" r="4" fill="#0" id="circle19"/>
	<circle cx="908.03" cy="134.952" r="4" fill="#0" id="circle20"/>
	<circle cx="842.672" cy="150.36" r="4" fill="#0" id="circle21"/>
	<circle cx="810.658" cy="186.042" r="4" fill="#0" id="circle22"/>
	<circle cx="702.996" cy="160.036" r="4" fill="#0" id="circle23"/>
	<circle cx="703.983" cy="140.658" r="4" fill="#0" id="circle24"/>
	</g>
</svg>