<?xml version="1.0" encoding="UTF-8" standalone="no"?>
<!-- Created with CurveBenchmark -->
<svg
	xmlns:dc="http://purl.org/dc/elements/1.1/"
	xmlns:cc="http://creativecommons.org/ns#"
	xmlns:rdf="http://www.w3.org/1999/02/22-rdf-syntax-ns#"
	xmlns:svg="http://www.w3.org/2000/svg"
	xmlns="http://www.w3.org/2000/svg"
	xmlns:sodipodi="http://sodipodi.sourceforge.net/DTD/sodipodi-0.dtd"
	xmlns:inkscape="http://www.inkscape.org/namespaces/inkscape"
	width="1000"
	height="1000"
	id="svg2"
	version="1.1"
	sodipodi:docname="noisy-0.03/hnncrust-mc16.txt">
<defs
	id="defs4" />
<metadata
	id="metadata7">
	<rdf:RDF>
		<cc:Work
			rdf:about="">
			<dc:format>image/svg+xml</dc:format>
			<dc:type
				rdf:resource="http://purl.org/dc/dcmitype/StillImage" />
			<dc:title></dc:title>
		</cc:Work>
	</rdf:RDF>
</metadata>
<g
	inkscape:label="Layer 1"
	inkscape:groupmode="layer"
	id="layer1">
	<path style="fill:none;stroke:red;stroke-width:1px;stroke-linecap:butt;stroke-linejoin:miter;stroke-opacity:1" d="M 211.364,439.552 236.211,399.706 z" id="boundary" inkscape:connector-curvature="0" />
	<path style="fill:none;stroke:red;stroke-width:1px;stroke-linecap:butt;stroke-linejoin:miter;stroke-opacity:1" d="M 211.364,439.552 242.623,463.885 z" id="boundary" inkscape:connector-curvature="0" />
	<path style="fill:none;stroke:red;stroke-width:1px;stroke-linecap:butt;stroke-linejoin:miter;stroke-opacity:1" d="M 229.349,379.803 236.211,399.706 z" id="boundary" inkscape:connector-curvature="0" />
	<path style="fill:none;stroke:red;stroke-width:1px;stroke-linecap:butt;stroke-linejoin:miter;stroke-opacity:1" d="M 229.349,379.803 204.143,388.196 z" id="boundary" inkscape:connector-curvature="0" />
	<path style="fill:none;stroke:red;stroke-width:1px;stroke-linecap:butt;stroke-linejoin:miter;stroke-opacity:1" d="M 299.285,333.699 322.934,324.519 z" id="boundary" inkscape:connector-curvature="0" />
	<path style="fill:none;stroke:red;stroke-width:1px;stroke-linecap:butt;stroke-linejoin:miter;stroke-opacity:1" d="M 299.285,333.699 299.729,302.223 z" id="boundary" inkscape:connector-curvature="0" />
	<path style="fill:none;stroke:red;stroke-width:1px;stroke-linecap:butt;stroke-linejoin:miter;stroke-opacity:1" d="M 322.934,324.519 333.259,301.76 z" id="boundary" inkscape:connector-curvature="0" />
	<path style="fill:none;stroke:red;stroke-width:1px;stroke-linecap:butt;stroke-linejoin:miter;stroke-opacity:1" d="M 333.259,301.76 366.854,295.004 z" id="boundary" inkscape:connector-curvature="0" />
	<path style="fill:none;stroke:red;stroke-width:1px;stroke-linecap:butt;stroke-linejoin:miter;stroke-opacity:1" d="M 366.854,295.004 351.383,251.132 z" id="boundary" inkscape:connector-curvature="0" />
	<path style="fill:none;stroke:red;stroke-width:1px;stroke-linecap:butt;stroke-linejoin:miter;stroke-opacity:1" d="M 351.383,251.132 300.141,246.811 z" id="boundary" inkscape:connector-curvature="0" />
	<path style="fill:none;stroke:red;stroke-width:1px;stroke-linecap:butt;stroke-linejoin:miter;stroke-opacity:1" d="M 404.292,257.657 453.55,272.516 z" id="boundary" inkscape:connector-curvature="0" />
	<path style="fill:none;stroke:red;stroke-width:1px;stroke-linecap:butt;stroke-linejoin:miter;stroke-opacity:1" d="M 466.569,261.77 453.55,272.516 z" id="boundary" inkscape:connector-curvature="0" />
	<path style="fill:none;stroke:red;stroke-width:1px;stroke-linecap:butt;stroke-linejoin:miter;stroke-opacity:1" d="M 466.569,261.77 482.493,284.958 z" id="boundary" inkscape:connector-curvature="0" />
	<path style="fill:none;stroke:red;stroke-width:1px;stroke-linecap:butt;stroke-linejoin:miter;stroke-opacity:1" d="M 265.598,477.313 242.623,463.885 z" id="boundary" inkscape:connector-curvature="0" />
	<path style="fill:none;stroke:red;stroke-width:1px;stroke-linecap:butt;stroke-linejoin:miter;stroke-opacity:1" d="M 265.598,477.313 234.341,525.824 z" id="boundary" inkscape:connector-curvature="0" />
	<path style="fill:none;stroke:red;stroke-width:1px;stroke-linecap:butt;stroke-linejoin:miter;stroke-opacity:1" d="M 234.341,525.824 236.442,576.828 z" id="boundary" inkscape:connector-curvature="0" />
	<path style="fill:none;stroke:red;stroke-width:1px;stroke-linecap:butt;stroke-linejoin:miter;stroke-opacity:1" d="M 236.442,576.828 213.266,580.625 z" id="boundary" inkscape:connector-curvature="0" />
	<path style="fill:none;stroke:red;stroke-width:1px;stroke-linecap:butt;stroke-linejoin:miter;stroke-opacity:1" d="M 168.529,598.707 213.266,580.625 z" id="boundary" inkscape:connector-curvature="0" />
	<path style="fill:none;stroke:red;stroke-width:1px;stroke-linecap:butt;stroke-linejoin:miter;stroke-opacity:1" d="M 168.529,598.707 212.238,651.238 z" id="boundary" inkscape:connector-curvature="0" />
	<path style="fill:none;stroke:red;stroke-width:1px;stroke-linecap:butt;stroke-linejoin:miter;stroke-opacity:1" d="M 212.238,651.238 224.943,659.325 z" id="boundary" inkscape:connector-curvature="0" />
	<path style="fill:none;stroke:red;stroke-width:1px;stroke-linecap:butt;stroke-linejoin:miter;stroke-opacity:1" d="M 224.943,659.325 247.464,647.949 z" id="boundary" inkscape:connector-curvature="0" />
	<path style="fill:none;stroke:red;stroke-width:1px;stroke-linecap:butt;stroke-linejoin:miter;stroke-opacity:1" d="M 247.464,647.949 276.699,681.721 z" id="boundary" inkscape:connector-curvature="0" />
	<path style="fill:none;stroke:red;stroke-width:1px;stroke-linecap:butt;stroke-linejoin:miter;stroke-opacity:1" d="M 276.699,681.721 275.303,705.502 z" id="boundary" inkscape:connector-curvature="0" />
	<path style="fill:none;stroke:red;stroke-width:1px;stroke-linecap:butt;stroke-linejoin:miter;stroke-opacity:1" d="M 275.303,705.502 303.222,710.651 z" id="boundary" inkscape:connector-curvature="0" />
	<path style="fill:none;stroke:red;stroke-width:1px;stroke-linecap:butt;stroke-linejoin:miter;stroke-opacity:1" d="M 303.222,710.651 307.447,741.188 z" id="boundary" inkscape:connector-curvature="0" />
	<path style="fill:none;stroke:red;stroke-width:1px;stroke-linecap:butt;stroke-linejoin:miter;stroke-opacity:1" d="M 329.264,770.807 307.447,741.188 z" id="boundary" inkscape:connector-curvature="0" />
	<path style="fill:none;stroke:red;stroke-width:1px;stroke-linecap:butt;stroke-linejoin:miter;stroke-opacity:1" d="M 329.264,770.807 385.399,752.345 z" id="boundary" inkscape:connector-curvature="0" />
	<path style="fill:none;stroke:red;stroke-width:1px;stroke-linecap:butt;stroke-linejoin:miter;stroke-opacity:1" d="M 385.399,752.345 425.421,800.623 z" id="boundary" inkscape:connector-curvature="0" />
	<path style="fill:none;stroke:red;stroke-width:1px;stroke-linecap:butt;stroke-linejoin:miter;stroke-opacity:1" d="M 375.671,834.452 399.056,831.947 z" id="boundary" inkscape:connector-curvature="0" />
	<path style="fill:none;stroke:red;stroke-width:1px;stroke-linecap:butt;stroke-linejoin:miter;stroke-opacity:1" d="M 425.421,800.623 399.056,831.947 z" id="boundary" inkscape:connector-curvature="0" />
	<path style="fill:none;stroke:red;stroke-width:1px;stroke-linecap:butt;stroke-linejoin:miter;stroke-opacity:1" d="M 494.034,863.28 491.461,862.169 z" id="boundary" inkscape:connector-curvature="0" />
	<path style="fill:none;stroke:red;stroke-width:1px;stroke-linecap:butt;stroke-linejoin:miter;stroke-opacity:1" d="M 491.461,862.169 500.684,798.355 z" id="boundary" inkscape:connector-curvature="0" />
	<path style="fill:none;stroke:red;stroke-width:1px;stroke-linecap:butt;stroke-linejoin:miter;stroke-opacity:1" d="M 527.767,791.255 500.684,798.355 z" id="boundary" inkscape:connector-curvature="0" />
	<path style="fill:none;stroke:red;stroke-width:1px;stroke-linecap:butt;stroke-linejoin:miter;stroke-opacity:1" d="M 527.767,791.255 578.521,817.033 z" id="boundary" inkscape:connector-curvature="0" />
	<path style="fill:none;stroke:red;stroke-width:1px;stroke-linecap:butt;stroke-linejoin:miter;stroke-opacity:1" d="M 578.521,817.033 598.217,790.788 z" id="boundary" inkscape:connector-curvature="0" />
	<path style="fill:none;stroke:red;stroke-width:1px;stroke-linecap:butt;stroke-linejoin:miter;stroke-opacity:1" d="M 598.217,790.788 611.154,789.001 z" id="boundary" inkscape:connector-curvature="0" />
	<path style="fill:none;stroke:red;stroke-width:1px;stroke-linecap:butt;stroke-linejoin:miter;stroke-opacity:1" d="M 611.154,789.001 635.587,827.963 z" id="boundary" inkscape:connector-curvature="0" />
	<path style="fill:none;stroke:red;stroke-width:1px;stroke-linecap:butt;stroke-linejoin:miter;stroke-opacity:1" d="M 668.852,737.933 650.604,737.505 z" id="boundary" inkscape:connector-curvature="0" />
	<path style="fill:none;stroke:red;stroke-width:1px;stroke-linecap:butt;stroke-linejoin:miter;stroke-opacity:1" d="M 722.536,720.352 726.726,736.724 z" id="boundary" inkscape:connector-curvature="0" />
	<path style="fill:none;stroke:red;stroke-width:1px;stroke-linecap:butt;stroke-linejoin:miter;stroke-opacity:1" d="M 722.536,720.352 758.274,711.393 z" id="boundary" inkscape:connector-curvature="0" />
	<path style="fill:none;stroke:red;stroke-width:1px;stroke-linecap:butt;stroke-linejoin:miter;stroke-opacity:1" d="M 482.493,284.958 525.549,278.877 z" id="boundary" inkscape:connector-curvature="0" />
	<path style="fill:none;stroke:red;stroke-width:1px;stroke-linecap:butt;stroke-linejoin:miter;stroke-opacity:1" d="M 530.029,231.413 525.549,278.877 z" id="boundary" inkscape:connector-curvature="0" />
	<path style="fill:none;stroke:red;stroke-width:1px;stroke-linecap:butt;stroke-linejoin:miter;stroke-opacity:1" d="M 530.029,231.413 600.627,243.899 z" id="boundary" inkscape:connector-curvature="0" />
	<path style="fill:none;stroke:red;stroke-width:1px;stroke-linecap:butt;stroke-linejoin:miter;stroke-opacity:1" d="M 617.064,272.448 593.372,286.87 z" id="boundary" inkscape:connector-curvature="0" />
	<path style="fill:none;stroke:red;stroke-width:1px;stroke-linecap:butt;stroke-linejoin:miter;stroke-opacity:1" d="M 617.064,272.448 637.036,279.295 z" id="boundary" inkscape:connector-curvature="0" />
	<path style="fill:none;stroke:red;stroke-width:1px;stroke-linecap:butt;stroke-linejoin:miter;stroke-opacity:1" d="M 637.036,279.295 660.855,294.369 z" id="boundary" inkscape:connector-curvature="0" />
	<path style="fill:none;stroke:red;stroke-width:1px;stroke-linecap:butt;stroke-linejoin:miter;stroke-opacity:1" d="M 668.702,284.337 660.855,294.369 z" id="boundary" inkscape:connector-curvature="0" />
	<path style="fill:none;stroke:red;stroke-width:1px;stroke-linecap:butt;stroke-linejoin:miter;stroke-opacity:1" d="M 700.092,317.665 682.897,339.863 z" id="boundary" inkscape:connector-curvature="0" />
	<path style="fill:none;stroke:red;stroke-width:1px;stroke-linecap:butt;stroke-linejoin:miter;stroke-opacity:1" d="M 700.092,317.665 714.056,279.359 z" id="boundary" inkscape:connector-curvature="0" />
	<path style="fill:none;stroke:red;stroke-width:1px;stroke-linecap:butt;stroke-linejoin:miter;stroke-opacity:1" d="M 709.303,376.864 731.851,420.838 z" id="boundary" inkscape:connector-curvature="0" />
	<path style="fill:none;stroke:red;stroke-width:1px;stroke-linecap:butt;stroke-linejoin:miter;stroke-opacity:1" d="M 709.303,376.864 715.398,359.694 z" id="boundary" inkscape:connector-curvature="0" />
	<path style="fill:none;stroke:red;stroke-width:1px;stroke-linecap:butt;stroke-linejoin:miter;stroke-opacity:1" d="M 682.897,339.863 698.958,350.518 z" id="boundary" inkscape:connector-curvature="0" />
	<path style="fill:none;stroke:red;stroke-width:1px;stroke-linecap:butt;stroke-linejoin:miter;stroke-opacity:1" d="M 756.881,362.076 746.359,371.223 z" id="boundary" inkscape:connector-curvature="0" />
	<path style="fill:none;stroke:red;stroke-width:1px;stroke-linecap:butt;stroke-linejoin:miter;stroke-opacity:1" d="M 756.881,362.076 796.828,389.169 z" id="boundary" inkscape:connector-curvature="0" />
	<path style="fill:none;stroke:red;stroke-width:1px;stroke-linecap:butt;stroke-linejoin:miter;stroke-opacity:1" d="M 731.851,420.838 745.927,451.789 z" id="boundary" inkscape:connector-curvature="0" />
	<path style="fill:none;stroke:red;stroke-width:1px;stroke-linecap:butt;stroke-linejoin:miter;stroke-opacity:1" d="M 745.927,451.789 744.195,479.03 z" id="boundary" inkscape:connector-curvature="0" />
	<path style="fill:none;stroke:red;stroke-width:1px;stroke-linecap:butt;stroke-linejoin:miter;stroke-opacity:1" d="M 758.274,711.393 740.718,679.018 z" id="boundary" inkscape:connector-curvature="0" />
	<path style="fill:none;stroke:red;stroke-width:1px;stroke-linecap:butt;stroke-linejoin:miter;stroke-opacity:1" d="M 740.718,679.018 795.297,650.993 z" id="boundary" inkscape:connector-curvature="0" />
	<path style="fill:none;stroke:red;stroke-width:1px;stroke-linecap:butt;stroke-linejoin:miter;stroke-opacity:1" d="M 785.597,618.165 795.297,650.993 z" id="boundary" inkscape:connector-curvature="0" />
	<path style="fill:none;stroke:red;stroke-width:1px;stroke-linecap:butt;stroke-linejoin:miter;stroke-opacity:1" d="M 785.597,618.165 771.407,580.007 z" id="boundary" inkscape:connector-curvature="0" />
	<path style="fill:none;stroke:red;stroke-width:1px;stroke-linecap:butt;stroke-linejoin:miter;stroke-opacity:1" d="M 771.407,580.007 762.274,553.135 z" id="boundary" inkscape:connector-curvature="0" />
	<path style="fill:none;stroke:red;stroke-width:1px;stroke-linecap:butt;stroke-linejoin:miter;stroke-opacity:1" d="M 738.809,542.701 762.274,553.135 z" id="boundary" inkscape:connector-curvature="0" />
	<path style="fill:none;stroke:red;stroke-width:1px;stroke-linecap:butt;stroke-linejoin:miter;stroke-opacity:1" d="M 738.809,542.701 759.424,521.584 z" id="boundary" inkscape:connector-curvature="0" />
	<path style="fill:none;stroke:red;stroke-width:1px;stroke-linecap:butt;stroke-linejoin:miter;stroke-opacity:1" d="M 759.424,521.584 787.135,501.812 z" id="boundary" inkscape:connector-curvature="0" />
	<path style="fill:none;stroke:red;stroke-width:1px;stroke-linecap:butt;stroke-linejoin:miter;stroke-opacity:1" d="M 140.051,201.061 172.687,184.364 z" id="boundary" inkscape:connector-curvature="0" />
	<path style="fill:none;stroke:red;stroke-width:1px;stroke-linecap:butt;stroke-linejoin:miter;stroke-opacity:1" d="M 140.051,201.061 114.426,221.422 z" id="boundary" inkscape:connector-curvature="0" />
	<path style="fill:none;stroke:red;stroke-width:1px;stroke-linecap:butt;stroke-linejoin:miter;stroke-opacity:1" d="M 193.951,144.633 212.347,138.271 z" id="boundary" inkscape:connector-curvature="0" />
	<path style="fill:none;stroke:red;stroke-width:1px;stroke-linecap:butt;stroke-linejoin:miter;stroke-opacity:1" d="M 193.951,144.633 155.976,124.106 z" id="boundary" inkscape:connector-curvature="0" />
	<path style="fill:none;stroke:red;stroke-width:1px;stroke-linecap:butt;stroke-linejoin:miter;stroke-opacity:1" d="M 240.76,108.725 241.726,127.971 z" id="boundary" inkscape:connector-curvature="0" />
	<path style="fill:none;stroke:red;stroke-width:1px;stroke-linecap:butt;stroke-linejoin:miter;stroke-opacity:1" d="M 240.76,108.725 262.944,106.291 z" id="boundary" inkscape:connector-curvature="0" />
	<path style="fill:none;stroke:red;stroke-width:1px;stroke-linecap:butt;stroke-linejoin:miter;stroke-opacity:1" d="M 265.021,133.194 283.533,145.047 z" id="boundary" inkscape:connector-curvature="0" />
	<path style="fill:none;stroke:red;stroke-width:1px;stroke-linecap:butt;stroke-linejoin:miter;stroke-opacity:1" d="M 265.021,133.194 252.762,133.296 z" id="boundary" inkscape:connector-curvature="0" />
	<path style="fill:none;stroke:red;stroke-width:1px;stroke-linecap:butt;stroke-linejoin:miter;stroke-opacity:1" d="M 241.726,127.971 252.762,133.296 z" id="boundary" inkscape:connector-curvature="0" />
	<path style="fill:none;stroke:red;stroke-width:1px;stroke-linecap:butt;stroke-linejoin:miter;stroke-opacity:1" d="M 263.416,281.67 269.137,280.088 z" id="boundary" inkscape:connector-curvature="0" />
	<path style="fill:none;stroke:red;stroke-width:1px;stroke-linecap:butt;stroke-linejoin:miter;stroke-opacity:1" d="M 263.416,281.67 269.017,303.799 z" id="boundary" inkscape:connector-curvature="0" />
	<path style="fill:none;stroke:red;stroke-width:1px;stroke-linecap:butt;stroke-linejoin:miter;stroke-opacity:1" d="M 257.012,308.765 233.284,325.537 z" id="boundary" inkscape:connector-curvature="0" />
	<path style="fill:none;stroke:red;stroke-width:1px;stroke-linecap:butt;stroke-linejoin:miter;stroke-opacity:1" d="M 257.012,308.765 269.017,303.799 z" id="boundary" inkscape:connector-curvature="0" />
	<path style="fill:none;stroke:red;stroke-width:1px;stroke-linecap:butt;stroke-linejoin:miter;stroke-opacity:1" d="M 180.536,249.53 182.016,306.949 z" id="boundary" inkscape:connector-curvature="0" />
	<path style="fill:none;stroke:red;stroke-width:1px;stroke-linecap:butt;stroke-linejoin:miter;stroke-opacity:1" d="M 104.202,271.817 112.801,297.139 z" id="boundary" inkscape:connector-curvature="0" />
	<path style="fill:none;stroke:red;stroke-width:1px;stroke-linecap:butt;stroke-linejoin:miter;stroke-opacity:1" d="M 104.202,271.817 97.7022,256.66 z" id="boundary" inkscape:connector-curvature="0" />
	<path style="fill:none;stroke:red;stroke-width:1px;stroke-linecap:butt;stroke-linejoin:miter;stroke-opacity:1" d="M 112.801,297.139 104.374,324.134 z" id="boundary" inkscape:connector-curvature="0" />
	<path style="fill:none;stroke:red;stroke-width:1px;stroke-linecap:butt;stroke-linejoin:miter;stroke-opacity:1" d="M 104.374,324.134 84.239,330.867 z" id="boundary" inkscape:connector-curvature="0" />
	<path style="fill:none;stroke:red;stroke-width:1px;stroke-linecap:butt;stroke-linejoin:miter;stroke-opacity:1" d="M 114.318,350.883 132.412,353.347 z" id="boundary" inkscape:connector-curvature="0" />
	<path style="fill:none;stroke:red;stroke-width:1px;stroke-linecap:butt;stroke-linejoin:miter;stroke-opacity:1" d="M 135.935,388.651 169.594,393.553 z" id="boundary" inkscape:connector-curvature="0" />
	<path style="fill:none;stroke:red;stroke-width:1px;stroke-linecap:butt;stroke-linejoin:miter;stroke-opacity:1" d="M 135.935,388.651 132.412,353.347 z" id="boundary" inkscape:connector-curvature="0" />
	<path style="fill:none;stroke:red;stroke-width:1px;stroke-linecap:butt;stroke-linejoin:miter;stroke-opacity:1" d="M 192.602,366.337 195.673,367.381 z" id="boundary" inkscape:connector-curvature="0" />
	<path style="fill:none;stroke:red;stroke-width:1px;stroke-linecap:butt;stroke-linejoin:miter;stroke-opacity:1" d="M 195.673,367.381 204.143,388.196 z" id="boundary" inkscape:connector-curvature="0" />
	<path style="fill:none;stroke:red;stroke-width:1px;stroke-linecap:butt;stroke-linejoin:miter;stroke-opacity:1" d="M 723.335,97.4834 698.285,99.0728 z" id="boundary" inkscape:connector-curvature="0" />
	<path style="fill:none;stroke:red;stroke-width:1px;stroke-linecap:butt;stroke-linejoin:miter;stroke-opacity:1" d="M 709.986,145.094 705.565,164.757 z" id="boundary" inkscape:connector-curvature="0" />
	<path style="fill:none;stroke:red;stroke-width:1px;stroke-linecap:butt;stroke-linejoin:miter;stroke-opacity:1" d="M 709.986,145.094 734.192,159.684 z" id="boundary" inkscape:connector-curvature="0" />
	<path style="fill:none;stroke:red;stroke-width:1px;stroke-linecap:butt;stroke-linejoin:miter;stroke-opacity:1" d="M 765.651,157.218 754.77,179.772 z" id="boundary" inkscape:connector-curvature="0" />
	<path style="fill:none;stroke:red;stroke-width:1px;stroke-linecap:butt;stroke-linejoin:miter;stroke-opacity:1" d="M 765.651,157.218 792.399,153.428 z" id="boundary" inkscape:connector-curvature="0" />
	<path style="fill:none;stroke:red;stroke-width:1px;stroke-linecap:butt;stroke-linejoin:miter;stroke-opacity:1" d="M 705.565,164.757 700.183,194.67 z" id="boundary" inkscape:connector-curvature="0" />
	<path style="fill:none;stroke:red;stroke-width:1px;stroke-linecap:butt;stroke-linejoin:miter;stroke-opacity:1" d="M 700.183,194.67 691.887,218.392 z" id="boundary" inkscape:connector-curvature="0" />
	<path style="fill:none;stroke:red;stroke-width:1px;stroke-linecap:butt;stroke-linejoin:miter;stroke-opacity:1" d="M 691.887,218.392 695.577,221.07 z" id="boundary" inkscape:connector-curvature="0" />
	<path style="fill:none;stroke:red;stroke-width:1px;stroke-linecap:butt;stroke-linejoin:miter;stroke-opacity:1" d="M 714.056,279.359 755.607,272.518 z" id="boundary" inkscape:connector-curvature="0" />
	<path style="fill:none;stroke:red;stroke-width:1px;stroke-linecap:butt;stroke-linejoin:miter;stroke-opacity:1" d="M 755.607,272.518 816.355,260.438 z" id="boundary" inkscape:connector-curvature="0" />
	<path style="fill:none;stroke:red;stroke-width:1px;stroke-linecap:butt;stroke-linejoin:miter;stroke-opacity:1" d="M 715.398,359.694 732.757,366.807 z" id="boundary" inkscape:connector-curvature="0" />
	<path style="fill:none;stroke:red;stroke-width:1px;stroke-linecap:butt;stroke-linejoin:miter;stroke-opacity:1" d="M 732.757,366.807 746.359,371.223 z" id="boundary" inkscape:connector-curvature="0" />
	<path style="fill:none;stroke:red;stroke-width:1px;stroke-linecap:butt;stroke-linejoin:miter;stroke-opacity:1" d="M 832.503,365.675 845.73,369.664 z" id="boundary" inkscape:connector-curvature="0" />
	<path style="fill:none;stroke:red;stroke-width:1px;stroke-linecap:butt;stroke-linejoin:miter;stroke-opacity:1" d="M 832.503,365.675 835.108,355.991 z" id="boundary" inkscape:connector-curvature="0" />
	<path style="fill:none;stroke:red;stroke-width:1px;stroke-linecap:butt;stroke-linejoin:miter;stroke-opacity:1" d="M 844.49,377.789 845.73,369.664 z" id="boundary" inkscape:connector-curvature="0" />
	<path style="fill:none;stroke:red;stroke-width:1px;stroke-linecap:butt;stroke-linejoin:miter;stroke-opacity:1" d="M 844.49,377.789 850.231,390.186 z" id="boundary" inkscape:connector-curvature="0" />
	<path style="fill:none;stroke:red;stroke-width:1px;stroke-linecap:butt;stroke-linejoin:miter;stroke-opacity:1" d="M 872.769,188.757 846.114,203.478 z" id="boundary" inkscape:connector-curvature="0" />
	<path style="fill:none;stroke:red;stroke-width:1px;stroke-linecap:butt;stroke-linejoin:miter;stroke-opacity:1" d="M 872.769,188.757 894.671,206.057 z" id="boundary" inkscape:connector-curvature="0" />
	<path style="fill:none;stroke:red;stroke-width:1px;stroke-linecap:butt;stroke-linejoin:miter;stroke-opacity:1" d="M 833.94,248.501 851.048,232.466 z" id="boundary" inkscape:connector-curvature="0" />
	<path style="fill:none;stroke:red;stroke-width:1px;stroke-linecap:butt;stroke-linejoin:miter;stroke-opacity:1" d="M 833.94,248.501 816.355,260.438 z" id="boundary" inkscape:connector-curvature="0" />
	<path style="fill:none;stroke:red;stroke-width:1px;stroke-linecap:butt;stroke-linejoin:miter;stroke-opacity:1" d="M 851.048,232.466 863.861,249.723 z" id="boundary" inkscape:connector-curvature="0" />
	<path style="fill:none;stroke:red;stroke-width:1px;stroke-linecap:butt;stroke-linejoin:miter;stroke-opacity:1" d="M 863.861,249.723 885.529,242.553 z" id="boundary" inkscape:connector-curvature="0" />
	<path style="fill:none;stroke:red;stroke-width:1px;stroke-linecap:butt;stroke-linejoin:miter;stroke-opacity:1" d="M 856.191,334.868 872.064,315.102 z" id="boundary" inkscape:connector-curvature="0" />
	<path style="fill:none;stroke:red;stroke-width:1px;stroke-linecap:butt;stroke-linejoin:miter;stroke-opacity:1" d="M 856.191,334.868 881.894,349.589 z" id="boundary" inkscape:connector-curvature="0" />
	<path style="fill:none;stroke:red;stroke-width:1px;stroke-linecap:butt;stroke-linejoin:miter;stroke-opacity:1" d="M 863.19,309.77 872.064,315.102 z" id="boundary" inkscape:connector-curvature="0" />
	<path style="fill:none;stroke:red;stroke-width:1px;stroke-linecap:butt;stroke-linejoin:miter;stroke-opacity:1" d="M 825.034,356.292 835.108,355.991 z" id="boundary" inkscape:connector-curvature="0" />
	<path style="fill:none;stroke:red;stroke-width:1px;stroke-linecap:butt;stroke-linejoin:miter;stroke-opacity:1" d="M 850.231,390.186 872.808,396.518 z" id="boundary" inkscape:connector-curvature="0" />
	<path style="fill:none;stroke:red;stroke-width:1px;stroke-linecap:butt;stroke-linejoin:miter;stroke-opacity:1" d="M 734.192,159.684 754.77,179.772 z" id="boundary" inkscape:connector-curvature="0" />
	<path style="fill:none;stroke:red;stroke-width:1px;stroke-linecap:butt;stroke-linejoin:miter;stroke-opacity:1" d="M 790.17,137.598 792.399,153.428 z" id="boundary" inkscape:connector-curvature="0" />
	<path style="fill:none;stroke:red;stroke-width:1px;stroke-linecap:butt;stroke-linejoin:miter;stroke-opacity:1" d="M 790.17,137.598 769.006,119.427 z" id="boundary" inkscape:connector-curvature="0" />
	<path style="fill:none;stroke:red;stroke-width:1px;stroke-linecap:butt;stroke-linejoin:miter;stroke-opacity:1" d="M 73.8839,368.391 61.9129,339.678 z" id="boundary" inkscape:connector-curvature="0" />
	<path style="fill:none;stroke:red;stroke-width:1px;stroke-linecap:butt;stroke-linejoin:miter;stroke-opacity:1" d="M 73.8839,368.391 50.779,387.574 z" id="boundary" inkscape:connector-curvature="0" />
	<path style="fill:none;stroke:red;stroke-width:1px;stroke-linecap:butt;stroke-linejoin:miter;stroke-opacity:1" d="M 48.6014,391.738 41.797,388.635 z" id="boundary" inkscape:connector-curvature="0" />
	<path style="fill:none;stroke:red;stroke-width:1px;stroke-linecap:butt;stroke-linejoin:miter;stroke-opacity:1" d="M 48.6014,391.738 50.779,387.574 z" id="boundary" inkscape:connector-curvature="0" />
	<path style="fill:none;stroke:red;stroke-width:1px;stroke-linecap:butt;stroke-linejoin:miter;stroke-opacity:1" d="M 41.0803,415.121 46.572,436.885 z" id="boundary" inkscape:connector-curvature="0" />
	<path style="fill:none;stroke:red;stroke-width:1px;stroke-linecap:butt;stroke-linejoin:miter;stroke-opacity:1" d="M 41.0803,415.121 42.1731,404.635 z" id="boundary" inkscape:connector-curvature="0" />
	<path style="fill:none;stroke:red;stroke-width:1px;stroke-linecap:butt;stroke-linejoin:miter;stroke-opacity:1" d="M 22.4698,394.321 41.797,388.635 z" id="boundary" inkscape:connector-curvature="0" />
	<path style="fill:none;stroke:red;stroke-width:1px;stroke-linecap:butt;stroke-linejoin:miter;stroke-opacity:1" d="M 22.4698,394.321 4,405.135 z" id="boundary" inkscape:connector-curvature="0" />
	<path style="fill:none;stroke:red;stroke-width:1px;stroke-linecap:butt;stroke-linejoin:miter;stroke-opacity:1" d="M 43.3941,450.267 49.4698,444.656 z" id="boundary" inkscape:connector-curvature="0" />
	<path style="fill:none;stroke:red;stroke-width:1px;stroke-linecap:butt;stroke-linejoin:miter;stroke-opacity:1" d="M 43.3941,450.267 40.4599,455.616 z" id="boundary" inkscape:connector-curvature="0" />
	<path style="fill:none;stroke:red;stroke-width:1px;stroke-linecap:butt;stroke-linejoin:miter;stroke-opacity:1" d="M 52.8247,480.427 59.4584,469.844 z" id="boundary" inkscape:connector-curvature="0" />
	<path style="fill:none;stroke:red;stroke-width:1px;stroke-linecap:butt;stroke-linejoin:miter;stroke-opacity:1" d="M 52.8247,480.427 47.0753,472.912 z" id="boundary" inkscape:connector-curvature="0" />
	<path style="fill:none;stroke:red;stroke-width:1px;stroke-linecap:butt;stroke-linejoin:miter;stroke-opacity:1" d="M 72.947,432.242 97.9751,428.492 z" id="boundary" inkscape:connector-curvature="0" />
	<path style="fill:none;stroke:red;stroke-width:1px;stroke-linecap:butt;stroke-linejoin:miter;stroke-opacity:1" d="M 37.4348,508.127 35.4155,511.513 z" id="boundary" inkscape:connector-curvature="0" />
	<path style="fill:none;stroke:red;stroke-width:1px;stroke-linecap:butt;stroke-linejoin:miter;stroke-opacity:1" d="M 37.4348,508.127 42.3879,499.534 z" id="boundary" inkscape:connector-curvature="0" />
	<path style="fill:none;stroke:red;stroke-width:1px;stroke-linecap:butt;stroke-linejoin:miter;stroke-opacity:1" d="M 56.1295,499.53 47.8904,497.696 z" id="boundary" inkscape:connector-curvature="0" />
	<path style="fill:none;stroke:red;stroke-width:1px;stroke-linecap:butt;stroke-linejoin:miter;stroke-opacity:1" d="M 56.1295,499.53 49.8434,508.53 z" id="boundary" inkscape:connector-curvature="0" />
	<path style="fill:none;stroke:red;stroke-width:1px;stroke-linecap:butt;stroke-linejoin:miter;stroke-opacity:1" d="M 62.6324,525.572 59.4262,516.534 z" id="boundary" inkscape:connector-curvature="0" />
	<path style="fill:none;stroke:red;stroke-width:1px;stroke-linecap:butt;stroke-linejoin:miter;stroke-opacity:1" d="M 62.6324,525.572 60.1873,547.43 z" id="boundary" inkscape:connector-curvature="0" />
	<path style="fill:none;stroke:red;stroke-width:1px;stroke-linecap:butt;stroke-linejoin:miter;stroke-opacity:1" d="M 63.1153,403.88 57.6778,395.115 z" id="boundary" inkscape:connector-curvature="0" />
	<path style="fill:none;stroke:red;stroke-width:1px;stroke-linecap:butt;stroke-linejoin:miter;stroke-opacity:1" d="M 97.9751,428.492 106.773,462.184 z" id="boundary" inkscape:connector-curvature="0" />
	<path style="fill:none;stroke:red;stroke-width:1px;stroke-linecap:butt;stroke-linejoin:miter;stroke-opacity:1" d="M 46.8159,461.073 40.4599,455.616 z" id="boundary" inkscape:connector-curvature="0" />
	<path style="fill:none;stroke:red;stroke-width:1px;stroke-linecap:butt;stroke-linejoin:miter;stroke-opacity:1" d="M 46.8159,461.073 47.0753,472.912 z" id="boundary" inkscape:connector-curvature="0" />
	<path style="fill:none;stroke:red;stroke-width:1px;stroke-linecap:butt;stroke-linejoin:miter;stroke-opacity:1" d="M 56.8274,447.849 49.4698,444.656 z" id="boundary" inkscape:connector-curvature="0" />
	<path style="fill:none;stroke:red;stroke-width:1px;stroke-linecap:butt;stroke-linejoin:miter;stroke-opacity:1" d="M 937.031,377.335 944.878,376.311 z" id="boundary" inkscape:connector-curvature="0" />
	<path style="fill:none;stroke:red;stroke-width:1px;stroke-linecap:butt;stroke-linejoin:miter;stroke-opacity:1" d="M 937.031,377.335 923.625,382.778 z" id="boundary" inkscape:connector-curvature="0" />
	<path style="fill:none;stroke:red;stroke-width:1px;stroke-linecap:butt;stroke-linejoin:miter;stroke-opacity:1" d="M 916.505,391.835 912.895,387.936 z" id="boundary" inkscape:connector-curvature="0" />
	<path style="fill:none;stroke:red;stroke-width:1px;stroke-linecap:butt;stroke-linejoin:miter;stroke-opacity:1" d="M 916.505,391.835 923.625,382.778 z" id="boundary" inkscape:connector-curvature="0" />
	<path style="fill:none;stroke:red;stroke-width:1px;stroke-linecap:butt;stroke-linejoin:miter;stroke-opacity:1" d="M 872.808,396.518 893.122,385.936 z" id="boundary" inkscape:connector-curvature="0" />
	<path style="fill:none;stroke:red;stroke-width:1px;stroke-linecap:butt;stroke-linejoin:miter;stroke-opacity:1" d="M 876.893,473.624 882.227,465.866 z" id="boundary" inkscape:connector-curvature="0" />
	<path style="fill:none;stroke:red;stroke-width:1px;stroke-linecap:butt;stroke-linejoin:miter;stroke-opacity:1" d="M 876.893,473.624 873.164,488.862 z" id="boundary" inkscape:connector-curvature="0" />
	<path style="fill:none;stroke:red;stroke-width:1px;stroke-linecap:butt;stroke-linejoin:miter;stroke-opacity:1" d="M 921.013,460.521 938.444,451.371 z" id="boundary" inkscape:connector-curvature="0" />
	<path style="fill:none;stroke:red;stroke-width:1px;stroke-linecap:butt;stroke-linejoin:miter;stroke-opacity:1" d="M 921.013,460.521 920.078,459.503 z" id="boundary" inkscape:connector-curvature="0" />
	<path style="fill:none;stroke:red;stroke-width:1px;stroke-linecap:butt;stroke-linejoin:miter;stroke-opacity:1" d="M 873.164,488.862 904.862,496.137 z" id="boundary" inkscape:connector-curvature="0" />
	<path style="fill:none;stroke:red;stroke-width:1px;stroke-linecap:butt;stroke-linejoin:miter;stroke-opacity:1" d="M 921.097,516.638 916.123,519.388 z" id="boundary" inkscape:connector-curvature="0" />
	<path style="fill:none;stroke:red;stroke-width:1px;stroke-linecap:butt;stroke-linejoin:miter;stroke-opacity:1" d="M 921.097,516.638 930.047,501.936 z" id="boundary" inkscape:connector-curvature="0" />
	<path style="fill:none;stroke:red;stroke-width:1px;stroke-linecap:butt;stroke-linejoin:miter;stroke-opacity:1" d="M 959.702,533.496 962.154,515.634 z" id="boundary" inkscape:connector-curvature="0" />
	<path style="fill:none;stroke:red;stroke-width:1px;stroke-linecap:butt;stroke-linejoin:miter;stroke-opacity:1" d="M 959.702,533.496 984.142,536.55 z" id="boundary" inkscape:connector-curvature="0" />
	<path style="fill:none;stroke:red;stroke-width:1px;stroke-linecap:butt;stroke-linejoin:miter;stroke-opacity:1" d="M 938.444,451.371 941.367,447.414 z" id="boundary" inkscape:connector-curvature="0" />
	<path style="fill:none;stroke:red;stroke-width:1px;stroke-linecap:butt;stroke-linejoin:miter;stroke-opacity:1" d="M 935.918,478.057 930.047,501.936 z" id="boundary" inkscape:connector-curvature="0" />
	<path style="fill:none;stroke:red;stroke-width:1px;stroke-linecap:butt;stroke-linejoin:miter;stroke-opacity:1" d="M 960.576,433.814 963.003,420.34 z" id="boundary" inkscape:connector-curvature="0" />
	<path style="fill:none;stroke:red;stroke-width:1px;stroke-linecap:butt;stroke-linejoin:miter;stroke-opacity:1" d="M 960.576,433.814 972.237,438.66 z" id="boundary" inkscape:connector-curvature="0" />
	<path style="fill:none;stroke:red;stroke-width:1px;stroke-linecap:butt;stroke-linejoin:miter;stroke-opacity:1" d="M 912.895,387.936 904.674,372.075 z" id="boundary" inkscape:connector-curvature="0" />
	<path style="fill:none;stroke:red;stroke-width:1px;stroke-linecap:butt;stroke-linejoin:miter;stroke-opacity:1" d="M 904.674,372.075 893.122,385.936 z" id="boundary" inkscape:connector-curvature="0" />
	<path style="fill:none;stroke:red;stroke-width:1px;stroke-linecap:butt;stroke-linejoin:miter;stroke-opacity:1" d="M 963.003,420.34 978.551,399.74 z" id="boundary" inkscape:connector-curvature="0" />
	<path style="fill:none;stroke:red;stroke-width:1px;stroke-linecap:butt;stroke-linejoin:miter;stroke-opacity:1" d="M 937.973,438.353 941.367,447.414 z" id="boundary" inkscape:connector-curvature="0" />
	<path style="fill:none;stroke:red;stroke-width:1px;stroke-linecap:butt;stroke-linejoin:miter;stroke-opacity:1" d="M 103.915,172.834 87.9675,170.413 z" id="boundary" inkscape:connector-curvature="0" />
	<path style="fill:none;stroke:red;stroke-width:1px;stroke-linecap:butt;stroke-linejoin:miter;stroke-opacity:1" d="M 106.242,119.165 76.4135,127.593 z" id="boundary" inkscape:connector-curvature="0" />
	<path style="fill:none;stroke:red;stroke-width:1px;stroke-linecap:butt;stroke-linejoin:miter;stroke-opacity:1" d="M 106.242,119.165 105.681,102.132 z" id="boundary" inkscape:connector-curvature="0" />
	<path style="fill:none;stroke:red;stroke-width:1px;stroke-linecap:butt;stroke-linejoin:miter;stroke-opacity:1" d="M 76.4135,127.593 87.9675,170.413 z" id="boundary" inkscape:connector-curvature="0" />
	<path style="fill:none;stroke:red;stroke-width:1px;stroke-linecap:butt;stroke-linejoin:miter;stroke-opacity:1" d="M 105.681,102.132 184.214,88.6562 z" id="boundary" inkscape:connector-curvature="0" />
	<path style="fill:none;stroke:red;stroke-width:1px;stroke-linecap:butt;stroke-linejoin:miter;stroke-opacity:1" d="M 184.214,88.6562 195.625,106.381 z" id="boundary" inkscape:connector-curvature="0" />
	<path style="fill:none;stroke:red;stroke-width:1px;stroke-linecap:butt;stroke-linejoin:miter;stroke-opacity:1" d="M 296.765,50.1168 307.212,71.4014 z" id="boundary" inkscape:connector-curvature="0" />
	<path style="fill:none;stroke:red;stroke-width:1px;stroke-linecap:butt;stroke-linejoin:miter;stroke-opacity:1" d="M 296.765,50.1168 372.11,4 z" id="boundary" inkscape:connector-curvature="0" />
	<path style="fill:none;stroke:red;stroke-width:1px;stroke-linecap:butt;stroke-linejoin:miter;stroke-opacity:1" d="M 307.212,71.4014 344.668,75.5335 z" id="boundary" inkscape:connector-curvature="0" />
	<path style="fill:none;stroke:red;stroke-width:1px;stroke-linecap:butt;stroke-linejoin:miter;stroke-opacity:1" d="M 372.11,4 401.604,51.7692 z" id="boundary" inkscape:connector-curvature="0" />
	<path style="fill:none;stroke:red;stroke-width:1px;stroke-linecap:butt;stroke-linejoin:miter;stroke-opacity:1" d="M 401.604,51.7692 432.923,10.7335 z" id="boundary" inkscape:connector-curvature="0" />
	<path style="fill:none;stroke:red;stroke-width:1px;stroke-linecap:butt;stroke-linejoin:miter;stroke-opacity:1" d="M 432.923,10.7335 471.751,16.8608 z" id="boundary" inkscape:connector-curvature="0" />
	<path style="fill:none;stroke:red;stroke-width:1px;stroke-linecap:butt;stroke-linejoin:miter;stroke-opacity:1" d="M 474.486,55.7147 471.751,16.8608 z" id="boundary" inkscape:connector-curvature="0" />
	<path style="fill:none;stroke:red;stroke-width:1px;stroke-linecap:butt;stroke-linejoin:miter;stroke-opacity:1" d="M 474.486,55.7147 532.982,49.5089 z" id="boundary" inkscape:connector-curvature="0" />
	<path style="fill:none;stroke:red;stroke-width:1px;stroke-linecap:butt;stroke-linejoin:miter;stroke-opacity:1" d="M 532.982,49.5089 563.68,39.2093 z" id="boundary" inkscape:connector-curvature="0" />
	<path style="fill:none;stroke:red;stroke-width:1px;stroke-linecap:butt;stroke-linejoin:miter;stroke-opacity:1" d="M 563.68,39.2093 584.099,48.4574 z" id="boundary" inkscape:connector-curvature="0" />
	<path style="fill:none;stroke:red;stroke-width:1px;stroke-linecap:butt;stroke-linejoin:miter;stroke-opacity:1" d="M 584.099,48.4574 655.074,41.7686 z" id="boundary" inkscape:connector-curvature="0" />
	<path style="fill:none;stroke:red;stroke-width:1px;stroke-linecap:butt;stroke-linejoin:miter;stroke-opacity:1" d="M 664.797,59.4355 655.074,41.7686 z" id="boundary" inkscape:connector-curvature="0" />
	<path style="fill:none;stroke:red;stroke-width:1px;stroke-linecap:butt;stroke-linejoin:miter;stroke-opacity:1" d="M 664.797,59.4355 667.796,72.0048 z" id="boundary" inkscape:connector-curvature="0" />
	<path style="fill:none;stroke:red;stroke-width:1px;stroke-linecap:butt;stroke-linejoin:miter;stroke-opacity:1" d="M 667.796,72.0048 698.285,99.0728 z" id="boundary" inkscape:connector-curvature="0" />
	<path style="fill:none;stroke:red;stroke-width:1px;stroke-linecap:butt;stroke-linejoin:miter;stroke-opacity:1" d="M 769.006,119.427 768.076,72.8644 z" id="boundary" inkscape:connector-curvature="0" />
	<path style="fill:none;stroke:red;stroke-width:1px;stroke-linecap:butt;stroke-linejoin:miter;stroke-opacity:1" d="M 830.002,134.558 807.859,102.958 z" id="boundary" inkscape:connector-curvature="0" />
	<path style="fill:none;stroke:red;stroke-width:1px;stroke-linecap:butt;stroke-linejoin:miter;stroke-opacity:1" d="M 830.002,134.558 845.747,132.158 z" id="boundary" inkscape:connector-curvature="0" />
	<path style="fill:none;stroke:red;stroke-width:1px;stroke-linecap:butt;stroke-linejoin:miter;stroke-opacity:1" d="M 897.572,137.729 845.747,132.158 z" id="boundary" inkscape:connector-curvature="0" />
	<path style="fill:none;stroke:red;stroke-width:1px;stroke-linecap:butt;stroke-linejoin:miter;stroke-opacity:1" d="M 897.572,137.729 925.51,163.969 z" id="boundary" inkscape:connector-curvature="0" />
	<path style="fill:none;stroke:red;stroke-width:1px;stroke-linecap:butt;stroke-linejoin:miter;stroke-opacity:1" d="M 925.51,163.969 925.171,185.718 z" id="boundary" inkscape:connector-curvature="0" />
	<path style="fill:none;stroke:red;stroke-width:1px;stroke-linecap:butt;stroke-linejoin:miter;stroke-opacity:1" d="M 954.496,203.765 930.493,211.672 z" id="boundary" inkscape:connector-curvature="0" />
	<path style="fill:none;stroke:red;stroke-width:1px;stroke-linecap:butt;stroke-linejoin:miter;stroke-opacity:1" d="M 925.171,185.718 930.493,211.672 z" id="boundary" inkscape:connector-curvature="0" />
	<path style="fill:none;stroke:red;stroke-width:1px;stroke-linecap:butt;stroke-linejoin:miter;stroke-opacity:1" d="M 106.183,220.493 114.426,221.422 z" id="boundary" inkscape:connector-curvature="0" />
	<path style="fill:none;stroke:red;stroke-width:1px;stroke-linecap:butt;stroke-linejoin:miter;stroke-opacity:1" d="M 78.519,248.632 74.9826,280.918 z" id="boundary" inkscape:connector-curvature="0" />
	<path style="fill:none;stroke:red;stroke-width:1px;stroke-linecap:butt;stroke-linejoin:miter;stroke-opacity:1" d="M 78.519,248.632 97.7022,256.66 z" id="boundary" inkscape:connector-curvature="0" />
	<path style="fill:none;stroke:red;stroke-width:1px;stroke-linecap:butt;stroke-linejoin:miter;stroke-opacity:1" d="M 84.239,330.867 78.8003,325.544 z" id="boundary" inkscape:connector-curvature="0" />
	<path style="fill:none;stroke:red;stroke-width:1px;stroke-linecap:butt;stroke-linejoin:miter;stroke-opacity:1" d="M 76.0894,317.707 78.8003,325.544 z" id="boundary" inkscape:connector-curvature="0" />
	<path style="fill:none;stroke:red;stroke-width:1px;stroke-linecap:butt;stroke-linejoin:miter;stroke-opacity:1" d="M 73.1166,334.744 61.9129,339.678 z" id="boundary" inkscape:connector-curvature="0" />
	<path style="fill:none;stroke:red;stroke-width:1px;stroke-linecap:butt;stroke-linejoin:miter;stroke-opacity:1" d="M 908.855,333.28 881.894,349.589 z" id="boundary" inkscape:connector-curvature="0" />
	<path style="fill:none;stroke:red;stroke-width:1px;stroke-linecap:butt;stroke-linejoin:miter;stroke-opacity:1" d="M 908.855,333.28 918.586,322.846 z" id="boundary" inkscape:connector-curvature="0" />
	<path style="fill:none;stroke:red;stroke-width:1px;stroke-linecap:butt;stroke-linejoin:miter;stroke-opacity:1" d="M 918.586,322.846 933.799,345.331 z" id="boundary" inkscape:connector-curvature="0" />
	<path style="fill:none;stroke:red;stroke-width:1px;stroke-linecap:butt;stroke-linejoin:miter;stroke-opacity:1" d="M 21.7269,530.092 35.4155,511.513 z" id="boundary" inkscape:connector-curvature="0" />
	<path style="fill:none;stroke:red;stroke-width:1px;stroke-linecap:butt;stroke-linejoin:miter;stroke-opacity:1" d="M 21.7269,530.092 52.1967,547.188 z" id="boundary" inkscape:connector-curvature="0" />
	<path style="fill:none;stroke:red;stroke-width:1px;stroke-linecap:butt;stroke-linejoin:miter;stroke-opacity:1" d="M 42.3879,499.534 47.8904,497.696 z" id="boundary" inkscape:connector-curvature="0" />
	<path style="fill:none;stroke:red;stroke-width:1px;stroke-linecap:butt;stroke-linejoin:miter;stroke-opacity:1" d="M 60.1873,547.43 52.1967,547.188 z" id="boundary" inkscape:connector-curvature="0" />
	<path style="fill:none;stroke:red;stroke-width:1px;stroke-linecap:butt;stroke-linejoin:miter;stroke-opacity:1" d="M 896.028,582.607 873.989,553.574 z" id="boundary" inkscape:connector-curvature="0" />
	<path style="fill:none;stroke:red;stroke-width:1px;stroke-linecap:butt;stroke-linejoin:miter;stroke-opacity:1" d="M 896.028,582.607 915.924,595.236 z" id="boundary" inkscape:connector-curvature="0" />
	<path style="fill:none;stroke:red;stroke-width:1px;stroke-linecap:butt;stroke-linejoin:miter;stroke-opacity:1" d="M 916.123,519.388 921.841,539.62 z" id="boundary" inkscape:connector-curvature="0" />
	<path style="fill:none;stroke:red;stroke-width:1px;stroke-linecap:butt;stroke-linejoin:miter;stroke-opacity:1" d="M 921.841,539.62 943.174,554.02 z" id="boundary" inkscape:connector-curvature="0" />
	<path style="fill:none;stroke:red;stroke-width:1px;stroke-linecap:butt;stroke-linejoin:miter;stroke-opacity:1" d="M 991.121,468.633 981.428,460.325 z" id="boundary" inkscape:connector-curvature="0" />
	<path style="fill:none;stroke:red;stroke-width:1px;stroke-linecap:butt;stroke-linejoin:miter;stroke-opacity:1" d="M 991.121,468.633 996,473.304 z" id="boundary" inkscape:connector-curvature="0" />
	<path style="fill:none;stroke:red;stroke-width:1px;stroke-linecap:butt;stroke-linejoin:miter;stroke-opacity:1" d="M 981.428,460.325 972.237,438.66 z" id="boundary" inkscape:connector-curvature="0" />
	<path style="fill:none;stroke:red;stroke-width:1px;stroke-linecap:butt;stroke-linejoin:miter;stroke-opacity:1" d="M 944.878,376.311 978.551,399.74 z" id="boundary" inkscape:connector-curvature="0" />
	<path style="fill:none;stroke:red;stroke-width:1px;stroke-linecap:butt;stroke-linejoin:miter;stroke-opacity:1" d="M 106.946,545.991 86.143,582.005 z" id="boundary" inkscape:connector-curvature="0" />
	<path style="fill:none;stroke:red;stroke-width:1px;stroke-linecap:butt;stroke-linejoin:miter;stroke-opacity:1" d="M 48.5738,603.082 49.0737,613.563 z" id="boundary" inkscape:connector-curvature="0" />
	<path style="fill:none;stroke:red;stroke-width:1px;stroke-linecap:butt;stroke-linejoin:miter;stroke-opacity:1" d="M 48.5738,603.082 59.229,603.76 z" id="boundary" inkscape:connector-curvature="0" />
	<path style="fill:none;stroke:red;stroke-width:1px;stroke-linecap:butt;stroke-linejoin:miter;stroke-opacity:1" d="M 86.143,582.005 59.229,603.76 z" id="boundary" inkscape:connector-curvature="0" />
	<path style="fill:none;stroke:red;stroke-width:1px;stroke-linecap:butt;stroke-linejoin:miter;stroke-opacity:1" d="M 49.0737,613.563 71.6272,648.77 z" id="boundary" inkscape:connector-curvature="0" />
	<path style="fill:none;stroke:red;stroke-width:1px;stroke-linecap:butt;stroke-linejoin:miter;stroke-opacity:1" d="M 96.5007,627.891 71.6272,648.77 z" id="boundary" inkscape:connector-curvature="0" />
	<path style="fill:none;stroke:red;stroke-width:1px;stroke-linecap:butt;stroke-linejoin:miter;stroke-opacity:1" d="M 76.0839,704.452 63.3634,730.72 z" id="boundary" inkscape:connector-curvature="0" />
	<path style="fill:none;stroke:red;stroke-width:1px;stroke-linecap:butt;stroke-linejoin:miter;stroke-opacity:1" d="M 51.1005,742.878 63.3634,730.72 z" id="boundary" inkscape:connector-curvature="0" />
	<path style="fill:none;stroke:red;stroke-width:1px;stroke-linecap:butt;stroke-linejoin:miter;stroke-opacity:1" d="M 41.5899,803.419 46.3988,799.649 z" id="boundary" inkscape:connector-curvature="0" />
	<path style="fill:none;stroke:red;stroke-width:1px;stroke-linecap:butt;stroke-linejoin:miter;stroke-opacity:1" d="M 46.3988,799.649 64.8816,810.02 z" id="boundary" inkscape:connector-curvature="0" />
	<path style="fill:none;stroke:red;stroke-width:1px;stroke-linecap:butt;stroke-linejoin:miter;stroke-opacity:1" d="M 64.8816,810.02 54.1258,827.527 z" id="boundary" inkscape:connector-curvature="0" />
	<path style="fill:none;stroke:red;stroke-width:1px;stroke-linecap:butt;stroke-linejoin:miter;stroke-opacity:1" d="M 54.1258,827.527 96.4368,863.829 z" id="boundary" inkscape:connector-curvature="0" />
	<path style="fill:none;stroke:red;stroke-width:1px;stroke-linecap:butt;stroke-linejoin:miter;stroke-opacity:1" d="M 96.4368,863.829 67.2096,882.906 z" id="boundary" inkscape:connector-curvature="0" />
	<path style="fill:none;stroke:red;stroke-width:1px;stroke-linecap:butt;stroke-linejoin:miter;stroke-opacity:1" d="M 82.4553,914.915 74.6763,915.492 z" id="boundary" inkscape:connector-curvature="0" />
	<path style="fill:none;stroke:red;stroke-width:1px;stroke-linecap:butt;stroke-linejoin:miter;stroke-opacity:1" d="M 82.4553,914.915 134.331,919.589 z" id="boundary" inkscape:connector-curvature="0" />
	<path style="fill:none;stroke:red;stroke-width:1px;stroke-linecap:butt;stroke-linejoin:miter;stroke-opacity:1" d="M 67.2096,882.906 74.6763,915.492 z" id="boundary" inkscape:connector-curvature="0" />
	<path style="fill:none;stroke:red;stroke-width:1px;stroke-linecap:butt;stroke-linejoin:miter;stroke-opacity:1" d="M 134.331,919.589 150.352,919.216 z" id="boundary" inkscape:connector-curvature="0" />
	<path style="fill:none;stroke:red;stroke-width:1px;stroke-linecap:butt;stroke-linejoin:miter;stroke-opacity:1" d="M 150.352,919.216 183.087,960.326 z" id="boundary" inkscape:connector-curvature="0" />
	<path style="fill:none;stroke:red;stroke-width:1px;stroke-linecap:butt;stroke-linejoin:miter;stroke-opacity:1" d="M 183.087,960.326 212.611,969.341 z" id="boundary" inkscape:connector-curvature="0" />
	<path style="fill:none;stroke:red;stroke-width:1px;stroke-linecap:butt;stroke-linejoin:miter;stroke-opacity:1" d="M 212.611,969.341 235.771,933.683 z" id="boundary" inkscape:connector-curvature="0" />
	<path style="fill:none;stroke:red;stroke-width:1px;stroke-linecap:butt;stroke-linejoin:miter;stroke-opacity:1" d="M 235.771,933.683 264.928,933.926 z" id="boundary" inkscape:connector-curvature="0" />
	<path style="fill:none;stroke:red;stroke-width:1px;stroke-linecap:butt;stroke-linejoin:miter;stroke-opacity:1" d="M 264.928,933.926 359.506,935.898 z" id="boundary" inkscape:connector-curvature="0" />
	<path style="fill:none;stroke:red;stroke-width:1px;stroke-linecap:butt;stroke-linejoin:miter;stroke-opacity:1" d="M 359.506,935.898 376.808,944.114 z" id="boundary" inkscape:connector-curvature="0" />
	<path style="fill:none;stroke:red;stroke-width:1px;stroke-linecap:butt;stroke-linejoin:miter;stroke-opacity:1" d="M 367.877,970.381 376.808,944.114 z" id="boundary" inkscape:connector-curvature="0" />
	<path style="fill:none;stroke:red;stroke-width:1px;stroke-linecap:butt;stroke-linejoin:miter;stroke-opacity:1" d="M 430.062,936.589 504.704,939.639 z" id="boundary" inkscape:connector-curvature="0" />
	<path style="fill:none;stroke:red;stroke-width:1px;stroke-linecap:butt;stroke-linejoin:miter;stroke-opacity:1" d="M 504.704,939.639 540.608,942.387 z" id="boundary" inkscape:connector-curvature="0" />
	<path style="fill:none;stroke:red;stroke-width:1px;stroke-linecap:butt;stroke-linejoin:miter;stroke-opacity:1" d="M 597.994,915.845 599.611,908.394 z" id="boundary" inkscape:connector-curvature="0" />
	<path style="fill:none;stroke:red;stroke-width:1px;stroke-linecap:butt;stroke-linejoin:miter;stroke-opacity:1" d="M 597.994,915.845 638.358,937.009 z" id="boundary" inkscape:connector-curvature="0" />
	<path style="fill:none;stroke:red;stroke-width:1px;stroke-linecap:butt;stroke-linejoin:miter;stroke-opacity:1" d="M 638.358,937.009 679.273,896.41 z" id="boundary" inkscape:connector-curvature="0" />
	<path style="fill:none;stroke:red;stroke-width:1px;stroke-linecap:butt;stroke-linejoin:miter;stroke-opacity:1" d="M 679.273,896.41 735.256,929.754 z" id="boundary" inkscape:connector-curvature="0" />
	<path style="fill:none;stroke:red;stroke-width:1px;stroke-linecap:butt;stroke-linejoin:miter;stroke-opacity:1" d="M 744.67,970.623 735.256,929.754 z" id="boundary" inkscape:connector-curvature="0" />
	<path style="fill:none;stroke:red;stroke-width:1px;stroke-linecap:butt;stroke-linejoin:miter;stroke-opacity:1" d="M 744.67,970.623 797.235,959.251 z" id="boundary" inkscape:connector-curvature="0" />
	<path style="fill:none;stroke:red;stroke-width:1px;stroke-linecap:butt;stroke-linejoin:miter;stroke-opacity:1" d="M 797.235,959.251 823.465,938.004 z" id="boundary" inkscape:connector-curvature="0" />
	<path style="fill:none;stroke:red;stroke-width:1px;stroke-linecap:butt;stroke-linejoin:miter;stroke-opacity:1" d="M 801.449,902.009 823.465,938.004 z" id="boundary" inkscape:connector-curvature="0" />
	<path style="fill:none;stroke:red;stroke-width:1px;stroke-linecap:butt;stroke-linejoin:miter;stroke-opacity:1" d="M 875.035,909.961 894.497,902.077 z" id="boundary" inkscape:connector-curvature="0" />
	<path style="fill:none;stroke:red;stroke-width:1px;stroke-linecap:butt;stroke-linejoin:miter;stroke-opacity:1" d="M 875.035,909.961 873.989,886.776 z" id="boundary" inkscape:connector-curvature="0" />
	<path style="fill:none;stroke:red;stroke-width:1px;stroke-linecap:butt;stroke-linejoin:miter;stroke-opacity:1" d="M 872.057,523.582 873.989,553.574 z" id="boundary" inkscape:connector-curvature="0" />
	<path style="fill:none;stroke:red;stroke-width:1px;stroke-linecap:butt;stroke-linejoin:miter;stroke-opacity:1" d="M 915.924,595.236 927.12,623.529 z" id="boundary" inkscape:connector-curvature="0" />
	<path style="fill:none;stroke:red;stroke-width:1px;stroke-linecap:butt;stroke-linejoin:miter;stroke-opacity:1" d="M 927.12,623.529 872.889,639.362 z" id="boundary" inkscape:connector-curvature="0" />
	<path style="fill:none;stroke:red;stroke-width:1px;stroke-linecap:butt;stroke-linejoin:miter;stroke-opacity:1" d="M 867.771,650.341 872.889,639.362 z" id="boundary" inkscape:connector-curvature="0" />
	<path style="fill:none;stroke:red;stroke-width:1px;stroke-linecap:butt;stroke-linejoin:miter;stroke-opacity:1" d="M 925.375,706.203 878.768,712.535 z" id="boundary" inkscape:connector-curvature="0" />
	<path style="fill:none;stroke:red;stroke-width:1px;stroke-linecap:butt;stroke-linejoin:miter;stroke-opacity:1" d="M 878.768,712.535 877.969,753.491 z" id="boundary" inkscape:connector-curvature="0" />
	<path style="fill:none;stroke:red;stroke-width:1px;stroke-linecap:butt;stroke-linejoin:miter;stroke-opacity:1" d="M 866.782,778.22 877.969,753.491 z" id="boundary" inkscape:connector-curvature="0" />
	<path style="fill:none;stroke:red;stroke-width:1px;stroke-linecap:butt;stroke-linejoin:miter;stroke-opacity:1" d="M 866.782,778.22 911.55,823.26 z" id="boundary" inkscape:connector-curvature="0" />
	<path style="fill:none;stroke:red;stroke-width:1px;stroke-linecap:butt;stroke-linejoin:miter;stroke-opacity:1" d="M 911.55,823.26 892.534,837.3 z" id="boundary" inkscape:connector-curvature="0" />
	<path style="fill:none;stroke:red;stroke-width:1px;stroke-linecap:butt;stroke-linejoin:miter;stroke-opacity:1" d="M 885.484,887.112 894.497,902.077 z" id="boundary" inkscape:connector-curvature="0" />
	<path style="fill:none;stroke:red;stroke-width:1px;stroke-linecap:butt;stroke-linejoin:miter;stroke-opacity:1" d="M 885.484,887.112 873.989,886.776 z" id="boundary" inkscape:connector-curvature="0" />
	<circle cx="211.364" cy="439.552" r="4" fill="#0" id="circle0"/>
	<circle cx="229.349" cy="379.803" r="4" fill="#0" id="circle1"/>
	<circle cx="236.211" cy="399.706" r="4" fill="#0" id="circle2"/>
	<circle cx="299.285" cy="333.699" r="4" fill="#0" id="circle3"/>
	<circle cx="322.934" cy="324.519" r="4" fill="#0" id="circle4"/>
	<circle cx="333.259" cy="301.76" r="4" fill="#0" id="circle5"/>
	<circle cx="366.854" cy="295.004" r="4" fill="#0" id="circle6"/>
	<circle cx="351.383" cy="251.132" r="4" fill="#0" id="circle7"/>
	<circle cx="404.292" cy="257.657" r="4" fill="#0" id="circle8"/>
	<circle cx="466.569" cy="261.77" r="4" fill="#0" id="circle9"/>
	<circle cx="265.598" cy="477.313" r="4" fill="#0" id="circle10"/>
	<circle cx="242.623" cy="463.885" r="4" fill="#0" id="circle11"/>
	<circle cx="234.341" cy="525.824" r="4" fill="#0" id="circle12"/>
	<circle cx="236.442" cy="576.828" r="4" fill="#0" id="circle13"/>
	<circle cx="168.529" cy="598.707" r="4" fill="#0" id="circle14"/>
	<circle cx="213.266" cy="580.625" r="4" fill="#0" id="circle15"/>
	<circle cx="212.238" cy="651.238" r="4" fill="#0" id="circle16"/>
	<circle cx="224.943" cy="659.325" r="4" fill="#0" id="circle17"/>
	<circle cx="247.464" cy="647.949" r="4" fill="#0" id="circle18"/>
	<circle cx="276.699" cy="681.721" r="4" fill="#0" id="circle19"/>
	<circle cx="275.303" cy="705.502" r="4" fill="#0" id="circle20"/>
	<circle cx="303.222" cy="710.651" r="4" fill="#0" id="circle21"/>
	<circle cx="329.264" cy="770.807" r="4" fill="#0" id="circle22"/>
	<circle cx="307.447" cy="741.188" r="4" fill="#0" id="circle23"/>
	<circle cx="385.399" cy="752.345" r="4" fill="#0" id="circle24"/>
	<circle cx="375.671" cy="834.452" r="4" fill="#0" id="circle25"/>
	<circle cx="425.421" cy="800.623" r="4" fill="#0" id="circle26"/>
	<circle cx="399.056" cy="831.947" r="4" fill="#0" id="circle27"/>
	<circle cx="494.034" cy="863.28" r="4" fill="#0" id="circle28"/>
	<circle cx="491.461" cy="862.169" r="4" fill="#0" id="circle29"/>
	<circle cx="527.767" cy="791.255" r="4" fill="#0" id="circle30"/>
	<circle cx="500.684" cy="798.355" r="4" fill="#0" id="circle31"/>
	<circle cx="578.521" cy="817.033" r="4" fill="#0" id="circle32"/>
	<circle cx="598.217" cy="790.788" r="4" fill="#0" id="circle33"/>
	<circle cx="611.154" cy="789.001" r="4" fill="#0" id="circle34"/>
	<circle cx="635.587" cy="827.963" r="4" fill="#0" id="circle35"/>
	<circle cx="668.852" cy="737.933" r="4" fill="#0" id="circle36"/>
	<circle cx="650.604" cy="737.505" r="4" fill="#0" id="circle37"/>
	<circle cx="722.536" cy="720.352" r="4" fill="#0" id="circle38"/>
	<circle cx="453.55" cy="272.516" r="4" fill="#0" id="circle39"/>
	<circle cx="482.493" cy="284.958" r="4" fill="#0" id="circle40"/>
	<circle cx="530.029" cy="231.413" r="4" fill="#0" id="circle41"/>
	<circle cx="525.549" cy="278.877" r="4" fill="#0" id="circle42"/>
	<circle cx="600.627" cy="243.899" r="4" fill="#0" id="circle43"/>
	<circle cx="617.064" cy="272.448" r="4" fill="#0" id="circle44"/>
	<circle cx="593.372" cy="286.87" r="4" fill="#0" id="circle45"/>
	<circle cx="637.036" cy="279.295" r="4" fill="#0" id="circle46"/>
	<circle cx="668.702" cy="284.337" r="4" fill="#0" id="circle47"/>
	<circle cx="700.092" cy="317.665" r="4" fill="#0" id="circle48"/>
	<circle cx="660.855" cy="294.369" r="4" fill="#0" id="circle49"/>
	<circle cx="709.303" cy="376.864" r="4" fill="#0" id="circle50"/>
	<circle cx="682.897" cy="339.863" r="4" fill="#0" id="circle51"/>
	<circle cx="756.881" cy="362.076" r="4" fill="#0" id="circle52"/>
	<circle cx="731.851" cy="420.838" r="4" fill="#0" id="circle53"/>
	<circle cx="745.927" cy="451.789" r="4" fill="#0" id="circle54"/>
	<circle cx="744.195" cy="479.03" r="4" fill="#0" id="circle55"/>
	<circle cx="726.726" cy="736.724" r="4" fill="#0" id="circle56"/>
	<circle cx="758.274" cy="711.393" r="4" fill="#0" id="circle57"/>
	<circle cx="740.718" cy="679.018" r="4" fill="#0" id="circle58"/>
	<circle cx="785.597" cy="618.165" r="4" fill="#0" id="circle59"/>
	<circle cx="795.297" cy="650.993" r="4" fill="#0" id="circle60"/>
	<circle cx="771.407" cy="580.007" r="4" fill="#0" id="circle61"/>
	<circle cx="738.809" cy="542.701" r="4" fill="#0" id="circle62"/>
	<circle cx="762.274" cy="553.135" r="4" fill="#0" id="circle63"/>
	<circle cx="759.424" cy="521.584" r="4" fill="#0" id="circle64"/>
	<circle cx="787.135" cy="501.812" r="4" fill="#0" id="circle65"/>
	<circle cx="140.051" cy="201.061" r="4" fill="#0" id="circle66"/>
	<circle cx="172.687" cy="184.364" r="4" fill="#0" id="circle67"/>
	<circle cx="193.951" cy="144.633" r="4" fill="#0" id="circle68"/>
	<circle cx="212.347" cy="138.271" r="4" fill="#0" id="circle69"/>
	<circle cx="240.76" cy="108.725" r="4" fill="#0" id="circle70"/>
	<circle cx="265.021" cy="133.194" r="4" fill="#0" id="circle71"/>
	<circle cx="283.533" cy="145.047" r="4" fill="#0" id="circle72"/>
	<circle cx="241.726" cy="127.971" r="4" fill="#0" id="circle73"/>
	<circle cx="252.762" cy="133.296" r="4" fill="#0" id="circle74"/>
	<circle cx="254.098" cy="169.81" r="4" fill="#0" id="circle75"/>
	<circle cx="300.141" cy="246.811" r="4" fill="#0" id="circle76"/>
	<circle cx="263.416" cy="281.67" r="4" fill="#0" id="circle77"/>
	<circle cx="299.729" cy="302.223" r="4" fill="#0" id="circle78"/>
	<circle cx="269.137" cy="280.088" r="4" fill="#0" id="circle79"/>
	<circle cx="257.012" cy="308.765" r="4" fill="#0" id="circle80"/>
	<circle cx="180.536" cy="249.53" r="4" fill="#0" id="circle81"/>
	<circle cx="104.202" cy="271.817" r="4" fill="#0" id="circle82"/>
	<circle cx="112.801" cy="297.139" r="4" fill="#0" id="circle83"/>
	<circle cx="104.374" cy="324.134" r="4" fill="#0" id="circle84"/>
	<circle cx="114.318" cy="350.883" r="4" fill="#0" id="circle85"/>
	<circle cx="182.016" cy="306.949" r="4" fill="#0" id="circle86"/>
	<circle cx="135.935" cy="388.651" r="4" fill="#0" id="circle87"/>
	<circle cx="169.594" cy="393.553" r="4" fill="#0" id="circle88"/>
	<circle cx="132.412" cy="353.347" r="4" fill="#0" id="circle89"/>
	<circle cx="192.602" cy="366.337" r="4" fill="#0" id="circle90"/>
	<circle cx="195.673" cy="367.381" r="4" fill="#0" id="circle91"/>
	<circle cx="204.143" cy="388.196" r="4" fill="#0" id="circle92"/>
	<circle cx="233.284" cy="325.537" r="4" fill="#0" id="circle93"/>
	<circle cx="269.017" cy="303.799" r="4" fill="#0" id="circle94"/>
	<circle cx="723.335" cy="97.4834" r="4" fill="#0" id="circle95"/>
	<circle cx="709.986" cy="145.094" r="4" fill="#0" id="circle96"/>
	<circle cx="765.651" cy="157.218" r="4" fill="#0" id="circle97"/>
	<circle cx="705.565" cy="164.757" r="4" fill="#0" id="circle98"/>
	<circle cx="700.183" cy="194.67" r="4" fill="#0" id="circle99"/>
	<circle cx="691.887" cy="218.392" r="4" fill="#0" id="circle100"/>
	<circle cx="695.577" cy="221.07" r="4" fill="#0" id="circle101"/>
	<circle cx="714.056" cy="279.359" r="4" fill="#0" id="circle102"/>
	<circle cx="755.607" cy="272.518" r="4" fill="#0" id="circle103"/>
	<circle cx="698.958" cy="350.518" r="4" fill="#0" id="circle104"/>
	<circle cx="715.398" cy="359.694" r="4" fill="#0" id="circle105"/>
	<circle cx="732.757" cy="366.807" r="4" fill="#0" id="circle106"/>
	<circle cx="746.359" cy="371.223" r="4" fill="#0" id="circle107"/>
	<circle cx="796.828" cy="389.169" r="4" fill="#0" id="circle108"/>
	<circle cx="832.503" cy="365.675" r="4" fill="#0" id="circle109"/>
	<circle cx="844.49" cy="377.789" r="4" fill="#0" id="circle110"/>
	<circle cx="845.73" cy="369.664" r="4" fill="#0" id="circle111"/>
	<circle cx="872.769" cy="188.757" r="4" fill="#0" id="circle112"/>
	<circle cx="833.94" cy="248.501" r="4" fill="#0" id="circle113"/>
	<circle cx="851.048" cy="232.466" r="4" fill="#0" id="circle114"/>
	<circle cx="816.355" cy="260.438" r="4" fill="#0" id="circle115"/>
	<circle cx="863.861" cy="249.723" r="4" fill="#0" id="circle116"/>
	<circle cx="856.191" cy="334.868" r="4" fill="#0" id="circle117"/>
	<circle cx="863.19" cy="309.77" r="4" fill="#0" id="circle118"/>
	<circle cx="825.034" cy="356.292" r="4" fill="#0" id="circle119"/>
	<circle cx="835.108" cy="355.991" r="4" fill="#0" id="circle120"/>
	<circle cx="850.231" cy="390.186" r="4" fill="#0" id="circle121"/>
	<circle cx="734.192" cy="159.684" r="4" fill="#0" id="circle122"/>
	<circle cx="754.77" cy="179.772" r="4" fill="#0" id="circle123"/>
	<circle cx="790.17" cy="137.598" r="4" fill="#0" id="circle124"/>
	<circle cx="792.399" cy="153.428" r="4" fill="#0" id="circle125"/>
	<circle cx="846.114" cy="203.478" r="4" fill="#0" id="circle126"/>
	<circle cx="73.8839" cy="368.391" r="4" fill="#0" id="circle127"/>
	<circle cx="48.6014" cy="391.738" r="4" fill="#0" id="circle128"/>
	<circle cx="41.0803" cy="415.121" r="4" fill="#0" id="circle129"/>
	<circle cx="22.4698" cy="394.321" r="4" fill="#0" id="circle130"/>
	<circle cx="43.3941" cy="450.267" r="4" fill="#0" id="circle131"/>
	<circle cx="52.8247" cy="480.427" r="4" fill="#0" id="circle132"/>
	<circle cx="72.947" cy="432.242" r="4" fill="#0" id="circle133"/>
	<circle cx="37.4348" cy="508.127" r="4" fill="#0" id="circle134"/>
	<circle cx="82.3528" cy="505.23" r="4" fill="#0" id="circle135"/>
	<circle cx="56.1295" cy="499.53" r="4" fill="#0" id="circle136"/>
	<circle cx="62.6324" cy="525.572" r="4" fill="#0" id="circle137"/>
	<circle cx="63.1153" cy="403.88" r="4" fill="#0" id="circle138"/>
	<circle cx="97.9751" cy="428.492" r="4" fill="#0" id="circle139"/>
	<circle cx="46.8159" cy="461.073" r="4" fill="#0" id="circle140"/>
	<circle cx="56.8274" cy="447.849" r="4" fill="#0" id="circle141"/>
	<circle cx="106.773" cy="462.184" r="4" fill="#0" id="circle142"/>
	<circle cx="46.572" cy="436.885" r="4" fill="#0" id="circle143"/>
	<circle cx="59.4584" cy="469.844" r="4" fill="#0" id="circle144"/>
	<circle cx="937.031" cy="377.335" r="4" fill="#0" id="circle145"/>
	<circle cx="916.505" cy="391.835" r="4" fill="#0" id="circle146"/>
	<circle cx="872.808" cy="396.518" r="4" fill="#0" id="circle147"/>
	<circle cx="876.893" cy="473.624" r="4" fill="#0" id="circle148"/>
	<circle cx="882.227" cy="465.866" r="4" fill="#0" id="circle149"/>
	<circle cx="921.013" cy="460.521" r="4" fill="#0" id="circle150"/>
	<circle cx="873.164" cy="488.862" r="4" fill="#0" id="circle151"/>
	<circle cx="921.097" cy="516.638" r="4" fill="#0" id="circle152"/>
	<circle cx="959.702" cy="533.496" r="4" fill="#0" id="circle153"/>
	<circle cx="904.862" cy="496.137" r="4" fill="#0" id="circle154"/>
	<circle cx="938.444" cy="451.371" r="4" fill="#0" id="circle155"/>
	<circle cx="935.918" cy="478.057" r="4" fill="#0" id="circle156"/>
	<circle cx="960.576" cy="433.814" r="4" fill="#0" id="circle157"/>
	<circle cx="920.078" cy="459.503" r="4" fill="#0" id="circle158"/>
	<circle cx="912.895" cy="387.936" r="4" fill="#0" id="circle159"/>
	<circle cx="904.674" cy="372.075" r="4" fill="#0" id="circle160"/>
	<circle cx="963.003" cy="420.34" r="4" fill="#0" id="circle161"/>
	<circle cx="937.973" cy="438.353" r="4" fill="#0" id="circle162"/>
	<circle cx="103.915" cy="172.834" r="4" fill="#0" id="circle163"/>
	<circle cx="106.242" cy="119.165" r="4" fill="#0" id="circle164"/>
	<circle cx="76.4135" cy="127.593" r="4" fill="#0" id="circle165"/>
	<circle cx="105.681" cy="102.132" r="4" fill="#0" id="circle166"/>
	<circle cx="155.976" cy="124.106" r="4" fill="#0" id="circle167"/>
	<circle cx="184.214" cy="88.6562" r="4" fill="#0" id="circle168"/>
	<circle cx="195.625" cy="106.381" r="4" fill="#0" id="circle169"/>
	<circle cx="262.944" cy="106.291" r="4" fill="#0" id="circle170"/>
	<circle cx="296.765" cy="50.1168" r="4" fill="#0" id="circle171"/>
	<circle cx="307.212" cy="71.4014" r="4" fill="#0" id="circle172"/>
	<circle cx="344.668" cy="75.5335" r="4" fill="#0" id="circle173"/>
	<circle cx="372.11" cy="4" r="4" fill="#0" id="circle174"/>
	<circle cx="401.604" cy="51.7692" r="4" fill="#0" id="circle175"/>
	<circle cx="432.923" cy="10.7335" r="4" fill="#0" id="circle176"/>
	<circle cx="474.486" cy="55.7147" r="4" fill="#0" id="circle177"/>
	<circle cx="471.751" cy="16.8608" r="4" fill="#0" id="circle178"/>
	<circle cx="532.982" cy="49.5089" r="4" fill="#0" id="circle179"/>
	<circle cx="563.68" cy="39.2093" r="4" fill="#0" id="circle180"/>
	<circle cx="584.099" cy="48.4574" r="4" fill="#0" id="circle181"/>
	<circle cx="664.797" cy="59.4355" r="4" fill="#0" id="circle182"/>
	<circle cx="655.074" cy="41.7686" r="4" fill="#0" id="circle183"/>
	<circle cx="667.796" cy="72.0048" r="4" fill="#0" id="circle184"/>
	<circle cx="698.285" cy="99.0728" r="4" fill="#0" id="circle185"/>
	<circle cx="769.006" cy="119.427" r="4" fill="#0" id="circle186"/>
	<circle cx="768.076" cy="72.8644" r="4" fill="#0" id="circle187"/>
	<circle cx="830.002" cy="134.558" r="4" fill="#0" id="circle188"/>
	<circle cx="807.859" cy="102.958" r="4" fill="#0" id="circle189"/>
	<circle cx="897.572" cy="137.729" r="4" fill="#0" id="circle190"/>
	<circle cx="845.747" cy="132.158" r="4" fill="#0" id="circle191"/>
	<circle cx="925.51" cy="163.969" r="4" fill="#0" id="circle192"/>
	<circle cx="894.671" cy="206.057" r="4" fill="#0" id="circle193"/>
	<circle cx="954.496" cy="203.765" r="4" fill="#0" id="circle194"/>
	<circle cx="925.171" cy="185.718" r="4" fill="#0" id="circle195"/>
	<circle cx="885.529" cy="242.553" r="4" fill="#0" id="circle196"/>
	<circle cx="106.183" cy="220.493" r="4" fill="#0" id="circle197"/>
	<circle cx="87.9675" cy="170.413" r="4" fill="#0" id="circle198"/>
	<circle cx="67.4007" cy="216.009" r="4" fill="#0" id="circle199"/>
	<circle cx="114.426" cy="221.422" r="4" fill="#0" id="circle200"/>
	<circle cx="78.519" cy="248.632" r="4" fill="#0" id="circle201"/>
	<circle cx="74.9826" cy="280.918" r="4" fill="#0" id="circle202"/>
	<circle cx="97.7022" cy="256.66" r="4" fill="#0" id="circle203"/>
	<circle cx="84.239" cy="330.867" r="4" fill="#0" id="circle204"/>
	<circle cx="76.0894" cy="317.707" r="4" fill="#0" id="circle205"/>
	<circle cx="73.1166" cy="334.744" r="4" fill="#0" id="circle206"/>
	<circle cx="930.493" cy="211.672" r="4" fill="#0" id="circle207"/>
	<circle cx="943.274" cy="296.966" r="4" fill="#0" id="circle208"/>
	<circle cx="872.064" cy="315.102" r="4" fill="#0" id="circle209"/>
	<circle cx="908.855" cy="333.28" r="4" fill="#0" id="circle210"/>
	<circle cx="881.894" cy="349.589" r="4" fill="#0" id="circle211"/>
	<circle cx="918.586" cy="322.846" r="4" fill="#0" id="circle212"/>
	<circle cx="78.8003" cy="325.544" r="4" fill="#0" id="circle213"/>
	<circle cx="41.797" cy="388.635" r="4" fill="#0" id="circle214"/>
	<circle cx="61.9129" cy="339.678" r="4" fill="#0" id="circle215"/>
	<circle cx="26.3566" cy="346.429" r="4" fill="#0" id="circle216"/>
	<circle cx="42.1731" cy="404.635" r="4" fill="#0" id="circle217"/>
	<circle cx="50.779" cy="387.574" r="4" fill="#0" id="circle218"/>
	<circle cx="57.6778" cy="395.115" r="4" fill="#0" id="circle219"/>
	<circle cx="4" cy="405.135" r="4" fill="#0" id="circle220"/>
	<circle cx="49.4698" cy="444.656" r="4" fill="#0" id="circle221"/>
	<circle cx="40.4599" cy="455.616" r="4" fill="#0" id="circle222"/>
	<circle cx="47.0753" cy="472.912" r="4" fill="#0" id="circle223"/>
	<circle cx="23.4891" cy="501.108" r="4" fill="#0" id="circle224"/>
	<circle cx="21.7269" cy="530.092" r="4" fill="#0" id="circle225"/>
	<circle cx="35.4155" cy="511.513" r="4" fill="#0" id="circle226"/>
	<circle cx="42.3879" cy="499.534" r="4" fill="#0" id="circle227"/>
	<circle cx="59.4262" cy="516.534" r="4" fill="#0" id="circle228"/>
	<circle cx="47.8904" cy="497.696" r="4" fill="#0" id="circle229"/>
	<circle cx="49.8434" cy="508.53" r="4" fill="#0" id="circle230"/>
	<circle cx="60.1873" cy="547.43" r="4" fill="#0" id="circle231"/>
	<circle cx="896.028" cy="582.607" r="4" fill="#0" id="circle232"/>
	<circle cx="916.123" cy="519.388" r="4" fill="#0" id="circle233"/>
	<circle cx="921.841" cy="539.62" r="4" fill="#0" id="circle234"/>
	<circle cx="943.174" cy="554.02" r="4" fill="#0" id="circle235"/>
	<circle cx="962.154" cy="515.634" r="4" fill="#0" id="circle236"/>
	<circle cx="930.047" cy="501.936" r="4" fill="#0" id="circle237"/>
	<circle cx="984.142" cy="536.55" r="4" fill="#0" id="circle238"/>
	<circle cx="991.121" cy="468.633" r="4" fill="#0" id="circle239"/>
	<circle cx="981.428" cy="460.325" r="4" fill="#0" id="circle240"/>
	<circle cx="941.367" cy="447.414" r="4" fill="#0" id="circle241"/>
	<circle cx="996" cy="473.304" r="4" fill="#0" id="circle242"/>
	<circle cx="972.237" cy="438.66" r="4" fill="#0" id="circle243"/>
	<circle cx="944.878" cy="376.311" r="4" fill="#0" id="circle244"/>
	<circle cx="978.551" cy="399.74" r="4" fill="#0" id="circle245"/>
	<circle cx="933.799" cy="345.331" r="4" fill="#0" id="circle246"/>
	<circle cx="923.625" cy="382.778" r="4" fill="#0" id="circle247"/>
	<circle cx="893.122" cy="385.936" r="4" fill="#0" id="circle248"/>
	<circle cx="106.946" cy="545.991" r="4" fill="#0" id="circle249"/>
	<circle cx="52.1967" cy="547.188" r="4" fill="#0" id="circle250"/>
	<circle cx="48.5738" cy="603.082" r="4" fill="#0" id="circle251"/>
	<circle cx="86.143" cy="582.005" r="4" fill="#0" id="circle252"/>
	<circle cx="49.0737" cy="613.563" r="4" fill="#0" id="circle253"/>
	<circle cx="59.229" cy="603.76" r="4" fill="#0" id="circle254"/>
	<circle cx="96.5007" cy="627.891" r="4" fill="#0" id="circle255"/>
	<circle cx="71.6272" cy="648.77" r="4" fill="#0" id="circle256"/>
	<circle cx="76.0839" cy="704.452" r="4" fill="#0" id="circle257"/>
	<circle cx="41.3338" cy="705.433" r="4" fill="#0" id="circle258"/>
	<circle cx="51.1005" cy="742.878" r="4" fill="#0" id="circle259"/>
	<circle cx="63.3634" cy="730.72" r="4" fill="#0" id="circle260"/>
	<circle cx="41.5899" cy="803.419" r="4" fill="#0" id="circle261"/>
	<circle cx="46.3988" cy="799.649" r="4" fill="#0" id="circle262"/>
	<circle cx="64.8816" cy="810.02" r="4" fill="#0" id="circle263"/>
	<circle cx="54.1258" cy="827.527" r="4" fill="#0" id="circle264"/>
	<circle cx="96.4368" cy="863.829" r="4" fill="#0" id="circle265"/>
	<circle cx="82.4553" cy="914.915" r="4" fill="#0" id="circle266"/>
	<circle cx="67.2096" cy="882.906" r="4" fill="#0" id="circle267"/>
	<circle cx="74.6763" cy="915.492" r="4" fill="#0" id="circle268"/>
	<circle cx="134.331" cy="919.589" r="4" fill="#0" id="circle269"/>
	<circle cx="150.352" cy="919.216" r="4" fill="#0" id="circle270"/>
	<circle cx="183.087" cy="960.326" r="4" fill="#0" id="circle271"/>
	<circle cx="212.611" cy="969.341" r="4" fill="#0" id="circle272"/>
	<circle cx="235.771" cy="933.683" r="4" fill="#0" id="circle273"/>
	<circle cx="264.928" cy="933.926" r="4" fill="#0" id="circle274"/>
	<circle cx="359.506" cy="935.898" r="4" fill="#0" id="circle275"/>
	<circle cx="367.877" cy="970.381" r="4" fill="#0" id="circle276"/>
	<circle cx="376.808" cy="944.114" r="4" fill="#0" id="circle277"/>
	<circle cx="430.062" cy="936.589" r="4" fill="#0" id="circle278"/>
	<circle cx="504.704" cy="939.639" r="4" fill="#0" id="circle279"/>
	<circle cx="540.608" cy="942.387" r="4" fill="#0" id="circle280"/>
	<circle cx="597.994" cy="915.845" r="4" fill="#0" id="circle281"/>
	<circle cx="599.611" cy="908.394" r="4" fill="#0" id="circle282"/>
	<circle cx="638.358" cy="937.009" r="4" fill="#0" id="circle283"/>
	<circle cx="679.273" cy="896.41" r="4" fill="#0" id="circle284"/>
	<circle cx="744.67" cy="970.623" r="4" fill="#0" id="circle285"/>
	<circle cx="735.256" cy="929.754" r="4" fill="#0" id="circle286"/>
	<circle cx="797.235" cy="959.251" r="4" fill="#0" id="circle287"/>
	<circle cx="801.449" cy="902.009" r="4" fill="#0" id="circle288"/>
	<circle cx="823.465" cy="938.004" r="4" fill="#0" id="circle289"/>
	<circle cx="875.035" cy="909.961" r="4" fill="#0" id="circle290"/>
	<circle cx="872.057" cy="523.582" r="4" fill="#0" id="circle291"/>
	<circle cx="873.989" cy="553.574" r="4" fill="#0" id="circle292"/>
	<circle cx="915.924" cy="595.236" r="4" fill="#0" id="circle293"/>
	<circle cx="927.12" cy="623.529" r="4" fill="#0" id="circle294"/>
	<circle cx="867.771" cy="650.341" r="4" fill="#0" id="circle295"/>
	<circle cx="872.889" cy="639.362" r="4" fill="#0" id="circle296"/>
	<circle cx="925.375" cy="706.203" r="4" fill="#0" id="circle297"/>
	<circle cx="878.768" cy="712.535" r="4" fill="#0" id="circle298"/>
	<circle cx="866.782" cy="778.22" r="4" fill="#0" id="circle299"/>
	<circle cx="877.969" cy="753.491" r="4" fill="#0" id="circle300"/>
	<circle cx="911.55" cy="823.26" r="4" fill="#0" id="circle301"/>
	<circle cx="892.534" cy="837.3" r="4" fill="#0" id="circle302"/>
	<circle cx="885.484" cy="887.112" r="4" fill="#0" id="circle303"/>
	<circle cx="894.497" cy="902.077" r="4" fill="#0" id="circle304"/>
	<circle cx="873.989" cy="886.776" r="4" fill="#0" id="circle305"/>
	</g>
</svg>