<?xml version="1.0" encoding="UTF-8" standalone="no"?>
<!-- Created with CurveBenchmark -->
<svg
	xmlns:dc="http://purl.org/dc/elements/1.1/"
	xmlns:cc="http://creativecommons.org/ns#"
	xmlns:rdf="http://www.w3.org/1999/02/22-rdf-syntax-ns#"
	xmlns:svg="http://www.w3.org/2000/svg"
	xmlns="http://www.w3.org/2000/svg"
	xmlns:sodipodi="http://sodipodi.sourceforge.net/DTD/sodipodi-0.dtd"
	xmlns:inkscape="http://www.inkscape.org/namespaces/inkscape"
	width="1000"
	height="1000"
	id="svg2"
	version="1.1"
	sodipodi:docname="noisy-0.03/peel-mc44.txt">
<defs
	id="defs4" />
<metadata
	id="metadata7">
	<rdf:RDF>
		<cc:Work
			rdf:about="">
			<dc:format>image/svg+xml</dc:format>
			<dc:type
				rdf:resource="http://purl.org/dc/dcmitype/StillImage" />
			<dc:title></dc:title>
		</cc:Work>
	</rdf:RDF>
</metadata>
<g
	inkscape:label="Layer 1"
	inkscape:groupmode="layer"
	id="layer1">
	<path style="fill:none;stroke:red;stroke-width:1px;stroke-linecap:butt;stroke-linejoin:miter;stroke-opacity:1" d="M 67.7575,283.72 72.2086,280.184 z" id="boundary" inkscape:connector-curvature="0" />
	<path style="fill:none;stroke:red;stroke-width:1px;stroke-linecap:butt;stroke-linejoin:miter;stroke-opacity:1" d="M 17.0789,158.516 6.61891,155.586 z" id="boundary" inkscape:connector-curvature="0" />
	<path style="fill:none;stroke:red;stroke-width:1px;stroke-linecap:butt;stroke-linejoin:miter;stroke-opacity:1" d="M 9.56568,234.182 4,275.148 z" id="boundary" inkscape:connector-curvature="0" />
	<path style="fill:none;stroke:red;stroke-width:1px;stroke-linecap:butt;stroke-linejoin:miter;stroke-opacity:1" d="M 9.56568,234.182 13.1848,217.499 z" id="boundary" inkscape:connector-curvature="0" />
	<path style="fill:none;stroke:red;stroke-width:1px;stroke-linecap:butt;stroke-linejoin:miter;stroke-opacity:1" d="M 69.2149,518.133 54.5969,514.137 z" id="boundary" inkscape:connector-curvature="0" />
	<path style="fill:none;stroke:red;stroke-width:1px;stroke-linecap:butt;stroke-linejoin:miter;stroke-opacity:1" d="M 54.5969,514.137 45.6035,540.951 z" id="boundary" inkscape:connector-curvature="0" />
	<path style="fill:none;stroke:red;stroke-width:1px;stroke-linecap:butt;stroke-linejoin:miter;stroke-opacity:1" d="M 38.2464,189.605 46.5652,194.364 z" id="boundary" inkscape:connector-curvature="0" />
	<path style="fill:none;stroke:red;stroke-width:1px;stroke-linecap:butt;stroke-linejoin:miter;stroke-opacity:1" d="M 51.1298,265.011 48.1321,279.943 z" id="boundary" inkscape:connector-curvature="0" />
	<path style="fill:none;stroke:red;stroke-width:1px;stroke-linecap:butt;stroke-linejoin:miter;stroke-opacity:1" d="M 49.2777,142.198 31.9934,157.381 z" id="boundary" inkscape:connector-curvature="0" />
	<path style="fill:none;stroke:red;stroke-width:1px;stroke-linecap:butt;stroke-linejoin:miter;stroke-opacity:1" d="M 31.9934,157.381 17.0789,158.516 z" id="boundary" inkscape:connector-curvature="0" />
	<path style="fill:none;stroke:red;stroke-width:1px;stroke-linecap:butt;stroke-linejoin:miter;stroke-opacity:1" d="M 46.5652,194.364 79.4696,179.244 z" id="boundary" inkscape:connector-curvature="0" />
	<path style="fill:none;stroke:red;stroke-width:1px;stroke-linecap:butt;stroke-linejoin:miter;stroke-opacity:1" d="M 73.1185,156.454 49.2777,142.198 z" id="boundary" inkscape:connector-curvature="0" />
	<path style="fill:none;stroke:red;stroke-width:1px;stroke-linecap:butt;stroke-linejoin:miter;stroke-opacity:1" d="M 79.4696,179.244 73.1185,156.454 z" id="boundary" inkscape:connector-curvature="0" />
	<path style="fill:none;stroke:red;stroke-width:1px;stroke-linecap:butt;stroke-linejoin:miter;stroke-opacity:1" d="M 72.2724,313.17 98.1842,317.088 z" id="boundary" inkscape:connector-curvature="0" />
	<path style="fill:none;stroke:red;stroke-width:1px;stroke-linecap:butt;stroke-linejoin:miter;stroke-opacity:1" d="M 48.1321,279.943 54.5623,297.738 z" id="boundary" inkscape:connector-curvature="0" />
	<path style="fill:none;stroke:red;stroke-width:1px;stroke-linecap:butt;stroke-linejoin:miter;stroke-opacity:1" d="M 54.5623,297.738 67.7575,283.72 z" id="boundary" inkscape:connector-curvature="0" />
	<path style="fill:none;stroke:red;stroke-width:1px;stroke-linecap:butt;stroke-linejoin:miter;stroke-opacity:1" d="M 96.9914,395.507 103.55,391.531 z" id="boundary" inkscape:connector-curvature="0" />
	<path style="fill:none;stroke:red;stroke-width:1px;stroke-linecap:butt;stroke-linejoin:miter;stroke-opacity:1" d="M 69.2149,518.133 86.1551,511.141 z" id="boundary" inkscape:connector-curvature="0" />
	<path style="fill:none;stroke:red;stroke-width:1px;stroke-linecap:butt;stroke-linejoin:miter;stroke-opacity:1" d="M 86.1551,511.141 86.9368,535.473 z" id="boundary" inkscape:connector-curvature="0" />
	<path style="fill:none;stroke:red;stroke-width:1px;stroke-linecap:butt;stroke-linejoin:miter;stroke-opacity:1" d="M 89.4345,362.133 77.3391,340.261 z" id="boundary" inkscape:connector-curvature="0" />
	<path style="fill:none;stroke:red;stroke-width:1px;stroke-linecap:butt;stroke-linejoin:miter;stroke-opacity:1" d="M 73.6845,609.313 62.9491,587.808 z" id="boundary" inkscape:connector-curvature="0" />
	<path style="fill:none;stroke:red;stroke-width:1px;stroke-linecap:butt;stroke-linejoin:miter;stroke-opacity:1" d="M 82.275,87.541 77.2092,98.2561 z" id="boundary" inkscape:connector-curvature="0" />
	<path style="fill:none;stroke:red;stroke-width:1px;stroke-linecap:butt;stroke-linejoin:miter;stroke-opacity:1" d="M 77.2092,98.2561 83.8451,117.774 z" id="boundary" inkscape:connector-curvature="0" />
	<path style="fill:none;stroke:red;stroke-width:1px;stroke-linecap:butt;stroke-linejoin:miter;stroke-opacity:1" d="M 65.5858,388.886 44.1597,398.21 z" id="boundary" inkscape:connector-curvature="0" />
	<path style="fill:none;stroke:red;stroke-width:1px;stroke-linecap:butt;stroke-linejoin:miter;stroke-opacity:1" d="M 61.3933,582.84 62.9491,587.808 z" id="boundary" inkscape:connector-curvature="0" />
	<path style="fill:none;stroke:red;stroke-width:1px;stroke-linecap:butt;stroke-linejoin:miter;stroke-opacity:1" d="M 61.3933,582.84 44.9963,560.229 z" id="boundary" inkscape:connector-curvature="0" />
	<path style="fill:none;stroke:red;stroke-width:1px;stroke-linecap:butt;stroke-linejoin:miter;stroke-opacity:1" d="M 104.102,667.064 107.632,628.899 z" id="boundary" inkscape:connector-curvature="0" />
	<path style="fill:none;stroke:red;stroke-width:1px;stroke-linecap:butt;stroke-linejoin:miter;stroke-opacity:1" d="M 75.6346,541.834 86.9368,535.473 z" id="boundary" inkscape:connector-curvature="0" />
	<path style="fill:none;stroke:red;stroke-width:1px;stroke-linecap:butt;stroke-linejoin:miter;stroke-opacity:1" d="M 93.961,63.2659 69.7791,62.5853 z" id="boundary" inkscape:connector-curvature="0" />
	<path style="fill:none;stroke:red;stroke-width:1px;stroke-linecap:butt;stroke-linejoin:miter;stroke-opacity:1" d="M 45.6035,540.951 44.9963,560.229 z" id="boundary" inkscape:connector-curvature="0" />
	<path style="fill:none;stroke:red;stroke-width:1px;stroke-linecap:butt;stroke-linejoin:miter;stroke-opacity:1" d="M 89.6912,411.804 96.9914,395.507 z" id="boundary" inkscape:connector-curvature="0" />
	<path style="fill:none;stroke:red;stroke-width:1px;stroke-linecap:butt;stroke-linejoin:miter;stroke-opacity:1" d="M 88.855,456.24 107.107,480.486 z" id="boundary" inkscape:connector-curvature="0" />
	<path style="fill:none;stroke:red;stroke-width:1px;stroke-linecap:butt;stroke-linejoin:miter;stroke-opacity:1" d="M 103.113,690.549 103.351,672.833 z" id="boundary" inkscape:connector-curvature="0" />
	<path style="fill:none;stroke:red;stroke-width:1px;stroke-linecap:butt;stroke-linejoin:miter;stroke-opacity:1" d="M 73.6845,609.313 82.1833,629.523 z" id="boundary" inkscape:connector-curvature="0" />
	<path style="fill:none;stroke:red;stroke-width:1px;stroke-linecap:butt;stroke-linejoin:miter;stroke-opacity:1" d="M 83.8451,117.774 80.8207,119.828 z" id="boundary" inkscape:connector-curvature="0" />
	<path style="fill:none;stroke:red;stroke-width:1px;stroke-linecap:butt;stroke-linejoin:miter;stroke-opacity:1" d="M 107.107,480.486 104.565,490.904 z" id="boundary" inkscape:connector-curvature="0" />
	<path style="fill:none;stroke:red;stroke-width:1px;stroke-linecap:butt;stroke-linejoin:miter;stroke-opacity:1" d="M 103.55,391.531 115.321,390.63 z" id="boundary" inkscape:connector-curvature="0" />
	<path style="fill:none;stroke:red;stroke-width:1px;stroke-linecap:butt;stroke-linejoin:miter;stroke-opacity:1" d="M 107.632,628.899 97.4758,623.214 z" id="boundary" inkscape:connector-curvature="0" />
	<path style="fill:none;stroke:red;stroke-width:1px;stroke-linecap:butt;stroke-linejoin:miter;stroke-opacity:1" d="M 93.961,63.2659 114.083,73.2323 z" id="boundary" inkscape:connector-curvature="0" />
	<path style="fill:none;stroke:red;stroke-width:1px;stroke-linecap:butt;stroke-linejoin:miter;stroke-opacity:1" d="M 82.1833,629.523 97.4758,623.214 z" id="boundary" inkscape:connector-curvature="0" />
	<path style="fill:none;stroke:red;stroke-width:1px;stroke-linecap:butt;stroke-linejoin:miter;stroke-opacity:1" d="M 274.026,619.821 279.909,624.251 z" id="boundary" inkscape:connector-curvature="0" />
	<path style="fill:none;stroke:red;stroke-width:1px;stroke-linecap:butt;stroke-linejoin:miter;stroke-opacity:1" d="M 89.6912,411.804 71.1429,427.475 z" id="boundary" inkscape:connector-curvature="0" />
	<path style="fill:none;stroke:red;stroke-width:1px;stroke-linecap:butt;stroke-linejoin:miter;stroke-opacity:1" d="M 88.855,456.24 71.1429,427.475 z" id="boundary" inkscape:connector-curvature="0" />
	<path style="fill:none;stroke:red;stroke-width:1px;stroke-linecap:butt;stroke-linejoin:miter;stroke-opacity:1" d="M 260.999,72.6492 236.408,68.4208 z" id="boundary" inkscape:connector-curvature="0" />
	<path style="fill:none;stroke:red;stroke-width:1px;stroke-linecap:butt;stroke-linejoin:miter;stroke-opacity:1" d="M 104.102,667.064 103.351,672.833 z" id="boundary" inkscape:connector-curvature="0" />
	<path style="fill:none;stroke:red;stroke-width:1px;stroke-linecap:butt;stroke-linejoin:miter;stroke-opacity:1" d="M 136.53,73.1452 114.083,73.2323 z" id="boundary" inkscape:connector-curvature="0" />
	<path style="fill:none;stroke:red;stroke-width:1px;stroke-linecap:butt;stroke-linejoin:miter;stroke-opacity:1" d="M 154.226,684.645 167.389,665.327 z" id="boundary" inkscape:connector-curvature="0" />
	<path style="fill:none;stroke:red;stroke-width:1px;stroke-linecap:butt;stroke-linejoin:miter;stroke-opacity:1" d="M 138.83,56.1551 136.53,73.1452 z" id="boundary" inkscape:connector-curvature="0" />
	<path style="fill:none;stroke:red;stroke-width:1px;stroke-linecap:butt;stroke-linejoin:miter;stroke-opacity:1" d="M 236.408,68.4208 236.819,55.9687 z" id="boundary" inkscape:connector-curvature="0" />
	<path style="fill:none;stroke:red;stroke-width:1px;stroke-linecap:butt;stroke-linejoin:miter;stroke-opacity:1" d="M 155.369,52.2569 138.83,56.1551 z" id="boundary" inkscape:connector-curvature="0" />
	<path style="fill:none;stroke:red;stroke-width:1px;stroke-linecap:butt;stroke-linejoin:miter;stroke-opacity:1" d="M 220.209,18.309 233.967,5.82146 z" id="boundary" inkscape:connector-curvature="0" />
	<path style="fill:none;stroke:red;stroke-width:1px;stroke-linecap:butt;stroke-linejoin:miter;stroke-opacity:1" d="M 155.991,701.643 154.226,684.645 z" id="boundary" inkscape:connector-curvature="0" />
	<path style="fill:none;stroke:red;stroke-width:1px;stroke-linecap:butt;stroke-linejoin:miter;stroke-opacity:1" d="M 137.686,35.3788 128.462,13.8821 z" id="boundary" inkscape:connector-curvature="0" />
	<path style="fill:none;stroke:red;stroke-width:1px;stroke-linecap:butt;stroke-linejoin:miter;stroke-opacity:1" d="M 155.991,701.643 150.839,720.423 z" id="boundary" inkscape:connector-curvature="0" />
	<path style="fill:none;stroke:red;stroke-width:1px;stroke-linecap:butt;stroke-linejoin:miter;stroke-opacity:1" d="M 150.839,720.423 188.842,739.945 z" id="boundary" inkscape:connector-curvature="0" />
	<path style="fill:none;stroke:red;stroke-width:1px;stroke-linecap:butt;stroke-linejoin:miter;stroke-opacity:1" d="M 177.295,59.2533 155.369,52.2569 z" id="boundary" inkscape:connector-curvature="0" />
	<path style="fill:none;stroke:red;stroke-width:1px;stroke-linecap:butt;stroke-linejoin:miter;stroke-opacity:1" d="M 181.334,74.0632 177.295,59.2533 z" id="boundary" inkscape:connector-curvature="0" />
	<path style="fill:none;stroke:red;stroke-width:1px;stroke-linecap:butt;stroke-linejoin:miter;stroke-opacity:1" d="M 209.089,713.091 218.369,720.989 z" id="boundary" inkscape:connector-curvature="0" />
	<path style="fill:none;stroke:red;stroke-width:1px;stroke-linecap:butt;stroke-linejoin:miter;stroke-opacity:1" d="M 212.615,4 220.209,18.309 z" id="boundary" inkscape:connector-curvature="0" />
	<path style="fill:none;stroke:red;stroke-width:1px;stroke-linecap:butt;stroke-linejoin:miter;stroke-opacity:1" d="M 214.757,746.363 236.458,745.738 z" id="boundary" inkscape:connector-curvature="0" />
	<path style="fill:none;stroke:red;stroke-width:1px;stroke-linecap:butt;stroke-linejoin:miter;stroke-opacity:1" d="M 260.999,72.6492 262.964,63.566 z" id="boundary" inkscape:connector-curvature="0" />
	<path style="fill:none;stroke:red;stroke-width:1px;stroke-linecap:butt;stroke-linejoin:miter;stroke-opacity:1" d="M 262.964,63.566 274.766,59.6274 z" id="boundary" inkscape:connector-curvature="0" />
	<path style="fill:none;stroke:red;stroke-width:1px;stroke-linecap:butt;stroke-linejoin:miter;stroke-opacity:1" d="M 307.301,100.313 313.051,65.0592 z" id="boundary" inkscape:connector-curvature="0" />
	<path style="fill:none;stroke:red;stroke-width:1px;stroke-linecap:butt;stroke-linejoin:miter;stroke-opacity:1" d="M 313.051,65.0592 286.167,64.1871 z" id="boundary" inkscape:connector-curvature="0" />
	<path style="fill:none;stroke:red;stroke-width:1px;stroke-linecap:butt;stroke-linejoin:miter;stroke-opacity:1" d="M 274.766,59.6274 286.167,64.1871 z" id="boundary" inkscape:connector-curvature="0" />
	<path style="fill:none;stroke:red;stroke-width:1px;stroke-linecap:butt;stroke-linejoin:miter;stroke-opacity:1" d="M 214.757,746.363 193.326,739.519 z" id="boundary" inkscape:connector-curvature="0" />
	<path style="fill:none;stroke:red;stroke-width:1px;stroke-linecap:butt;stroke-linejoin:miter;stroke-opacity:1" d="M 188.842,739.945 193.326,739.519 z" id="boundary" inkscape:connector-curvature="0" />
	<path style="fill:none;stroke:red;stroke-width:1px;stroke-linecap:butt;stroke-linejoin:miter;stroke-opacity:1" d="M 246.792,741.876 236.458,745.738 z" id="boundary" inkscape:connector-curvature="0" />
	<path style="fill:none;stroke:red;stroke-width:1px;stroke-linecap:butt;stroke-linejoin:miter;stroke-opacity:1" d="M 262.274,724.162 247.535,736.589 z" id="boundary" inkscape:connector-curvature="0" />
	<path style="fill:none;stroke:red;stroke-width:1px;stroke-linecap:butt;stroke-linejoin:miter;stroke-opacity:1" d="M 262.274,724.162 259.401,716.018 z" id="boundary" inkscape:connector-curvature="0" />
	<path style="fill:none;stroke:red;stroke-width:1px;stroke-linecap:butt;stroke-linejoin:miter;stroke-opacity:1" d="M 246.792,741.876 247.535,736.589 z" id="boundary" inkscape:connector-curvature="0" />
	<path style="fill:none;stroke:red;stroke-width:1px;stroke-linecap:butt;stroke-linejoin:miter;stroke-opacity:1" d="M 276.916,41.731 280.601,42.5098 z" id="boundary" inkscape:connector-curvature="0" />
	<path style="fill:none;stroke:red;stroke-width:1px;stroke-linecap:butt;stroke-linejoin:miter;stroke-opacity:1" d="M 280.845,613.69 274.026,619.821 z" id="boundary" inkscape:connector-curvature="0" />
	<path style="fill:none;stroke:red;stroke-width:1px;stroke-linecap:butt;stroke-linejoin:miter;stroke-opacity:1" d="M 225.787,766.17 233.394,801.913 z" id="boundary" inkscape:connector-curvature="0" />
	<path style="fill:none;stroke:red;stroke-width:1px;stroke-linecap:butt;stroke-linejoin:miter;stroke-opacity:1" d="M 237.519,677.696 238.715,703.273 z" id="boundary" inkscape:connector-curvature="0" />
	<path style="fill:none;stroke:red;stroke-width:1px;stroke-linecap:butt;stroke-linejoin:miter;stroke-opacity:1" d="M 350.823,631.557 329.656,626.603 z" id="boundary" inkscape:connector-curvature="0" />
	<path style="fill:none;stroke:red;stroke-width:1px;stroke-linecap:butt;stroke-linejoin:miter;stroke-opacity:1" d="M 237.519,677.696 231.37,678.182 z" id="boundary" inkscape:connector-curvature="0" />
	<path style="fill:none;stroke:red;stroke-width:1px;stroke-linecap:butt;stroke-linejoin:miter;stroke-opacity:1" d="M 323.272,740.775 325.492,747.909 z" id="boundary" inkscape:connector-curvature="0" />
	<path style="fill:none;stroke:red;stroke-width:1px;stroke-linecap:butt;stroke-linejoin:miter;stroke-opacity:1" d="M 325.492,747.909 310.686,749.687 z" id="boundary" inkscape:connector-curvature="0" />
	<path style="fill:none;stroke:red;stroke-width:1px;stroke-linecap:butt;stroke-linejoin:miter;stroke-opacity:1" d="M 291.329,744.378 261.89,749.33 z" id="boundary" inkscape:connector-curvature="0" />
	<path style="fill:none;stroke:red;stroke-width:1px;stroke-linecap:butt;stroke-linejoin:miter;stroke-opacity:1" d="M 280.833,701.61 277.097,710.355 z" id="boundary" inkscape:connector-curvature="0" />
	<path style="fill:none;stroke:red;stroke-width:1px;stroke-linecap:butt;stroke-linejoin:miter;stroke-opacity:1" d="M 277.097,710.355 259.401,716.018 z" id="boundary" inkscape:connector-curvature="0" />
	<path style="fill:none;stroke:red;stroke-width:1px;stroke-linecap:butt;stroke-linejoin:miter;stroke-opacity:1" d="M 394.712,202.04 391.078,216.707 z" id="boundary" inkscape:connector-curvature="0" />
	<path style="fill:none;stroke:red;stroke-width:1px;stroke-linecap:butt;stroke-linejoin:miter;stroke-opacity:1" d="M 280.93,24.7709 276.916,41.731 z" id="boundary" inkscape:connector-curvature="0" />
	<path style="fill:none;stroke:red;stroke-width:1px;stroke-linecap:butt;stroke-linejoin:miter;stroke-opacity:1" d="M 301.538,649.156 329.656,626.603 z" id="boundary" inkscape:connector-curvature="0" />
	<path style="fill:none;stroke:red;stroke-width:1px;stroke-linecap:butt;stroke-linejoin:miter;stroke-opacity:1" d="M 301.538,649.156 279.909,624.251 z" id="boundary" inkscape:connector-curvature="0" />
	<path style="fill:none;stroke:red;stroke-width:1px;stroke-linecap:butt;stroke-linejoin:miter;stroke-opacity:1" d="M 298.488,11.8838 280.93,24.7709 z" id="boundary" inkscape:connector-curvature="0" />
	<path style="fill:none;stroke:red;stroke-width:1px;stroke-linecap:butt;stroke-linejoin:miter;stroke-opacity:1" d="M 287.876,616.988 280.845,613.69 z" id="boundary" inkscape:connector-curvature="0" />
	<path style="fill:none;stroke:red;stroke-width:1px;stroke-linecap:butt;stroke-linejoin:miter;stroke-opacity:1" d="M 335.957,94.9191 307.301,100.313 z" id="boundary" inkscape:connector-curvature="0" />
	<path style="fill:none;stroke:red;stroke-width:1px;stroke-linecap:butt;stroke-linejoin:miter;stroke-opacity:1" d="M 384.637,142.432 404.575,124.289 z" id="boundary" inkscape:connector-curvature="0" />
	<path style="fill:none;stroke:red;stroke-width:1px;stroke-linecap:butt;stroke-linejoin:miter;stroke-opacity:1" d="M 332.714,673.238 326.234,676.19 z" id="boundary" inkscape:connector-curvature="0" />
	<path style="fill:none;stroke:red;stroke-width:1px;stroke-linecap:butt;stroke-linejoin:miter;stroke-opacity:1" d="M 303.687,698.385 280.833,701.61 z" id="boundary" inkscape:connector-curvature="0" />
	<path style="fill:none;stroke:red;stroke-width:1px;stroke-linecap:butt;stroke-linejoin:miter;stroke-opacity:1" d="M 389.379,183.555 402.145,164.922 z" id="boundary" inkscape:connector-curvature="0" />
	<path style="fill:none;stroke:red;stroke-width:1px;stroke-linecap:butt;stroke-linejoin:miter;stroke-opacity:1" d="M 402.145,164.922 394.496,157.048 z" id="boundary" inkscape:connector-curvature="0" />
	<path style="fill:none;stroke:red;stroke-width:1px;stroke-linecap:butt;stroke-linejoin:miter;stroke-opacity:1" d="M 355.771,665.876 332.714,673.238 z" id="boundary" inkscape:connector-curvature="0" />
	<path style="fill:none;stroke:red;stroke-width:1px;stroke-linecap:butt;stroke-linejoin:miter;stroke-opacity:1" d="M 367.56,100.399 335.957,94.9191 z" id="boundary" inkscape:connector-curvature="0" />
	<path style="fill:none;stroke:red;stroke-width:1px;stroke-linecap:butt;stroke-linejoin:miter;stroke-opacity:1" d="M 366.519,630.522 387.592,652.652 z" id="boundary" inkscape:connector-curvature="0" />
	<path style="fill:none;stroke:red;stroke-width:1px;stroke-linecap:butt;stroke-linejoin:miter;stroke-opacity:1" d="M 350.823,631.557 366.519,630.522 z" id="boundary" inkscape:connector-curvature="0" />
	<path style="fill:none;stroke:red;stroke-width:1px;stroke-linecap:butt;stroke-linejoin:miter;stroke-opacity:1" d="M 391.277,89.7051 384.496,95.2819 z" id="boundary" inkscape:connector-curvature="0" />
	<path style="fill:none;stroke:red;stroke-width:1px;stroke-linecap:butt;stroke-linejoin:miter;stroke-opacity:1" d="M 384.496,95.2819 367.56,100.399 z" id="boundary" inkscape:connector-curvature="0" />
	<path style="fill:none;stroke:red;stroke-width:1px;stroke-linecap:butt;stroke-linejoin:miter;stroke-opacity:1" d="M 397.831,86.9391 391.277,89.7051 z" id="boundary" inkscape:connector-curvature="0" />
	<path style="fill:none;stroke:red;stroke-width:1px;stroke-linecap:butt;stroke-linejoin:miter;stroke-opacity:1" d="M 373.824,671.265 355.771,665.876 z" id="boundary" inkscape:connector-curvature="0" />
	<path style="fill:none;stroke:red;stroke-width:1px;stroke-linecap:butt;stroke-linejoin:miter;stroke-opacity:1" d="M 384.637,142.432 394.496,157.048 z" id="boundary" inkscape:connector-curvature="0" />
	<path style="fill:none;stroke:red;stroke-width:1px;stroke-linecap:butt;stroke-linejoin:miter;stroke-opacity:1" d="M 395.369,675.706 373.824,671.265 z" id="boundary" inkscape:connector-curvature="0" />
	<path style="fill:none;stroke:red;stroke-width:1px;stroke-linecap:butt;stroke-linejoin:miter;stroke-opacity:1" d="M 466.456,479.055 471.863,486.788 z" id="boundary" inkscape:connector-curvature="0" />
	<path style="fill:none;stroke:red;stroke-width:1px;stroke-linecap:butt;stroke-linejoin:miter;stroke-opacity:1" d="M 471.863,486.788 451.162,506.472 z" id="boundary" inkscape:connector-curvature="0" />
	<path style="fill:none;stroke:red;stroke-width:1px;stroke-linecap:butt;stroke-linejoin:miter;stroke-opacity:1" d="M 393.945,610.456 411.598,617.094 z" id="boundary" inkscape:connector-curvature="0" />
	<path style="fill:none;stroke:red;stroke-width:1px;stroke-linecap:butt;stroke-linejoin:miter;stroke-opacity:1" d="M 534.539,163.46 531.913,169.857 z" id="boundary" inkscape:connector-curvature="0" />
	<path style="fill:none;stroke:red;stroke-width:1px;stroke-linecap:butt;stroke-linejoin:miter;stroke-opacity:1" d="M 393.106,603.81 393.945,610.456 z" id="boundary" inkscape:connector-curvature="0" />
	<path style="fill:none;stroke:red;stroke-width:1px;stroke-linecap:butt;stroke-linejoin:miter;stroke-opacity:1" d="M 399.65,598.865 393.106,603.81 z" id="boundary" inkscape:connector-curvature="0" />
	<path style="fill:none;stroke:red;stroke-width:1px;stroke-linecap:butt;stroke-linejoin:miter;stroke-opacity:1" d="M 401.385,226.81 405.49,228.147 z" id="boundary" inkscape:connector-curvature="0" />
	<path style="fill:none;stroke:red;stroke-width:1px;stroke-linecap:butt;stroke-linejoin:miter;stroke-opacity:1" d="M 434.907,260.154 452.757,255.44 z" id="boundary" inkscape:connector-curvature="0" />
	<path style="fill:none;stroke:red;stroke-width:1px;stroke-linecap:butt;stroke-linejoin:miter;stroke-opacity:1" d="M 452.757,255.44 445.206,240.14 z" id="boundary" inkscape:connector-curvature="0" />
	<path style="fill:none;stroke:red;stroke-width:1px;stroke-linecap:butt;stroke-linejoin:miter;stroke-opacity:1" d="M 386.021,568.306 382.276,565.164 z" id="boundary" inkscape:connector-curvature="0" />
	<path style="fill:none;stroke:red;stroke-width:1px;stroke-linecap:butt;stroke-linejoin:miter;stroke-opacity:1" d="M 419.135,193.409 404.629,207.879 z" id="boundary" inkscape:connector-curvature="0" />
	<path style="fill:none;stroke:red;stroke-width:1px;stroke-linecap:butt;stroke-linejoin:miter;stroke-opacity:1" d="M 404.629,207.879 394.712,202.04 z" id="boundary" inkscape:connector-curvature="0" />
	<path style="fill:none;stroke:red;stroke-width:1px;stroke-linecap:butt;stroke-linejoin:miter;stroke-opacity:1" d="M 432.801,545.193 408.728,553.754 z" id="boundary" inkscape:connector-curvature="0" />
	<path style="fill:none;stroke:red;stroke-width:1px;stroke-linecap:butt;stroke-linejoin:miter;stroke-opacity:1" d="M 399.65,598.865 412.792,594.338 z" id="boundary" inkscape:connector-curvature="0" />
	<path style="fill:none;stroke:red;stroke-width:1px;stroke-linecap:butt;stroke-linejoin:miter;stroke-opacity:1" d="M 434.982,524.114 451.162,506.472 z" id="boundary" inkscape:connector-curvature="0" />
	<path style="fill:none;stroke:red;stroke-width:1px;stroke-linecap:butt;stroke-linejoin:miter;stroke-opacity:1" d="M 432.801,545.193 434.982,524.114 z" id="boundary" inkscape:connector-curvature="0" />
	<path style="fill:none;stroke:red;stroke-width:1px;stroke-linecap:butt;stroke-linejoin:miter;stroke-opacity:1" d="M 386.021,568.306 408.728,553.754 z" id="boundary" inkscape:connector-curvature="0" />
	<path style="fill:none;stroke:red;stroke-width:1px;stroke-linecap:butt;stroke-linejoin:miter;stroke-opacity:1" d="M 401.385,226.81 398.616,236.607 z" id="boundary" inkscape:connector-curvature="0" />
	<path style="fill:none;stroke:red;stroke-width:1px;stroke-linecap:butt;stroke-linejoin:miter;stroke-opacity:1" d="M 405.842,243.453 395.871,261.046 z" id="boundary" inkscape:connector-curvature="0" />
	<path style="fill:none;stroke:red;stroke-width:1px;stroke-linecap:butt;stroke-linejoin:miter;stroke-opacity:1" d="M 405.842,243.453 398.616,236.607 z" id="boundary" inkscape:connector-curvature="0" />
	<path style="fill:none;stroke:red;stroke-width:1px;stroke-linecap:butt;stroke-linejoin:miter;stroke-opacity:1" d="M 531.913,169.857 558.068,190.463 z" id="boundary" inkscape:connector-curvature="0" />
	<path style="fill:none;stroke:red;stroke-width:1px;stroke-linecap:butt;stroke-linejoin:miter;stroke-opacity:1" d="M 429.58,474.519 414.229,507.858 z" id="boundary" inkscape:connector-curvature="0" />
	<path style="fill:none;stroke:red;stroke-width:1px;stroke-linecap:butt;stroke-linejoin:miter;stroke-opacity:1" d="M 401.017,297.179 395.871,261.046 z" id="boundary" inkscape:connector-curvature="0" />
	<path style="fill:none;stroke:red;stroke-width:1px;stroke-linecap:butt;stroke-linejoin:miter;stroke-opacity:1" d="M 401.017,297.179 408.384,309.43 z" id="boundary" inkscape:connector-curvature="0" />
	<path style="fill:none;stroke:red;stroke-width:1px;stroke-linecap:butt;stroke-linejoin:miter;stroke-opacity:1" d="M 408.384,309.43 402.587,323.007 z" id="boundary" inkscape:connector-curvature="0" />
	<path style="fill:none;stroke:red;stroke-width:1px;stroke-linecap:butt;stroke-linejoin:miter;stroke-opacity:1" d="M 402.587,323.007 431.338,329.492 z" id="boundary" inkscape:connector-curvature="0" />
	<path style="fill:none;stroke:red;stroke-width:1px;stroke-linecap:butt;stroke-linejoin:miter;stroke-opacity:1" d="M 437.021,344.649 431.338,329.492 z" id="boundary" inkscape:connector-curvature="0" />
	<path style="fill:none;stroke:red;stroke-width:1px;stroke-linecap:butt;stroke-linejoin:miter;stroke-opacity:1" d="M 437.021,344.649 456.222,362.128 z" id="boundary" inkscape:connector-curvature="0" />
	<path style="fill:none;stroke:red;stroke-width:1px;stroke-linecap:butt;stroke-linejoin:miter;stroke-opacity:1" d="M 434.211,436.238 443.47,432.97 z" id="boundary" inkscape:connector-curvature="0" />
	<path style="fill:none;stroke:red;stroke-width:1px;stroke-linecap:butt;stroke-linejoin:miter;stroke-opacity:1" d="M 443.47,432.97 455.225,451.099 z" id="boundary" inkscape:connector-curvature="0" />
	<path style="fill:none;stroke:red;stroke-width:1px;stroke-linecap:butt;stroke-linejoin:miter;stroke-opacity:1" d="M 438.391,395.577 456.222,362.128 z" id="boundary" inkscape:connector-curvature="0" />
	<path style="fill:none;stroke:red;stroke-width:1px;stroke-linecap:butt;stroke-linejoin:miter;stroke-opacity:1" d="M 426.444,418.118 439.934,404.735 z" id="boundary" inkscape:connector-curvature="0" />
	<path style="fill:none;stroke:red;stroke-width:1px;stroke-linecap:butt;stroke-linejoin:miter;stroke-opacity:1" d="M 536.985,517.961 517.832,498.758 z" id="boundary" inkscape:connector-curvature="0" />
	<path style="fill:none;stroke:red;stroke-width:1px;stroke-linecap:butt;stroke-linejoin:miter;stroke-opacity:1" d="M 547.533,432.851 542.125,469.173 z" id="boundary" inkscape:connector-curvature="0" />
	<path style="fill:none;stroke:red;stroke-width:1px;stroke-linecap:butt;stroke-linejoin:miter;stroke-opacity:1" d="M 438.391,395.577 439.934,404.735 z" id="boundary" inkscape:connector-curvature="0" />
	<path style="fill:none;stroke:red;stroke-width:1px;stroke-linecap:butt;stroke-linejoin:miter;stroke-opacity:1" d="M 455.225,451.099 447.989,464.996 z" id="boundary" inkscape:connector-curvature="0" />
	<path style="fill:none;stroke:red;stroke-width:1px;stroke-linecap:butt;stroke-linejoin:miter;stroke-opacity:1" d="M 447.989,464.996 429.58,474.519 z" id="boundary" inkscape:connector-curvature="0" />
	<path style="fill:none;stroke:red;stroke-width:1px;stroke-linecap:butt;stroke-linejoin:miter;stroke-opacity:1" d="M 474.432,434.361 485.106,444.517 z" id="boundary" inkscape:connector-curvature="0" />
	<path style="fill:none;stroke:red;stroke-width:1px;stroke-linecap:butt;stroke-linejoin:miter;stroke-opacity:1" d="M 485.106,444.517 478.765,454.469 z" id="boundary" inkscape:connector-curvature="0" />
	<path style="fill:none;stroke:red;stroke-width:1px;stroke-linecap:butt;stroke-linejoin:miter;stroke-opacity:1" d="M 478.765,454.469 476.375,456.088 z" id="boundary" inkscape:connector-curvature="0" />
	<path style="fill:none;stroke:red;stroke-width:1px;stroke-linecap:butt;stroke-linejoin:miter;stroke-opacity:1" d="M 434.211,436.238 426.444,418.118 z" id="boundary" inkscape:connector-curvature="0" />
	<path style="fill:none;stroke:red;stroke-width:1px;stroke-linecap:butt;stroke-linejoin:miter;stroke-opacity:1" d="M 553.619,496.428 548.96,508.733 z" id="boundary" inkscape:connector-curvature="0" />
	<path style="fill:none;stroke:red;stroke-width:1px;stroke-linecap:butt;stroke-linejoin:miter;stroke-opacity:1" d="M 553.619,496.428 560.858,487.089 z" id="boundary" inkscape:connector-curvature="0" />
	<path style="fill:none;stroke:red;stroke-width:1px;stroke-linecap:butt;stroke-linejoin:miter;stroke-opacity:1" d="M 548.105,471.76 542.125,469.173 z" id="boundary" inkscape:connector-curvature="0" />
	<path style="fill:none;stroke:red;stroke-width:1px;stroke-linecap:butt;stroke-linejoin:miter;stroke-opacity:1" d="M 560.858,487.089 548.105,471.76 z" id="boundary" inkscape:connector-curvature="0" />
	<path style="fill:none;stroke:red;stroke-width:1px;stroke-linecap:butt;stroke-linejoin:miter;stroke-opacity:1" d="M 549.007,511.191 536.985,517.961 z" id="boundary" inkscape:connector-curvature="0" />
	<path style="fill:none;stroke:red;stroke-width:1px;stroke-linecap:butt;stroke-linejoin:miter;stroke-opacity:1" d="M 549.007,511.191 548.96,508.733 z" id="boundary" inkscape:connector-curvature="0" />
	<path style="fill:none;stroke:red;stroke-width:1px;stroke-linecap:butt;stroke-linejoin:miter;stroke-opacity:1" d="M 547.209,417.894 544.929,400.006 z" id="boundary" inkscape:connector-curvature="0" />
	<path style="fill:none;stroke:red;stroke-width:1px;stroke-linecap:butt;stroke-linejoin:miter;stroke-opacity:1" d="M 544.929,400.006 532.073,400.505 z" id="boundary" inkscape:connector-curvature="0" />
	<path style="fill:none;stroke:red;stroke-width:1px;stroke-linecap:butt;stroke-linejoin:miter;stroke-opacity:1" d="M 521.908,377.954 521.566,372.865 z" id="boundary" inkscape:connector-curvature="0" />
	<path style="fill:none;stroke:red;stroke-width:1px;stroke-linecap:butt;stroke-linejoin:miter;stroke-opacity:1" d="M 547.209,417.894 547.533,432.851 z" id="boundary" inkscape:connector-curvature="0" />
	<path style="fill:none;stroke:red;stroke-width:1px;stroke-linecap:butt;stroke-linejoin:miter;stroke-opacity:1" d="M 521.566,372.865 526.28,368.695 z" id="boundary" inkscape:connector-curvature="0" />
	<path style="fill:none;stroke:red;stroke-width:1px;stroke-linecap:butt;stroke-linejoin:miter;stroke-opacity:1" d="M 575.533,589.004 536.277,557.228 z" id="boundary" inkscape:connector-curvature="0" />
	<path style="fill:none;stroke:red;stroke-width:1px;stroke-linecap:butt;stroke-linejoin:miter;stroke-opacity:1" d="M 516.131,352.013 526.28,368.695 z" id="boundary" inkscape:connector-curvature="0" />
	<path style="fill:none;stroke:red;stroke-width:1px;stroke-linecap:butt;stroke-linejoin:miter;stroke-opacity:1" d="M 532.073,400.505 521.908,377.954 z" id="boundary" inkscape:connector-curvature="0" />
	<path style="fill:none;stroke:red;stroke-width:1px;stroke-linecap:butt;stroke-linejoin:miter;stroke-opacity:1" d="M 525.116,315.926 517.395,295.708 z" id="boundary" inkscape:connector-curvature="0" />
	<path style="fill:none;stroke:red;stroke-width:1px;stroke-linecap:butt;stroke-linejoin:miter;stroke-opacity:1" d="M 525.116,315.926 516.131,352.013 z" id="boundary" inkscape:connector-curvature="0" />
	<path style="fill:none;stroke:red;stroke-width:1px;stroke-linecap:butt;stroke-linejoin:miter;stroke-opacity:1" d="M 567.662,385.538 566.435,347.293 z" id="boundary" inkscape:connector-curvature="0" />
	<path style="fill:none;stroke:red;stroke-width:1px;stroke-linecap:butt;stroke-linejoin:miter;stroke-opacity:1" d="M 566.435,347.293 585.285,299.637 z" id="boundary" inkscape:connector-curvature="0" />
	<path style="fill:none;stroke:red;stroke-width:1px;stroke-linecap:butt;stroke-linejoin:miter;stroke-opacity:1" d="M 661.297,97.9854 649.928,75.4983 z" id="boundary" inkscape:connector-curvature="0" />
	<path style="fill:none;stroke:red;stroke-width:1px;stroke-linecap:butt;stroke-linejoin:miter;stroke-opacity:1" d="M 649.928,75.4983 634.306,79.6539 z" id="boundary" inkscape:connector-curvature="0" />
	<path style="fill:none;stroke:red;stroke-width:1px;stroke-linecap:butt;stroke-linejoin:miter;stroke-opacity:1" d="M 538.893,266.006 562.992,252.785 z" id="boundary" inkscape:connector-curvature="0" />
	<path style="fill:none;stroke:red;stroke-width:1px;stroke-linecap:butt;stroke-linejoin:miter;stroke-opacity:1" d="M 562.992,252.785 558.372,244.366 z" id="boundary" inkscape:connector-curvature="0" />
	<path style="fill:none;stroke:red;stroke-width:1px;stroke-linecap:butt;stroke-linejoin:miter;stroke-opacity:1" d="M 590.405,113.178 571.836,119.249 z" id="boundary" inkscape:connector-curvature="0" />
	<path style="fill:none;stroke:red;stroke-width:1px;stroke-linecap:butt;stroke-linejoin:miter;stroke-opacity:1" d="M 601.725,138.03 574.65,143.653 z" id="boundary" inkscape:connector-curvature="0" />
	<path style="fill:none;stroke:red;stroke-width:1px;stroke-linecap:butt;stroke-linejoin:miter;stroke-opacity:1" d="M 906.997,210.507 913.415,228.872 z" id="boundary" inkscape:connector-curvature="0" />
	<path style="fill:none;stroke:red;stroke-width:1px;stroke-linecap:butt;stroke-linejoin:miter;stroke-opacity:1" d="M 557.318,114.676 571.836,119.249 z" id="boundary" inkscape:connector-curvature="0" />
	<path style="fill:none;stroke:red;stroke-width:1px;stroke-linecap:butt;stroke-linejoin:miter;stroke-opacity:1" d="M 556.192,219.326 558.068,190.463 z" id="boundary" inkscape:connector-curvature="0" />
	<path style="fill:none;stroke:red;stroke-width:1px;stroke-linecap:butt;stroke-linejoin:miter;stroke-opacity:1" d="M 538.893,266.006 517.395,295.708 z" id="boundary" inkscape:connector-curvature="0" />
	<path style="fill:none;stroke:red;stroke-width:1px;stroke-linecap:butt;stroke-linejoin:miter;stroke-opacity:1" d="M 622.477,77.1893 601.911,69.245 z" id="boundary" inkscape:connector-curvature="0" />
	<path style="fill:none;stroke:red;stroke-width:1px;stroke-linecap:butt;stroke-linejoin:miter;stroke-opacity:1" d="M 601.725,138.03 590.405,113.178 z" id="boundary" inkscape:connector-curvature="0" />
	<path style="fill:none;stroke:red;stroke-width:1px;stroke-linecap:butt;stroke-linejoin:miter;stroke-opacity:1" d="M 558.109,230.176 556.192,219.326 z" id="boundary" inkscape:connector-curvature="0" />
	<path style="fill:none;stroke:red;stroke-width:1px;stroke-linecap:butt;stroke-linejoin:miter;stroke-opacity:1" d="M 586.36,533.952 577.174,517.326 z" id="boundary" inkscape:connector-curvature="0" />
	<path style="fill:none;stroke:red;stroke-width:1px;stroke-linecap:butt;stroke-linejoin:miter;stroke-opacity:1" d="M 577.174,517.326 554.56,528.14 z" id="boundary" inkscape:connector-curvature="0" />
	<path style="fill:none;stroke:red;stroke-width:1px;stroke-linecap:butt;stroke-linejoin:miter;stroke-opacity:1" d="M 592.709,544.614 586.36,533.952 z" id="boundary" inkscape:connector-curvature="0" />
	<path style="fill:none;stroke:red;stroke-width:1px;stroke-linecap:butt;stroke-linejoin:miter;stroke-opacity:1" d="M 584.904,292.257 565.323,284.718 z" id="boundary" inkscape:connector-curvature="0" />
	<path style="fill:none;stroke:red;stroke-width:1px;stroke-linecap:butt;stroke-linejoin:miter;stroke-opacity:1" d="M 584.904,292.257 585.285,299.637 z" id="boundary" inkscape:connector-curvature="0" />
	<path style="fill:none;stroke:red;stroke-width:1px;stroke-linecap:butt;stroke-linejoin:miter;stroke-opacity:1" d="M 558.372,244.366 558.109,230.176 z" id="boundary" inkscape:connector-curvature="0" />
	<path style="fill:none;stroke:red;stroke-width:1px;stroke-linecap:butt;stroke-linejoin:miter;stroke-opacity:1" d="M 622.477,77.1893 634.306,79.6539 z" id="boundary" inkscape:connector-curvature="0" />
	<path style="fill:none;stroke:red;stroke-width:1px;stroke-linecap:butt;stroke-linejoin:miter;stroke-opacity:1" d="M 604.893,580.404 592.709,544.614 z" id="boundary" inkscape:connector-curvature="0" />
	<path style="fill:none;stroke:red;stroke-width:1px;stroke-linecap:butt;stroke-linejoin:miter;stroke-opacity:1" d="M 461.465,756.052 470.296,757.694 z" id="boundary" inkscape:connector-curvature="0" />
	<path style="fill:none;stroke:red;stroke-width:1px;stroke-linecap:butt;stroke-linejoin:miter;stroke-opacity:1" d="M 461.465,756.052 451.696,758.637 z" id="boundary" inkscape:connector-curvature="0" />
	<path style="fill:none;stroke:red;stroke-width:1px;stroke-linecap:butt;stroke-linejoin:miter;stroke-opacity:1" d="M 601.911,69.245 590.85,64.0242 z" id="boundary" inkscape:connector-curvature="0" />
	<path style="fill:none;stroke:red;stroke-width:1px;stroke-linecap:butt;stroke-linejoin:miter;stroke-opacity:1" d="M 580.25,591.293 575.533,589.004 z" id="boundary" inkscape:connector-curvature="0" />
	<path style="fill:none;stroke:red;stroke-width:1px;stroke-linecap:butt;stroke-linejoin:miter;stroke-opacity:1" d="M 580.25,591.293 604.893,580.404 z" id="boundary" inkscape:connector-curvature="0" />
	<path style="fill:none;stroke:red;stroke-width:1px;stroke-linecap:butt;stroke-linejoin:miter;stroke-opacity:1" d="M 630.973,664.108 608.169,648.732 z" id="boundary" inkscape:connector-curvature="0" />
	<path style="fill:none;stroke:red;stroke-width:1px;stroke-linecap:butt;stroke-linejoin:miter;stroke-opacity:1" d="M 630.973,664.108 636.106,644.554 z" id="boundary" inkscape:connector-curvature="0" />
	<path style="fill:none;stroke:red;stroke-width:1px;stroke-linecap:butt;stroke-linejoin:miter;stroke-opacity:1" d="M 636.106,644.554 644.034,641.643 z" id="boundary" inkscape:connector-curvature="0" />
	<path style="fill:none;stroke:red;stroke-width:1px;stroke-linecap:butt;stroke-linejoin:miter;stroke-opacity:1" d="M 644.034,641.643 651.147,638.722 z" id="boundary" inkscape:connector-curvature="0" />
	<path style="fill:none;stroke:red;stroke-width:1px;stroke-linecap:butt;stroke-linejoin:miter;stroke-opacity:1" d="M 658.952,609.285 673.045,600.546 z" id="boundary" inkscape:connector-curvature="0" />
	<path style="fill:none;stroke:red;stroke-width:1px;stroke-linecap:butt;stroke-linejoin:miter;stroke-opacity:1" d="M 670.385,50.4445 668.603,53.6267 z" id="boundary" inkscape:connector-curvature="0" />
	<path style="fill:none;stroke:red;stroke-width:1px;stroke-linecap:butt;stroke-linejoin:miter;stroke-opacity:1" d="M 668.603,53.6267 648.315,40.8896 z" id="boundary" inkscape:connector-curvature="0" />
	<path style="fill:none;stroke:red;stroke-width:1px;stroke-linecap:butt;stroke-linejoin:miter;stroke-opacity:1" d="M 874.785,121.575 859.035,87.295 z" id="boundary" inkscape:connector-curvature="0" />
	<path style="fill:none;stroke:red;stroke-width:1px;stroke-linecap:butt;stroke-linejoin:miter;stroke-opacity:1" d="M 658.952,609.285 651.428,596.017 z" id="boundary" inkscape:connector-curvature="0" />
	<path style="fill:none;stroke:red;stroke-width:1px;stroke-linecap:butt;stroke-linejoin:miter;stroke-opacity:1" d="M 732.825,52.6623 721.518,58.5449 z" id="boundary" inkscape:connector-curvature="0" />
	<path style="fill:none;stroke:red;stroke-width:1px;stroke-linecap:butt;stroke-linejoin:miter;stroke-opacity:1" d="M 673.376,52.7448 685.831,59.052 z" id="boundary" inkscape:connector-curvature="0" />
	<path style="fill:none;stroke:red;stroke-width:1px;stroke-linecap:butt;stroke-linejoin:miter;stroke-opacity:1" d="M 651.147,638.722 681.435,634.696 z" id="boundary" inkscape:connector-curvature="0" />
	<path style="fill:none;stroke:red;stroke-width:1px;stroke-linecap:butt;stroke-linejoin:miter;stroke-opacity:1" d="M 673.195,85.2194 661.297,97.9854 z" id="boundary" inkscape:connector-curvature="0" />
	<path style="fill:none;stroke:red;stroke-width:1px;stroke-linecap:butt;stroke-linejoin:miter;stroke-opacity:1" d="M 713.999,686.086 716.575,666.056 z" id="boundary" inkscape:connector-curvature="0" />
	<path style="fill:none;stroke:red;stroke-width:1px;stroke-linecap:butt;stroke-linejoin:miter;stroke-opacity:1" d="M 681.435,634.696 696.286,625.423 z" id="boundary" inkscape:connector-curvature="0" />
	<path style="fill:none;stroke:red;stroke-width:1px;stroke-linecap:butt;stroke-linejoin:miter;stroke-opacity:1" d="M 696.286,625.423 673.045,600.546 z" id="boundary" inkscape:connector-curvature="0" />
	<path style="fill:none;stroke:red;stroke-width:1px;stroke-linecap:butt;stroke-linejoin:miter;stroke-opacity:1" d="M 673.376,52.7448 670.385,50.4445 z" id="boundary" inkscape:connector-curvature="0" />
	<path style="fill:none;stroke:red;stroke-width:1px;stroke-linecap:butt;stroke-linejoin:miter;stroke-opacity:1" d="M 720.132,703.051 713.999,686.086 z" id="boundary" inkscape:connector-curvature="0" />
	<path style="fill:none;stroke:red;stroke-width:1px;stroke-linecap:butt;stroke-linejoin:miter;stroke-opacity:1" d="M 799.008,61.9778 800.491,80.8336 z" id="boundary" inkscape:connector-curvature="0" />
	<path style="fill:none;stroke:red;stroke-width:1px;stroke-linecap:butt;stroke-linejoin:miter;stroke-opacity:1" d="M 887.205,143.266 910.374,133.967 z" id="boundary" inkscape:connector-curvature="0" />
	<path style="fill:none;stroke:red;stroke-width:1px;stroke-linecap:butt;stroke-linejoin:miter;stroke-opacity:1" d="M 716.575,666.056 723.14,651.398 z" id="boundary" inkscape:connector-curvature="0" />
	<path style="fill:none;stroke:red;stroke-width:1px;stroke-linecap:butt;stroke-linejoin:miter;stroke-opacity:1" d="M 718.807,765.792 717.496,755.102 z" id="boundary" inkscape:connector-curvature="0" />
	<path style="fill:none;stroke:red;stroke-width:1px;stroke-linecap:butt;stroke-linejoin:miter;stroke-opacity:1" d="M 682.759,726.804 668.126,715.597 z" id="boundary" inkscape:connector-curvature="0" />
	<path style="fill:none;stroke:red;stroke-width:1px;stroke-linecap:butt;stroke-linejoin:miter;stroke-opacity:1" d="M 668.126,715.597 683.614,708.102 z" id="boundary" inkscape:connector-curvature="0" />
	<path style="fill:none;stroke:red;stroke-width:1px;stroke-linecap:butt;stroke-linejoin:miter;stroke-opacity:1" d="M 684.681,696.408 683.614,708.102 z" id="boundary" inkscape:connector-curvature="0" />
	<path style="fill:none;stroke:red;stroke-width:1px;stroke-linecap:butt;stroke-linejoin:miter;stroke-opacity:1" d="M 735.113,753.033 730.82,748.732 z" id="boundary" inkscape:connector-curvature="0" />
	<path style="fill:none;stroke:red;stroke-width:1px;stroke-linecap:butt;stroke-linejoin:miter;stroke-opacity:1" d="M 710.247,747.65 708.631,740.568 z" id="boundary" inkscape:connector-curvature="0" />
	<path style="fill:none;stroke:red;stroke-width:1px;stroke-linecap:butt;stroke-linejoin:miter;stroke-opacity:1" d="M 720.132,703.051 708.55,723.419 z" id="boundary" inkscape:connector-curvature="0" />
	<path style="fill:none;stroke:red;stroke-width:1px;stroke-linecap:butt;stroke-linejoin:miter;stroke-opacity:1" d="M 684.681,696.408 680.634,693.537 z" id="boundary" inkscape:connector-curvature="0" />
	<path style="fill:none;stroke:red;stroke-width:1px;stroke-linecap:butt;stroke-linejoin:miter;stroke-opacity:1" d="M 675.146,757.022 677.649,765.122 z" id="boundary" inkscape:connector-curvature="0" />
	<path style="fill:none;stroke:red;stroke-width:1px;stroke-linecap:butt;stroke-linejoin:miter;stroke-opacity:1" d="M 677.649,765.122 680.22,765.685 z" id="boundary" inkscape:connector-curvature="0" />
	<path style="fill:none;stroke:red;stroke-width:1px;stroke-linecap:butt;stroke-linejoin:miter;stroke-opacity:1" d="M 740.508,728.863 727.83,743.025 z" id="boundary" inkscape:connector-curvature="0" />
	<path style="fill:none;stroke:red;stroke-width:1px;stroke-linecap:butt;stroke-linejoin:miter;stroke-opacity:1" d="M 479.344,760.825 488.665,768.711 z" id="boundary" inkscape:connector-curvature="0" />
	<path style="fill:none;stroke:red;stroke-width:1px;stroke-linecap:butt;stroke-linejoin:miter;stroke-opacity:1" d="M 479.344,760.825 470.296,757.694 z" id="boundary" inkscape:connector-curvature="0" />
	<path style="fill:none;stroke:red;stroke-width:1px;stroke-linecap:butt;stroke-linejoin:miter;stroke-opacity:1" d="M 418.447,766.982 429.899,773.512 z" id="boundary" inkscape:connector-curvature="0" />
	<path style="fill:none;stroke:red;stroke-width:1px;stroke-linecap:butt;stroke-linejoin:miter;stroke-opacity:1" d="M 685.831,59.052 673.195,85.2194 z" id="boundary" inkscape:connector-curvature="0" />
	<path style="fill:none;stroke:red;stroke-width:1px;stroke-linecap:butt;stroke-linejoin:miter;stroke-opacity:1" d="M 333.531,789.863 338.246,789.588 z" id="boundary" inkscape:connector-curvature="0" />
	<path style="fill:none;stroke:red;stroke-width:1px;stroke-linecap:butt;stroke-linejoin:miter;stroke-opacity:1" d="M 720.097,44.4406 721.518,58.5449 z" id="boundary" inkscape:connector-curvature="0" />
	<path style="fill:none;stroke:red;stroke-width:1px;stroke-linecap:butt;stroke-linejoin:miter;stroke-opacity:1" d="M 718.807,765.792 705.774,772.458 z" id="boundary" inkscape:connector-curvature="0" />
	<path style="fill:none;stroke:red;stroke-width:1px;stroke-linecap:butt;stroke-linejoin:miter;stroke-opacity:1" d="M 708.55,723.419 708.631,740.568 z" id="boundary" inkscape:connector-curvature="0" />
	<path style="fill:none;stroke:red;stroke-width:1px;stroke-linecap:butt;stroke-linejoin:miter;stroke-opacity:1" d="M 730.82,748.732 727.83,743.025 z" id="boundary" inkscape:connector-curvature="0" />
	<path style="fill:none;stroke:red;stroke-width:1px;stroke-linecap:butt;stroke-linejoin:miter;stroke-opacity:1" d="M 741.376,29.9529 752.933,23.9261 z" id="boundary" inkscape:connector-curvature="0" />
	<path style="fill:none;stroke:red;stroke-width:1px;stroke-linecap:butt;stroke-linejoin:miter;stroke-opacity:1" d="M 741.376,29.9529 732.825,52.6623 z" id="boundary" inkscape:connector-curvature="0" />
	<path style="fill:none;stroke:red;stroke-width:1px;stroke-linecap:butt;stroke-linejoin:miter;stroke-opacity:1" d="M 704.314,747.984 710.247,747.65 z" id="boundary" inkscape:connector-curvature="0" />
	<path style="fill:none;stroke:red;stroke-width:1px;stroke-linecap:butt;stroke-linejoin:miter;stroke-opacity:1" d="M 740.508,728.863 752.296,733.398 z" id="boundary" inkscape:connector-curvature="0" />
	<path style="fill:none;stroke:red;stroke-width:1px;stroke-linecap:butt;stroke-linejoin:miter;stroke-opacity:1" d="M 789.843,34.0772 761.899,17.8326 z" id="boundary" inkscape:connector-curvature="0" />
	<path style="fill:none;stroke:red;stroke-width:1px;stroke-linecap:butt;stroke-linejoin:miter;stroke-opacity:1" d="M 761.899,17.8326 752.933,23.9261 z" id="boundary" inkscape:connector-curvature="0" />
	<path style="fill:none;stroke:red;stroke-width:1px;stroke-linecap:butt;stroke-linejoin:miter;stroke-opacity:1" d="M 765.557,732.939 752.296,733.398 z" id="boundary" inkscape:connector-curvature="0" />
	<path style="fill:none;stroke:red;stroke-width:1px;stroke-linecap:butt;stroke-linejoin:miter;stroke-opacity:1" d="M 799.382,40.8502 789.843,34.0772 z" id="boundary" inkscape:connector-curvature="0" />
	<path style="fill:none;stroke:red;stroke-width:1px;stroke-linecap:butt;stroke-linejoin:miter;stroke-opacity:1" d="M 795.403,729.434 765.557,732.939 z" id="boundary" inkscape:connector-curvature="0" />
	<path style="fill:none;stroke:red;stroke-width:1px;stroke-linecap:butt;stroke-linejoin:miter;stroke-opacity:1" d="M 784.195,773.416 806.797,768.357 z" id="boundary" inkscape:connector-curvature="0" />
	<path style="fill:none;stroke:red;stroke-width:1px;stroke-linecap:butt;stroke-linejoin:miter;stroke-opacity:1" d="M 799.382,40.8502 799.008,61.9778 z" id="boundary" inkscape:connector-curvature="0" />
	<path style="fill:none;stroke:red;stroke-width:1px;stroke-linecap:butt;stroke-linejoin:miter;stroke-opacity:1" d="M 798.796,728.979 795.403,729.434 z" id="boundary" inkscape:connector-curvature="0" />
	<path style="fill:none;stroke:red;stroke-width:1px;stroke-linecap:butt;stroke-linejoin:miter;stroke-opacity:1" d="M 798.796,728.979 822.843,728.626 z" id="boundary" inkscape:connector-curvature="0" />
	<path style="fill:none;stroke:red;stroke-width:1px;stroke-linecap:butt;stroke-linejoin:miter;stroke-opacity:1" d="M 835.57,677.185 844.413,684.934 z" id="boundary" inkscape:connector-curvature="0" />
	<path style="fill:none;stroke:red;stroke-width:1px;stroke-linecap:butt;stroke-linejoin:miter;stroke-opacity:1" d="M 835.57,677.185 820.57,683.389 z" id="boundary" inkscape:connector-curvature="0" />
	<path style="fill:none;stroke:red;stroke-width:1px;stroke-linecap:butt;stroke-linejoin:miter;stroke-opacity:1" d="M 831.829,585.236 831.358,587.241 z" id="boundary" inkscape:connector-curvature="0" />
	<path style="fill:none;stroke:red;stroke-width:1px;stroke-linecap:butt;stroke-linejoin:miter;stroke-opacity:1" d="M 831.829,585.236 828.03,567.013 z" id="boundary" inkscape:connector-curvature="0" />
	<path style="fill:none;stroke:red;stroke-width:1px;stroke-linecap:butt;stroke-linejoin:miter;stroke-opacity:1" d="M 833.849,508.818 805.619,556.407 z" id="boundary" inkscape:connector-curvature="0" />
	<path style="fill:none;stroke:red;stroke-width:1px;stroke-linecap:butt;stroke-linejoin:miter;stroke-opacity:1" d="M 859.035,87.295 856.843,76.2236 z" id="boundary" inkscape:connector-curvature="0" />
	<path style="fill:none;stroke:red;stroke-width:1px;stroke-linecap:butt;stroke-linejoin:miter;stroke-opacity:1" d="M 828.03,567.013 849.373,566.018 z" id="boundary" inkscape:connector-curvature="0" />
	<path style="fill:none;stroke:red;stroke-width:1px;stroke-linecap:butt;stroke-linejoin:miter;stroke-opacity:1" d="M 868.995,554.846 849.373,566.018 z" id="boundary" inkscape:connector-curvature="0" />
	<path style="fill:none;stroke:red;stroke-width:1px;stroke-linecap:butt;stroke-linejoin:miter;stroke-opacity:1" d="M 854.455,672.522 844.413,684.934 z" id="boundary" inkscape:connector-curvature="0" />
	<path style="fill:none;stroke:red;stroke-width:1px;stroke-linecap:butt;stroke-linejoin:miter;stroke-opacity:1" d="M 822.843,728.626 820.57,683.389 z" id="boundary" inkscape:connector-curvature="0" />
	<path style="fill:none;stroke:red;stroke-width:1px;stroke-linecap:butt;stroke-linejoin:miter;stroke-opacity:1" d="M 839.928,498.912 833.849,508.818 z" id="boundary" inkscape:connector-curvature="0" />
	<path style="fill:none;stroke:red;stroke-width:1px;stroke-linecap:butt;stroke-linejoin:miter;stroke-opacity:1" d="M 822.558,608.187 831.358,587.241 z" id="boundary" inkscape:connector-curvature="0" />
	<path style="fill:none;stroke:red;stroke-width:1px;stroke-linecap:butt;stroke-linejoin:miter;stroke-opacity:1" d="M 822.558,608.187 830.853,619.035 z" id="boundary" inkscape:connector-curvature="0" />
	<path style="fill:none;stroke:red;stroke-width:1px;stroke-linecap:butt;stroke-linejoin:miter;stroke-opacity:1" d="M 869.403,636.123 864.455,625.212 z" id="boundary" inkscape:connector-curvature="0" />
	<path style="fill:none;stroke:red;stroke-width:1px;stroke-linecap:butt;stroke-linejoin:miter;stroke-opacity:1" d="M 864.455,625.212 830.853,619.035 z" id="boundary" inkscape:connector-curvature="0" />
	<path style="fill:none;stroke:red;stroke-width:1px;stroke-linecap:butt;stroke-linejoin:miter;stroke-opacity:1" d="M 841.926,139.196 871.317,154.023 z" id="boundary" inkscape:connector-curvature="0" />
	<path style="fill:none;stroke:red;stroke-width:1px;stroke-linecap:butt;stroke-linejoin:miter;stroke-opacity:1" d="M 849.446,503.654 839.928,498.912 z" id="boundary" inkscape:connector-curvature="0" />
	<path style="fill:none;stroke:red;stroke-width:1px;stroke-linecap:butt;stroke-linejoin:miter;stroke-opacity:1" d="M 856.843,76.2236 851.157,72.3223 z" id="boundary" inkscape:connector-curvature="0" />
	<path style="fill:none;stroke:red;stroke-width:1px;stroke-linecap:butt;stroke-linejoin:miter;stroke-opacity:1" d="M 849.446,503.654 875.243,512.823 z" id="boundary" inkscape:connector-curvature="0" />
	<path style="fill:none;stroke:red;stroke-width:1px;stroke-linecap:butt;stroke-linejoin:miter;stroke-opacity:1" d="M 829.511,113.992 841.926,139.196 z" id="boundary" inkscape:connector-curvature="0" />
	<path style="fill:none;stroke:red;stroke-width:1px;stroke-linecap:butt;stroke-linejoin:miter;stroke-opacity:1" d="M 889.761,661.4 890.224,649.647 z" id="boundary" inkscape:connector-curvature="0" />
	<path style="fill:none;stroke:red;stroke-width:1px;stroke-linecap:butt;stroke-linejoin:miter;stroke-opacity:1" d="M 869.403,636.123 876.869,632.943 z" id="boundary" inkscape:connector-curvature="0" />
	<path style="fill:none;stroke:red;stroke-width:1px;stroke-linecap:butt;stroke-linejoin:miter;stroke-opacity:1" d="M 863.593,538.574 868.995,554.846 z" id="boundary" inkscape:connector-curvature="0" />
	<path style="fill:none;stroke:red;stroke-width:1px;stroke-linecap:butt;stroke-linejoin:miter;stroke-opacity:1" d="M 902.864,183.176 906.997,210.507 z" id="boundary" inkscape:connector-curvature="0" />
	<path style="fill:none;stroke:red;stroke-width:1px;stroke-linecap:butt;stroke-linejoin:miter;stroke-opacity:1" d="M 889.761,661.4 887.052,664.714 z" id="boundary" inkscape:connector-curvature="0" />
	<path style="fill:none;stroke:red;stroke-width:1px;stroke-linecap:butt;stroke-linejoin:miter;stroke-opacity:1" d="M 910.374,133.967 945.014,127.277 z" id="boundary" inkscape:connector-curvature="0" />
	<path style="fill:none;stroke:red;stroke-width:1px;stroke-linecap:butt;stroke-linejoin:miter;stroke-opacity:1" d="M 945.014,127.277 943.414,168.791 z" id="boundary" inkscape:connector-curvature="0" />
	<path style="fill:none;stroke:red;stroke-width:1px;stroke-linecap:butt;stroke-linejoin:miter;stroke-opacity:1" d="M 879.419,528.727 863.593,538.574 z" id="boundary" inkscape:connector-curvature="0" />
	<path style="fill:none;stroke:red;stroke-width:1px;stroke-linecap:butt;stroke-linejoin:miter;stroke-opacity:1" d="M 879.419,528.727 875.243,512.823 z" id="boundary" inkscape:connector-curvature="0" />
	<path style="fill:none;stroke:red;stroke-width:1px;stroke-linecap:butt;stroke-linejoin:miter;stroke-opacity:1" d="M 902.552,423.474 911.962,430.613 z" id="boundary" inkscape:connector-curvature="0" />
	<path style="fill:none;stroke:red;stroke-width:1px;stroke-linecap:butt;stroke-linejoin:miter;stroke-opacity:1" d="M 902.552,423.474 885.031,455.463 z" id="boundary" inkscape:connector-curvature="0" />
	<path style="fill:none;stroke:red;stroke-width:1px;stroke-linecap:butt;stroke-linejoin:miter;stroke-opacity:1" d="M 876.869,632.943 890.224,649.647 z" id="boundary" inkscape:connector-curvature="0" />
	<path style="fill:none;stroke:red;stroke-width:1px;stroke-linecap:butt;stroke-linejoin:miter;stroke-opacity:1" d="M 854.455,672.522 887.052,664.714 z" id="boundary" inkscape:connector-curvature="0" />
	<path style="fill:none;stroke:red;stroke-width:1px;stroke-linecap:butt;stroke-linejoin:miter;stroke-opacity:1" d="M 871.317,154.023 887.205,143.266 z" id="boundary" inkscape:connector-curvature="0" />
	<path style="fill:none;stroke:red;stroke-width:1px;stroke-linecap:butt;stroke-linejoin:miter;stroke-opacity:1" d="M 951.119,467.187 931.34,500.324 z" id="boundary" inkscape:connector-curvature="0" />
	<path style="fill:none;stroke:red;stroke-width:1px;stroke-linecap:butt;stroke-linejoin:miter;stroke-opacity:1" d="M 884.839,710.785 896.194,707.155 z" id="boundary" inkscape:connector-curvature="0" />
	<path style="fill:none;stroke:red;stroke-width:1px;stroke-linecap:butt;stroke-linejoin:miter;stroke-opacity:1" d="M 896.194,707.155 902.416,717.446 z" id="boundary" inkscape:connector-curvature="0" />
	<path style="fill:none;stroke:red;stroke-width:1px;stroke-linecap:butt;stroke-linejoin:miter;stroke-opacity:1" d="M 902.416,717.446 938.793,691.416 z" id="boundary" inkscape:connector-curvature="0" />
	<path style="fill:none;stroke:red;stroke-width:1px;stroke-linecap:butt;stroke-linejoin:miter;stroke-opacity:1" d="M 900.391,478.622 885.031,455.463 z" id="boundary" inkscape:connector-curvature="0" />
	<path style="fill:none;stroke:red;stroke-width:1px;stroke-linecap:butt;stroke-linejoin:miter;stroke-opacity:1" d="M 937.419,446.167 918.173,453.921 z" id="boundary" inkscape:connector-curvature="0" />
	<path style="fill:none;stroke:red;stroke-width:1px;stroke-linecap:butt;stroke-linejoin:miter;stroke-opacity:1" d="M 918.173,453.921 911.962,430.613 z" id="boundary" inkscape:connector-curvature="0" />
	<path style="fill:none;stroke:red;stroke-width:1px;stroke-linecap:butt;stroke-linejoin:miter;stroke-opacity:1" d="M 921.446,313.111 911.402,315.864 z" id="boundary" inkscape:connector-curvature="0" />
	<path style="fill:none;stroke:red;stroke-width:1px;stroke-linecap:butt;stroke-linejoin:miter;stroke-opacity:1" d="M 937.419,446.167 951.119,467.187 z" id="boundary" inkscape:connector-curvature="0" />
	<path style="fill:none;stroke:red;stroke-width:1px;stroke-linecap:butt;stroke-linejoin:miter;stroke-opacity:1" d="M 949.818,236.892 954.938,219.293 z" id="boundary" inkscape:connector-curvature="0" />
	<path style="fill:none;stroke:red;stroke-width:1px;stroke-linecap:butt;stroke-linejoin:miter;stroke-opacity:1" d="M 961.943,371.953 948.074,367.781 z" id="boundary" inkscape:connector-curvature="0" />
	<path style="fill:none;stroke:red;stroke-width:1px;stroke-linecap:butt;stroke-linejoin:miter;stroke-opacity:1" d="M 918.44,332.414 932.657,336.915 z" id="boundary" inkscape:connector-curvature="0" />
	<path style="fill:none;stroke:red;stroke-width:1px;stroke-linecap:butt;stroke-linejoin:miter;stroke-opacity:1" d="M 932.657,336.915 948.074,367.781 z" id="boundary" inkscape:connector-curvature="0" />
	<path style="fill:none;stroke:red;stroke-width:1px;stroke-linecap:butt;stroke-linejoin:miter;stroke-opacity:1" d="M 969.122,434.473 964.07,439.764 z" id="boundary" inkscape:connector-curvature="0" />
	<path style="fill:none;stroke:red;stroke-width:1px;stroke-linecap:butt;stroke-linejoin:miter;stroke-opacity:1" d="M 991.009,229.589 996,248.637 z" id="boundary" inkscape:connector-curvature="0" />
	<path style="fill:none;stroke:red;stroke-width:1px;stroke-linecap:butt;stroke-linejoin:miter;stroke-opacity:1" d="M 968.803,386.901 955.699,399.574 z" id="boundary" inkscape:connector-curvature="0" />
	<path style="fill:none;stroke:red;stroke-width:1px;stroke-linecap:butt;stroke-linejoin:miter;stroke-opacity:1" d="M 968.803,386.901 961.943,371.953 z" id="boundary" inkscape:connector-curvature="0" />
	<path style="fill:none;stroke:red;stroke-width:1px;stroke-linecap:butt;stroke-linejoin:miter;stroke-opacity:1" d="M 911.402,315.864 918.44,332.414 z" id="boundary" inkscape:connector-curvature="0" />
	<path style="fill:none;stroke:red;stroke-width:1px;stroke-linecap:butt;stroke-linejoin:miter;stroke-opacity:1" d="M 955.699,399.574 940.865,420.69 z" id="boundary" inkscape:connector-curvature="0" />
	<path style="fill:none;stroke:red;stroke-width:1px;stroke-linecap:butt;stroke-linejoin:miter;stroke-opacity:1" d="M 954.938,219.293 970.785,200.33 z" id="boundary" inkscape:connector-curvature="0" />
	<path style="fill:none;stroke:red;stroke-width:1px;stroke-linecap:butt;stroke-linejoin:miter;stroke-opacity:1" d="M 949.008,276.892 937.636,266.821 z" id="boundary" inkscape:connector-curvature="0" />
	<path style="fill:none;stroke:red;stroke-width:1px;stroke-linecap:butt;stroke-linejoin:miter;stroke-opacity:1" d="M 949.818,236.892 937.636,266.821 z" id="boundary" inkscape:connector-curvature="0" />
	<path style="fill:none;stroke:red;stroke-width:1px;stroke-linecap:butt;stroke-linejoin:miter;stroke-opacity:1" d="M 991.009,229.589 970.785,200.33 z" id="boundary" inkscape:connector-curvature="0" />
	<path style="fill:none;stroke:red;stroke-width:1px;stroke-linecap:butt;stroke-linejoin:miter;stroke-opacity:1" d="M 996,248.637 984.191,263.592 z" id="boundary" inkscape:connector-curvature="0" />
	<path style="fill:none;stroke:red;stroke-width:1px;stroke-linecap:butt;stroke-linejoin:miter;stroke-opacity:1" d="M 984.191,263.592 973.292,264.673 z" id="boundary" inkscape:connector-curvature="0" />
	<path style="fill:none;stroke:red;stroke-width:1px;stroke-linecap:butt;stroke-linejoin:miter;stroke-opacity:1" d="M 973.292,264.673 949.008,276.892 z" id="boundary" inkscape:connector-curvature="0" />
	<path style="fill:none;stroke:red;stroke-width:1px;stroke-linecap:butt;stroke-linejoin:miter;stroke-opacity:1" d="M 318.762,709.288 323.249,710.735 z" id="boundary" inkscape:connector-curvature="0" />
	<path style="fill:none;stroke:red;stroke-width:1px;stroke-linecap:butt;stroke-linejoin:miter;stroke-opacity:1" d="M 323.249,710.735 323.272,740.775 z" id="boundary" inkscape:connector-curvature="0" />
	<path style="fill:none;stroke:red;stroke-width:1px;stroke-linecap:butt;stroke-linejoin:miter;stroke-opacity:1" d="M 362.517,755.753 348.202,744.911 z" id="boundary" inkscape:connector-curvature="0" />
	<path style="fill:none;stroke:red;stroke-width:1px;stroke-linecap:butt;stroke-linejoin:miter;stroke-opacity:1" d="M 362.517,755.753 395.879,765.443 z" id="boundary" inkscape:connector-curvature="0" />
	<path style="fill:none;stroke:red;stroke-width:1px;stroke-linecap:butt;stroke-linejoin:miter;stroke-opacity:1" d="M 307.149,775.497 333.531,789.863 z" id="boundary" inkscape:connector-curvature="0" />
	<path style="fill:none;stroke:red;stroke-width:1px;stroke-linecap:butt;stroke-linejoin:miter;stroke-opacity:1" d="M 496.048,756.459 488.665,768.711 z" id="boundary" inkscape:connector-curvature="0" />
	<path style="fill:none;stroke:red;stroke-width:1px;stroke-linecap:butt;stroke-linejoin:miter;stroke-opacity:1" d="M 608.169,648.732 596.727,681.038 z" id="boundary" inkscape:connector-curvature="0" />
	<path style="fill:none;stroke:red;stroke-width:1px;stroke-linecap:butt;stroke-linejoin:miter;stroke-opacity:1" d="M 575.07,745.557 560.218,744.161 z" id="boundary" inkscape:connector-curvature="0" />
	<path style="fill:none;stroke:red;stroke-width:1px;stroke-linecap:butt;stroke-linejoin:miter;stroke-opacity:1" d="M 596.727,681.038 563.384,697.64 z" id="boundary" inkscape:connector-curvature="0" />
	<path style="fill:none;stroke:red;stroke-width:1px;stroke-linecap:butt;stroke-linejoin:miter;stroke-opacity:1" d="M 575.07,745.557 584.584,755.302 z" id="boundary" inkscape:connector-curvature="0" />
	<path style="fill:none;stroke:red;stroke-width:1px;stroke-linecap:butt;stroke-linejoin:miter;stroke-opacity:1" d="M 644.415,770.852 675.146,757.022 z" id="boundary" inkscape:connector-curvature="0" />
	<path style="fill:none;stroke:red;stroke-width:1px;stroke-linecap:butt;stroke-linejoin:miter;stroke-opacity:1" d="M 636.834,699.31 635.966,715.183 z" id="boundary" inkscape:connector-curvature="0" />
	<path style="fill:none;stroke:red;stroke-width:1px;stroke-linecap:butt;stroke-linejoin:miter;stroke-opacity:1" d="M 636.834,699.31 638.821,697.639 z" id="boundary" inkscape:connector-curvature="0" />
	<path style="fill:none;stroke:red;stroke-width:1px;stroke-linecap:butt;stroke-linejoin:miter;stroke-opacity:1" d="M 303.687,698.385 318.762,709.288 z" id="boundary" inkscape:connector-curvature="0" />
	<path style="fill:none;stroke:red;stroke-width:1px;stroke-linecap:butt;stroke-linejoin:miter;stroke-opacity:1" d="M 300.086,756.863 310.686,749.687 z" id="boundary" inkscape:connector-curvature="0" />
	<path style="fill:none;stroke:red;stroke-width:1px;stroke-linecap:butt;stroke-linejoin:miter;stroke-opacity:1" d="M 294.283,763.783 307.149,775.497 z" id="boundary" inkscape:connector-curvature="0" />
	<path style="fill:none;stroke:red;stroke-width:1px;stroke-linecap:butt;stroke-linejoin:miter;stroke-opacity:1" d="M 294.283,763.783 300.086,756.863 z" id="boundary" inkscape:connector-curvature="0" />
	<path style="fill:none;stroke:red;stroke-width:1px;stroke-linecap:butt;stroke-linejoin:miter;stroke-opacity:1" d="M 680.22,765.685 705.774,772.458 z" id="boundary" inkscape:connector-curvature="0" />
	<path style="fill:none;stroke:red;stroke-width:1px;stroke-linecap:butt;stroke-linejoin:miter;stroke-opacity:1" d="M 418.447,766.982 397.055,760.966 z" id="boundary" inkscape:connector-curvature="0" />
	<path style="fill:none;stroke:red;stroke-width:1px;stroke-linecap:butt;stroke-linejoin:miter;stroke-opacity:1" d="M 395.879,765.443 397.055,760.966 z" id="boundary" inkscape:connector-curvature="0" />
	<path style="fill:none;stroke:red;stroke-width:1px;stroke-linecap:butt;stroke-linejoin:miter;stroke-opacity:1" d="M 451.696,758.637 429.899,773.512 z" id="boundary" inkscape:connector-curvature="0" />
	<path style="fill:none;stroke:red;stroke-width:1px;stroke-linecap:butt;stroke-linejoin:miter;stroke-opacity:1" d="M 543.02,773.364 545.833,797.516 z" id="boundary" inkscape:connector-curvature="0" />
	<path style="fill:none;stroke:red;stroke-width:1px;stroke-linecap:butt;stroke-linejoin:miter;stroke-opacity:1" d="M 615.888,738.064 592.398,721.134 z" id="boundary" inkscape:connector-curvature="0" />
	<path style="fill:none;stroke:red;stroke-width:1px;stroke-linecap:butt;stroke-linejoin:miter;stroke-opacity:1" d="M 615.888,738.064 635.966,715.183 z" id="boundary" inkscape:connector-curvature="0" />
	<path style="fill:none;stroke:red;stroke-width:1px;stroke-linecap:butt;stroke-linejoin:miter;stroke-opacity:1" d="M 560.218,744.161 543.02,773.364 z" id="boundary" inkscape:connector-curvature="0" />
	<path style="fill:none;stroke:red;stroke-width:1px;stroke-linecap:butt;stroke-linejoin:miter;stroke-opacity:1" d="M 582.985,780.296 584.584,755.302 z" id="boundary" inkscape:connector-curvature="0" />
	<path style="fill:none;stroke:red;stroke-width:1px;stroke-linecap:butt;stroke-linejoin:miter;stroke-opacity:1" d="M 605.564,794.956 582.985,780.296 z" id="boundary" inkscape:connector-curvature="0" />
	<path style="fill:none;stroke:red;stroke-width:1px;stroke-linecap:butt;stroke-linejoin:miter;stroke-opacity:1" d="M 608.118,805.331 605.564,794.956 z" id="boundary" inkscape:connector-curvature="0" />
	<circle cx="9.56568" cy="234.182" r="4" fill="#0" id="circle0"/>
	<circle cx="13.1848" cy="217.499" r="4" fill="#0" id="circle1"/>
	<circle cx="4" cy="275.148" r="4" fill="#0" id="circle2"/>
	<circle cx="46.5652" cy="194.364" r="4" fill="#0" id="circle3"/>
	<circle cx="51.1298" cy="265.011" r="4" fill="#0" id="circle4"/>
	<circle cx="38.2464" cy="189.605" r="4" fill="#0" id="circle5"/>
	<circle cx="48.1321" cy="279.943" r="4" fill="#0" id="circle6"/>
	<circle cx="6.61891" cy="155.586" r="4" fill="#0" id="circle7"/>
	<circle cx="31.9934" cy="157.381" r="4" fill="#0" id="circle8"/>
	<circle cx="67.7575" cy="283.72" r="4" fill="#0" id="circle9"/>
	<circle cx="79.4696" cy="179.244" r="4" fill="#0" id="circle10"/>
	<circle cx="72.2086" cy="280.184" r="4" fill="#0" id="circle11"/>
	<circle cx="73.1185" cy="156.454" r="4" fill="#0" id="circle12"/>
	<circle cx="77.3391" cy="340.261" r="4" fill="#0" id="circle13"/>
	<circle cx="17.0789" cy="158.516" r="4" fill="#0" id="circle14"/>
	<circle cx="54.5623" cy="297.738" r="4" fill="#0" id="circle15"/>
	<circle cx="49.2777" cy="142.198" r="4" fill="#0" id="circle16"/>
	<circle cx="50.7169" cy="330.365" r="4" fill="#0" id="circle17"/>
	<circle cx="62.9491" cy="587.808" r="4" fill="#0" id="circle18"/>
	<circle cx="77.2092" cy="98.2561" r="4" fill="#0" id="circle19"/>
	<circle cx="61.3933" cy="582.84" r="4" fill="#0" id="circle20"/>
	<circle cx="72.2724" cy="313.17" r="4" fill="#0" id="circle21"/>
	<circle cx="83.8451" cy="117.774" r="4" fill="#0" id="circle22"/>
	<circle cx="44.9963" cy="560.229" r="4" fill="#0" id="circle23"/>
	<circle cx="98.1842" cy="317.088" r="4" fill="#0" id="circle24"/>
	<circle cx="65.5858" cy="388.886" r="4" fill="#0" id="circle25"/>
	<circle cx="89.4345" cy="362.133" r="4" fill="#0" id="circle26"/>
	<circle cx="44.1597" cy="398.21" r="4" fill="#0" id="circle27"/>
	<circle cx="104.102" cy="667.064" r="4" fill="#0" id="circle28"/>
	<circle cx="73.6845" cy="609.313" r="4" fill="#0" id="circle29"/>
	<circle cx="93.961" cy="63.2659" r="4" fill="#0" id="circle30"/>
	<circle cx="45.6035" cy="540.951" r="4" fill="#0" id="circle31"/>
	<circle cx="96.9914" cy="395.507" r="4" fill="#0" id="circle32"/>
	<circle cx="86.9368" cy="535.473" r="4" fill="#0" id="circle33"/>
	<circle cx="82.1833" cy="629.523" r="4" fill="#0" id="circle34"/>
	<circle cx="80.8207" cy="119.828" r="4" fill="#0" id="circle35"/>
	<circle cx="86.1551" cy="511.141" r="4" fill="#0" id="circle36"/>
	<circle cx="54.5969" cy="514.137" r="4" fill="#0" id="circle37"/>
	<circle cx="103.55" cy="391.531" r="4" fill="#0" id="circle38"/>
	<circle cx="82.275" cy="87.541" r="4" fill="#0" id="circle39"/>
	<circle cx="75.6346" cy="541.834" r="4" fill="#0" id="circle40"/>
	<circle cx="97.4758" cy="623.214" r="4" fill="#0" id="circle41"/>
	<circle cx="69.2149" cy="518.133" r="4" fill="#0" id="circle42"/>
	<circle cx="115.321" cy="390.63" r="4" fill="#0" id="circle43"/>
	<circle cx="107.107" cy="480.486" r="4" fill="#0" id="circle44"/>
	<circle cx="69.7791" cy="62.5853" r="4" fill="#0" id="circle45"/>
	<circle cx="88.855" cy="456.24" r="4" fill="#0" id="circle46"/>
	<circle cx="107.632" cy="628.899" r="4" fill="#0" id="circle47"/>
	<circle cx="108.731" cy="404.882" r="4" fill="#0" id="circle48"/>
	<circle cx="89.6912" cy="411.804" r="4" fill="#0" id="circle49"/>
	<circle cx="104.565" cy="490.904" r="4" fill="#0" id="circle50"/>
	<circle cx="71.1429" cy="427.475" r="4" fill="#0" id="circle51"/>
	<circle cx="137.686" cy="35.3788" r="4" fill="#0" id="circle52"/>
	<circle cx="103.351" cy="672.833" r="4" fill="#0" id="circle53"/>
	<circle cx="114.083" cy="73.2323" r="4" fill="#0" id="circle54"/>
	<circle cx="103.113" cy="690.549" r="4" fill="#0" id="circle55"/>
	<circle cx="136.53" cy="73.1452" r="4" fill="#0" id="circle56"/>
	<circle cx="155.991" cy="701.643" r="4" fill="#0" id="circle57"/>
	<circle cx="138.83" cy="56.1551" r="4" fill="#0" id="circle58"/>
	<circle cx="167.389" cy="665.327" r="4" fill="#0" id="circle59"/>
	<circle cx="181.334" cy="74.0632" r="4" fill="#0" id="circle60"/>
	<circle cx="154.226" cy="684.645" r="4" fill="#0" id="circle61"/>
	<circle cx="128.462" cy="13.8821" r="4" fill="#0" id="circle62"/>
	<circle cx="150.839" cy="720.423" r="4" fill="#0" id="circle63"/>
	<circle cx="155.369" cy="52.2569" r="4" fill="#0" id="circle64"/>
	<circle cx="188.842" cy="739.945" r="4" fill="#0" id="circle65"/>
	<circle cx="177.295" cy="59.2533" r="4" fill="#0" id="circle66"/>
	<circle cx="209.089" cy="713.091" r="4" fill="#0" id="circle67"/>
	<circle cx="220.209" cy="18.309" r="4" fill="#0" id="circle68"/>
	<circle cx="218.369" cy="720.989" r="4" fill="#0" id="circle69"/>
	<circle cx="233.967" cy="5.82146" r="4" fill="#0" id="circle70"/>
	<circle cx="236.458" cy="745.738" r="4" fill="#0" id="circle71"/>
	<circle cx="236.819" cy="55.9687" r="4" fill="#0" id="circle72"/>
	<circle cx="193.326" cy="739.519" r="4" fill="#0" id="circle73"/>
	<circle cx="212.615" cy="4" r="4" fill="#0" id="circle74"/>
	<circle cx="214.757" cy="746.363" r="4" fill="#0" id="circle75"/>
	<circle cx="262.964" cy="63.566" r="4" fill="#0" id="circle76"/>
	<circle cx="233.394" cy="801.913" r="4" fill="#0" id="circle77"/>
	<circle cx="274.766" cy="59.6274" r="4" fill="#0" id="circle78"/>
	<circle cx="246.792" cy="741.876" r="4" fill="#0" id="circle79"/>
	<circle cx="247.535" cy="736.589" r="4" fill="#0" id="circle80"/>
	<circle cx="286.167" cy="64.1871" r="4" fill="#0" id="circle81"/>
	<circle cx="225.787" cy="766.17" r="4" fill="#0" id="circle82"/>
	<circle cx="236.408" cy="68.4208" r="4" fill="#0" id="circle83"/>
	<circle cx="231.37" cy="678.182" r="4" fill="#0" id="circle84"/>
	<circle cx="238.715" cy="703.273" r="4" fill="#0" id="circle85"/>
	<circle cx="301.538" cy="649.156" r="4" fill="#0" id="circle86"/>
	<circle cx="259.401" cy="716.018" r="4" fill="#0" id="circle87"/>
	<circle cx="291.329" cy="744.378" r="4" fill="#0" id="circle88"/>
	<circle cx="237.519" cy="677.696" r="4" fill="#0" id="circle89"/>
	<circle cx="277.097" cy="710.355" r="4" fill="#0" id="circle90"/>
	<circle cx="262.274" cy="724.162" r="4" fill="#0" id="circle91"/>
	<circle cx="260.999" cy="72.6492" r="4" fill="#0" id="circle92"/>
	<circle cx="274.026" cy="619.821" r="4" fill="#0" id="circle93"/>
	<circle cx="298.488" cy="11.8838" r="4" fill="#0" id="circle94"/>
	<circle cx="280.845" cy="613.69" r="4" fill="#0" id="circle95"/>
	<circle cx="276.916" cy="41.731" r="4" fill="#0" id="circle96"/>
	<circle cx="329.656" cy="626.603" r="4" fill="#0" id="circle97"/>
	<circle cx="280.93" cy="24.7709" r="4" fill="#0" id="circle98"/>
	<circle cx="279.909" cy="624.251" r="4" fill="#0" id="circle99"/>
	<circle cx="280.601" cy="42.5098" r="4" fill="#0" id="circle100"/>
	<circle cx="287.876" cy="616.988" r="4" fill="#0" id="circle101"/>
	<circle cx="313.051" cy="65.0592" r="4" fill="#0" id="circle102"/>
	<circle cx="350.823" cy="631.557" r="4" fill="#0" id="circle103"/>
	<circle cx="307.301" cy="100.313" r="4" fill="#0" id="circle104"/>
	<circle cx="326.234" cy="676.19" r="4" fill="#0" id="circle105"/>
	<circle cx="335.957" cy="94.9191" r="4" fill="#0" id="circle106"/>
	<circle cx="332.714" cy="673.238" r="4" fill="#0" id="circle107"/>
	<circle cx="367.56" cy="100.399" r="4" fill="#0" id="circle108"/>
	<circle cx="387.592" cy="652.652" r="4" fill="#0" id="circle109"/>
	<circle cx="385.188" cy="76.139" r="4" fill="#0" id="circle110"/>
	<circle cx="366.519" cy="630.522" r="4" fill="#0" id="circle111"/>
	<circle cx="391.277" cy="89.7051" r="4" fill="#0" id="circle112"/>
	<circle cx="361.733" cy="693.93" r="4" fill="#0" id="circle113"/>
	<circle cx="384.496" cy="95.2819" r="4" fill="#0" id="circle114"/>
	<circle cx="355.771" cy="665.876" r="4" fill="#0" id="circle115"/>
	<circle cx="397.831" cy="86.9391" r="4" fill="#0" id="circle116"/>
	<circle cx="394.496" cy="157.048" r="4" fill="#0" id="circle117"/>
	<circle cx="404.575" cy="124.289" r="4" fill="#0" id="circle118"/>
	<circle cx="373.824" cy="671.265" r="4" fill="#0" id="circle119"/>
	<circle cx="384.637" cy="142.432" r="4" fill="#0" id="circle120"/>
	<circle cx="402.145" cy="164.922" r="4" fill="#0" id="circle121"/>
	<circle cx="389.379" cy="183.555" r="4" fill="#0" id="circle122"/>
	<circle cx="395.369" cy="675.706" r="4" fill="#0" id="circle123"/>
	<circle cx="411.598" cy="617.094" r="4" fill="#0" id="circle124"/>
	<circle cx="393.945" cy="610.456" r="4" fill="#0" id="circle125"/>
	<circle cx="419.135" cy="193.409" r="4" fill="#0" id="circle126"/>
	<circle cx="399.65" cy="598.865" r="4" fill="#0" id="circle127"/>
	<circle cx="393.106" cy="603.81" r="4" fill="#0" id="circle128"/>
	<circle cx="394.712" cy="202.04" r="4" fill="#0" id="circle129"/>
	<circle cx="382.276" cy="565.164" r="4" fill="#0" id="circle130"/>
	<circle cx="404.629" cy="207.879" r="4" fill="#0" id="circle131"/>
	<circle cx="412.792" cy="594.338" r="4" fill="#0" id="circle132"/>
	<circle cx="434.982" cy="524.114" r="4" fill="#0" id="circle133"/>
	<circle cx="405.49" cy="228.147" r="4" fill="#0" id="circle134"/>
	<circle cx="451.162" cy="506.472" r="4" fill="#0" id="circle135"/>
	<circle cx="414.229" cy="507.858" r="4" fill="#0" id="circle136"/>
	<circle cx="408.728" cy="553.754" r="4" fill="#0" id="circle137"/>
	<circle cx="401.385" cy="226.81" r="4" fill="#0" id="circle138"/>
	<circle cx="432.801" cy="545.193" r="4" fill="#0" id="circle139"/>
	<circle cx="386.021" cy="568.306" r="4" fill="#0" id="circle140"/>
	<circle cx="398.616" cy="236.607" r="4" fill="#0" id="circle141"/>
	<circle cx="445.206" cy="240.14" r="4" fill="#0" id="circle142"/>
	<circle cx="391.078" cy="216.707" r="4" fill="#0" id="circle143"/>
	<circle cx="405.842" cy="243.453" r="4" fill="#0" id="circle144"/>
	<circle cx="452.757" cy="255.44" r="4" fill="#0" id="circle145"/>
	<circle cx="434.907" cy="260.154" r="4" fill="#0" id="circle146"/>
	<circle cx="395.871" cy="261.046" r="4" fill="#0" id="circle147"/>
	<circle cx="402.587" cy="323.007" r="4" fill="#0" id="circle148"/>
	<circle cx="408.384" cy="309.43" r="4" fill="#0" id="circle149"/>
	<circle cx="447.989" cy="464.996" r="4" fill="#0" id="circle150"/>
	<circle cx="401.017" cy="297.179" r="4" fill="#0" id="circle151"/>
	<circle cx="431.338" cy="329.492" r="4" fill="#0" id="circle152"/>
	<circle cx="456.222" cy="362.128" r="4" fill="#0" id="circle153"/>
	<circle cx="406.996" cy="357.554" r="4" fill="#0" id="circle154"/>
	<circle cx="437.021" cy="344.649" r="4" fill="#0" id="circle155"/>
	<circle cx="438.391" cy="395.577" r="4" fill="#0" id="circle156"/>
	<circle cx="466.456" cy="479.055" r="4" fill="#0" id="circle157"/>
	<circle cx="426.444" cy="418.118" r="4" fill="#0" id="circle158"/>
	<circle cx="439.934" cy="404.735" r="4" fill="#0" id="circle159"/>
	<circle cx="429.58" cy="474.519" r="4" fill="#0" id="circle160"/>
	<circle cx="474.432" cy="434.361" r="4" fill="#0" id="circle161"/>
	<circle cx="455.225" cy="451.099" r="4" fill="#0" id="circle162"/>
	<circle cx="485.106" cy="444.517" r="4" fill="#0" id="circle163"/>
	<circle cx="476.375" cy="456.088" r="4" fill="#0" id="circle164"/>
	<circle cx="434.211" cy="436.238" r="4" fill="#0" id="circle165"/>
	<circle cx="443.47" cy="432.97" r="4" fill="#0" id="circle166"/>
	<circle cx="471.863" cy="486.788" r="4" fill="#0" id="circle167"/>
	<circle cx="478.765" cy="454.469" r="4" fill="#0" id="circle168"/>
	<circle cx="517.832" cy="498.758" r="4" fill="#0" id="circle169"/>
	<circle cx="553.619" cy="496.428" r="4" fill="#0" id="circle170"/>
	<circle cx="560.858" cy="487.089" r="4" fill="#0" id="circle171"/>
	<circle cx="542.125" cy="469.173" r="4" fill="#0" id="circle172"/>
	<circle cx="548.105" cy="471.76" r="4" fill="#0" id="circle173"/>
	<circle cx="544.929" cy="400.006" r="4" fill="#0" id="circle174"/>
	<circle cx="536.985" cy="517.961" r="4" fill="#0" id="circle175"/>
	<circle cx="532.073" cy="400.505" r="4" fill="#0" id="circle176"/>
	<circle cx="547.533" cy="432.851" r="4" fill="#0" id="circle177"/>
	<circle cx="521.566" cy="372.865" r="4" fill="#0" id="circle178"/>
	<circle cx="547.209" cy="417.894" r="4" fill="#0" id="circle179"/>
	<circle cx="548.96" cy="508.733" r="4" fill="#0" id="circle180"/>
	<circle cx="526.28" cy="368.695" r="4" fill="#0" id="circle181"/>
	<circle cx="567.662" cy="385.538" r="4" fill="#0" id="circle182"/>
	<circle cx="534.539" cy="163.46" r="4" fill="#0" id="circle183"/>
	<circle cx="516.131" cy="352.013" r="4" fill="#0" id="circle184"/>
	<circle cx="521.908" cy="377.954" r="4" fill="#0" id="circle185"/>
	<circle cx="558.068" cy="190.463" r="4" fill="#0" id="circle186"/>
	<circle cx="531.913" cy="169.857" r="4" fill="#0" id="circle187"/>
	<circle cx="566.435" cy="347.293" r="4" fill="#0" id="circle188"/>
	<circle cx="525.116" cy="315.926" r="4" fill="#0" id="circle189"/>
	<circle cx="585.285" cy="299.637" r="4" fill="#0" id="circle190"/>
	<circle cx="517.395" cy="295.708" r="4" fill="#0" id="circle191"/>
	<circle cx="574.65" cy="143.653" r="4" fill="#0" id="circle192"/>
	<circle cx="528.82" cy="229.82" r="4" fill="#0" id="circle193"/>
	<circle cx="584.904" cy="292.257" r="4" fill="#0" id="circle194"/>
	<circle cx="571.836" cy="119.249" r="4" fill="#0" id="circle195"/>
	<circle cx="536.277" cy="557.228" r="4" fill="#0" id="circle196"/>
	<circle cx="590.176" cy="243.138" r="4" fill="#0" id="circle197"/>
	<circle cx="562.992" cy="252.785" r="4" fill="#0" id="circle198"/>
	<circle cx="549.007" cy="511.191" r="4" fill="#0" id="circle199"/>
	<circle cx="590.405" cy="113.178" r="4" fill="#0" id="circle200"/>
	<circle cx="556.192" cy="219.326" r="4" fill="#0" id="circle201"/>
	<circle cx="554.56" cy="528.14" r="4" fill="#0" id="circle202"/>
	<circle cx="577.174" cy="517.326" r="4" fill="#0" id="circle203"/>
	<circle cx="565.323" cy="284.718" r="4" fill="#0" id="circle204"/>
	<circle cx="558.109" cy="230.176" r="4" fill="#0" id="circle205"/>
	<circle cx="558.372" cy="244.366" r="4" fill="#0" id="circle206"/>
	<circle cx="586.36" cy="533.952" r="4" fill="#0" id="circle207"/>
	<circle cx="601.725" cy="138.03" r="4" fill="#0" id="circle208"/>
	<circle cx="538.893" cy="266.006" r="4" fill="#0" id="circle209"/>
	<circle cx="575.533" cy="589.004" r="4" fill="#0" id="circle210"/>
	<circle cx="557.318" cy="114.676" r="4" fill="#0" id="circle211"/>
	<circle cx="592.709" cy="544.614" r="4" fill="#0" id="circle212"/>
	<circle cx="601.911" cy="69.245" r="4" fill="#0" id="circle213"/>
	<circle cx="575.273" cy="621.918" r="4" fill="#0" id="circle214"/>
	<circle cx="604.893" cy="580.404" r="4" fill="#0" id="circle215"/>
	<circle cx="580.25" cy="591.293" r="4" fill="#0" id="circle216"/>
	<circle cx="608.169" cy="648.732" r="4" fill="#0" id="circle217"/>
	<circle cx="622.477" cy="77.1893" r="4" fill="#0" id="circle218"/>
	<circle cx="632.464" cy="623.179" r="4" fill="#0" id="circle219"/>
	<circle cx="590.85" cy="64.0242" r="4" fill="#0" id="circle220"/>
	<circle cx="636.106" cy="644.554" r="4" fill="#0" id="circle221"/>
	<circle cx="634.306" cy="79.6539" r="4" fill="#0" id="circle222"/>
	<circle cx="644.034" cy="641.643" r="4" fill="#0" id="circle223"/>
	<circle cx="628.905" cy="95.47" r="4" fill="#0" id="circle224"/>
	<circle cx="630.973" cy="664.108" r="4" fill="#0" id="circle225"/>
	<circle cx="649.928" cy="75.4983" r="4" fill="#0" id="circle226"/>
	<circle cx="658.952" cy="609.285" r="4" fill="#0" id="circle227"/>
	<circle cx="668.603" cy="53.6267" r="4" fill="#0" id="circle228"/>
	<circle cx="651.428" cy="596.017" r="4" fill="#0" id="circle229"/>
	<circle cx="648.315" cy="40.8896" r="4" fill="#0" id="circle230"/>
	<circle cx="651.147" cy="638.722" r="4" fill="#0" id="circle231"/>
	<circle cx="661.297" cy="97.9854" r="4" fill="#0" id="circle232"/>
	<circle cx="673.045" cy="600.546" r="4" fill="#0" id="circle233"/>
	<circle cx="673.376" cy="52.7448" r="4" fill="#0" id="circle234"/>
	<circle cx="681.435" cy="634.696" r="4" fill="#0" id="circle235"/>
	<circle cx="696.286" cy="625.423" r="4" fill="#0" id="circle236"/>
	<circle cx="670.385" cy="50.4445" r="4" fill="#0" id="circle237"/>
	<circle cx="713.999" cy="686.086" r="4" fill="#0" id="circle238"/>
	<circle cx="723.14" cy="651.398" r="4" fill="#0" id="circle239"/>
	<circle cx="716.575" cy="666.056" r="4" fill="#0" id="circle240"/>
	<circle cx="680.22" cy="765.685" r="4" fill="#0" id="circle241"/>
	<circle cx="730.82" cy="748.732" r="4" fill="#0" id="circle242"/>
	<circle cx="708.631" cy="740.568" r="4" fill="#0" id="circle243"/>
	<circle cx="683.614" cy="708.102" r="4" fill="#0" id="circle244"/>
	<circle cx="717.496" cy="755.102" r="4" fill="#0" id="circle245"/>
	<circle cx="682.759" cy="726.804" r="4" fill="#0" id="circle246"/>
	<circle cx="684.681" cy="696.408" r="4" fill="#0" id="circle247"/>
	<circle cx="668.126" cy="715.597" r="4" fill="#0" id="circle248"/>
	<circle cx="720.132" cy="703.051" r="4" fill="#0" id="circle249"/>
	<circle cx="677.649" cy="765.122" r="4" fill="#0" id="circle250"/>
	<circle cx="673.195" cy="85.2194" r="4" fill="#0" id="circle251"/>
	<circle cx="718.807" cy="765.792" r="4" fill="#0" id="circle252"/>
	<circle cx="685.831" cy="59.052" r="4" fill="#0" id="circle253"/>
	<circle cx="704.314" cy="747.984" r="4" fill="#0" id="circle254"/>
	<circle cx="741.376" cy="29.9529" r="4" fill="#0" id="circle255"/>
	<circle cx="727.83" cy="743.025" r="4" fill="#0" id="circle256"/>
	<circle cx="732.825" cy="52.6623" r="4" fill="#0" id="circle257"/>
	<circle cx="710.247" cy="747.65" r="4" fill="#0" id="circle258"/>
	<circle cx="720.097" cy="44.4406" r="4" fill="#0" id="circle259"/>
	<circle cx="740.508" cy="728.863" r="4" fill="#0" id="circle260"/>
	<circle cx="721.518" cy="58.5449" r="4" fill="#0" id="circle261"/>
	<circle cx="735.113" cy="753.033" r="4" fill="#0" id="circle262"/>
	<circle cx="752.933" cy="23.9261" r="4" fill="#0" id="circle263"/>
	<circle cx="752.296" cy="733.398" r="4" fill="#0" id="circle264"/>
	<circle cx="789.843" cy="34.0772" r="4" fill="#0" id="circle265"/>
	<circle cx="784.195" cy="773.416" r="4" fill="#0" id="circle266"/>
	<circle cx="761.899" cy="17.8326" r="4" fill="#0" id="circle267"/>
	<circle cx="765.557" cy="732.939" r="4" fill="#0" id="circle268"/>
	<circle cx="799.382" cy="40.8502" r="4" fill="#0" id="circle269"/>
	<circle cx="795.403" cy="729.434" r="4" fill="#0" id="circle270"/>
	<circle cx="800.491" cy="80.8336" r="4" fill="#0" id="circle271"/>
	<circle cx="806.797" cy="768.357" r="4" fill="#0" id="circle272"/>
	<circle cx="799.008" cy="61.9778" r="4" fill="#0" id="circle273"/>
	<circle cx="798.796" cy="728.979" r="4" fill="#0" id="circle274"/>
	<circle cx="851.157" cy="72.3223" r="4" fill="#0" id="circle275"/>
	<circle cx="828.03" cy="567.013" r="4" fill="#0" id="circle276"/>
	<circle cx="805.619" cy="556.407" r="4" fill="#0" id="circle277"/>
	<circle cx="822.843" cy="728.626" r="4" fill="#0" id="circle278"/>
	<circle cx="859.035" cy="87.295" r="4" fill="#0" id="circle279"/>
	<circle cx="849.373" cy="566.018" r="4" fill="#0" id="circle280"/>
	<circle cx="868.995" cy="554.846" r="4" fill="#0" id="circle281"/>
	<circle cx="833.849" cy="508.818" r="4" fill="#0" id="circle282"/>
	<circle cx="831.829" cy="585.236" r="4" fill="#0" id="circle283"/>
	<circle cx="844.413" cy="684.934" r="4" fill="#0" id="circle284"/>
	<circle cx="874.785" cy="121.575" r="4" fill="#0" id="circle285"/>
	<circle cx="831.358" cy="587.241" r="4" fill="#0" id="circle286"/>
	<circle cx="864.455" cy="625.212" r="4" fill="#0" id="circle287"/>
	<circle cx="839.928" cy="498.912" r="4" fill="#0" id="circle288"/>
	<circle cx="830.853" cy="619.035" r="4" fill="#0" id="circle289"/>
	<circle cx="856.843" cy="76.2236" r="4" fill="#0" id="circle290"/>
	<circle cx="820.57" cy="683.389" r="4" fill="#0" id="circle291"/>
	<circle cx="822.558" cy="608.187" r="4" fill="#0" id="circle292"/>
	<circle cx="869.403" cy="636.123" r="4" fill="#0" id="circle293"/>
	<circle cx="879.419" cy="528.727" r="4" fill="#0" id="circle294"/>
	<circle cx="829.511" cy="113.992" r="4" fill="#0" id="circle295"/>
	<circle cx="835.57" cy="677.185" r="4" fill="#0" id="circle296"/>
	<circle cx="890.224" cy="649.647" r="4" fill="#0" id="circle297"/>
	<circle cx="849.446" cy="503.654" r="4" fill="#0" id="circle298"/>
	<circle cx="841.926" cy="139.196" r="4" fill="#0" id="circle299"/>
	<circle cx="854.455" cy="672.522" r="4" fill="#0" id="circle300"/>
	<circle cx="889.761" cy="661.4" r="4" fill="#0" id="circle301"/>
	<circle cx="875.243" cy="512.823" r="4" fill="#0" id="circle302"/>
	<circle cx="871.317" cy="154.023" r="4" fill="#0" id="circle303"/>
	<circle cx="884.839" cy="710.785" r="4" fill="#0" id="circle304"/>
	<circle cx="876.869" cy="632.943" r="4" fill="#0" id="circle305"/>
	<circle cx="910.374" cy="133.967" r="4" fill="#0" id="circle306"/>
	<circle cx="863.593" cy="538.574" r="4" fill="#0" id="circle307"/>
	<circle cx="902.416" cy="717.446" r="4" fill="#0" id="circle308"/>
	<circle cx="887.052" cy="664.714" r="4" fill="#0" id="circle309"/>
	<circle cx="887.205" cy="143.266" r="4" fill="#0" id="circle310"/>
	<circle cx="931.34" cy="500.324" r="4" fill="#0" id="circle311"/>
	<circle cx="896.194" cy="707.155" r="4" fill="#0" id="circle312"/>
	<circle cx="938.793" cy="691.416" r="4" fill="#0" id="circle313"/>
	<circle cx="945.014" cy="127.277" r="4" fill="#0" id="circle314"/>
	<circle cx="900.391" cy="478.622" r="4" fill="#0" id="circle315"/>
	<circle cx="885.031" cy="455.463" r="4" fill="#0" id="circle316"/>
	<circle cx="943.414" cy="168.791" r="4" fill="#0" id="circle317"/>
	<circle cx="918.173" cy="453.921" r="4" fill="#0" id="circle318"/>
	<circle cx="911.962" cy="430.613" r="4" fill="#0" id="circle319"/>
	<circle cx="951.119" cy="467.187" r="4" fill="#0" id="circle320"/>
	<circle cx="902.864" cy="183.176" r="4" fill="#0" id="circle321"/>
	<circle cx="902.552" cy="423.474" r="4" fill="#0" id="circle322"/>
	<circle cx="937.419" cy="446.167" r="4" fill="#0" id="circle323"/>
	<circle cx="906.997" cy="210.507" r="4" fill="#0" id="circle324"/>
	<circle cx="911.402" cy="315.864" r="4" fill="#0" id="circle325"/>
	<circle cx="921.446" cy="313.111" r="4" fill="#0" id="circle326"/>
	<circle cx="961.943" cy="371.953" r="4" fill="#0" id="circle327"/>
	<circle cx="964.07" cy="439.764" r="4" fill="#0" id="circle328"/>
	<circle cx="932.657" cy="336.915" r="4" fill="#0" id="circle329"/>
	<circle cx="968.803" cy="386.901" r="4" fill="#0" id="circle330"/>
	<circle cx="913.415" cy="228.872" r="4" fill="#0" id="circle331"/>
	<circle cx="969.122" cy="434.473" r="4" fill="#0" id="circle332"/>
	<circle cx="948.074" cy="367.781" r="4" fill="#0" id="circle333"/>
	<circle cx="918.44" cy="332.414" r="4" fill="#0" id="circle334"/>
	<circle cx="940.865" cy="420.69" r="4" fill="#0" id="circle335"/>
	<circle cx="955.699" cy="399.574" r="4" fill="#0" id="circle336"/>
	<circle cx="954.938" cy="219.293" r="4" fill="#0" id="circle337"/>
	<circle cx="973.292" cy="264.673" r="4" fill="#0" id="circle338"/>
	<circle cx="949.818" cy="236.892" r="4" fill="#0" id="circle339"/>
	<circle cx="991.009" cy="229.589" r="4" fill="#0" id="circle340"/>
	<circle cx="937.636" cy="266.821" r="4" fill="#0" id="circle341"/>
	<circle cx="970.785" cy="200.33" r="4" fill="#0" id="circle342"/>
	<circle cx="996" cy="248.637" r="4" fill="#0" id="circle343"/>
	<circle cx="984.191" cy="263.592" r="4" fill="#0" id="circle344"/>
	<circle cx="949.008" cy="276.892" r="4" fill="#0" id="circle345"/>
	<circle cx="280.833" cy="701.61" r="4" fill="#0" id="circle346"/>
	<circle cx="325.492" cy="747.909" r="4" fill="#0" id="circle347"/>
	<circle cx="303.687" cy="698.385" r="4" fill="#0" id="circle348"/>
	<circle cx="323.249" cy="710.735" r="4" fill="#0" id="circle349"/>
	<circle cx="323.272" cy="740.775" r="4" fill="#0" id="circle350"/>
	<circle cx="348.202" cy="744.911" r="4" fill="#0" id="circle351"/>
	<circle cx="362.517" cy="755.753" r="4" fill="#0" id="circle352"/>
	<circle cx="395.879" cy="765.443" r="4" fill="#0" id="circle353"/>
	<circle cx="451.696" cy="758.637" r="4" fill="#0" id="circle354"/>
	<circle cx="470.296" cy="757.694" r="4" fill="#0" id="circle355"/>
	<circle cx="479.344" cy="760.825" r="4" fill="#0" id="circle356"/>
	<circle cx="482.997" cy="696.191" r="4" fill="#0" id="circle357"/>
	<circle cx="563.384" cy="697.64" r="4" fill="#0" id="circle358"/>
	<circle cx="560.218" cy="744.161" r="4" fill="#0" id="circle359"/>
	<circle cx="575.07" cy="745.557" r="4" fill="#0" id="circle360"/>
	<circle cx="592.398" cy="721.134" r="4" fill="#0" id="circle361"/>
	<circle cx="596.727" cy="681.038" r="4" fill="#0" id="circle362"/>
	<circle cx="638.821" cy="697.639" r="4" fill="#0" id="circle363"/>
	<circle cx="635.966" cy="715.183" r="4" fill="#0" id="circle364"/>
	<circle cx="318.762" cy="709.288" r="4" fill="#0" id="circle365"/>
	<circle cx="294.283" cy="763.783" r="4" fill="#0" id="circle366"/>
	<circle cx="261.89" cy="749.33" r="4" fill="#0" id="circle367"/>
	<circle cx="310.686" cy="749.687" r="4" fill="#0" id="circle368"/>
	<circle cx="307.149" cy="775.497" r="4" fill="#0" id="circle369"/>
	<circle cx="300.086" cy="756.863" r="4" fill="#0" id="circle370"/>
	<circle cx="333.531" cy="789.863" r="4" fill="#0" id="circle371"/>
	<circle cx="338.246" cy="789.588" r="4" fill="#0" id="circle372"/>
	<circle cx="397.055" cy="760.966" r="4" fill="#0" id="circle373"/>
	<circle cx="418.447" cy="766.982" r="4" fill="#0" id="circle374"/>
	<circle cx="461.465" cy="756.052" r="4" fill="#0" id="circle375"/>
	<circle cx="429.899" cy="773.512" r="4" fill="#0" id="circle376"/>
	<circle cx="488.665" cy="768.711" r="4" fill="#0" id="circle377"/>
	<circle cx="496.048" cy="756.459" r="4" fill="#0" id="circle378"/>
	<circle cx="545.833" cy="797.516" r="4" fill="#0" id="circle379"/>
	<circle cx="582.985" cy="780.296" r="4" fill="#0" id="circle380"/>
	<circle cx="543.02" cy="773.364" r="4" fill="#0" id="circle381"/>
	<circle cx="584.584" cy="755.302" r="4" fill="#0" id="circle382"/>
	<circle cx="615.888" cy="738.064" r="4" fill="#0" id="circle383"/>
	<circle cx="675.146" cy="757.022" r="4" fill="#0" id="circle384"/>
	<circle cx="705.774" cy="772.458" r="4" fill="#0" id="circle385"/>
	<circle cx="708.55" cy="723.419" r="4" fill="#0" id="circle386"/>
	<circle cx="680.634" cy="693.537" r="4" fill="#0" id="circle387"/>
	<circle cx="636.834" cy="699.31" r="4" fill="#0" id="circle388"/>
	<circle cx="608.118" cy="805.331" r="4" fill="#0" id="circle389"/>
	<circle cx="644.415" cy="770.852" r="4" fill="#0" id="circle390"/>
	<circle cx="605.564" cy="794.956" r="4" fill="#0" id="circle391"/>
	</g>
</svg>