<?xml version="1.0" encoding="UTF-8" standalone="no"?>
<!-- Created with CurveBenchmark -->
<svg
	xmlns:dc="http://purl.org/dc/elements/1.1/"
	xmlns:cc="http://creativecommons.org/ns#"
	xmlns:rdf="http://www.w3.org/1999/02/22-rdf-syntax-ns#"
	xmlns:svg="http://www.w3.org/2000/svg"
	xmlns="http://www.w3.org/2000/svg"
	xmlns:sodipodi="http://sodipodi.sourceforge.net/DTD/sodipodi-0.dtd"
	xmlns:inkscape="http://www.inkscape.org/namespaces/inkscape"
	width="1000"
	height="1000"
	id="svg2"
	version="1.1"
	sodipodi:docname="noisy-0.03/stretchdenoise-mc19.txt">
<defs
	id="defs4" />
<metadata
	id="metadata7">
	<rdf:RDF>
		<cc:Work
			rdf:about="">
			<dc:format>image/svg+xml</dc:format>
			<dc:type
				rdf:resource="http://purl.org/dc/dcmitype/StillImage" />
			<dc:title></dc:title>
		</cc:Work>
	</rdf:RDF>
</metadata>
<g
	inkscape:label="Layer 1"
	inkscape:groupmode="layer"
	id="layer1">
	<path style="fill:none;stroke:red;stroke-width:1px;stroke-linecap:butt;stroke-linejoin:miter;stroke-opacity:1" d="M 17.1089,689.973 39.7059,602.472 z" id="boundary" inkscape:connector-curvature="0" />
	<path style="fill:none;stroke:red;stroke-width:1px;stroke-linecap:butt;stroke-linejoin:miter;stroke-opacity:1" d="M 17.1089,689.973 76.7064,857.08 z" id="boundary" inkscape:connector-curvature="0" />
	<path style="fill:none;stroke:red;stroke-width:1px;stroke-linecap:butt;stroke-linejoin:miter;stroke-opacity:1" d="M 39.7059,602.472 205.185,464.709 z" id="boundary" inkscape:connector-curvature="0" />
	<path style="fill:none;stroke:red;stroke-width:1px;stroke-linecap:butt;stroke-linejoin:miter;stroke-opacity:1" d="M 76.7064,857.08 185.068,932.132 z" id="boundary" inkscape:connector-curvature="0" />
	<path style="fill:none;stroke:red;stroke-width:1px;stroke-linecap:butt;stroke-linejoin:miter;stroke-opacity:1" d="M 205.185,464.709 318.178,447.348 z" id="boundary" inkscape:connector-curvature="0" />
	<path style="fill:none;stroke:red;stroke-width:1px;stroke-linecap:butt;stroke-linejoin:miter;stroke-opacity:1" d="M 185.068,932.132 349.945,911.514 z" id="boundary" inkscape:connector-curvature="0" />
	<path style="fill:none;stroke:red;stroke-width:1px;stroke-linecap:butt;stroke-linejoin:miter;stroke-opacity:1" d="M 318.178,447.348 417.193,506.373 z" id="boundary" inkscape:connector-curvature="0" />
	<path style="fill:none;stroke:red;stroke-width:1px;stroke-linecap:butt;stroke-linejoin:miter;stroke-opacity:1" d="M 349.945,911.514 402.751,823.034 z" id="boundary" inkscape:connector-curvature="0" />
	<path style="fill:none;stroke:red;stroke-width:1px;stroke-linecap:butt;stroke-linejoin:miter;stroke-opacity:1" d="M 402.751,823.034 524.733,679.313 z" id="boundary" inkscape:connector-curvature="0" />
	<path style="fill:none;stroke:red;stroke-width:1px;stroke-linecap:butt;stroke-linejoin:miter;stroke-opacity:1" d="M 417.193,506.373 428.265,154.827 z" id="boundary" inkscape:connector-curvature="0" />
	<path style="fill:none;stroke:red;stroke-width:1px;stroke-linecap:butt;stroke-linejoin:miter;stroke-opacity:1" d="M 438.726,100.874 428.265,154.827 z" id="boundary" inkscape:connector-curvature="0" />
	<path style="fill:none;stroke:red;stroke-width:1px;stroke-linecap:butt;stroke-linejoin:miter;stroke-opacity:1" d="M 438.726,100.874 506.403,58.2068 z" id="boundary" inkscape:connector-curvature="0" />
	<path style="fill:none;stroke:red;stroke-width:1px;stroke-linecap:butt;stroke-linejoin:miter;stroke-opacity:1" d="M 524.733,679.313 659.734,623.723 z" id="boundary" inkscape:connector-curvature="0" />
	<path style="fill:none;stroke:red;stroke-width:1px;stroke-linecap:butt;stroke-linejoin:miter;stroke-opacity:1" d="M 506.403,58.2068 661.492,66.2592 z" id="boundary" inkscape:connector-curvature="0" />
	<path style="fill:none;stroke:red;stroke-width:1px;stroke-linecap:butt;stroke-linejoin:miter;stroke-opacity:1" d="M 661.492,66.2592 717.484,116.848 z" id="boundary" inkscape:connector-curvature="0" />
	<path style="fill:none;stroke:red;stroke-width:1px;stroke-linecap:butt;stroke-linejoin:miter;stroke-opacity:1" d="M 659.734,623.723 678.993,523.67 z" id="boundary" inkscape:connector-curvature="0" />
	<path style="fill:none;stroke:red;stroke-width:1px;stroke-linecap:butt;stroke-linejoin:miter;stroke-opacity:1" d="M 678.993,523.67 755.927,353.95 z" id="boundary" inkscape:connector-curvature="0" />
	<path style="fill:none;stroke:red;stroke-width:1px;stroke-linecap:butt;stroke-linejoin:miter;stroke-opacity:1" d="M 717.484,116.848 751.155,197.545 z" id="boundary" inkscape:connector-curvature="0" />
	<path style="fill:none;stroke:red;stroke-width:1px;stroke-linecap:butt;stroke-linejoin:miter;stroke-opacity:1" d="M 755.927,353.95 772.941,320.79 z" id="boundary" inkscape:connector-curvature="0" />
	<path style="fill:none;stroke:red;stroke-width:1px;stroke-linecap:butt;stroke-linejoin:miter;stroke-opacity:1" d="M 772.941,320.79 756.933,214.008 z" id="boundary" inkscape:connector-curvature="0" />
	<path style="fill:none;stroke:red;stroke-width:1px;stroke-linecap:butt;stroke-linejoin:miter;stroke-opacity:1" d="M 751.155,197.545 756.933,214.008 z" id="boundary" inkscape:connector-curvature="0" />
	<circle cx="17.1089" cy="689.973" r="4" fill="#0" id="circle0"/>
	<circle cx="4" cy="720.641" r="4" fill="#0" id="circle1"/>
	<circle cx="39.7059" cy="602.472" r="4" fill="#0" id="circle2"/>
	<circle cx="76.7064" cy="857.08" r="4" fill="#0" id="circle3"/>
	<circle cx="205.185" cy="464.709" r="4" fill="#0" id="circle4"/>
	<circle cx="195.582" cy="985.028" r="4" fill="#0" id="circle5"/>
	<circle cx="215.08" cy="980.858" r="4" fill="#0" id="circle6"/>
	<circle cx="185.068" cy="932.132" r="4" fill="#0" id="circle7"/>
	<circle cx="211.677" cy="958.747" r="4" fill="#0" id="circle8"/>
	<circle cx="259.722" cy="984.643" r="4" fill="#0" id="circle9"/>
	<circle cx="273.843" cy="823.769" r="4" fill="#0" id="circle10"/>
	<circle cx="269.012" cy="948.165" r="4" fill="#0" id="circle11"/>
	<circle cx="280.21" cy="996" r="4" fill="#0" id="circle12"/>
	<circle cx="291.184" cy="995.475" r="4" fill="#0" id="circle13"/>
	<circle cx="234.582" cy="825.739" r="4" fill="#0" id="circle14"/>
	<circle cx="273.058" cy="923.735" r="4" fill="#0" id="circle15"/>
	<circle cx="270.342" cy="874.358" r="4" fill="#0" id="circle16"/>
	<circle cx="268.477" cy="914.216" r="4" fill="#0" id="circle17"/>
	<circle cx="281.359" cy="861.012" r="4" fill="#0" id="circle18"/>
	<circle cx="296.405" cy="965.709" r="4" fill="#0" id="circle19"/>
	<circle cx="295.749" cy="832.497" r="4" fill="#0" id="circle20"/>
	<circle cx="307.325" cy="928.248" r="4" fill="#0" id="circle21"/>
	<circle cx="318.178" cy="447.348" r="4" fill="#0" id="circle22"/>
	<circle cx="278.941" cy="959.341" r="4" fill="#0" id="circle23"/>
	<circle cx="336.271" cy="766.351" r="4" fill="#0" id="circle24"/>
	<circle cx="302.131" cy="968.951" r="4" fill="#0" id="circle25"/>
	<circle cx="327.108" cy="958.575" r="4" fill="#0" id="circle26"/>
	<circle cx="277.511" cy="925.316" r="4" fill="#0" id="circle27"/>
	<circle cx="348.288" cy="901.665" r="4" fill="#0" id="circle28"/>
	<circle cx="318.84" cy="922.367" r="4" fill="#0" id="circle29"/>
	<circle cx="341.586" cy="939.927" r="4" fill="#0" id="circle30"/>
	<circle cx="294.013" cy="970.701" r="4" fill="#0" id="circle31"/>
	<circle cx="349.945" cy="911.514" r="4" fill="#0" id="circle32"/>
	<circle cx="355.064" cy="980.027" r="4" fill="#0" id="circle33"/>
	<circle cx="402.751" cy="823.034" r="4" fill="#0" id="circle34"/>
	<circle cx="417.193" cy="506.373" r="4" fill="#0" id="circle35"/>
	<circle cx="438.726" cy="100.874" r="4" fill="#0" id="circle36"/>
	<circle cx="428.265" cy="154.827" r="4" fill="#0" id="circle37"/>
	<circle cx="465.727" cy="103.484" r="4" fill="#0" id="circle38"/>
	<circle cx="443.328" cy="96.9952" r="4" fill="#0" id="circle39"/>
	<circle cx="461.888" cy="146.128" r="4" fill="#0" id="circle40"/>
	<circle cx="504.679" cy="97.11" r="4" fill="#0" id="circle41"/>
	<circle cx="481.89" cy="74.982" r="4" fill="#0" id="circle42"/>
	<circle cx="537.349" cy="415.729" r="4" fill="#0" id="circle43"/>
	<circle cx="524.733" cy="679.313" r="4" fill="#0" id="circle44"/>
	<circle cx="506.403" cy="58.2068" r="4" fill="#0" id="circle45"/>
	<circle cx="531.657" cy="100.82" r="4" fill="#0" id="circle46"/>
	<circle cx="560.604" cy="4" r="4" fill="#0" id="circle47"/>
	<circle cx="585.824" cy="10.0628" r="4" fill="#0" id="circle48"/>
	<circle cx="566.548" cy="75.0911" r="4" fill="#0" id="circle49"/>
	<circle cx="615.911" cy="352.711" r="4" fill="#0" id="circle50"/>
	<circle cx="583.017" cy="689.846" r="4" fill="#0" id="circle51"/>
	<circle cx="661.492" cy="66.2592" r="4" fill="#0" id="circle52"/>
	<circle cx="636.203" cy="42.863" r="4" fill="#0" id="circle53"/>
	<circle cx="637.811" cy="133.035" r="4" fill="#0" id="circle54"/>
	<circle cx="632.213" cy="278.15" r="4" fill="#0" id="circle55"/>
	<circle cx="677.084" cy="69.401" r="4" fill="#0" id="circle56"/>
	<circle cx="698.611" cy="199.17" r="4" fill="#0" id="circle57"/>
	<circle cx="659.734" cy="623.723" r="4" fill="#0" id="circle58"/>
	<circle cx="678.993" cy="523.67" r="4" fill="#0" id="circle59"/>
	<circle cx="746.046" cy="547.618" r="4" fill="#0" id="circle60"/>
	<circle cx="725.128" cy="434.509" r="4" fill="#0" id="circle61"/>
	<circle cx="691.149" cy="360.051" r="4" fill="#0" id="circle62"/>
	<circle cx="717.484" cy="116.848" r="4" fill="#0" id="circle63"/>
	<circle cx="719.804" cy="142.095" r="4" fill="#0" id="circle64"/>
	<circle cx="755.927" cy="353.95" r="4" fill="#0" id="circle65"/>
	<circle cx="772.941" cy="320.79" r="4" fill="#0" id="circle66"/>
	<circle cx="751.155" cy="197.545" r="4" fill="#0" id="circle67"/>
	<circle cx="756.933" cy="214.008" r="4" fill="#0" id="circle68"/>
	<circle cx="563.776" cy="55.9995" r="4" fill="#0" id="circle69"/>
	<circle cx="577.786" cy="47.9535" r="4" fill="#0" id="circle70"/>
	<circle cx="589.976" cy="75.1602" r="4" fill="#0" id="circle71"/>
	<circle cx="582.345" cy="83.2345" r="4" fill="#0" id="circle72"/>
	<circle cx="525.277" cy="45.5621" r="4" fill="#0" id="circle73"/>
	</g>
</svg>