<?xml version="1.0" encoding="UTF-8" standalone="no"?>
<!-- Created with CurveBenchmark -->
<svg
	xmlns:dc="http://purl.org/dc/elements/1.1/"
	xmlns:cc="http://creativecommons.org/ns#"
	xmlns:rdf="http://www.w3.org/1999/02/22-rdf-syntax-ns#"
	xmlns:svg="http://www.w3.org/2000/svg"
	xmlns="http://www.w3.org/2000/svg"
	xmlns:sodipodi="http://sodipodi.sourceforge.net/DTD/sodipodi-0.dtd"
	xmlns:inkscape="http://www.inkscape.org/namespaces/inkscape"
	width="1000"
	height="1000"
	id="svg2"
	version="1.1"
	sodipodi:docname="noisy-0.03/stretchdenoise-mc20.txt">
<defs
	id="defs4" />
<metadata
	id="metadata7">
	<rdf:RDF>
		<cc:Work
			rdf:about="">
			<dc:format>image/svg+xml</dc:format>
			<dc:type
				rdf:resource="http://purl.org/dc/dcmitype/StillImage" />
			<dc:title></dc:title>
		</cc:Work>
	</rdf:RDF>
</metadata>
<g
	inkscape:label="Layer 1"
	inkscape:groupmode="layer"
	id="layer1">
	<path style="fill:none;stroke:red;stroke-width:1px;stroke-linecap:butt;stroke-linejoin:miter;stroke-opacity:1" d="M 4,951.46 18.8333,825.009 z" id="boundary" inkscape:connector-curvature="0" />
	<path style="fill:none;stroke:red;stroke-width:1px;stroke-linecap:butt;stroke-linejoin:miter;stroke-opacity:1" d="M 4,951.46 44.5612,996 z" id="boundary" inkscape:connector-curvature="0" />
	<path style="fill:none;stroke:red;stroke-width:1px;stroke-linecap:butt;stroke-linejoin:miter;stroke-opacity:1" d="M 18.8333,825.009 98.5191,761.183 z" id="boundary" inkscape:connector-curvature="0" />
	<path style="fill:none;stroke:red;stroke-width:1px;stroke-linecap:butt;stroke-linejoin:miter;stroke-opacity:1" d="M 44.5612,996 159.332,930.853 z" id="boundary" inkscape:connector-curvature="0" />
	<path style="fill:none;stroke:red;stroke-width:1px;stroke-linecap:butt;stroke-linejoin:miter;stroke-opacity:1" d="M 98.5191,761.183 153.835,698.317 z" id="boundary" inkscape:connector-curvature="0" />
	<path style="fill:none;stroke:red;stroke-width:1px;stroke-linecap:butt;stroke-linejoin:miter;stroke-opacity:1" d="M 159.332,930.853 244.161,867.074 z" id="boundary" inkscape:connector-curvature="0" />
	<path style="fill:none;stroke:red;stroke-width:1px;stroke-linecap:butt;stroke-linejoin:miter;stroke-opacity:1" d="M 153.835,698.317 139.293,619.22 z" id="boundary" inkscape:connector-curvature="0" />
	<path style="fill:none;stroke:red;stroke-width:1px;stroke-linecap:butt;stroke-linejoin:miter;stroke-opacity:1" d="M 169.973,482.813 139.293,619.22 z" id="boundary" inkscape:connector-curvature="0" />
	<path style="fill:none;stroke:red;stroke-width:1px;stroke-linecap:butt;stroke-linejoin:miter;stroke-opacity:1" d="M 169.973,482.813 176.525,346.766 z" id="boundary" inkscape:connector-curvature="0" />
	<path style="fill:none;stroke:red;stroke-width:1px;stroke-linecap:butt;stroke-linejoin:miter;stroke-opacity:1" d="M 176.525,346.766 234.679,218.212 z" id="boundary" inkscape:connector-curvature="0" />
	<path style="fill:none;stroke:red;stroke-width:1px;stroke-linecap:butt;stroke-linejoin:miter;stroke-opacity:1" d="M 234.679,218.212 286.841,91.1422 z" id="boundary" inkscape:connector-curvature="0" />
	<path style="fill:none;stroke:red;stroke-width:1px;stroke-linecap:butt;stroke-linejoin:miter;stroke-opacity:1" d="M 244.161,867.074 289.168,778.146 z" id="boundary" inkscape:connector-curvature="0" />
	<path style="fill:none;stroke:red;stroke-width:1px;stroke-linecap:butt;stroke-linejoin:miter;stroke-opacity:1" d="M 286.841,91.1422 333.089,56.575 z" id="boundary" inkscape:connector-curvature="0" />
	<path style="fill:none;stroke:red;stroke-width:1px;stroke-linecap:butt;stroke-linejoin:miter;stroke-opacity:1" d="M 289.168,778.146 346.763,764.872 z" id="boundary" inkscape:connector-curvature="0" />
	<path style="fill:none;stroke:red;stroke-width:1px;stroke-linecap:butt;stroke-linejoin:miter;stroke-opacity:1" d="M 346.763,764.872 394.58,701.673 z" id="boundary" inkscape:connector-curvature="0" />
	<path style="fill:none;stroke:red;stroke-width:1px;stroke-linecap:butt;stroke-linejoin:miter;stroke-opacity:1" d="M 394.58,701.673 576.657,727.182 z" id="boundary" inkscape:connector-curvature="0" />
	<path style="fill:none;stroke:red;stroke-width:1px;stroke-linecap:butt;stroke-linejoin:miter;stroke-opacity:1" d="M 394.742,353.544 392.867,429.688 z" id="boundary" inkscape:connector-curvature="0" />
	<path style="fill:none;stroke:red;stroke-width:1px;stroke-linecap:butt;stroke-linejoin:miter;stroke-opacity:1" d="M 394.742,353.544 463.105,193.389 z" id="boundary" inkscape:connector-curvature="0" />
	<path style="fill:none;stroke:red;stroke-width:1px;stroke-linecap:butt;stroke-linejoin:miter;stroke-opacity:1" d="M 392.867,429.688 524.226,449.42 z" id="boundary" inkscape:connector-curvature="0" />
	<path style="fill:none;stroke:red;stroke-width:1px;stroke-linecap:butt;stroke-linejoin:miter;stroke-opacity:1" d="M 463.105,193.389 542.948,183.215 z" id="boundary" inkscape:connector-curvature="0" />
	<path style="fill:none;stroke:red;stroke-width:1px;stroke-linecap:butt;stroke-linejoin:miter;stroke-opacity:1" d="M 527.678,4 677.409,30.4247 z" id="boundary" inkscape:connector-curvature="0" />
	<path style="fill:none;stroke:red;stroke-width:1px;stroke-linecap:butt;stroke-linejoin:miter;stroke-opacity:1" d="M 542.948,183.215 602.346,203.183 z" id="boundary" inkscape:connector-curvature="0" />
	<path style="fill:none;stroke:red;stroke-width:1px;stroke-linecap:butt;stroke-linejoin:miter;stroke-opacity:1" d="M 576.657,727.182 650.375,698.749 z" id="boundary" inkscape:connector-curvature="0" />
	<path style="fill:none;stroke:red;stroke-width:1px;stroke-linecap:butt;stroke-linejoin:miter;stroke-opacity:1" d="M 602.346,203.183 624.88,300.701 z" id="boundary" inkscape:connector-curvature="0" />
	<path style="fill:none;stroke:red;stroke-width:1px;stroke-linecap:butt;stroke-linejoin:miter;stroke-opacity:1" d="M 665.546,375.473 624.88,300.701 z" id="boundary" inkscape:connector-curvature="0" />
	<path style="fill:none;stroke:red;stroke-width:1px;stroke-linecap:butt;stroke-linejoin:miter;stroke-opacity:1" d="M 665.546,375.473 819.437,385.945 z" id="boundary" inkscape:connector-curvature="0" />
	<path style="fill:none;stroke:red;stroke-width:1px;stroke-linecap:butt;stroke-linejoin:miter;stroke-opacity:1" d="M 650.375,698.749 764.74,585.31 z" id="boundary" inkscape:connector-curvature="0" />
	<path style="fill:none;stroke:red;stroke-width:1px;stroke-linecap:butt;stroke-linejoin:miter;stroke-opacity:1" d="M 677.409,30.4247 794.355,133.633 z" id="boundary" inkscape:connector-curvature="0" />
	<path style="fill:none;stroke:red;stroke-width:1px;stroke-linecap:butt;stroke-linejoin:miter;stroke-opacity:1" d="M 794.355,133.633 855.987,226.318 z" id="boundary" inkscape:connector-curvature="0" />
	<path style="fill:none;stroke:red;stroke-width:1px;stroke-linecap:butt;stroke-linejoin:miter;stroke-opacity:1" d="M 855.987,226.318 819.437,385.945 z" id="boundary" inkscape:connector-curvature="0" />
	<circle cx="4" cy="951.46" r="4" fill="#0" id="circle0"/>
	<circle cx="18.8333" cy="825.009" r="4" fill="#0" id="circle1"/>
	<circle cx="44.5612" cy="996" r="4" fill="#0" id="circle2"/>
	<circle cx="98.5191" cy="761.183" r="4" fill="#0" id="circle3"/>
	<circle cx="159.332" cy="930.853" r="4" fill="#0" id="circle4"/>
	<circle cx="153.835" cy="698.317" r="4" fill="#0" id="circle5"/>
	<circle cx="169.973" cy="482.813" r="4" fill="#0" id="circle6"/>
	<circle cx="139.293" cy="619.22" r="4" fill="#0" id="circle7"/>
	<circle cx="176.525" cy="346.766" r="4" fill="#0" id="circle8"/>
	<circle cx="234.679" cy="218.212" r="4" fill="#0" id="circle9"/>
	<circle cx="244.161" cy="867.074" r="4" fill="#0" id="circle10"/>
	<circle cx="286.841" cy="91.1422" r="4" fill="#0" id="circle11"/>
	<circle cx="289.168" cy="778.146" r="4" fill="#0" id="circle12"/>
	<circle cx="346.763" cy="764.872" r="4" fill="#0" id="circle13"/>
	<circle cx="333.089" cy="56.575" r="4" fill="#0" id="circle14"/>
	<circle cx="394.58" cy="701.673" r="4" fill="#0" id="circle15"/>
	<circle cx="394.742" cy="353.544" r="4" fill="#0" id="circle16"/>
	<circle cx="392.867" cy="429.688" r="4" fill="#0" id="circle17"/>
	<circle cx="463.105" cy="193.389" r="4" fill="#0" id="circle18"/>
	<circle cx="524.226" cy="449.42" r="4" fill="#0" id="circle19"/>
	<circle cx="527.678" cy="4" r="4" fill="#0" id="circle20"/>
	<circle cx="542.948" cy="183.215" r="4" fill="#0" id="circle21"/>
	<circle cx="576.657" cy="727.182" r="4" fill="#0" id="circle22"/>
	<circle cx="602.346" cy="203.183" r="4" fill="#0" id="circle23"/>
	<circle cx="665.546" cy="375.473" r="4" fill="#0" id="circle24"/>
	<circle cx="650.375" cy="698.749" r="4" fill="#0" id="circle25"/>
	<circle cx="677.409" cy="30.4247" r="4" fill="#0" id="circle26"/>
	<circle cx="624.88" cy="300.701" r="4" fill="#0" id="circle27"/>
	<circle cx="794.355" cy="133.633" r="4" fill="#0" id="circle28"/>
	<circle cx="764.74" cy="585.31" r="4" fill="#0" id="circle29"/>
	<circle cx="855.987" cy="226.318" r="4" fill="#0" id="circle30"/>
	<circle cx="819.437" cy="385.945" r="4" fill="#0" id="circle31"/>
	</g>
</svg>