<?xml version="1.0" encoding="UTF-8" standalone="no"?>
<!-- Created with CurveBenchmark -->
<svg
	xmlns:dc="http://purl.org/dc/elements/1.1/"
	xmlns:cc="http://creativecommons.org/ns#"
	xmlns:rdf="http://www.w3.org/1999/02/22-rdf-syntax-ns#"
	xmlns:svg="http://www.w3.org/2000/svg"
	xmlns="http://www.w3.org/2000/svg"
	xmlns:sodipodi="http://sodipodi.sourceforge.net/DTD/sodipodi-0.dtd"
	xmlns:inkscape="http://www.inkscape.org/namespaces/inkscape"
	width="1000"
	height="1000"
	id="svg2"
	version="1.1"
	sodipodi:docname="noisy-0.03/vicur-mc9.txt">
<defs
	id="defs4" />
<metadata
	id="metadata7">
	<rdf:RDF>
		<cc:Work
			rdf:about="">
			<dc:format>image/svg+xml</dc:format>
			<dc:type
				rdf:resource="http://purl.org/dc/dcmitype/StillImage" />
			<dc:title></dc:title>
		</cc:Work>
	</rdf:RDF>
</metadata>
<g
	inkscape:label="Layer 1"
	inkscape:groupmode="layer"
	id="layer1">
	<path style="fill:none;stroke:red;stroke-width:1px;stroke-linecap:butt;stroke-linejoin:miter;stroke-opacity:1" d="M 215.097,179.756 191.456,167.564 z" id="boundary" inkscape:connector-curvature="0" />
	<path style="fill:none;stroke:red;stroke-width:1px;stroke-linecap:butt;stroke-linejoin:miter;stroke-opacity:1" d="M 215.097,179.756 244.698,191.338 z" id="boundary" inkscape:connector-curvature="0" />
	<path style="fill:none;stroke:red;stroke-width:1px;stroke-linecap:butt;stroke-linejoin:miter;stroke-opacity:1" d="M 203.963,152.676 256.837,162.505 z" id="boundary" inkscape:connector-curvature="0" />
	<path style="fill:none;stroke:red;stroke-width:1px;stroke-linecap:butt;stroke-linejoin:miter;stroke-opacity:1" d="M 178.893,192.948 169.345,218.144 z" id="boundary" inkscape:connector-curvature="0" />
	<path style="fill:none;stroke:red;stroke-width:1px;stroke-linecap:butt;stroke-linejoin:miter;stroke-opacity:1" d="M 178.893,192.948 191.124,193.447 z" id="boundary" inkscape:connector-curvature="0" />
	<path style="fill:none;stroke:red;stroke-width:1px;stroke-linecap:butt;stroke-linejoin:miter;stroke-opacity:1" d="M 191.456,167.564 163.118,162.545 z" id="boundary" inkscape:connector-curvature="0" />
	<path style="fill:none;stroke:red;stroke-width:1px;stroke-linecap:butt;stroke-linejoin:miter;stroke-opacity:1" d="M 163.118,162.545 157.202,171.779 z" id="boundary" inkscape:connector-curvature="0" />
	<path style="fill:none;stroke:red;stroke-width:1px;stroke-linecap:butt;stroke-linejoin:miter;stroke-opacity:1" d="M 102.871,144.784 97.654,159.77 z" id="boundary" inkscape:connector-curvature="0" />
	<path style="fill:none;stroke:red;stroke-width:1px;stroke-linecap:butt;stroke-linejoin:miter;stroke-opacity:1" d="M 109.124,158.114 127.281,167.004 z" id="boundary" inkscape:connector-curvature="0" />
	<path style="fill:none;stroke:red;stroke-width:1px;stroke-linecap:butt;stroke-linejoin:miter;stroke-opacity:1" d="M 109.124,158.114 97.654,159.77 z" id="boundary" inkscape:connector-curvature="0" />
	<path style="fill:none;stroke:red;stroke-width:1px;stroke-linecap:butt;stroke-linejoin:miter;stroke-opacity:1" d="M 127.281,167.004 131.457,184.122 z" id="boundary" inkscape:connector-curvature="0" />
	<path style="fill:none;stroke:red;stroke-width:1px;stroke-linecap:butt;stroke-linejoin:miter;stroke-opacity:1" d="M 122.215,194.396 131.457,184.122 z" id="boundary" inkscape:connector-curvature="0" />
	<path style="fill:none;stroke:red;stroke-width:1px;stroke-linecap:butt;stroke-linejoin:miter;stroke-opacity:1" d="M 122.215,194.396 108.794,201.893 z" id="boundary" inkscape:connector-curvature="0" />
	<path style="fill:none;stroke:red;stroke-width:1px;stroke-linecap:butt;stroke-linejoin:miter;stroke-opacity:1" d="M 82.8866,191.283 71.2263,218.342 z" id="boundary" inkscape:connector-curvature="0" />
	<path style="fill:none;stroke:red;stroke-width:1px;stroke-linecap:butt;stroke-linejoin:miter;stroke-opacity:1" d="M 82.8866,191.283 108.794,201.893 z" id="boundary" inkscape:connector-curvature="0" />
	<path style="fill:none;stroke:red;stroke-width:1px;stroke-linecap:butt;stroke-linejoin:miter;stroke-opacity:1" d="M 71.2263,218.342 92.8878,253.412 z" id="boundary" inkscape:connector-curvature="0" />
	<path style="fill:none;stroke:red;stroke-width:1px;stroke-linecap:butt;stroke-linejoin:miter;stroke-opacity:1" d="M 4,221.479 29.0917,190.34 z" id="boundary" inkscape:connector-curvature="0" />
	<path style="fill:none;stroke:red;stroke-width:1px;stroke-linecap:butt;stroke-linejoin:miter;stroke-opacity:1" d="M 4,221.479 28.8925,227.757 z" id="boundary" inkscape:connector-curvature="0" />
	<path style="fill:none;stroke:red;stroke-width:1px;stroke-linecap:butt;stroke-linejoin:miter;stroke-opacity:1" d="M 28.8925,227.757 43.8641,254.72 z" id="boundary" inkscape:connector-curvature="0" />
	<path style="fill:none;stroke:red;stroke-width:1px;stroke-linecap:butt;stroke-linejoin:miter;stroke-opacity:1" d="M 43.8641,254.72 47.1172,275.088 z" id="boundary" inkscape:connector-curvature="0" />
	<path style="fill:none;stroke:red;stroke-width:1px;stroke-linecap:butt;stroke-linejoin:miter;stroke-opacity:1" d="M 47.1172,275.088 33.2705,294.19 z" id="boundary" inkscape:connector-curvature="0" />
	<path style="fill:none;stroke:red;stroke-width:1px;stroke-linecap:butt;stroke-linejoin:miter;stroke-opacity:1" d="M 60.9369,321.689 33.2705,294.19 z" id="boundary" inkscape:connector-curvature="0" />
	<path style="fill:none;stroke:red;stroke-width:1px;stroke-linecap:butt;stroke-linejoin:miter;stroke-opacity:1" d="M 60.9369,321.689 90.2083,304.125 z" id="boundary" inkscape:connector-curvature="0" />
	<path style="fill:none;stroke:red;stroke-width:1px;stroke-linecap:butt;stroke-linejoin:miter;stroke-opacity:1" d="M 90.2083,304.125 100.435,285.601 z" id="boundary" inkscape:connector-curvature="0" />
	<path style="fill:none;stroke:red;stroke-width:1px;stroke-linecap:butt;stroke-linejoin:miter;stroke-opacity:1" d="M 70.1027,372.454 63.6432,372.791 z" id="boundary" inkscape:connector-curvature="0" />
	<path style="fill:none;stroke:red;stroke-width:1px;stroke-linecap:butt;stroke-linejoin:miter;stroke-opacity:1" d="M 102.945,344.244 119.476,340.777 z" id="boundary" inkscape:connector-curvature="0" />
	<path style="fill:none;stroke:red;stroke-width:1px;stroke-linecap:butt;stroke-linejoin:miter;stroke-opacity:1" d="M 127.983,405.304 115.07,409.897 z" id="boundary" inkscape:connector-curvature="0" />
	<path style="fill:none;stroke:red;stroke-width:1px;stroke-linecap:butt;stroke-linejoin:miter;stroke-opacity:1" d="M 127.983,405.304 168.242,423.229 z" id="boundary" inkscape:connector-curvature="0" />
	<path style="fill:none;stroke:red;stroke-width:1px;stroke-linecap:butt;stroke-linejoin:miter;stroke-opacity:1" d="M 115.07,409.897 116.695,373.551 z" id="boundary" inkscape:connector-curvature="0" />
	<path style="fill:none;stroke:red;stroke-width:1px;stroke-linecap:butt;stroke-linejoin:miter;stroke-opacity:1" d="M 144.736,355.056 135.518,358.705 z" id="boundary" inkscape:connector-curvature="0" />
	<path style="fill:none;stroke:red;stroke-width:1px;stroke-linecap:butt;stroke-linejoin:miter;stroke-opacity:1" d="M 144.736,355.056 151.457,339.823 z" id="boundary" inkscape:connector-curvature="0" />
	<path style="fill:none;stroke:red;stroke-width:1px;stroke-linecap:butt;stroke-linejoin:miter;stroke-opacity:1" d="M 116.695,373.551 135.518,358.705 z" id="boundary" inkscape:connector-curvature="0" />
	<path style="fill:none;stroke:red;stroke-width:1px;stroke-linecap:butt;stroke-linejoin:miter;stroke-opacity:1" d="M 172.754,403.381 188.222,432.455 z" id="boundary" inkscape:connector-curvature="0" />
	<path style="fill:none;stroke:red;stroke-width:1px;stroke-linecap:butt;stroke-linejoin:miter;stroke-opacity:1" d="M 172.754,403.381 157.424,380.748 z" id="boundary" inkscape:connector-curvature="0" />
	<path style="fill:none;stroke:red;stroke-width:1px;stroke-linecap:butt;stroke-linejoin:miter;stroke-opacity:1" d="M 168.242,423.229 167.137,458.556 z" id="boundary" inkscape:connector-curvature="0" />
	<path style="fill:none;stroke:red;stroke-width:1px;stroke-linecap:butt;stroke-linejoin:miter;stroke-opacity:1" d="M 172.948,478.81 167.137,458.556 z" id="boundary" inkscape:connector-curvature="0" />
	<path style="fill:none;stroke:red;stroke-width:1px;stroke-linecap:butt;stroke-linejoin:miter;stroke-opacity:1" d="M 172.948,478.81 209.067,502.593 z" id="boundary" inkscape:connector-curvature="0" />
	<path style="fill:none;stroke:red;stroke-width:1px;stroke-linecap:butt;stroke-linejoin:miter;stroke-opacity:1" d="M 188.222,432.455 220.939,467.85 z" id="boundary" inkscape:connector-curvature="0" />
	<path style="fill:none;stroke:red;stroke-width:1px;stroke-linecap:butt;stroke-linejoin:miter;stroke-opacity:1" d="M 220.939,467.85 249.391,488.282 z" id="boundary" inkscape:connector-curvature="0" />
	<path style="fill:none;stroke:red;stroke-width:1px;stroke-linecap:butt;stroke-linejoin:miter;stroke-opacity:1" d="M 209.067,502.593 219.322,525.67 z" id="boundary" inkscape:connector-curvature="0" />
	<path style="fill:none;stroke:red;stroke-width:1px;stroke-linecap:butt;stroke-linejoin:miter;stroke-opacity:1" d="M 219.322,525.67 239.769,535.598 z" id="boundary" inkscape:connector-curvature="0" />
	<path style="fill:none;stroke:red;stroke-width:1px;stroke-linecap:butt;stroke-linejoin:miter;stroke-opacity:1" d="M 249.391,488.282 296.452,508.335 z" id="boundary" inkscape:connector-curvature="0" />
	<path style="fill:none;stroke:red;stroke-width:1px;stroke-linecap:butt;stroke-linejoin:miter;stroke-opacity:1" d="M 239.769,535.598 285.094,551.197 z" id="boundary" inkscape:connector-curvature="0" />
	<path style="fill:none;stroke:red;stroke-width:1px;stroke-linecap:butt;stroke-linejoin:miter;stroke-opacity:1" d="M 296.452,508.335 307.764,534.155 z" id="boundary" inkscape:connector-curvature="0" />
	<path style="fill:none;stroke:red;stroke-width:1px;stroke-linecap:butt;stroke-linejoin:miter;stroke-opacity:1" d="M 307.764,534.155 321.599,540.579 z" id="boundary" inkscape:connector-curvature="0" />
	<path style="fill:none;stroke:red;stroke-width:1px;stroke-linecap:butt;stroke-linejoin:miter;stroke-opacity:1" d="M 321.599,540.579 354.144,539.195 z" id="boundary" inkscape:connector-curvature="0" />
	<path style="fill:none;stroke:red;stroke-width:1px;stroke-linecap:butt;stroke-linejoin:miter;stroke-opacity:1" d="M 354.144,539.195 378.137,546.05 z" id="boundary" inkscape:connector-curvature="0" />
	<path style="fill:none;stroke:red;stroke-width:1px;stroke-linecap:butt;stroke-linejoin:miter;stroke-opacity:1" d="M 379.34,551.002 378.137,546.05 z" id="boundary" inkscape:connector-curvature="0" />
	<path style="fill:none;stroke:red;stroke-width:1px;stroke-linecap:butt;stroke-linejoin:miter;stroke-opacity:1" d="M 475.218,597.243 482.017,595.474 z" id="boundary" inkscape:connector-curvature="0" />
	<path style="fill:none;stroke:red;stroke-width:1px;stroke-linecap:butt;stroke-linejoin:miter;stroke-opacity:1" d="M 559.525,599.063 552.753,588.166 z" id="boundary" inkscape:connector-curvature="0" />
	<path style="fill:none;stroke:red;stroke-width:1px;stroke-linecap:butt;stroke-linejoin:miter;stroke-opacity:1" d="M 599.623,555.305 613.687,565.112 z" id="boundary" inkscape:connector-curvature="0" />
	<path style="fill:none;stroke:red;stroke-width:1px;stroke-linecap:butt;stroke-linejoin:miter;stroke-opacity:1" d="M 599.623,555.305 597.35,550.423 z" id="boundary" inkscape:connector-curvature="0" />
	<path style="fill:none;stroke:red;stroke-width:1px;stroke-linecap:butt;stroke-linejoin:miter;stroke-opacity:1" d="M 613.687,565.112 633.931,581.422 z" id="boundary" inkscape:connector-curvature="0" />
	<path style="fill:none;stroke:red;stroke-width:1px;stroke-linecap:butt;stroke-linejoin:miter;stroke-opacity:1" d="M 633.931,581.422 651.993,579.404 z" id="boundary" inkscape:connector-curvature="0" />
	<path style="fill:none;stroke:red;stroke-width:1px;stroke-linecap:butt;stroke-linejoin:miter;stroke-opacity:1" d="M 651.993,579.404 689.997,572.771 z" id="boundary" inkscape:connector-curvature="0" />
	<path style="fill:none;stroke:red;stroke-width:1px;stroke-linecap:butt;stroke-linejoin:miter;stroke-opacity:1" d="M 695.992,581.066 689.997,572.771 z" id="boundary" inkscape:connector-curvature="0" />
	<path style="fill:none;stroke:red;stroke-width:1px;stroke-linecap:butt;stroke-linejoin:miter;stroke-opacity:1" d="M 733.916,531.107 750.68,516.526 z" id="boundary" inkscape:connector-curvature="0" />
	<path style="fill:none;stroke:red;stroke-width:1px;stroke-linecap:butt;stroke-linejoin:miter;stroke-opacity:1" d="M 750.68,516.526 761.555,509.298 z" id="boundary" inkscape:connector-curvature="0" />
	<path style="fill:none;stroke:red;stroke-width:1px;stroke-linecap:butt;stroke-linejoin:miter;stroke-opacity:1" d="M 800.448,501.838 805.622,508.738 z" id="boundary" inkscape:connector-curvature="0" />
	<path style="fill:none;stroke:red;stroke-width:1px;stroke-linecap:butt;stroke-linejoin:miter;stroke-opacity:1" d="M 797.363,430.071 807.485,426.037 z" id="boundary" inkscape:connector-curvature="0" />
	<path style="fill:none;stroke:red;stroke-width:1px;stroke-linecap:butt;stroke-linejoin:miter;stroke-opacity:1" d="M 807.485,426.037 831.934,440.297 z" id="boundary" inkscape:connector-curvature="0" />
	<path style="fill:none;stroke:red;stroke-width:1px;stroke-linecap:butt;stroke-linejoin:miter;stroke-opacity:1" d="M 850.061,449.963 831.934,440.297 z" id="boundary" inkscape:connector-curvature="0" />
	<path style="fill:none;stroke:red;stroke-width:1px;stroke-linecap:butt;stroke-linejoin:miter;stroke-opacity:1" d="M 850.061,449.963 878.568,425.84 z" id="boundary" inkscape:connector-curvature="0" />
	<path style="fill:none;stroke:red;stroke-width:1px;stroke-linecap:butt;stroke-linejoin:miter;stroke-opacity:1" d="M 878.568,425.84 921.66,393.078 z" id="boundary" inkscape:connector-curvature="0" />
	<path style="fill:none;stroke:red;stroke-width:1px;stroke-linecap:butt;stroke-linejoin:miter;stroke-opacity:1" d="M 867.288,377.141 871.757,367.974 z" id="boundary" inkscape:connector-curvature="0" />
	<path style="fill:none;stroke:red;stroke-width:1px;stroke-linecap:butt;stroke-linejoin:miter;stroke-opacity:1" d="M 871.757,367.974 880.706,355.153 z" id="boundary" inkscape:connector-curvature="0" />
	<path style="fill:none;stroke:red;stroke-width:1px;stroke-linecap:butt;stroke-linejoin:miter;stroke-opacity:1" d="M 921.66,393.078 895.219,337.472 z" id="boundary" inkscape:connector-curvature="0" />
	<path style="fill:none;stroke:red;stroke-width:1px;stroke-linecap:butt;stroke-linejoin:miter;stroke-opacity:1" d="M 880.706,355.153 895.219,337.472 z" id="boundary" inkscape:connector-curvature="0" />
	<path style="fill:none;stroke:red;stroke-width:1px;stroke-linecap:butt;stroke-linejoin:miter;stroke-opacity:1" d="M 907.332,215.576 943.154,213.254 z" id="boundary" inkscape:connector-curvature="0" />
	<path style="fill:none;stroke:red;stroke-width:1px;stroke-linecap:butt;stroke-linejoin:miter;stroke-opacity:1" d="M 907.332,215.576 875.193,205.894 z" id="boundary" inkscape:connector-curvature="0" />
	<path style="fill:none;stroke:red;stroke-width:1px;stroke-linecap:butt;stroke-linejoin:miter;stroke-opacity:1" d="M 950.441,218.526 943.154,213.254 z" id="boundary" inkscape:connector-curvature="0" />
	<path style="fill:none;stroke:red;stroke-width:1px;stroke-linecap:butt;stroke-linejoin:miter;stroke-opacity:1" d="M 950.441,218.526 947.885,221.949 z" id="boundary" inkscape:connector-curvature="0" />
	<path style="fill:none;stroke:red;stroke-width:1px;stroke-linecap:butt;stroke-linejoin:miter;stroke-opacity:1" d="M 970.347,164.408 936.625,156.279 z" id="boundary" inkscape:connector-curvature="0" />
	<path style="fill:none;stroke:red;stroke-width:1px;stroke-linecap:butt;stroke-linejoin:miter;stroke-opacity:1" d="M 996,141.184 989.693,135.401 z" id="boundary" inkscape:connector-curvature="0" />
	<path style="fill:none;stroke:red;stroke-width:1px;stroke-linecap:butt;stroke-linejoin:miter;stroke-opacity:1" d="M 996,141.184 970.638,139.614 z" id="boundary" inkscape:connector-curvature="0" />
	<path style="fill:none;stroke:red;stroke-width:1px;stroke-linecap:butt;stroke-linejoin:miter;stroke-opacity:1" d="M 906.437,147.582 933.622,129.208 z" id="boundary" inkscape:connector-curvature="0" />
	<path style="fill:none;stroke:red;stroke-width:1px;stroke-linecap:butt;stroke-linejoin:miter;stroke-opacity:1" d="M 906.437,147.582 909.09,198.156 z" id="boundary" inkscape:connector-curvature="0" />
	<path style="fill:none;stroke:red;stroke-width:1px;stroke-linecap:butt;stroke-linejoin:miter;stroke-opacity:1" d="M 970.638,139.614 947.395,132.539 z" id="boundary" inkscape:connector-curvature="0" />
	<path style="fill:none;stroke:red;stroke-width:1px;stroke-linecap:butt;stroke-linejoin:miter;stroke-opacity:1" d="M 933.622,129.208 947.395,132.539 z" id="boundary" inkscape:connector-curvature="0" />
	<path style="fill:none;stroke:red;stroke-width:1px;stroke-linecap:butt;stroke-linejoin:miter;stroke-opacity:1" d="M 777.22,280.501 779.696,292.841 z" id="boundary" inkscape:connector-curvature="0" />
	<path style="fill:none;stroke:red;stroke-width:1px;stroke-linecap:butt;stroke-linejoin:miter;stroke-opacity:1" d="M 800.27,258.446 803.151,248.872 z" id="boundary" inkscape:connector-curvature="0" />
	<path style="fill:none;stroke:red;stroke-width:1px;stroke-linecap:butt;stroke-linejoin:miter;stroke-opacity:1" d="M 800.27,258.446 802.287,275.679 z" id="boundary" inkscape:connector-curvature="0" />
	<path style="fill:none;stroke:red;stroke-width:1px;stroke-linecap:butt;stroke-linejoin:miter;stroke-opacity:1" d="M 829.584,280.57 840.131,271.337 z" id="boundary" inkscape:connector-curvature="0" />
	<path style="fill:none;stroke:red;stroke-width:1px;stroke-linecap:butt;stroke-linejoin:miter;stroke-opacity:1" d="M 876.752,241.813 863.645,240.426 z" id="boundary" inkscape:connector-curvature="0" />
	<path style="fill:none;stroke:red;stroke-width:1px;stroke-linecap:butt;stroke-linejoin:miter;stroke-opacity:1" d="M 863.645,240.426 869.489,225.238 z" id="boundary" inkscape:connector-curvature="0" />
	<path style="fill:none;stroke:red;stroke-width:1px;stroke-linecap:butt;stroke-linejoin:miter;stroke-opacity:1" d="M 869.489,225.238 875.193,205.894 z" id="boundary" inkscape:connector-curvature="0" />
	<path style="fill:none;stroke:red;stroke-width:1px;stroke-linecap:butt;stroke-linejoin:miter;stroke-opacity:1" d="M 909.09,198.156 936.625,156.279 z" id="boundary" inkscape:connector-curvature="0" />
	<path style="fill:none;stroke:red;stroke-width:1px;stroke-linecap:butt;stroke-linejoin:miter;stroke-opacity:1" d="M 796.458,207.427 781.709,202.412 z" id="boundary" inkscape:connector-curvature="0" />
	<path style="fill:none;stroke:red;stroke-width:1px;stroke-linecap:butt;stroke-linejoin:miter;stroke-opacity:1" d="M 781.709,202.412 768.676,218.66 z" id="boundary" inkscape:connector-curvature="0" />
	<path style="fill:none;stroke:red;stroke-width:1px;stroke-linecap:butt;stroke-linejoin:miter;stroke-opacity:1" d="M 683.832,128.095 652.491,101.952 z" id="boundary" inkscape:connector-curvature="0" />
	<path style="fill:none;stroke:red;stroke-width:1px;stroke-linecap:butt;stroke-linejoin:miter;stroke-opacity:1" d="M 683.832,128.095 683.9,133.595 z" id="boundary" inkscape:connector-curvature="0" />
	<path style="fill:none;stroke:red;stroke-width:1px;stroke-linecap:butt;stroke-linejoin:miter;stroke-opacity:1" d="M 744.928,177.547 761.402,154.109 z" id="boundary" inkscape:connector-curvature="0" />
	<path style="fill:none;stroke:red;stroke-width:1px;stroke-linecap:butt;stroke-linejoin:miter;stroke-opacity:1" d="M 744.928,177.547 734.659,192.008 z" id="boundary" inkscape:connector-curvature="0" />
	<path style="fill:none;stroke:red;stroke-width:1px;stroke-linecap:butt;stroke-linejoin:miter;stroke-opacity:1" d="M 734.659,192.008 751.217,190.275 z" id="boundary" inkscape:connector-curvature="0" />
	<path style="fill:none;stroke:red;stroke-width:1px;stroke-linecap:butt;stroke-linejoin:miter;stroke-opacity:1" d="M 751.217,190.275 768.676,218.66 z" id="boundary" inkscape:connector-curvature="0" />
	<path style="fill:none;stroke:red;stroke-width:1px;stroke-linecap:butt;stroke-linejoin:miter;stroke-opacity:1" d="M 530.353,119.154 557.347,130.147 z" id="boundary" inkscape:connector-curvature="0" />
	<path style="fill:none;stroke:red;stroke-width:1px;stroke-linecap:butt;stroke-linejoin:miter;stroke-opacity:1" d="M 530.353,119.154 541.285,84.6712 z" id="boundary" inkscape:connector-curvature="0" />
	<path style="fill:none;stroke:red;stroke-width:1px;stroke-linecap:butt;stroke-linejoin:miter;stroke-opacity:1" d="M 592.219,86.24 592.749,90.1502 z" id="boundary" inkscape:connector-curvature="0" />
	<path style="fill:none;stroke:red;stroke-width:1px;stroke-linecap:butt;stroke-linejoin:miter;stroke-opacity:1" d="M 592.219,86.24 583.938,36.1687 z" id="boundary" inkscape:connector-curvature="0" />
	<path style="fill:none;stroke:red;stroke-width:1px;stroke-linecap:butt;stroke-linejoin:miter;stroke-opacity:1" d="M 592.749,90.1502 630.004,96.8368 z" id="boundary" inkscape:connector-curvature="0" />
	<path style="fill:none;stroke:red;stroke-width:1px;stroke-linecap:butt;stroke-linejoin:miter;stroke-opacity:1" d="M 632.605,122.008 636.813,118.358 z" id="boundary" inkscape:connector-curvature="0" />
	<path style="fill:none;stroke:red;stroke-width:1px;stroke-linecap:butt;stroke-linejoin:miter;stroke-opacity:1" d="M 630.004,96.8368 652.491,101.952 z" id="boundary" inkscape:connector-curvature="0" />
	<path style="fill:none;stroke:red;stroke-width:1px;stroke-linecap:butt;stroke-linejoin:miter;stroke-opacity:1" d="M 244.698,191.338 243.319,234.236 z" id="boundary" inkscape:connector-curvature="0" />
	<path style="fill:none;stroke:red;stroke-width:1px;stroke-linecap:butt;stroke-linejoin:miter;stroke-opacity:1" d="M 271.9,121.953 256.837,162.505 z" id="boundary" inkscape:connector-curvature="0" />
	<path style="fill:none;stroke:red;stroke-width:1px;stroke-linecap:butt;stroke-linejoin:miter;stroke-opacity:1" d="M 271.9,121.953 297.083,109.584 z" id="boundary" inkscape:connector-curvature="0" />
	<path style="fill:none;stroke:red;stroke-width:1px;stroke-linecap:butt;stroke-linejoin:miter;stroke-opacity:1" d="M 311.82,134.081 307.516,125.499 z" id="boundary" inkscape:connector-curvature="0" />
	<path style="fill:none;stroke:red;stroke-width:1px;stroke-linecap:butt;stroke-linejoin:miter;stroke-opacity:1" d="M 311.82,134.081 315.155,121.038 z" id="boundary" inkscape:connector-curvature="0" />
	<path style="fill:none;stroke:red;stroke-width:1px;stroke-linecap:butt;stroke-linejoin:miter;stroke-opacity:1" d="M 307.516,125.499 315.155,121.038 z" id="boundary" inkscape:connector-curvature="0" />
	<path style="fill:none;stroke:red;stroke-width:1px;stroke-linecap:butt;stroke-linejoin:miter;stroke-opacity:1" d="M 365.999,126.152 370.038,112.165 z" id="boundary" inkscape:connector-curvature="0" />
	<path style="fill:none;stroke:red;stroke-width:1px;stroke-linecap:butt;stroke-linejoin:miter;stroke-opacity:1" d="M 429.333,102.135 428.083,81.5448 z" id="boundary" inkscape:connector-curvature="0" />
	<path style="fill:none;stroke:red;stroke-width:1px;stroke-linecap:butt;stroke-linejoin:miter;stroke-opacity:1" d="M 395.648,69.8019 417.09,74.365 z" id="boundary" inkscape:connector-curvature="0" />
	<path style="fill:none;stroke:red;stroke-width:1px;stroke-linecap:butt;stroke-linejoin:miter;stroke-opacity:1" d="M 428.083,81.5448 417.09,74.365 z" id="boundary" inkscape:connector-curvature="0" />
	<path style="fill:none;stroke:red;stroke-width:1px;stroke-linecap:butt;stroke-linejoin:miter;stroke-opacity:1" d="M 489.178,80.9394 471.572,60.0489 z" id="boundary" inkscape:connector-curvature="0" />
	<path style="fill:none;stroke:red;stroke-width:1px;stroke-linecap:butt;stroke-linejoin:miter;stroke-opacity:1" d="M 489.178,80.9394 512.929,67.8894 z" id="boundary" inkscape:connector-curvature="0" />
	<path style="fill:none;stroke:red;stroke-width:1px;stroke-linecap:butt;stroke-linejoin:miter;stroke-opacity:1" d="M 471.572,60.0489 427.649,34.8206 z" id="boundary" inkscape:connector-curvature="0" />
	<path style="fill:none;stroke:red;stroke-width:1px;stroke-linecap:butt;stroke-linejoin:miter;stroke-opacity:1" d="M 422.125,38.5655 427.649,34.8206 z" id="boundary" inkscape:connector-curvature="0" />
	<path style="fill:none;stroke:red;stroke-width:1px;stroke-linecap:butt;stroke-linejoin:miter;stroke-opacity:1" d="M 475.876,4.91747 451.29,4 z" id="boundary" inkscape:connector-curvature="0" />
	<path style="fill:none;stroke:red;stroke-width:1px;stroke-linecap:butt;stroke-linejoin:miter;stroke-opacity:1" d="M 475.876,4.91747 495.325,23.9575 z" id="boundary" inkscape:connector-curvature="0" />
	<path style="fill:none;stroke:red;stroke-width:1px;stroke-linecap:butt;stroke-linejoin:miter;stroke-opacity:1" d="M 495.325,23.9575 499.191,29.5739 z" id="boundary" inkscape:connector-curvature="0" />
	<path style="fill:none;stroke:red;stroke-width:1px;stroke-linecap:butt;stroke-linejoin:miter;stroke-opacity:1" d="M 532.763,44.2171 550.821,49.0523 z" id="boundary" inkscape:connector-curvature="0" />
	<path style="fill:none;stroke:red;stroke-width:1px;stroke-linecap:butt;stroke-linejoin:miter;stroke-opacity:1" d="M 499.191,29.5739 538.027,7.174 z" id="boundary" inkscape:connector-curvature="0" />
	<path style="fill:none;stroke:red;stroke-width:1px;stroke-linecap:butt;stroke-linejoin:miter;stroke-opacity:1" d="M 538.027,7.174 583.938,36.1687 z" id="boundary" inkscape:connector-curvature="0" />
	<path style="fill:none;stroke:red;stroke-width:1px;stroke-linecap:butt;stroke-linejoin:miter;stroke-opacity:1" d="M 541.285,84.6712 534.665,69.9644 z" id="boundary" inkscape:connector-curvature="0" />
	<path style="fill:none;stroke:red;stroke-width:1px;stroke-linecap:butt;stroke-linejoin:miter;stroke-opacity:1" d="M 534.665,69.9644 512.929,67.8894 z" id="boundary" inkscape:connector-curvature="0" />
	<path style="fill:none;stroke:red;stroke-width:1px;stroke-linecap:butt;stroke-linejoin:miter;stroke-opacity:1" d="M 108.372,263.117 116.079,249.577 z" id="boundary" inkscape:connector-curvature="0" />
	<path style="fill:none;stroke:red;stroke-width:1px;stroke-linecap:butt;stroke-linejoin:miter;stroke-opacity:1" d="M 108.372,263.117 111.124,270.713 z" id="boundary" inkscape:connector-curvature="0" />
	<path style="fill:none;stroke:red;stroke-width:1px;stroke-linecap:butt;stroke-linejoin:miter;stroke-opacity:1" d="M 92.8878,253.412 127.507,228.405 z" id="boundary" inkscape:connector-curvature="0" />
	<path style="fill:none;stroke:red;stroke-width:1px;stroke-linecap:butt;stroke-linejoin:miter;stroke-opacity:1" d="M 127.507,228.405 116.079,249.577 z" id="boundary" inkscape:connector-curvature="0" />
	<path style="fill:none;stroke:red;stroke-width:1px;stroke-linecap:butt;stroke-linejoin:miter;stroke-opacity:1" d="M 169.345,218.144 193.48,211.133 z" id="boundary" inkscape:connector-curvature="0" />
	<path style="fill:none;stroke:red;stroke-width:1px;stroke-linecap:butt;stroke-linejoin:miter;stroke-opacity:1" d="M 196.193,220.25 193.48,211.133 z" id="boundary" inkscape:connector-curvature="0" />
	<path style="fill:none;stroke:red;stroke-width:1px;stroke-linecap:butt;stroke-linejoin:miter;stroke-opacity:1" d="M 196.193,220.25 235.268,241.885 z" id="boundary" inkscape:connector-curvature="0" />
	<path style="fill:none;stroke:red;stroke-width:1px;stroke-linecap:butt;stroke-linejoin:miter;stroke-opacity:1" d="M 243.319,234.236 235.268,241.885 z" id="boundary" inkscape:connector-curvature="0" />
	<path style="fill:none;stroke:red;stroke-width:1px;stroke-linecap:butt;stroke-linejoin:miter;stroke-opacity:1" d="M 100.435,285.601 111.124,270.713 z" id="boundary" inkscape:connector-curvature="0" />
	<path style="fill:none;stroke:red;stroke-width:1px;stroke-linecap:butt;stroke-linejoin:miter;stroke-opacity:1" d="M 111.57,313.771 109.626,326.024 z" id="boundary" inkscape:connector-curvature="0" />
	<path style="fill:none;stroke:red;stroke-width:1px;stroke-linecap:butt;stroke-linejoin:miter;stroke-opacity:1" d="M 111.57,313.771 112.068,306.224 z" id="boundary" inkscape:connector-curvature="0" />
	<path style="fill:none;stroke:red;stroke-width:1px;stroke-linecap:butt;stroke-linejoin:miter;stroke-opacity:1" d="M 109.626,326.024 119.476,340.777 z" id="boundary" inkscape:connector-curvature="0" />
	<path style="fill:none;stroke:red;stroke-width:1px;stroke-linecap:butt;stroke-linejoin:miter;stroke-opacity:1" d="M 157.424,380.748 165.224,354.146 z" id="boundary" inkscape:connector-curvature="0" />
	<path style="fill:none;stroke:red;stroke-width:1px;stroke-linecap:butt;stroke-linejoin:miter;stroke-opacity:1" d="M 165.224,354.146 151.457,339.823 z" id="boundary" inkscape:connector-curvature="0" />
	<path style="fill:none;stroke:red;stroke-width:1px;stroke-linecap:butt;stroke-linejoin:miter;stroke-opacity:1" d="M 193.697,326.454 167.174,289.044 z" id="boundary" inkscape:connector-curvature="0" />
	<path style="fill:none;stroke:red;stroke-width:1px;stroke-linecap:butt;stroke-linejoin:miter;stroke-opacity:1" d="M 193.697,326.454 207.973,274.639 z" id="boundary" inkscape:connector-curvature="0" />
	<path style="fill:none;stroke:red;stroke-width:1px;stroke-linecap:butt;stroke-linejoin:miter;stroke-opacity:1" d="M 167.174,289.044 167.869,285.329 z" id="boundary" inkscape:connector-curvature="0" />
	<path style="fill:none;stroke:red;stroke-width:1px;stroke-linecap:butt;stroke-linejoin:miter;stroke-opacity:1" d="M 167.869,285.329 207.973,274.639 z" id="boundary" inkscape:connector-curvature="0" />
	<circle cx="215.097" cy="179.756" r="4" fill="#0" id="circle0"/>
	<circle cx="203.963" cy="152.676" r="4" fill="#0" id="circle1"/>
	<circle cx="178.893" cy="192.948" r="4" fill="#0" id="circle2"/>
	<circle cx="202.565" cy="154.701" r="4" fill="#0" id="circle3"/>
	<circle cx="191.456" cy="167.564" r="4" fill="#0" id="circle4"/>
	<circle cx="163.118" cy="162.545" r="4" fill="#0" id="circle5"/>
	<circle cx="157.202" cy="171.779" r="4" fill="#0" id="circle6"/>
	<circle cx="102.871" cy="144.784" r="4" fill="#0" id="circle7"/>
	<circle cx="109.124" cy="158.114" r="4" fill="#0" id="circle8"/>
	<circle cx="127.281" cy="167.004" r="4" fill="#0" id="circle9"/>
	<circle cx="122.215" cy="194.396" r="4" fill="#0" id="circle10"/>
	<circle cx="97.654" cy="159.77" r="4" fill="#0" id="circle11"/>
	<circle cx="82.8866" cy="191.283" r="4" fill="#0" id="circle12"/>
	<circle cx="71.2263" cy="218.342" r="4" fill="#0" id="circle13"/>
	<circle cx="4" cy="221.479" r="4" fill="#0" id="circle14"/>
	<circle cx="29.0917" cy="190.34" r="4" fill="#0" id="circle15"/>
	<circle cx="19.4172" cy="240.202" r="4" fill="#0" id="circle16"/>
	<circle cx="16.2515" cy="242.855" r="4" fill="#0" id="circle17"/>
	<circle cx="28.8925" cy="227.757" r="4" fill="#0" id="circle18"/>
	<circle cx="43.8641" cy="254.72" r="4" fill="#0" id="circle19"/>
	<circle cx="31.1579" cy="268.279" r="4" fill="#0" id="circle20"/>
	<circle cx="47.1172" cy="275.088" r="4" fill="#0" id="circle21"/>
	<circle cx="60.9369" cy="321.689" r="4" fill="#0" id="circle22"/>
	<circle cx="33.2705" cy="294.19" r="4" fill="#0" id="circle23"/>
	<circle cx="90.2083" cy="304.125" r="4" fill="#0" id="circle24"/>
	<circle cx="70.1027" cy="372.454" r="4" fill="#0" id="circle25"/>
	<circle cx="102.945" cy="344.244" r="4" fill="#0" id="circle26"/>
	<circle cx="63.6432" cy="372.791" r="4" fill="#0" id="circle27"/>
	<circle cx="127.983" cy="405.304" r="4" fill="#0" id="circle28"/>
	<circle cx="115.07" cy="409.897" r="4" fill="#0" id="circle29"/>
	<circle cx="144.736" cy="355.056" r="4" fill="#0" id="circle30"/>
	<circle cx="116.695" cy="373.551" r="4" fill="#0" id="circle31"/>
	<circle cx="172.754" cy="403.381" r="4" fill="#0" id="circle32"/>
	<circle cx="174.454" cy="400.572" r="4" fill="#0" id="circle33"/>
	<circle cx="168.242" cy="423.229" r="4" fill="#0" id="circle34"/>
	<circle cx="172.948" cy="478.81" r="4" fill="#0" id="circle35"/>
	<circle cx="188.222" cy="432.455" r="4" fill="#0" id="circle36"/>
	<circle cx="167.137" cy="458.556" r="4" fill="#0" id="circle37"/>
	<circle cx="220.939" cy="467.85" r="4" fill="#0" id="circle38"/>
	<circle cx="209.067" cy="502.593" r="4" fill="#0" id="circle39"/>
	<circle cx="219.322" cy="525.67" r="4" fill="#0" id="circle40"/>
	<circle cx="249.391" cy="488.282" r="4" fill="#0" id="circle41"/>
	<circle cx="239.769" cy="535.598" r="4" fill="#0" id="circle42"/>
	<circle cx="296.452" cy="508.335" r="4" fill="#0" id="circle43"/>
	<circle cx="307.764" cy="534.155" r="4" fill="#0" id="circle44"/>
	<circle cx="285.094" cy="551.197" r="4" fill="#0" id="circle45"/>
	<circle cx="321.599" cy="540.579" r="4" fill="#0" id="circle46"/>
	<circle cx="354.144" cy="539.195" r="4" fill="#0" id="circle47"/>
	<circle cx="379.34" cy="551.002" r="4" fill="#0" id="circle48"/>
	<circle cx="378.137" cy="546.05" r="4" fill="#0" id="circle49"/>
	<circle cx="408.114" cy="594.135" r="4" fill="#0" id="circle50"/>
	<circle cx="396.21" cy="549.924" r="4" fill="#0" id="circle51"/>
	<circle cx="466.457" cy="554.038" r="4" fill="#0" id="circle52"/>
	<circle cx="451.339" cy="584.138" r="4" fill="#0" id="circle53"/>
	<circle cx="475.218" cy="597.243" r="4" fill="#0" id="circle54"/>
	<circle cx="482.017" cy="595.474" r="4" fill="#0" id="circle55"/>
	<circle cx="522.687" cy="602.422" r="4" fill="#0" id="circle56"/>
	<circle cx="559.525" cy="599.063" r="4" fill="#0" id="circle57"/>
	<circle cx="552.753" cy="588.166" r="4" fill="#0" id="circle58"/>
	<circle cx="599.623" cy="555.305" r="4" fill="#0" id="circle59"/>
	<circle cx="622.026" cy="607.63" r="4" fill="#0" id="circle60"/>
	<circle cx="613.687" cy="565.112" r="4" fill="#0" id="circle61"/>
	<circle cx="597.35" cy="550.423" r="4" fill="#0" id="circle62"/>
	<circle cx="633.931" cy="581.422" r="4" fill="#0" id="circle63"/>
	<circle cx="651.993" cy="579.404" r="4" fill="#0" id="circle64"/>
	<circle cx="695.992" cy="581.066" r="4" fill="#0" id="circle65"/>
	<circle cx="689.997" cy="572.771" r="4" fill="#0" id="circle66"/>
	<circle cx="733.916" cy="531.107" r="4" fill="#0" id="circle67"/>
	<circle cx="750.68" cy="516.526" r="4" fill="#0" id="circle68"/>
	<circle cx="761.555" cy="509.298" r="4" fill="#0" id="circle69"/>
	<circle cx="784.013" cy="482.093" r="4" fill="#0" id="circle70"/>
	<circle cx="800.448" cy="501.838" r="4" fill="#0" id="circle71"/>
	<circle cx="805.622" cy="508.738" r="4" fill="#0" id="circle72"/>
	<circle cx="777.425" cy="462.26" r="4" fill="#0" id="circle73"/>
	<circle cx="797.363" cy="430.071" r="4" fill="#0" id="circle74"/>
	<circle cx="807.485" cy="426.037" r="4" fill="#0" id="circle75"/>
	<circle cx="850.061" cy="449.963" r="4" fill="#0" id="circle76"/>
	<circle cx="831.934" cy="440.297" r="4" fill="#0" id="circle77"/>
	<circle cx="878.568" cy="425.84" r="4" fill="#0" id="circle78"/>
	<circle cx="867.288" cy="377.141" r="4" fill="#0" id="circle79"/>
	<circle cx="871.757" cy="367.974" r="4" fill="#0" id="circle80"/>
	<circle cx="921.66" cy="393.078" r="4" fill="#0" id="circle81"/>
	<circle cx="867.095" cy="375" r="4" fill="#0" id="circle82"/>
	<circle cx="881.95" cy="366.821" r="4" fill="#0" id="circle83"/>
	<circle cx="880.706" cy="355.153" r="4" fill="#0" id="circle84"/>
	<circle cx="895.219" cy="337.472" r="4" fill="#0" id="circle85"/>
	<circle cx="957.773" cy="262.502" r="4" fill="#0" id="circle86"/>
	<circle cx="922.736" cy="292.832" r="4" fill="#0" id="circle87"/>
	<circle cx="954.598" cy="260.718" r="4" fill="#0" id="circle88"/>
	<circle cx="907.332" cy="215.576" r="4" fill="#0" id="circle89"/>
	<circle cx="950.441" cy="218.526" r="4" fill="#0" id="circle90"/>
	<circle cx="943.154" cy="213.254" r="4" fill="#0" id="circle91"/>
	<circle cx="947.885" cy="221.949" r="4" fill="#0" id="circle92"/>
	<circle cx="970.347" cy="164.408" r="4" fill="#0" id="circle93"/>
	<circle cx="996" cy="141.184" r="4" fill="#0" id="circle94"/>
	<circle cx="989.693" cy="135.401" r="4" fill="#0" id="circle95"/>
	<circle cx="906.437" cy="147.582" r="4" fill="#0" id="circle96"/>
	<circle cx="970.638" cy="139.614" r="4" fill="#0" id="circle97"/>
	<circle cx="933.622" cy="129.208" r="4" fill="#0" id="circle98"/>
	<circle cx="947.395" cy="132.539" r="4" fill="#0" id="circle99"/>
	<circle cx="777.22" cy="280.501" r="4" fill="#0" id="circle100"/>
	<circle cx="800.27" cy="258.446" r="4" fill="#0" id="circle101"/>
	<circle cx="829.584" cy="280.57" r="4" fill="#0" id="circle102"/>
	<circle cx="876.752" cy="241.813" r="4" fill="#0" id="circle103"/>
	<circle cx="840.131" cy="271.337" r="4" fill="#0" id="circle104"/>
	<circle cx="863.645" cy="240.426" r="4" fill="#0" id="circle105"/>
	<circle cx="869.489" cy="225.238" r="4" fill="#0" id="circle106"/>
	<circle cx="875.193" cy="205.894" r="4" fill="#0" id="circle107"/>
	<circle cx="909.09" cy="198.156" r="4" fill="#0" id="circle108"/>
	<circle cx="936.625" cy="156.279" r="4" fill="#0" id="circle109"/>
	<circle cx="796.458" cy="207.427" r="4" fill="#0" id="circle110"/>
	<circle cx="781.709" cy="202.412" r="4" fill="#0" id="circle111"/>
	<circle cx="803.151" cy="248.872" r="4" fill="#0" id="circle112"/>
	<circle cx="779.696" cy="292.841" r="4" fill="#0" id="circle113"/>
	<circle cx="802.287" cy="275.679" r="4" fill="#0" id="circle114"/>
	<circle cx="683.832" cy="128.095" r="4" fill="#0" id="circle115"/>
	<circle cx="739.539" cy="108.983" r="4" fill="#0" id="circle116"/>
	<circle cx="744.928" cy="177.547" r="4" fill="#0" id="circle117"/>
	<circle cx="761.402" cy="154.109" r="4" fill="#0" id="circle118"/>
	<circle cx="734.659" cy="192.008" r="4" fill="#0" id="circle119"/>
	<circle cx="751.217" cy="190.275" r="4" fill="#0" id="circle120"/>
	<circle cx="768.676" cy="218.66" r="4" fill="#0" id="circle121"/>
	<circle cx="530.353" cy="119.154" r="4" fill="#0" id="circle122"/>
	<circle cx="557.347" cy="130.147" r="4" fill="#0" id="circle123"/>
	<circle cx="592.219" cy="86.24" r="4" fill="#0" id="circle124"/>
	<circle cx="592.749" cy="90.1502" r="4" fill="#0" id="circle125"/>
	<circle cx="632.605" cy="122.008" r="4" fill="#0" id="circle126"/>
	<circle cx="630.004" cy="96.8368" r="4" fill="#0" id="circle127"/>
	<circle cx="636.813" cy="118.358" r="4" fill="#0" id="circle128"/>
	<circle cx="651.122" cy="128.309" r="4" fill="#0" id="circle129"/>
	<circle cx="652.491" cy="101.952" r="4" fill="#0" id="circle130"/>
	<circle cx="683.9" cy="133.595" r="4" fill="#0" id="circle131"/>
	<circle cx="244.698" cy="191.338" r="4" fill="#0" id="circle132"/>
	<circle cx="271.9" cy="121.953" r="4" fill="#0" id="circle133"/>
	<circle cx="256.837" cy="162.505" r="4" fill="#0" id="circle134"/>
	<circle cx="311.82" cy="134.081" r="4" fill="#0" id="circle135"/>
	<circle cx="297.083" cy="109.584" r="4" fill="#0" id="circle136"/>
	<circle cx="307.516" cy="125.499" r="4" fill="#0" id="circle137"/>
	<circle cx="315.155" cy="121.038" r="4" fill="#0" id="circle138"/>
	<circle cx="365.999" cy="126.152" r="4" fill="#0" id="circle139"/>
	<circle cx="340.071" cy="135.638" r="4" fill="#0" id="circle140"/>
	<circle cx="370.038" cy="112.165" r="4" fill="#0" id="circle141"/>
	<circle cx="429.333" cy="102.135" r="4" fill="#0" id="circle142"/>
	<circle cx="395.648" cy="69.8019" r="4" fill="#0" id="circle143"/>
	<circle cx="428.083" cy="81.5448" r="4" fill="#0" id="circle144"/>
	<circle cx="489.178" cy="80.9394" r="4" fill="#0" id="circle145"/>
	<circle cx="471.572" cy="60.0489" r="4" fill="#0" id="circle146"/>
	<circle cx="422.125" cy="38.5655" r="4" fill="#0" id="circle147"/>
	<circle cx="417.09" cy="74.365" r="4" fill="#0" id="circle148"/>
	<circle cx="427.649" cy="34.8206" r="4" fill="#0" id="circle149"/>
	<circle cx="475.876" cy="4.91747" r="4" fill="#0" id="circle150"/>
	<circle cx="451.29" cy="4" r="4" fill="#0" id="circle151"/>
	<circle cx="495.325" cy="23.9575" r="4" fill="#0" id="circle152"/>
	<circle cx="532.763" cy="44.2171" r="4" fill="#0" id="circle153"/>
	<circle cx="499.191" cy="29.5739" r="4" fill="#0" id="circle154"/>
	<circle cx="538.027" cy="7.174" r="4" fill="#0" id="circle155"/>
	<circle cx="550.821" cy="49.0523" r="4" fill="#0" id="circle156"/>
	<circle cx="583.938" cy="36.1687" r="4" fill="#0" id="circle157"/>
	<circle cx="541.285" cy="84.6712" r="4" fill="#0" id="circle158"/>
	<circle cx="534.665" cy="69.9644" r="4" fill="#0" id="circle159"/>
	<circle cx="512.929" cy="67.8894" r="4" fill="#0" id="circle160"/>
	<circle cx="108.372" cy="263.117" r="4" fill="#0" id="circle161"/>
	<circle cx="92.8878" cy="253.412" r="4" fill="#0" id="circle162"/>
	<circle cx="127.507" cy="228.405" r="4" fill="#0" id="circle163"/>
	<circle cx="131.457" cy="184.122" r="4" fill="#0" id="circle164"/>
	<circle cx="108.794" cy="201.893" r="4" fill="#0" id="circle165"/>
	<circle cx="130.053" cy="185.763" r="4" fill="#0" id="circle166"/>
	<circle cx="169.345" cy="218.144" r="4" fill="#0" id="circle167"/>
	<circle cx="191.124" cy="193.447" r="4" fill="#0" id="circle168"/>
	<circle cx="196.193" cy="220.25" r="4" fill="#0" id="circle169"/>
	<circle cx="243.319" cy="234.236" r="4" fill="#0" id="circle170"/>
	<circle cx="116.079" cy="249.577" r="4" fill="#0" id="circle171"/>
	<circle cx="100.435" cy="285.601" r="4" fill="#0" id="circle172"/>
	<circle cx="111.57" cy="313.771" r="4" fill="#0" id="circle173"/>
	<circle cx="111.124" cy="270.713" r="4" fill="#0" id="circle174"/>
	<circle cx="109.626" cy="326.024" r="4" fill="#0" id="circle175"/>
	<circle cx="112.068" cy="306.224" r="4" fill="#0" id="circle176"/>
	<circle cx="135.518" cy="358.705" r="4" fill="#0" id="circle177"/>
	<circle cx="119.476" cy="340.777" r="4" fill="#0" id="circle178"/>
	<circle cx="157.424" cy="380.748" r="4" fill="#0" id="circle179"/>
	<circle cx="165.224" cy="354.146" r="4" fill="#0" id="circle180"/>
	<circle cx="151.457" cy="339.823" r="4" fill="#0" id="circle181"/>
	<circle cx="193.697" cy="326.454" r="4" fill="#0" id="circle182"/>
	<circle cx="167.174" cy="289.044" r="4" fill="#0" id="circle183"/>
	<circle cx="154.539" cy="291.228" r="4" fill="#0" id="circle184"/>
	<circle cx="167.869" cy="285.329" r="4" fill="#0" id="circle185"/>
	<circle cx="207.973" cy="274.639" r="4" fill="#0" id="circle186"/>
	<circle cx="193.48" cy="211.133" r="4" fill="#0" id="circle187"/>
	<circle cx="235.268" cy="241.885" r="4" fill="#0" id="circle188"/>
	</g>
</svg>