<?xml version="1.0" encoding="UTF-8" standalone="no"?>
<!-- Created with CurveBenchmark -->
<svg
	xmlns:dc="http://purl.org/dc/elements/1.1/"
	xmlns:cc="http://creativecommons.org/ns#"
	xmlns:rdf="http://www.w3.org/1999/02/22-rdf-syntax-ns#"
	xmlns:svg="http://www.w3.org/2000/svg"
	xmlns="http://www.w3.org/2000/svg"
	xmlns:sodipodi="http://sodipodi.sourceforge.net/DTD/sodipodi-0.dtd"
	xmlns:inkscape="http://www.inkscape.org/namespaces/inkscape"
	width="1000"
	height="1000"
	id="svg2"
	version="1.1"
	sodipodi:docname="Non-manifold/ccrust-nm6out.txt">
<defs
	id="defs4" />
<metadata
	id="metadata7">
	<rdf:RDF>
		<cc:Work
			rdf:about="">
			<dc:format>image/svg+xml</dc:format>
			<dc:type
				rdf:resource="http://purl.org/dc/dcmitype/StillImage" />
			<dc:title></dc:title>
		</cc:Work>
	</rdf:RDF>
</metadata>
<g
	inkscape:label="Layer 1"
	inkscape:groupmode="layer"
	id="layer1">
	<path style="fill:none;stroke:red;stroke-width:1px;stroke-linecap:butt;stroke-linejoin:miter;stroke-opacity:1" d="M 132.577,88.9652 169.51,126.161 z" id="boundary" inkscape:connector-curvature="0" />
	<path style="fill:none;stroke:red;stroke-width:1px;stroke-linecap:butt;stroke-linejoin:miter;stroke-opacity:1" d="M 115.76,160.15 72.8148,183.364 z" id="boundary" inkscape:connector-curvature="0" />
	<path style="fill:none;stroke:red;stroke-width:1px;stroke-linecap:butt;stroke-linejoin:miter;stroke-opacity:1" d="M 233.383,70.0671 231.016,105.454 z" id="boundary" inkscape:connector-curvature="0" />
	<path style="fill:none;stroke:red;stroke-width:1px;stroke-linecap:butt;stroke-linejoin:miter;stroke-opacity:1" d="M 231.016,105.454 169.51,126.161 z" id="boundary" inkscape:connector-curvature="0" />
	<path style="fill:none;stroke:red;stroke-width:1px;stroke-linecap:butt;stroke-linejoin:miter;stroke-opacity:1" d="M 233.383,70.0671 195.152,36.2569 z" id="boundary" inkscape:connector-curvature="0" />
	<path style="fill:none;stroke:red;stroke-width:1px;stroke-linecap:butt;stroke-linejoin:miter;stroke-opacity:1" d="M 4,329.086 32.0356,230.037 z" id="boundary" inkscape:connector-curvature="0" />
	<path style="fill:none;stroke:red;stroke-width:1px;stroke-linecap:butt;stroke-linejoin:miter;stroke-opacity:1" d="M 72.8148,183.364 32.0356,230.037 z" id="boundary" inkscape:connector-curvature="0" />
	<path style="fill:none;stroke:red;stroke-width:1px;stroke-linecap:butt;stroke-linejoin:miter;stroke-opacity:1" d="M 123.024,268.937 119.364,213.418 z" id="boundary" inkscape:connector-curvature="0" />
	<path style="fill:none;stroke:red;stroke-width:1px;stroke-linecap:butt;stroke-linejoin:miter;stroke-opacity:1" d="M 130.16,340.428 123.024,268.937 z" id="boundary" inkscape:connector-curvature="0" />
	<path style="fill:none;stroke:red;stroke-width:1px;stroke-linecap:butt;stroke-linejoin:miter;stroke-opacity:1" d="M 23.1152,428.532 4,329.086 z" id="boundary" inkscape:connector-curvature="0" />
	<path style="fill:none;stroke:red;stroke-width:1px;stroke-linecap:butt;stroke-linejoin:miter;stroke-opacity:1" d="M 281.808,93.6822 322.587,87.6291 z" id="boundary" inkscape:connector-curvature="0" />
	<path style="fill:none;stroke:red;stroke-width:1px;stroke-linecap:butt;stroke-linejoin:miter;stroke-opacity:1" d="M 363.366,84.045 322.587,87.6291 z" id="boundary" inkscape:connector-curvature="0" />
	<path style="fill:none;stroke:red;stroke-width:1px;stroke-linecap:butt;stroke-linejoin:miter;stroke-opacity:1" d="M 467.754,34.8885 444.4,89.8141 z" id="boundary" inkscape:connector-curvature="0" />
	<path style="fill:none;stroke:red;stroke-width:1px;stroke-linecap:butt;stroke-linejoin:miter;stroke-opacity:1" d="M 444.4,89.8141 404.145,83.0096 z" id="boundary" inkscape:connector-curvature="0" />
	<path style="fill:none;stroke:red;stroke-width:1px;stroke-linecap:butt;stroke-linejoin:miter;stroke-opacity:1" d="M 404.145,83.0096 363.366,84.045 z" id="boundary" inkscape:connector-curvature="0" />
	<path style="fill:none;stroke:red;stroke-width:1px;stroke-linecap:butt;stroke-linejoin:miter;stroke-opacity:1" d="M 270.339,402.002 256.867,291.183 z" id="boundary" inkscape:connector-curvature="0" />
	<path style="fill:none;stroke:red;stroke-width:1px;stroke-linecap:butt;stroke-linejoin:miter;stroke-opacity:1" d="M 258.105,168.17 256.867,291.183 z" id="boundary" inkscape:connector-curvature="0" />
	<path style="fill:none;stroke:red;stroke-width:1px;stroke-linecap:butt;stroke-linejoin:miter;stroke-opacity:1" d="M 414.34,256.321 401.596,327.684 z" id="boundary" inkscape:connector-curvature="0" />
	<path style="fill:none;stroke:red;stroke-width:1px;stroke-linecap:butt;stroke-linejoin:miter;stroke-opacity:1" d="M 427.083,180.497 414.34,256.321 z" id="boundary" inkscape:connector-curvature="0" />
	<path style="fill:none;stroke:red;stroke-width:1px;stroke-linecap:butt;stroke-linejoin:miter;stroke-opacity:1" d="M 379.933,401.539 401.596,327.684 z" id="boundary" inkscape:connector-curvature="0" />
	<path style="fill:none;stroke:red;stroke-width:1px;stroke-linecap:butt;stroke-linejoin:miter;stroke-opacity:1" d="M 345.525,446.677 379.933,401.539 z" id="boundary" inkscape:connector-curvature="0" />
	<path style="fill:none;stroke:red;stroke-width:1px;stroke-linecap:butt;stroke-linejoin:miter;stroke-opacity:1" d="M 526.483,4 467.754,34.8885 z" id="boundary" inkscape:connector-curvature="0" />
	<path style="fill:none;stroke:red;stroke-width:1px;stroke-linecap:butt;stroke-linejoin:miter;stroke-opacity:1" d="M 57.5226,490.721 23.1152,428.532 z" id="boundary" inkscape:connector-curvature="0" />
	<path style="fill:none;stroke:red;stroke-width:1px;stroke-linecap:butt;stroke-linejoin:miter;stroke-opacity:1" d="M 130.16,340.428 142.904,412.428 z" id="boundary" inkscape:connector-curvature="0" />
	<path style="fill:none;stroke:red;stroke-width:1px;stroke-linecap:butt;stroke-linejoin:miter;stroke-opacity:1" d="M 142.904,412.428 155.647,473.852 z" id="boundary" inkscape:connector-curvature="0" />
	<path style="fill:none;stroke:red;stroke-width:1px;stroke-linecap:butt;stroke-linejoin:miter;stroke-opacity:1" d="M 270.339,402.002 304.746,447.473 z" id="boundary" inkscape:connector-curvature="0" />
	<path style="fill:none;stroke:red;stroke-width:1px;stroke-linecap:butt;stroke-linejoin:miter;stroke-opacity:1" d="M 345.525,446.677 304.746,447.473 z" id="boundary" inkscape:connector-curvature="0" />
	<path style="fill:none;stroke:red;stroke-width:1px;stroke-linecap:butt;stroke-linejoin:miter;stroke-opacity:1" d="M 98.3017,542.969 57.5226,490.721 z" id="boundary" inkscape:connector-curvature="0" />
	<path style="fill:none;stroke:red;stroke-width:1px;stroke-linecap:butt;stroke-linejoin:miter;stroke-opacity:1" d="M 139.081,584.943 98.3017,542.969 z" id="boundary" inkscape:connector-curvature="0" />
	<path style="fill:none;stroke:red;stroke-width:1px;stroke-linecap:butt;stroke-linejoin:miter;stroke-opacity:1" d="M 179.86,619.59 139.081,584.943 z" id="boundary" inkscape:connector-curvature="0" />
	<path style="fill:none;stroke:red;stroke-width:1px;stroke-linecap:butt;stroke-linejoin:miter;stroke-opacity:1" d="M 220.639,648.979 179.86,619.59 z" id="boundary" inkscape:connector-curvature="0" />
	<path style="fill:none;stroke:red;stroke-width:1px;stroke-linecap:butt;stroke-linejoin:miter;stroke-opacity:1" d="M 261.418,674.068 220.639,648.979 z" id="boundary" inkscape:connector-curvature="0" />
	<path style="fill:none;stroke:red;stroke-width:1px;stroke-linecap:butt;stroke-linejoin:miter;stroke-opacity:1" d="M 261.418,674.068 302.197,698.445 z" id="boundary" inkscape:connector-curvature="0" />
	<path style="fill:none;stroke:red;stroke-width:1px;stroke-linecap:butt;stroke-linejoin:miter;stroke-opacity:1" d="M 347.507,680.062 302.197,698.445 z" id="boundary" inkscape:connector-curvature="0" />
	<path style="fill:none;stroke:red;stroke-width:1px;stroke-linecap:butt;stroke-linejoin:miter;stroke-opacity:1" d="M 386.304,636.714 347.507,680.062 z" id="boundary" inkscape:connector-curvature="0" />
	<path style="fill:none;stroke:red;stroke-width:1px;stroke-linecap:butt;stroke-linejoin:miter;stroke-opacity:1" d="M 427.083,603.342 386.304,636.714 z" id="boundary" inkscape:connector-curvature="0" />
	<path style="fill:none;stroke:red;stroke-width:1px;stroke-linecap:butt;stroke-linejoin:miter;stroke-opacity:1" d="M 386.304,724.644 347.507,680.062 z" id="boundary" inkscape:connector-curvature="0" />
	<path style="fill:none;stroke:red;stroke-width:1px;stroke-linecap:butt;stroke-linejoin:miter;stroke-opacity:1" d="M 427.083,732.21 386.304,724.644 z" id="boundary" inkscape:connector-curvature="0" />
	<path style="fill:none;stroke:red;stroke-width:1px;stroke-linecap:butt;stroke-linejoin:miter;stroke-opacity:1" d="M 467.863,574.032 427.083,603.342 z" id="boundary" inkscape:connector-curvature="0" />
	<path style="fill:none;stroke:red;stroke-width:1px;stroke-linecap:butt;stroke-linejoin:miter;stroke-opacity:1" d="M 508.642,730.458 467.863,734.599 z" id="boundary" inkscape:connector-curvature="0" />
	<path style="fill:none;stroke:red;stroke-width:1px;stroke-linecap:butt;stroke-linejoin:miter;stroke-opacity:1" d="M 508.642,547.111 467.863,574.032 z" id="boundary" inkscape:connector-curvature="0" />
	<path style="fill:none;stroke:red;stroke-width:1px;stroke-linecap:butt;stroke-linejoin:miter;stroke-opacity:1" d="M 391.402,908.628 350.623,867.052 z" id="boundary" inkscape:connector-curvature="0" />
	<path style="fill:none;stroke:red;stroke-width:1px;stroke-linecap:butt;stroke-linejoin:miter;stroke-opacity:1" d="M 350.623,867.052 319.274,797.154 z" id="boundary" inkscape:connector-curvature="0" />
	<path style="fill:none;stroke:red;stroke-width:1px;stroke-linecap:butt;stroke-linejoin:miter;stroke-opacity:1" d="M 432.181,937.061 391.402,908.628 z" id="boundary" inkscape:connector-curvature="0" />
	<path style="fill:none;stroke:red;stroke-width:1px;stroke-linecap:butt;stroke-linejoin:miter;stroke-opacity:1" d="M 467.863,734.599 427.083,732.21 z" id="boundary" inkscape:connector-curvature="0" />
	<path style="fill:none;stroke:red;stroke-width:1px;stroke-linecap:butt;stroke-linejoin:miter;stroke-opacity:1" d="M 526.483,4 567.262,24.6285 z" id="boundary" inkscape:connector-curvature="0" />
	<path style="fill:none;stroke:red;stroke-width:1px;stroke-linecap:butt;stroke-linejoin:miter;stroke-opacity:1" d="M 567.262,103.24 526.483,94.0008 z" id="boundary" inkscape:connector-curvature="0" />
	<path style="fill:none;stroke:red;stroke-width:1px;stroke-linecap:butt;stroke-linejoin:miter;stroke-opacity:1" d="M 613.177,80.1129 599.545,111.663 z" id="boundary" inkscape:connector-curvature="0" />
	<path style="fill:none;stroke:red;stroke-width:1px;stroke-linecap:butt;stroke-linejoin:miter;stroke-opacity:1" d="M 599.545,111.663 567.262,103.24 z" id="boundary" inkscape:connector-curvature="0" />
	<path style="fill:none;stroke:red;stroke-width:1px;stroke-linecap:butt;stroke-linejoin:miter;stroke-opacity:1" d="M 641.475,131.632 599.545,111.663 z" id="boundary" inkscape:connector-curvature="0" />
	<path style="fill:none;stroke:red;stroke-width:1px;stroke-linecap:butt;stroke-linejoin:miter;stroke-opacity:1" d="M 630.979,468.261 590.2,495.022 z" id="boundary" inkscape:connector-curvature="0" />
	<path style="fill:none;stroke:red;stroke-width:1px;stroke-linecap:butt;stroke-linejoin:miter;stroke-opacity:1" d="M 618.236,313.428 649.458,326.779 z" id="boundary" inkscape:connector-curvature="0" />
	<path style="fill:none;stroke:red;stroke-width:1px;stroke-linecap:butt;stroke-linejoin:miter;stroke-opacity:1" d="M 630.979,468.261 669.209,525.845 z" id="boundary" inkscape:connector-curvature="0" />
	<path style="fill:none;stroke:red;stroke-width:1px;stroke-linecap:butt;stroke-linejoin:miter;stroke-opacity:1" d="M 641.475,131.632 680.292,150.294 z" id="boundary" inkscape:connector-curvature="0" />
	<path style="fill:none;stroke:red;stroke-width:1px;stroke-linecap:butt;stroke-linejoin:miter;stroke-opacity:1" d="M 662.988,203.161 675.809,272.396 z" id="boundary" inkscape:connector-curvature="0" />
	<path style="fill:none;stroke:red;stroke-width:1px;stroke-linecap:butt;stroke-linejoin:miter;stroke-opacity:1" d="M 590.2,495.022 549.421,521.067 z" id="boundary" inkscape:connector-curvature="0" />
	<path style="fill:none;stroke:red;stroke-width:1px;stroke-linecap:butt;stroke-linejoin:miter;stroke-opacity:1" d="M 680.292,150.294 720.183,180.656 z" id="boundary" inkscape:connector-curvature="0" />
	<path style="fill:none;stroke:red;stroke-width:1px;stroke-linecap:butt;stroke-linejoin:miter;stroke-opacity:1" d="M 720.183,180.656 757.139,224.805 z" id="boundary" inkscape:connector-curvature="0" />
	<path style="fill:none;stroke:red;stroke-width:1px;stroke-linecap:butt;stroke-linejoin:miter;stroke-opacity:1" d="M 687.217,342.006 683.868,389.713 z" id="boundary" inkscape:connector-curvature="0" />
	<path style="fill:none;stroke:red;stroke-width:1px;stroke-linecap:butt;stroke-linejoin:miter;stroke-opacity:1" d="M 649.458,326.779 687.217,342.006 z" id="boundary" inkscape:connector-curvature="0" />
	<path style="fill:none;stroke:red;stroke-width:1px;stroke-linecap:butt;stroke-linejoin:miter;stroke-opacity:1" d="M 757.139,224.805 778.803,284.277 z" id="boundary" inkscape:connector-curvature="0" />
	<path style="fill:none;stroke:red;stroke-width:1px;stroke-linecap:butt;stroke-linejoin:miter;stroke-opacity:1" d="M 675.342,440.905 683.868,389.713 z" id="boundary" inkscape:connector-curvature="0" />
	<path style="fill:none;stroke:red;stroke-width:1px;stroke-linecap:butt;stroke-linejoin:miter;stroke-opacity:1" d="M 675.342,440.905 630.979,468.261 z" id="boundary" inkscape:connector-curvature="0" />
	<path style="fill:none;stroke:red;stroke-width:1px;stroke-linecap:butt;stroke-linejoin:miter;stroke-opacity:1" d="M 740.573,375.035 779.823,396.72 z" id="boundary" inkscape:connector-curvature="0" />
	<path style="fill:none;stroke:red;stroke-width:1px;stroke-linecap:butt;stroke-linejoin:miter;stroke-opacity:1" d="M 822.131,430.588 779.823,396.72 z" id="boundary" inkscape:connector-curvature="0" />
	<path style="fill:none;stroke:red;stroke-width:1px;stroke-linecap:butt;stroke-linejoin:miter;stroke-opacity:1" d="M 862.91,476.225 822.131,430.588 z" id="boundary" inkscape:connector-curvature="0" />
	<path style="fill:none;stroke:red;stroke-width:1px;stroke-linecap:butt;stroke-linejoin:miter;stroke-opacity:1" d="M 892.22,542.776 862.91,476.225 z" id="boundary" inkscape:connector-curvature="0" />
	<path style="fill:none;stroke:red;stroke-width:1px;stroke-linecap:butt;stroke-linejoin:miter;stroke-opacity:1" d="M 590.2,690.316 549.421,717.794 z" id="boundary" inkscape:connector-curvature="0" />
	<path style="fill:none;stroke:red;stroke-width:1px;stroke-linecap:butt;stroke-linejoin:miter;stroke-opacity:1" d="M 549.421,521.067 508.642,547.111 z" id="boundary" inkscape:connector-curvature="0" />
	<path style="fill:none;stroke:red;stroke-width:1px;stroke-linecap:butt;stroke-linejoin:miter;stroke-opacity:1" d="M 549.421,717.794 508.642,730.458 z" id="boundary" inkscape:connector-curvature="0" />
	<path style="fill:none;stroke:red;stroke-width:1px;stroke-linecap:butt;stroke-linejoin:miter;stroke-opacity:1" d="M 628.43,639.08 590.2,690.316 z" id="boundary" inkscape:connector-curvature="0" />
	<path style="fill:none;stroke:red;stroke-width:1px;stroke-linecap:butt;stroke-linejoin:miter;stroke-opacity:1" d="M 656.466,572.996 628.43,639.08 z" id="boundary" inkscape:connector-curvature="0" />
	<path style="fill:none;stroke:red;stroke-width:1px;stroke-linecap:butt;stroke-linejoin:miter;stroke-opacity:1" d="M 676.856,995.522 636.076,996 z" id="boundary" inkscape:connector-curvature="0" />
	<path style="fill:none;stroke:red;stroke-width:1px;stroke-linecap:butt;stroke-linejoin:miter;stroke-opacity:1" d="M 513.739,973.699 472.96,958.009 z" id="boundary" inkscape:connector-curvature="0" />
	<path style="fill:none;stroke:red;stroke-width:1px;stroke-linecap:butt;stroke-linejoin:miter;stroke-opacity:1" d="M 472.96,958.009 432.181,937.061 z" id="boundary" inkscape:connector-curvature="0" />
	<path style="fill:none;stroke:red;stroke-width:1px;stroke-linecap:butt;stroke-linejoin:miter;stroke-opacity:1" d="M 554.518,985.088 513.739,973.699 z" id="boundary" inkscape:connector-curvature="0" />
	<path style="fill:none;stroke:red;stroke-width:1px;stroke-linecap:butt;stroke-linejoin:miter;stroke-opacity:1" d="M 595.297,992.575 554.518,985.088 z" id="boundary" inkscape:connector-curvature="0" />
	<path style="fill:none;stroke:red;stroke-width:1px;stroke-linecap:butt;stroke-linejoin:miter;stroke-opacity:1" d="M 636.076,996 595.297,992.575 z" id="boundary" inkscape:connector-curvature="0" />
	<path style="fill:none;stroke:red;stroke-width:1px;stroke-linecap:butt;stroke-linejoin:miter;stroke-opacity:1" d="M 911.59,742.739 898.592,807.901 z" id="boundary" inkscape:connector-curvature="0" />
	<path style="fill:none;stroke:red;stroke-width:1px;stroke-linecap:butt;stroke-linejoin:miter;stroke-opacity:1" d="M 892.22,542.776 906.238,607.722 z" id="boundary" inkscape:connector-curvature="0" />
	<path style="fill:none;stroke:red;stroke-width:1px;stroke-linecap:butt;stroke-linejoin:miter;stroke-opacity:1" d="M 898.592,807.901 875.654,870.556 z" id="boundary" inkscape:connector-curvature="0" />
	<path style="fill:none;stroke:red;stroke-width:1px;stroke-linecap:butt;stroke-linejoin:miter;stroke-opacity:1" d="M 913.884,677.493 911.59,742.739 z" id="boundary" inkscape:connector-curvature="0" />
	<path style="fill:none;stroke:red;stroke-width:1px;stroke-linecap:butt;stroke-linejoin:miter;stroke-opacity:1" d="M 906.238,607.722 913.884,677.493 z" id="boundary" inkscape:connector-curvature="0" />
	<path style="fill:none;stroke:red;stroke-width:1px;stroke-linecap:butt;stroke-linejoin:miter;stroke-opacity:1" d="M 758.414,979.035 717.635,990.345 z" id="boundary" inkscape:connector-curvature="0" />
	<path style="fill:none;stroke:red;stroke-width:1px;stroke-linecap:butt;stroke-linejoin:miter;stroke-opacity:1" d="M 717.635,990.345 676.856,995.522 z" id="boundary" inkscape:connector-curvature="0" />
	<path style="fill:none;stroke:red;stroke-width:1px;stroke-linecap:butt;stroke-linejoin:miter;stroke-opacity:1" d="M 799.193,959.203 758.414,979.035 z" id="boundary" inkscape:connector-curvature="0" />
	<path style="fill:none;stroke:red;stroke-width:1px;stroke-linecap:butt;stroke-linejoin:miter;stroke-opacity:1" d="M 839.972,924.238 799.193,959.203 z" id="boundary" inkscape:connector-curvature="0" />
	<path style="fill:none;stroke:red;stroke-width:1px;stroke-linecap:butt;stroke-linejoin:miter;stroke-opacity:1" d="M 875.654,870.556 839.972,924.238 z" id="boundary" inkscape:connector-curvature="0" />
	<path style="fill:none;stroke:red;stroke-width:1px;stroke-linecap:butt;stroke-linejoin:miter;stroke-opacity:1" d="M 656.466,572.996 669.209,525.845 z" id="boundary" inkscape:connector-curvature="0" />
	<circle cx="618.236" cy="313.428" r="4" fill="#0" id="circle0"/>
	<circle cx="649.458" cy="326.779" r="4" fill="#0" id="circle1"/>
	<circle cx="687.217" cy="342.006" r="4" fill="#0" id="circle2"/>
	<circle cx="740.573" cy="375.035" r="4" fill="#0" id="circle3"/>
	<circle cx="779.823" cy="396.72" r="4" fill="#0" id="circle4"/>
	<circle cx="822.131" cy="430.588" r="4" fill="#0" id="circle5"/>
	<circle cx="862.91" cy="476.225" r="4" fill="#0" id="circle6"/>
	<circle cx="892.22" cy="542.776" r="4" fill="#0" id="circle7"/>
	<circle cx="906.238" cy="607.722" r="4" fill="#0" id="circle8"/>
	<circle cx="913.884" cy="677.493" r="4" fill="#0" id="circle9"/>
	<circle cx="911.59" cy="742.739" r="4" fill="#0" id="circle10"/>
	<circle cx="898.592" cy="807.901" r="4" fill="#0" id="circle11"/>
	<circle cx="875.654" cy="870.556" r="4" fill="#0" id="circle12"/>
	<circle cx="839.972" cy="924.238" r="4" fill="#0" id="circle13"/>
	<circle cx="799.193" cy="959.203" r="4" fill="#0" id="circle14"/>
	<circle cx="758.414" cy="979.035" r="4" fill="#0" id="circle15"/>
	<circle cx="717.635" cy="990.345" r="4" fill="#0" id="circle16"/>
	<circle cx="676.856" cy="995.522" r="4" fill="#0" id="circle17"/>
	<circle cx="636.076" cy="996" r="4" fill="#0" id="circle18"/>
	<circle cx="595.297" cy="992.575" r="4" fill="#0" id="circle19"/>
	<circle cx="554.518" cy="985.088" r="4" fill="#0" id="circle20"/>
	<circle cx="513.739" cy="973.699" r="4" fill="#0" id="circle21"/>
	<circle cx="472.96" cy="958.009" r="4" fill="#0" id="circle22"/>
	<circle cx="432.181" cy="937.061" r="4" fill="#0" id="circle23"/>
	<circle cx="391.402" cy="908.628" r="4" fill="#0" id="circle24"/>
	<circle cx="350.623" cy="867.052" r="4" fill="#0" id="circle25"/>
	<circle cx="319.274" cy="797.154" r="4" fill="#0" id="circle26"/>
	<circle cx="347.507" cy="680.062" r="4" fill="#0" id="circle27"/>
	<circle cx="386.304" cy="636.714" r="4" fill="#0" id="circle28"/>
	<circle cx="427.083" cy="603.342" r="4" fill="#0" id="circle29"/>
	<circle cx="467.863" cy="574.032" r="4" fill="#0" id="circle30"/>
	<circle cx="508.642" cy="547.111" r="4" fill="#0" id="circle31"/>
	<circle cx="549.421" cy="521.067" r="4" fill="#0" id="circle32"/>
	<circle cx="590.2" cy="495.022" r="4" fill="#0" id="circle33"/>
	<circle cx="630.979" cy="468.261" r="4" fill="#0" id="circle34"/>
	<circle cx="675.342" cy="440.905" r="4" fill="#0" id="circle35"/>
	<circle cx="740.573" cy="375.035" r="4" fill="#0" id="circle36"/>
	<circle cx="778.803" cy="284.277" r="4" fill="#0" id="circle37"/>
	<circle cx="757.139" cy="224.805" r="4" fill="#0" id="circle38"/>
	<circle cx="720.183" cy="180.656" r="4" fill="#0" id="circle39"/>
	<circle cx="680.292" cy="150.294" r="4" fill="#0" id="circle40"/>
	<circle cx="641.475" cy="131.632" r="4" fill="#0" id="circle41"/>
	<circle cx="599.545" cy="111.663" r="4" fill="#0" id="circle42"/>
	<circle cx="567.262" cy="103.24" r="4" fill="#0" id="circle43"/>
	<circle cx="526.483" cy="94.0008" r="4" fill="#0" id="circle44"/>
	<circle cx="444.4" cy="89.8141" r="4" fill="#0" id="circle45"/>
	<circle cx="404.145" cy="83.0096" r="4" fill="#0" id="circle46"/>
	<circle cx="363.366" cy="84.045" r="4" fill="#0" id="circle47"/>
	<circle cx="322.587" cy="87.6291" r="4" fill="#0" id="circle48"/>
	<circle cx="281.808" cy="93.6822" r="4" fill="#0" id="circle49"/>
	<circle cx="231.016" cy="105.454" r="4" fill="#0" id="circle50"/>
	<circle cx="169.51" cy="126.161" r="4" fill="#0" id="circle51"/>
	<circle cx="115.76" cy="160.15" r="4" fill="#0" id="circle52"/>
	<circle cx="72.8148" cy="183.364" r="4" fill="#0" id="circle53"/>
	<circle cx="32.0356" cy="230.037" r="4" fill="#0" id="circle54"/>
	<circle cx="4" cy="329.086" r="4" fill="#0" id="circle55"/>
	<circle cx="23.1152" cy="428.532" r="4" fill="#0" id="circle56"/>
	<circle cx="57.5226" cy="490.721" r="4" fill="#0" id="circle57"/>
	<circle cx="98.3017" cy="542.969" r="4" fill="#0" id="circle58"/>
	<circle cx="139.081" cy="584.943" r="4" fill="#0" id="circle59"/>
	<circle cx="179.86" cy="619.59" r="4" fill="#0" id="circle60"/>
	<circle cx="220.639" cy="648.979" r="4" fill="#0" id="circle61"/>
	<circle cx="261.418" cy="674.068" r="4" fill="#0" id="circle62"/>
	<circle cx="302.197" cy="698.445" r="4" fill="#0" id="circle63"/>
	<circle cx="386.304" cy="724.644" r="4" fill="#0" id="circle64"/>
	<circle cx="427.083" cy="732.21" r="4" fill="#0" id="circle65"/>
	<circle cx="467.863" cy="734.599" r="4" fill="#0" id="circle66"/>
	<circle cx="508.642" cy="730.458" r="4" fill="#0" id="circle67"/>
	<circle cx="549.421" cy="717.794" r="4" fill="#0" id="circle68"/>
	<circle cx="590.2" cy="690.316" r="4" fill="#0" id="circle69"/>
	<circle cx="628.43" cy="639.08" r="4" fill="#0" id="circle70"/>
	<circle cx="656.466" cy="572.996" r="4" fill="#0" id="circle71"/>
	<circle cx="669.209" cy="525.845" r="4" fill="#0" id="circle72"/>
	<circle cx="675.342" cy="440.905" r="4" fill="#0" id="circle73"/>
	<circle cx="683.868" cy="389.713" r="4" fill="#0" id="circle74"/>
	<circle cx="687.217" cy="342.006" r="4" fill="#0" id="circle75"/>
	<circle cx="675.809" cy="272.396" r="4" fill="#0" id="circle76"/>
	<circle cx="662.988" cy="203.161" r="4" fill="#0" id="circle77"/>
	<circle cx="641.475" cy="131.632" r="4" fill="#0" id="circle78"/>
	<circle cx="613.177" cy="80.1129" r="4" fill="#0" id="circle79"/>
	<circle cx="567.262" cy="24.6285" r="4" fill="#0" id="circle80"/>
	<circle cx="526.483" cy="4" r="4" fill="#0" id="circle81"/>
	<circle cx="467.754" cy="34.8885" r="4" fill="#0" id="circle82"/>
	<circle cx="444.4" cy="89.8141" r="4" fill="#0" id="circle83"/>
	<circle cx="427.083" cy="180.497" r="4" fill="#0" id="circle84"/>
	<circle cx="414.34" cy="256.321" r="4" fill="#0" id="circle85"/>
	<circle cx="401.596" cy="327.684" r="4" fill="#0" id="circle86"/>
	<circle cx="379.933" cy="401.539" r="4" fill="#0" id="circle87"/>
	<circle cx="345.525" cy="446.677" r="4" fill="#0" id="circle88"/>
	<circle cx="304.746" cy="447.473" r="4" fill="#0" id="circle89"/>
	<circle cx="270.339" cy="402.002" r="4" fill="#0" id="circle90"/>
	<circle cx="256.867" cy="291.183" r="4" fill="#0" id="circle91"/>
	<circle cx="258.105" cy="168.17" r="4" fill="#0" id="circle92"/>
	<circle cx="233.383" cy="70.0671" r="4" fill="#0" id="circle93"/>
	<circle cx="195.152" cy="36.2569" r="4" fill="#0" id="circle94"/>
	<circle cx="132.577" cy="88.9652" r="4" fill="#0" id="circle95"/>
	<circle cx="115.76" cy="160.15" r="4" fill="#0" id="circle96"/>
	<circle cx="119.364" cy="213.418" r="4" fill="#0" id="circle97"/>
	<circle cx="123.024" cy="268.937" r="4" fill="#0" id="circle98"/>
	<circle cx="130.16" cy="340.428" r="4" fill="#0" id="circle99"/>
	<circle cx="142.904" cy="412.428" r="4" fill="#0" id="circle100"/>
	<circle cx="155.647" cy="473.852" r="4" fill="#0" id="circle101"/>
	</g>
</svg>