<?xml version="1.0" encoding="UTF-8" standalone="no"?>
<!-- Created with CurveBenchmark -->
<svg
	xmlns:dc="http://purl.org/dc/elements/1.1/"
	xmlns:cc="http://creativecommons.org/ns#"
	xmlns:rdf="http://www.w3.org/1999/02/22-rdf-syntax-ns#"
	xmlns:svg="http://www.w3.org/2000/svg"
	xmlns="http://www.w3.org/2000/svg"
	xmlns:sodipodi="http://sodipodi.sourceforge.net/DTD/sodipodi-0.dtd"
	xmlns:inkscape="http://www.inkscape.org/namespaces/inkscape"
	width="1000"
	height="1000"
	id="svg2"
	version="1.1"
	sodipodi:docname="Non-manifold/ccrust-OTFig18k.txt">
<defs
	id="defs4" />
<metadata
	id="metadata7">
	<rdf:RDF>
		<cc:Work
			rdf:about="">
			<dc:format>image/svg+xml</dc:format>
			<dc:type
				rdf:resource="http://purl.org/dc/dcmitype/StillImage" />
			<dc:title></dc:title>
		</cc:Work>
	</rdf:RDF>
</metadata>
<g
	inkscape:label="Layer 1"
	inkscape:groupmode="layer"
	id="layer1">
	<path style="fill:none;stroke:red;stroke-width:1px;stroke-linecap:butt;stroke-linejoin:miter;stroke-opacity:1" d="M 21.918,313.491 106.621,214.128 z" id="boundary" inkscape:connector-curvature="0" />
	<path style="fill:none;stroke:red;stroke-width:1px;stroke-linecap:butt;stroke-linejoin:miter;stroke-opacity:1" d="M 46.3515,385.163 21.918,313.491 z" id="boundary" inkscape:connector-curvature="0" />
	<path style="fill:none;stroke:red;stroke-width:1px;stroke-linecap:butt;stroke-linejoin:miter;stroke-opacity:1" d="M 46.3515,385.163 7.25794,461.721 z" id="boundary" inkscape:connector-curvature="0" />
	<path style="fill:none;stroke:red;stroke-width:1px;stroke-linecap:butt;stroke-linejoin:miter;stroke-opacity:1" d="M 54.4959,549.681 4,629.498 z" id="boundary" inkscape:connector-curvature="0" />
	<path style="fill:none;stroke:red;stroke-width:1px;stroke-linecap:butt;stroke-linejoin:miter;stroke-opacity:1" d="M 157.117,437.287 106.621,455.205 z" id="boundary" inkscape:connector-curvature="0" />
	<path style="fill:none;stroke:red;stroke-width:1px;stroke-linecap:butt;stroke-linejoin:miter;stroke-opacity:1" d="M 197.839,572.486 148.972,508.959 z" id="boundary" inkscape:connector-curvature="0" />
	<path style="fill:none;stroke:red;stroke-width:1px;stroke-linecap:butt;stroke-linejoin:miter;stroke-opacity:1" d="M 197.839,572.486 277.655,564.342 z" id="boundary" inkscape:connector-curvature="0" />
	<path style="fill:none;stroke:red;stroke-width:1px;stroke-linecap:butt;stroke-linejoin:miter;stroke-opacity:1" d="M 106.621,214.128 199.468,184.808 z" id="boundary" inkscape:connector-curvature="0" />
	<path style="fill:none;stroke:red;stroke-width:1px;stroke-linecap:butt;stroke-linejoin:miter;stroke-opacity:1" d="M 279.284,75.6715 199.468,184.808 z" id="boundary" inkscape:connector-curvature="0" />
	<path style="fill:none;stroke:red;stroke-width:1px;stroke-linecap:butt;stroke-linejoin:miter;stroke-opacity:1" d="M 197.839,572.486 150.601,627.868 z" id="boundary" inkscape:connector-curvature="0" />
	<path style="fill:none;stroke:red;stroke-width:1px;stroke-linecap:butt;stroke-linejoin:miter;stroke-opacity:1" d="M 150.601,627.868 108.25,634.384 z" id="boundary" inkscape:connector-curvature="0" />
	<path style="fill:none;stroke:red;stroke-width:1px;stroke-linecap:butt;stroke-linejoin:miter;stroke-opacity:1" d="M 23.5469,719.087 52.867,665.333 z" id="boundary" inkscape:connector-curvature="0" />
	<path style="fill:none;stroke:red;stroke-width:1px;stroke-linecap:butt;stroke-linejoin:miter;stroke-opacity:1" d="M 4,629.498 52.867,665.333 z" id="boundary" inkscape:connector-curvature="0" />
	<path style="fill:none;stroke:red;stroke-width:1px;stroke-linecap:butt;stroke-linejoin:miter;stroke-opacity:1" d="M 108.25,634.384 52.867,665.333 z" id="boundary" inkscape:connector-curvature="0" />
	<path style="fill:none;stroke:red;stroke-width:1px;stroke-linecap:butt;stroke-linejoin:miter;stroke-opacity:1" d="M 150.601,627.868 153.859,678.364 z" id="boundary" inkscape:connector-curvature="0" />
	<path style="fill:none;stroke:red;stroke-width:1px;stroke-linecap:butt;stroke-linejoin:miter;stroke-opacity:1" d="M 153.859,678.364 188.066,681.622 z" id="boundary" inkscape:connector-curvature="0" />
	<path style="fill:none;stroke:red;stroke-width:1px;stroke-linecap:butt;stroke-linejoin:miter;stroke-opacity:1" d="M 233.675,751.665 197.839,779.356 z" id="boundary" inkscape:connector-curvature="0" />
	<path style="fill:none;stroke:red;stroke-width:1px;stroke-linecap:butt;stroke-linejoin:miter;stroke-opacity:1" d="M 197.839,779.356 173.406,772.841 z" id="boundary" inkscape:connector-curvature="0" />
	<path style="fill:none;stroke:red;stroke-width:1px;stroke-linecap:butt;stroke-linejoin:miter;stroke-opacity:1" d="M 233.675,751.665 266.253,761.438 z" id="boundary" inkscape:connector-curvature="0" />
	<path style="fill:none;stroke:red;stroke-width:1px;stroke-linecap:butt;stroke-linejoin:miter;stroke-opacity:1" d="M 365.616,4 279.284,75.6715 z" id="boundary" inkscape:connector-curvature="0" />
	<path style="fill:none;stroke:red;stroke-width:1px;stroke-linecap:butt;stroke-linejoin:miter;stroke-opacity:1" d="M 383.534,536.65 310.233,559.455 z" id="boundary" inkscape:connector-curvature="0" />
	<path style="fill:none;stroke:red;stroke-width:1px;stroke-linecap:butt;stroke-linejoin:miter;stroke-opacity:1" d="M 310.233,559.455 277.655,564.342 z" id="boundary" inkscape:connector-curvature="0" />
	<path style="fill:none;stroke:red;stroke-width:1px;stroke-linecap:butt;stroke-linejoin:miter;stroke-opacity:1" d="M 277.655,564.342 282.542,531.763 z" id="boundary" inkscape:connector-curvature="0" />
	<path style="fill:none;stroke:red;stroke-width:1px;stroke-linecap:butt;stroke-linejoin:miter;stroke-opacity:1" d="M 580.631,241.819 624.611,158.745 z" id="boundary" inkscape:connector-curvature="0" />
	<path style="fill:none;stroke:red;stroke-width:1px;stroke-linecap:butt;stroke-linejoin:miter;stroke-opacity:1" d="M 580.631,241.819 510.588,290.686 z" id="boundary" inkscape:connector-curvature="0" />
	<path style="fill:none;stroke:red;stroke-width:1px;stroke-linecap:butt;stroke-linejoin:miter;stroke-opacity:1" d="M 551.31,482.896 510.588,290.686 z" id="boundary" inkscape:connector-curvature="0" />
	<path style="fill:none;stroke:red;stroke-width:1px;stroke-linecap:butt;stroke-linejoin:miter;stroke-opacity:1" d="M 551.31,482.896 548.053,562.712 z" id="boundary" inkscape:connector-curvature="0" />
	<path style="fill:none;stroke:red;stroke-width:1px;stroke-linecap:butt;stroke-linejoin:miter;stroke-opacity:1" d="M 318.378,789.13 266.253,761.438 z" id="boundary" inkscape:connector-curvature="0" />
	<path style="fill:none;stroke:red;stroke-width:1px;stroke-linecap:butt;stroke-linejoin:miter;stroke-opacity:1" d="M 336.296,963.422 293.944,996 z" id="boundary" inkscape:connector-curvature="0" />
	<path style="fill:none;stroke:red;stroke-width:1px;stroke-linecap:butt;stroke-linejoin:miter;stroke-opacity:1" d="M 331.409,896.637 258.108,883.606 z" id="boundary" inkscape:connector-curvature="0" />
	<path style="fill:none;stroke:red;stroke-width:1px;stroke-linecap:butt;stroke-linejoin:miter;stroke-opacity:1" d="M 401.452,699.54 484.525,621.353 z" id="boundary" inkscape:connector-curvature="0" />
	<path style="fill:none;stroke:red;stroke-width:1px;stroke-linecap:butt;stroke-linejoin:miter;stroke-opacity:1" d="M 383.534,536.65 484.525,621.353 z" id="boundary" inkscape:connector-curvature="0" />
	<path style="fill:none;stroke:red;stroke-width:1px;stroke-linecap:butt;stroke-linejoin:miter;stroke-opacity:1" d="M 484.525,621.353 548.053,562.712 z" id="boundary" inkscape:connector-curvature="0" />
	<path style="fill:none;stroke:red;stroke-width:1px;stroke-linecap:butt;stroke-linejoin:miter;stroke-opacity:1" d="M 336.296,963.422 331.409,896.637 z" id="boundary" inkscape:connector-curvature="0" />
	<circle cx="293.944" cy="996" r="4" fill="#0" id="circle0"/>
	<circle cx="336.296" cy="963.422" r="4" fill="#0" id="circle1"/>
	<circle cx="331.409" cy="896.637" r="4" fill="#0" id="circle2"/>
	<circle cx="258.108" cy="883.606" r="4" fill="#0" id="circle3"/>
	<circle cx="266.253" cy="761.438" r="4" fill="#0" id="circle4"/>
	<circle cx="277.655" cy="564.342" r="4" fill="#0" id="circle5"/>
	<circle cx="310.233" cy="559.455" r="4" fill="#0" id="circle6"/>
	<circle cx="318.378" cy="789.13" r="4" fill="#0" id="circle7"/>
	<circle cx="417.741" cy="826.594" r="4" fill="#0" id="circle8"/>
	<circle cx="401.452" cy="699.54" r="4" fill="#0" id="circle9"/>
	<circle cx="383.534" cy="536.65" r="4" fill="#0" id="circle10"/>
	<circle cx="484.525" cy="621.353" r="4" fill="#0" id="circle11"/>
	<circle cx="548.053" cy="562.712" r="4" fill="#0" id="circle12"/>
	<circle cx="551.31" cy="482.896" r="4" fill="#0" id="circle13"/>
	<circle cx="647.416" cy="531.763" r="4" fill="#0" id="circle14"/>
	<circle cx="580.631" cy="241.819" r="4" fill="#0" id="circle15"/>
	<circle cx="624.611" cy="158.745" r="4" fill="#0" id="circle16"/>
	<circle cx="510.588" cy="290.686" r="4" fill="#0" id="circle17"/>
	<circle cx="282.542" cy="531.763" r="4" fill="#0" id="circle18"/>
	<circle cx="157.117" cy="437.287" r="4" fill="#0" id="circle19"/>
	<circle cx="197.839" cy="572.486" r="4" fill="#0" id="circle20"/>
	<circle cx="188.066" cy="681.622" r="4" fill="#0" id="circle21"/>
	<circle cx="233.675" cy="751.665" r="4" fill="#0" id="circle22"/>
	<circle cx="197.839" cy="779.356" r="4" fill="#0" id="circle23"/>
	<circle cx="173.406" cy="772.841" r="4" fill="#0" id="circle24"/>
	<circle cx="153.859" cy="678.364" r="4" fill="#0" id="circle25"/>
	<circle cx="150.601" cy="627.868" r="4" fill="#0" id="circle26"/>
	<circle cx="148.972" cy="508.959" r="4" fill="#0" id="circle27"/>
	<circle cx="106.621" cy="455.205" r="4" fill="#0" id="circle28"/>
	<circle cx="108.25" cy="634.384" r="4" fill="#0" id="circle29"/>
	<circle cx="23.5469" cy="719.087" r="4" fill="#0" id="circle30"/>
	<circle cx="52.867" cy="665.333" r="4" fill="#0" id="circle31"/>
	<circle cx="54.4959" cy="549.681" r="4" fill="#0" id="circle32"/>
	<circle cx="46.3515" cy="385.163" r="4" fill="#0" id="circle33"/>
	<circle cx="4" cy="629.498" r="4" fill="#0" id="circle34"/>
	<circle cx="7.25794" cy="461.721" r="4" fill="#0" id="circle35"/>
	<circle cx="21.918" cy="313.491" r="4" fill="#0" id="circle36"/>
	<circle cx="106.621" cy="214.128" r="4" fill="#0" id="circle37"/>
	<circle cx="199.468" cy="184.808" r="4" fill="#0" id="circle38"/>
	<circle cx="279.284" cy="75.6715" r="4" fill="#0" id="circle39"/>
	<circle cx="365.616" cy="4" r="4" fill="#0" id="circle40"/>
	</g>
</svg>