<?xml version="1.0" encoding="UTF-8" standalone="no"?>
<!-- Created with CurveBenchmark -->
<svg
	xmlns:dc="http://purl.org/dc/elements/1.1/"
	xmlns:cc="http://creativecommons.org/ns#"
	xmlns:rdf="http://www.w3.org/1999/02/22-rdf-syntax-ns#"
	xmlns:svg="http://www.w3.org/2000/svg"
	xmlns="http://www.w3.org/2000/svg"
	xmlns:sodipodi="http://sodipodi.sourceforge.net/DTD/sodipodi-0.dtd"
	xmlns:inkscape="http://www.inkscape.org/namespaces/inkscape"
	width="1000"
	height="1000"
	id="svg2"
	version="1.1"
	sodipodi:docname="Non-manifold/ccrust-nm10out.txt">
<defs
	id="defs4" />
<metadata
	id="metadata7">
	<rdf:RDF>
		<cc:Work
			rdf:about="">
			<dc:format>image/svg+xml</dc:format>
			<dc:type
				rdf:resource="http://purl.org/dc/dcmitype/StillImage" />
			<dc:title></dc:title>
		</cc:Work>
	</rdf:RDF>
</metadata>
<g
	inkscape:label="Layer 1"
	inkscape:groupmode="layer"
	id="layer1">
	<path style="fill:none;stroke:red;stroke-width:1px;stroke-linecap:butt;stroke-linejoin:miter;stroke-opacity:1" d="M 146.363,4 194.827,29.3679 z" id="boundary" inkscape:connector-curvature="0" />
	<path style="fill:none;stroke:red;stroke-width:1px;stroke-linecap:butt;stroke-linejoin:miter;stroke-opacity:1" d="M 307.123,99.9606 243.292,61.3152 z" id="boundary" inkscape:connector-curvature="0" />
	<path style="fill:none;stroke:red;stroke-width:1px;stroke-linecap:butt;stroke-linejoin:miter;stroke-opacity:1" d="M 194.827,29.3679 243.292,61.3152 z" id="boundary" inkscape:connector-curvature="0" />
	<path style="fill:none;stroke:red;stroke-width:1px;stroke-linecap:butt;stroke-linejoin:miter;stroke-opacity:1" d="M 149.392,231.365 197.856,188.107 z" id="boundary" inkscape:connector-curvature="0" />
	<path style="fill:none;stroke:red;stroke-width:1px;stroke-linecap:butt;stroke-linejoin:miter;stroke-opacity:1" d="M 197.856,188.107 245.008,148.326 z" id="boundary" inkscape:connector-curvature="0" />
	<path style="fill:none;stroke:red;stroke-width:1px;stroke-linecap:butt;stroke-linejoin:miter;stroke-opacity:1" d="M 307.123,99.9606 360.214,124.675 z" id="boundary" inkscape:connector-curvature="0" />
	<path style="fill:none;stroke:red;stroke-width:1px;stroke-linecap:butt;stroke-linejoin:miter;stroke-opacity:1" d="M 149.392,231.365 100.928,277.463 z" id="boundary" inkscape:connector-curvature="0" />
	<path style="fill:none;stroke:red;stroke-width:1px;stroke-linecap:butt;stroke-linejoin:miter;stroke-opacity:1" d="M 440.177,39.5908 488.641,29.3679 z" id="boundary" inkscape:connector-curvature="0" />
	<path style="fill:none;stroke:red;stroke-width:1px;stroke-linecap:butt;stroke-linejoin:miter;stroke-opacity:1" d="M 537.105,29.2733 488.641,29.3679 z" id="boundary" inkscape:connector-curvature="0" />
	<path style="fill:none;stroke:red;stroke-width:1px;stroke-linecap:butt;stroke-linejoin:miter;stroke-opacity:1" d="M 370.616,64.8324 440.177,39.5908 z" id="boundary" inkscape:connector-curvature="0" />
	<path style="fill:none;stroke:red;stroke-width:1px;stroke-linecap:butt;stroke-linejoin:miter;stroke-opacity:1" d="M 360.214,124.675 370.616,64.8324 z" id="boundary" inkscape:connector-curvature="0" />
	<path style="fill:none;stroke:red;stroke-width:1px;stroke-linecap:butt;stroke-linejoin:miter;stroke-opacity:1" d="M 440.177,174.476 488.641,206.944 z" id="boundary" inkscape:connector-curvature="0" />
	<path style="fill:none;stroke:red;stroke-width:1px;stroke-linecap:butt;stroke-linejoin:miter;stroke-opacity:1" d="M 440.177,174.476 360.214,124.675 z" id="boundary" inkscape:connector-curvature="0" />
	<path style="fill:none;stroke:red;stroke-width:1px;stroke-linecap:butt;stroke-linejoin:miter;stroke-opacity:1" d="M 537.105,240.547 488.641,206.944 z" id="boundary" inkscape:connector-curvature="0" />
	<path style="fill:none;stroke:red;stroke-width:1px;stroke-linecap:butt;stroke-linejoin:miter;stroke-opacity:1" d="M 397.771,701.24 349.307,742.131 z" id="boundary" inkscape:connector-curvature="0" />
	<path style="fill:none;stroke:red;stroke-width:1px;stroke-linecap:butt;stroke-linejoin:miter;stroke-opacity:1" d="M 52.4641,327.347 4,380.26 z" id="boundary" inkscape:connector-curvature="0" />
	<path style="fill:none;stroke:red;stroke-width:1px;stroke-linecap:butt;stroke-linejoin:miter;stroke-opacity:1" d="M 100.928,277.463 52.4641,327.347 z" id="boundary" inkscape:connector-curvature="0" />
	<path style="fill:none;stroke:red;stroke-width:1px;stroke-linecap:butt;stroke-linejoin:miter;stroke-opacity:1" d="M 294.232,844.998 346.278,945.075 z" id="boundary" inkscape:connector-curvature="0" />
	<path style="fill:none;stroke:red;stroke-width:1px;stroke-linecap:butt;stroke-linejoin:miter;stroke-opacity:1" d="M 294.232,844.998 349.307,742.131 z" id="boundary" inkscape:connector-curvature="0" />
	<path style="fill:none;stroke:red;stroke-width:1px;stroke-linecap:butt;stroke-linejoin:miter;stroke-opacity:1" d="M 394.742,974.797 346.278,945.075 z" id="boundary" inkscape:connector-curvature="0" />
	<path style="fill:none;stroke:red;stroke-width:1px;stroke-linecap:butt;stroke-linejoin:miter;stroke-opacity:1" d="M 443.206,989.563 394.742,974.797 z" id="boundary" inkscape:connector-curvature="0" />
	<path style="fill:none;stroke:red;stroke-width:1px;stroke-linecap:butt;stroke-linejoin:miter;stroke-opacity:1" d="M 588.598,991.078 540.134,996 z" id="boundary" inkscape:connector-curvature="0" />
	<path style="fill:none;stroke:red;stroke-width:1px;stroke-linecap:butt;stroke-linejoin:miter;stroke-opacity:1" d="M 543.163,609.328 494.699,637.915 z" id="boundary" inkscape:connector-curvature="0" />
	<path style="fill:none;stroke:red;stroke-width:1px;stroke-linecap:butt;stroke-linejoin:miter;stroke-opacity:1" d="M 537.105,240.547 585.569,276.421 z" id="boundary" inkscape:connector-curvature="0" />
	<path style="fill:none;stroke:red;stroke-width:1px;stroke-linecap:butt;stroke-linejoin:miter;stroke-opacity:1" d="M 446.235,667.826 397.771,701.24 z" id="boundary" inkscape:connector-curvature="0" />
	<path style="fill:none;stroke:red;stroke-width:1px;stroke-linecap:butt;stroke-linejoin:miter;stroke-opacity:1" d="M 446.235,667.826 494.699,637.915 z" id="boundary" inkscape:connector-curvature="0" />
	<path style="fill:none;stroke:red;stroke-width:1px;stroke-linecap:butt;stroke-linejoin:miter;stroke-opacity:1" d="M 491.67,995.811 443.206,989.563 z" id="boundary" inkscape:connector-curvature="0" />
	<path style="fill:none;stroke:red;stroke-width:1px;stroke-linecap:butt;stroke-linejoin:miter;stroke-opacity:1" d="M 540.134,996 491.67,995.811 z" id="boundary" inkscape:connector-curvature="0" />
	<path style="fill:none;stroke:red;stroke-width:1px;stroke-linecap:butt;stroke-linejoin:miter;stroke-opacity:1" d="M 537.105,29.2733 585.569,36.3725 z" id="boundary" inkscape:connector-curvature="0" />
	<path style="fill:none;stroke:red;stroke-width:1px;stroke-linecap:butt;stroke-linejoin:miter;stroke-opacity:1" d="M 634.034,49.4351 682.498,68.8397 z" id="boundary" inkscape:connector-curvature="0" />
	<path style="fill:none;stroke:red;stroke-width:1px;stroke-linecap:butt;stroke-linejoin:miter;stroke-opacity:1" d="M 585.569,276.421 634.034,314.379 z" id="boundary" inkscape:connector-curvature="0" />
	<path style="fill:none;stroke:red;stroke-width:1px;stroke-linecap:butt;stroke-linejoin:miter;stroke-opacity:1" d="M 730.962,94.5863 779.426,130.366 z" id="boundary" inkscape:connector-curvature="0" />
	<path style="fill:none;stroke:red;stroke-width:1px;stroke-linecap:butt;stroke-linejoin:miter;stroke-opacity:1" d="M 682.498,354.797 634.034,314.379 z" id="boundary" inkscape:connector-curvature="0" />
	<path style="fill:none;stroke:red;stroke-width:1px;stroke-linecap:butt;stroke-linejoin:miter;stroke-opacity:1" d="M 682.498,68.8397 730.962,94.5863 z" id="boundary" inkscape:connector-curvature="0" />
	<path style="fill:none;stroke:red;stroke-width:1px;stroke-linecap:butt;stroke-linejoin:miter;stroke-opacity:1" d="M 585.569,36.3725 634.034,49.4351 z" id="boundary" inkscape:connector-curvature="0" />
	<path style="fill:none;stroke:red;stroke-width:1px;stroke-linecap:butt;stroke-linejoin:miter;stroke-opacity:1" d="M 827.89,183.09 862.724,261.986 z" id="boundary" inkscape:connector-curvature="0" />
	<path style="fill:none;stroke:red;stroke-width:1px;stroke-linecap:butt;stroke-linejoin:miter;stroke-opacity:1" d="M 862.724,261.986 858.18,349.78 z" id="boundary" inkscape:connector-curvature="0" />
	<path style="fill:none;stroke:red;stroke-width:1px;stroke-linecap:butt;stroke-linejoin:miter;stroke-opacity:1" d="M 682.498,354.797 730.962,406.003 z" id="boundary" inkscape:connector-curvature="0" />
	<path style="fill:none;stroke:red;stroke-width:1px;stroke-linecap:butt;stroke-linejoin:miter;stroke-opacity:1" d="M 785.484,451.862 733.874,487.15 z" id="boundary" inkscape:connector-curvature="0" />
	<path style="fill:none;stroke:red;stroke-width:1px;stroke-linecap:butt;stroke-linejoin:miter;stroke-opacity:1" d="M 828.614,501.915 785.484,451.862 z" id="boundary" inkscape:connector-curvature="0" />
	<path style="fill:none;stroke:red;stroke-width:1px;stroke-linecap:butt;stroke-linejoin:miter;stroke-opacity:1" d="M 779.426,130.366 827.89,183.09 z" id="boundary" inkscape:connector-curvature="0" />
	<path style="fill:none;stroke:red;stroke-width:1px;stroke-linecap:butt;stroke-linejoin:miter;stroke-opacity:1" d="M 733.874,487.15 688.556,522.15 z" id="boundary" inkscape:connector-curvature="0" />
	<path style="fill:none;stroke:red;stroke-width:1px;stroke-linecap:butt;stroke-linejoin:miter;stroke-opacity:1" d="M 640.092,552.345 591.627,581.121 z" id="boundary" inkscape:connector-curvature="0" />
	<path style="fill:none;stroke:red;stroke-width:1px;stroke-linecap:butt;stroke-linejoin:miter;stroke-opacity:1" d="M 688.556,522.15 640.092,552.345 z" id="boundary" inkscape:connector-curvature="0" />
	<path style="fill:none;stroke:red;stroke-width:1px;stroke-linecap:butt;stroke-linejoin:miter;stroke-opacity:1" d="M 782.455,923.777 733.991,948.766 z" id="boundary" inkscape:connector-curvature="0" />
	<path style="fill:none;stroke:red;stroke-width:1px;stroke-linecap:butt;stroke-linejoin:miter;stroke-opacity:1" d="M 637.063,981.518 588.598,991.078 z" id="boundary" inkscape:connector-curvature="0" />
	<path style="fill:none;stroke:red;stroke-width:1px;stroke-linecap:butt;stroke-linejoin:miter;stroke-opacity:1" d="M 685.527,967.698 637.063,981.518 z" id="boundary" inkscape:connector-curvature="0" />
	<path style="fill:none;stroke:red;stroke-width:1px;stroke-linecap:butt;stroke-linejoin:miter;stroke-opacity:1" d="M 733.991,948.766 685.527,967.698 z" id="boundary" inkscape:connector-curvature="0" />
	<path style="fill:none;stroke:red;stroke-width:1px;stroke-linecap:butt;stroke-linejoin:miter;stroke-opacity:1" d="M 543.163,609.328 591.627,581.121 z" id="boundary" inkscape:connector-curvature="0" />
	<path style="fill:none;stroke:red;stroke-width:1px;stroke-linecap:butt;stroke-linejoin:miter;stroke-opacity:1" d="M 868.782,566.935 902.101,639.862 z" id="boundary" inkscape:connector-curvature="0" />
	<path style="fill:none;stroke:red;stroke-width:1px;stroke-linecap:butt;stroke-linejoin:miter;stroke-opacity:1" d="M 868.782,566.935 828.614,501.915 z" id="boundary" inkscape:connector-curvature="0" />
	<path style="fill:none;stroke:red;stroke-width:1px;stroke-linecap:butt;stroke-linejoin:miter;stroke-opacity:1" d="M 902.101,639.862 915.731,704.553 z" id="boundary" inkscape:connector-curvature="0" />
	<path style="fill:none;stroke:red;stroke-width:1px;stroke-linecap:butt;stroke-linejoin:miter;stroke-opacity:1" d="M 830.919,889.795 782.455,923.777 z" id="boundary" inkscape:connector-curvature="0" />
	<path style="fill:none;stroke:red;stroke-width:1px;stroke-linecap:butt;stroke-linejoin:miter;stroke-opacity:1" d="M 879.383,838.018 830.919,889.795 z" id="boundary" inkscape:connector-curvature="0" />
	<path style="fill:none;stroke:red;stroke-width:1px;stroke-linecap:butt;stroke-linejoin:miter;stroke-opacity:1" d="M 912.702,764.628 879.383,838.018 z" id="boundary" inkscape:connector-curvature="0" />
	<path style="fill:none;stroke:red;stroke-width:1px;stroke-linecap:butt;stroke-linejoin:miter;stroke-opacity:1" d="M 915.731,704.553 912.702,764.628 z" id="boundary" inkscape:connector-curvature="0" />
	<circle cx="4" cy="380.26" r="4" fill="#0" id="circle0"/>
	<circle cx="52.4641" cy="327.347" r="4" fill="#0" id="circle1"/>
	<circle cx="100.928" cy="277.463" r="4" fill="#0" id="circle2"/>
	<circle cx="149.392" cy="231.365" r="4" fill="#0" id="circle3"/>
	<circle cx="197.856" cy="188.107" r="4" fill="#0" id="circle4"/>
	<circle cx="245.008" cy="148.326" r="4" fill="#0" id="circle5"/>
	<circle cx="307.123" cy="99.9606" r="4" fill="#0" id="circle6"/>
	<circle cx="370.616" cy="64.8324" r="4" fill="#0" id="circle7"/>
	<circle cx="440.177" cy="39.5908" r="4" fill="#0" id="circle8"/>
	<circle cx="488.641" cy="29.3679" r="4" fill="#0" id="circle9"/>
	<circle cx="537.105" cy="29.2733" r="4" fill="#0" id="circle10"/>
	<circle cx="585.569" cy="36.3725" r="4" fill="#0" id="circle11"/>
	<circle cx="634.034" cy="49.4351" r="4" fill="#0" id="circle12"/>
	<circle cx="682.498" cy="68.8397" r="4" fill="#0" id="circle13"/>
	<circle cx="730.962" cy="94.5863" r="4" fill="#0" id="circle14"/>
	<circle cx="779.426" cy="130.366" r="4" fill="#0" id="circle15"/>
	<circle cx="827.89" cy="183.09" r="4" fill="#0" id="circle16"/>
	<circle cx="862.724" cy="261.986" r="4" fill="#0" id="circle17"/>
	<circle cx="858.18" cy="349.78" r="4" fill="#0" id="circle18"/>
	<circle cx="785.484" cy="451.862" r="4" fill="#0" id="circle19"/>
	<circle cx="733.874" cy="487.15" r="4" fill="#0" id="circle20"/>
	<circle cx="688.556" cy="522.15" r="4" fill="#0" id="circle21"/>
	<circle cx="640.092" cy="552.345" r="4" fill="#0" id="circle22"/>
	<circle cx="591.627" cy="581.121" r="4" fill="#0" id="circle23"/>
	<circle cx="543.163" cy="609.328" r="4" fill="#0" id="circle24"/>
	<circle cx="494.699" cy="637.915" r="4" fill="#0" id="circle25"/>
	<circle cx="446.235" cy="667.826" r="4" fill="#0" id="circle26"/>
	<circle cx="397.771" cy="701.24" r="4" fill="#0" id="circle27"/>
	<circle cx="349.307" cy="742.131" r="4" fill="#0" id="circle28"/>
	<circle cx="294.232" cy="844.998" r="4" fill="#0" id="circle29"/>
	<circle cx="346.278" cy="945.075" r="4" fill="#0" id="circle30"/>
	<circle cx="394.742" cy="974.797" r="4" fill="#0" id="circle31"/>
	<circle cx="443.206" cy="989.563" r="4" fill="#0" id="circle32"/>
	<circle cx="491.67" cy="995.811" r="4" fill="#0" id="circle33"/>
	<circle cx="540.134" cy="996" r="4" fill="#0" id="circle34"/>
	<circle cx="588.598" cy="991.078" r="4" fill="#0" id="circle35"/>
	<circle cx="637.063" cy="981.518" r="4" fill="#0" id="circle36"/>
	<circle cx="685.527" cy="967.698" r="4" fill="#0" id="circle37"/>
	<circle cx="733.991" cy="948.766" r="4" fill="#0" id="circle38"/>
	<circle cx="782.455" cy="923.777" r="4" fill="#0" id="circle39"/>
	<circle cx="830.919" cy="889.795" r="4" fill="#0" id="circle40"/>
	<circle cx="879.383" cy="838.018" r="4" fill="#0" id="circle41"/>
	<circle cx="912.702" cy="764.628" r="4" fill="#0" id="circle42"/>
	<circle cx="915.731" cy="704.553" r="4" fill="#0" id="circle43"/>
	<circle cx="902.101" cy="639.862" r="4" fill="#0" id="circle44"/>
	<circle cx="868.782" cy="566.935" r="4" fill="#0" id="circle45"/>
	<circle cx="828.614" cy="501.915" r="4" fill="#0" id="circle46"/>
	<circle cx="785.484" cy="451.862" r="4" fill="#0" id="circle47"/>
	<circle cx="730.962" cy="406.003" r="4" fill="#0" id="circle48"/>
	<circle cx="682.498" cy="354.797" r="4" fill="#0" id="circle49"/>
	<circle cx="634.034" cy="314.379" r="4" fill="#0" id="circle50"/>
	<circle cx="585.569" cy="276.421" r="4" fill="#0" id="circle51"/>
	<circle cx="537.105" cy="240.547" r="4" fill="#0" id="circle52"/>
	<circle cx="488.641" cy="206.944" r="4" fill="#0" id="circle53"/>
	<circle cx="440.177" cy="174.476" r="4" fill="#0" id="circle54"/>
	<circle cx="360.214" cy="124.675" r="4" fill="#0" id="circle55"/>
	<circle cx="307.123" cy="99.9606" r="4" fill="#0" id="circle56"/>
	<circle cx="243.292" cy="61.3152" r="4" fill="#0" id="circle57"/>
	<circle cx="194.827" cy="29.3679" r="4" fill="#0" id="circle58"/>
	<circle cx="146.363" cy="4" r="4" fill="#0" id="circle59"/>
	</g>
</svg>