<?xml version="1.0" encoding="UTF-8" standalone="no"?>
<!-- Created with CurveBenchmark -->
<svg
	xmlns:dc="http://purl.org/dc/elements/1.1/"
	xmlns:cc="http://creativecommons.org/ns#"
	xmlns:rdf="http://www.w3.org/1999/02/22-rdf-syntax-ns#"
	xmlns:svg="http://www.w3.org/2000/svg"
	xmlns="http://www.w3.org/2000/svg"
	xmlns:sodipodi="http://sodipodi.sourceforge.net/DTD/sodipodi-0.dtd"
	xmlns:inkscape="http://www.inkscape.org/namespaces/inkscape"
	width="1000"
	height="1000"
	id="svg2"
	version="1.1"
	sodipodi:docname="Non-manifold/crust-OTFig1.txt">
<defs
	id="defs4" />
<metadata
	id="metadata7">
	<rdf:RDF>
		<cc:Work
			rdf:about="">
			<dc:format>image/svg+xml</dc:format>
			<dc:type
				rdf:resource="http://purl.org/dc/dcmitype/StillImage" />
			<dc:title></dc:title>
		</cc:Work>
	</rdf:RDF>
</metadata>
<g
	inkscape:label="Layer 1"
	inkscape:groupmode="layer"
	id="layer1">
	<path style="fill:none;stroke:red;stroke-width:1px;stroke-linecap:butt;stroke-linejoin:miter;stroke-opacity:1" d="M 110.632,189.798 162.332,231.805 z" id="boundary" inkscape:connector-curvature="0" />
	<path style="fill:none;stroke:red;stroke-width:1px;stroke-linecap:butt;stroke-linejoin:miter;stroke-opacity:1" d="M 162.332,231.805 149.407,382.059 z" id="boundary" inkscape:connector-curvature="0" />
	<path style="fill:none;stroke:red;stroke-width:1px;stroke-linecap:butt;stroke-linejoin:miter;stroke-opacity:1" d="M 110.632,189.798 184.951,104.169 z" id="boundary" inkscape:connector-curvature="0" />
	<path style="fill:none;stroke:red;stroke-width:1px;stroke-linecap:butt;stroke-linejoin:miter;stroke-opacity:1" d="M 149.407,382.059 147.792,464.456 z" id="boundary" inkscape:connector-curvature="0" />
	<path style="fill:none;stroke:red;stroke-width:1px;stroke-linecap:butt;stroke-linejoin:miter;stroke-opacity:1" d="M 36.3126,466.072 147.792,464.456 z" id="boundary" inkscape:connector-curvature="0" />
	<path style="fill:none;stroke:red;stroke-width:1px;stroke-linecap:butt;stroke-linejoin:miter;stroke-opacity:1" d="M 36.3126,466.072 4,664.795 z" id="boundary" inkscape:connector-curvature="0" />
	<path style="fill:none;stroke:red;stroke-width:1px;stroke-linecap:butt;stroke-linejoin:miter;stroke-opacity:1" d="M 184.951,104.169 301.277,26.6188 z" id="boundary" inkscape:connector-curvature="0" />
	<path style="fill:none;stroke:red;stroke-width:1px;stroke-linecap:butt;stroke-linejoin:miter;stroke-opacity:1" d="M 359.44,209.186 352.977,299.661 z" id="boundary" inkscape:connector-curvature="0" />
	<path style="fill:none;stroke:red;stroke-width:1px;stroke-linecap:butt;stroke-linejoin:miter;stroke-opacity:1" d="M 420.834,16.9251 301.277,26.6188 z" id="boundary" inkscape:connector-curvature="0" />
	<path style="fill:none;stroke:red;stroke-width:1px;stroke-linecap:butt;stroke-linejoin:miter;stroke-opacity:1" d="M 341.668,498.384 346.515,551.7 z" id="boundary" inkscape:connector-curvature="0" />
	<path style="fill:none;stroke:red;stroke-width:1px;stroke-linecap:butt;stroke-linejoin:miter;stroke-opacity:1" d="M 341.668,498.384 412.756,506.463 z" id="boundary" inkscape:connector-curvature="0" />
	<path style="fill:none;stroke:red;stroke-width:1px;stroke-linecap:butt;stroke-linejoin:miter;stroke-opacity:1" d="M 167.179,659.948 117.094,705.186 z" id="boundary" inkscape:connector-curvature="0" />
	<path style="fill:none;stroke:red;stroke-width:1px;stroke-linecap:butt;stroke-linejoin:miter;stroke-opacity:1" d="M 188.182,656.717 167.179,659.948 z" id="boundary" inkscape:connector-curvature="0" />
	<path style="fill:none;stroke:red;stroke-width:1px;stroke-linecap:butt;stroke-linejoin:miter;stroke-opacity:1" d="M 117.094,705.186 83.1662,764.964 z" id="boundary" inkscape:connector-curvature="0" />
	<path style="fill:none;stroke:red;stroke-width:1px;stroke-linecap:butt;stroke-linejoin:miter;stroke-opacity:1" d="M 167.179,842.515 154.254,895.831 z" id="boundary" inkscape:connector-curvature="0" />
	<path style="fill:none;stroke:red;stroke-width:1px;stroke-linecap:butt;stroke-linejoin:miter;stroke-opacity:1" d="M 154.254,895.831 163.948,941.069 z" id="boundary" inkscape:connector-curvature="0" />
	<path style="fill:none;stroke:red;stroke-width:1px;stroke-linecap:butt;stroke-linejoin:miter;stroke-opacity:1" d="M 433.759,579.166 373.98,638.945 z" id="boundary" inkscape:connector-curvature="0" />
	<path style="fill:none;stroke:red;stroke-width:1px;stroke-linecap:butt;stroke-linejoin:miter;stroke-opacity:1" d="M 370.749,732.652 373.98,638.945 z" id="boundary" inkscape:connector-curvature="0" />
	<path style="fill:none;stroke:red;stroke-width:1px;stroke-linecap:butt;stroke-linejoin:miter;stroke-opacity:1" d="M 370.749,732.652 325.511,840.899 z" id="boundary" inkscape:connector-curvature="0" />
	<path style="fill:none;stroke:red;stroke-width:1px;stroke-linecap:butt;stroke-linejoin:miter;stroke-opacity:1" d="M 491.922,550.085 433.759,579.166 z" id="boundary" inkscape:connector-curvature="0" />
	<path style="fill:none;stroke:red;stroke-width:1px;stroke-linecap:butt;stroke-linejoin:miter;stroke-opacity:1" d="M 488.69,4 488.69,18.5407 z" id="boundary" inkscape:connector-curvature="0" />
	<path style="fill:none;stroke:red;stroke-width:1px;stroke-linecap:butt;stroke-linejoin:miter;stroke-opacity:1" d="M 564.626,236.651 543.622,285.12 z" id="boundary" inkscape:connector-curvature="0" />
	<path style="fill:none;stroke:red;stroke-width:1px;stroke-linecap:butt;stroke-linejoin:miter;stroke-opacity:1" d="M 514.541,205.955 564.626,236.651 z" id="boundary" inkscape:connector-curvature="0" />
	<path style="fill:none;stroke:red;stroke-width:1px;stroke-linecap:butt;stroke-linejoin:miter;stroke-opacity:1" d="M 564.626,236.651 632.482,241.498 z" id="boundary" inkscape:connector-curvature="0" />
	<path style="fill:none;stroke:red;stroke-width:1px;stroke-linecap:butt;stroke-linejoin:miter;stroke-opacity:1" d="M 629.251,23.3877 742.345,55.7003 z" id="boundary" inkscape:connector-curvature="0" />
	<path style="fill:none;stroke:red;stroke-width:1px;stroke-linecap:butt;stroke-linejoin:miter;stroke-opacity:1" d="M 742.345,55.7003 850.593,136.482 z" id="boundary" inkscape:connector-curvature="0" />
	<path style="fill:none;stroke:red;stroke-width:1px;stroke-linecap:butt;stroke-linejoin:miter;stroke-opacity:1" d="M 850.593,136.482 882.906,260.886 z" id="boundary" inkscape:connector-curvature="0" />
	<path style="fill:none;stroke:red;stroke-width:1px;stroke-linecap:butt;stroke-linejoin:miter;stroke-opacity:1" d="M 760.117,310.971 659.948,304.508 z" id="boundary" inkscape:connector-curvature="0" />
	<path style="fill:none;stroke:red;stroke-width:1px;stroke-linecap:butt;stroke-linejoin:miter;stroke-opacity:1" d="M 659.948,304.508 632.482,241.498 z" id="boundary" inkscape:connector-curvature="0" />
	<path style="fill:none;stroke:red;stroke-width:1px;stroke-linecap:butt;stroke-linejoin:miter;stroke-opacity:1" d="M 760.117,310.971 760.117,456.378 z" id="boundary" inkscape:connector-curvature="0" />
	<path style="fill:none;stroke:red;stroke-width:1px;stroke-linecap:butt;stroke-linejoin:miter;stroke-opacity:1" d="M 882.906,260.886 937.837,272.195 z" id="boundary" inkscape:connector-curvature="0" />
	<path style="fill:none;stroke:red;stroke-width:1px;stroke-linecap:butt;stroke-linejoin:miter;stroke-opacity:1" d="M 760.117,310.971 882.906,260.886 z" id="boundary" inkscape:connector-curvature="0" />
	<path style="fill:none;stroke:red;stroke-width:1px;stroke-linecap:butt;stroke-linejoin:miter;stroke-opacity:1" d="M 996,514.541 937.837,272.195 z" id="boundary" inkscape:connector-curvature="0" />
	<path style="fill:none;stroke:red;stroke-width:1px;stroke-linecap:butt;stroke-linejoin:miter;stroke-opacity:1" d="M 491.922,550.085 598.554,619.557 z" id="boundary" inkscape:connector-curvature="0" />
	<path style="fill:none;stroke:red;stroke-width:1px;stroke-linecap:butt;stroke-linejoin:miter;stroke-opacity:1" d="M 714.88,735.883 695.492,874.827 z" id="boundary" inkscape:connector-curvature="0" />
	<path style="fill:none;stroke:red;stroke-width:1px;stroke-linecap:butt;stroke-linejoin:miter;stroke-opacity:1" d="M 695.492,874.827 737.498,978.228 z" id="boundary" inkscape:connector-curvature="0" />
	<path style="fill:none;stroke:red;stroke-width:1px;stroke-linecap:butt;stroke-linejoin:miter;stroke-opacity:1" d="M 750.423,624.404 714.88,735.883 z" id="boundary" inkscape:connector-curvature="0" />
	<path style="fill:none;stroke:red;stroke-width:1px;stroke-linecap:butt;stroke-linejoin:miter;stroke-opacity:1" d="M 996,514.541 936.222,545.238 z" id="boundary" inkscape:connector-curvature="0" />
	<path style="fill:none;stroke:red;stroke-width:1px;stroke-linecap:butt;stroke-linejoin:miter;stroke-opacity:1" d="M 815.049,881.29 737.498,978.228 z" id="boundary" inkscape:connector-curvature="0" />
	<path style="fill:none;stroke:red;stroke-width:1px;stroke-linecap:butt;stroke-linejoin:miter;stroke-opacity:1" d="M 958.84,703.57 815.049,881.29 z" id="boundary" inkscape:connector-curvature="0" />
	<circle cx="163.948" cy="941.069" r="4" fill="#0" id="circle0"/>
	<circle cx="154.254" cy="895.831" r="4" fill="#0" id="circle1"/>
	<circle cx="167.179" cy="842.515" r="4" fill="#0" id="circle2"/>
	<circle cx="83.1662" cy="764.964" r="4" fill="#0" id="circle3"/>
	<circle cx="4" cy="664.795" r="4" fill="#0" id="circle4"/>
	<circle cx="117.094" cy="705.186" r="4" fill="#0" id="circle5"/>
	<circle cx="167.179" cy="659.948" r="4" fill="#0" id="circle6"/>
	<circle cx="188.182" cy="656.717" r="4" fill="#0" id="circle7"/>
	<circle cx="325.511" cy="840.899" r="4" fill="#0" id="circle8"/>
	<circle cx="370.749" cy="732.652" r="4" fill="#0" id="circle9"/>
	<circle cx="373.98" cy="638.945" r="4" fill="#0" id="circle10"/>
	<circle cx="346.515" cy="551.7" r="4" fill="#0" id="circle11"/>
	<circle cx="341.668" cy="498.384" r="4" fill="#0" id="circle12"/>
	<circle cx="433.759" cy="579.166" r="4" fill="#0" id="circle13"/>
	<circle cx="412.756" cy="506.463" r="4" fill="#0" id="circle14"/>
	<circle cx="491.922" cy="550.085" r="4" fill="#0" id="circle15"/>
	<circle cx="598.554" cy="619.557" r="4" fill="#0" id="circle16"/>
	<circle cx="714.88" cy="735.883" r="4" fill="#0" id="circle17"/>
	<circle cx="695.492" cy="874.827" r="4" fill="#0" id="circle18"/>
	<circle cx="737.498" cy="978.228" r="4" fill="#0" id="circle19"/>
	<circle cx="815.049" cy="881.29" r="4" fill="#0" id="circle20"/>
	<circle cx="958.84" cy="703.57" r="4" fill="#0" id="circle21"/>
	<circle cx="750.423" cy="624.404" r="4" fill="#0" id="circle22"/>
	<circle cx="760.117" cy="456.378" r="4" fill="#0" id="circle23"/>
	<circle cx="760.117" cy="310.971" r="4" fill="#0" id="circle24"/>
	<circle cx="659.948" cy="304.508" r="4" fill="#0" id="circle25"/>
	<circle cx="543.622" cy="285.12" r="4" fill="#0" id="circle26"/>
	<circle cx="564.626" cy="236.651" r="4" fill="#0" id="circle27"/>
	<circle cx="632.482" cy="241.498" r="4" fill="#0" id="circle28"/>
	<circle cx="882.906" cy="260.886" r="4" fill="#0" id="circle29"/>
	<circle cx="936.222" cy="545.238" r="4" fill="#0" id="circle30"/>
	<circle cx="996" cy="514.541" r="4" fill="#0" id="circle31"/>
	<circle cx="937.837" cy="272.195" r="4" fill="#0" id="circle32"/>
	<circle cx="850.593" cy="136.482" r="4" fill="#0" id="circle33"/>
	<circle cx="742.345" cy="55.7003" r="4" fill="#0" id="circle34"/>
	<circle cx="629.251" cy="23.3877" r="4" fill="#0" id="circle35"/>
	<circle cx="488.69" cy="4" r="4" fill="#0" id="circle36"/>
	<circle cx="488.69" cy="18.5407" r="4" fill="#0" id="circle37"/>
	<circle cx="420.834" cy="16.9251" r="4" fill="#0" id="circle38"/>
	<circle cx="301.277" cy="26.6188" r="4" fill="#0" id="circle39"/>
	<circle cx="184.951" cy="104.169" r="4" fill="#0" id="circle40"/>
	<circle cx="110.632" cy="189.798" r="4" fill="#0" id="circle41"/>
	<circle cx="36.3126" cy="466.072" r="4" fill="#0" id="circle42"/>
	<circle cx="147.792" cy="464.456" r="4" fill="#0" id="circle43"/>
	<circle cx="149.407" cy="382.059" r="4" fill="#0" id="circle44"/>
	<circle cx="162.332" cy="231.805" r="4" fill="#0" id="circle45"/>
	<circle cx="352.977" cy="299.661" r="4" fill="#0" id="circle46"/>
	<circle cx="359.44" cy="209.186" r="4" fill="#0" id="circle47"/>
	<circle cx="514.541" cy="205.955" r="4" fill="#0" id="circle48"/>
	</g>
</svg>