<?xml version="1.0" encoding="UTF-8" standalone="no"?>
<!-- Created with CurveBenchmark -->
<svg
	xmlns:dc="http://purl.org/dc/elements/1.1/"
	xmlns:cc="http://creativecommons.org/ns#"
	xmlns:rdf="http://www.w3.org/1999/02/22-rdf-syntax-ns#"
	xmlns:svg="http://www.w3.org/2000/svg"
	xmlns="http://www.w3.org/2000/svg"
	xmlns:sodipodi="http://sodipodi.sourceforge.net/DTD/sodipodi-0.dtd"
	xmlns:inkscape="http://www.inkscape.org/namespaces/inkscape"
	width="1000"
	height="1000"
	id="svg2"
	version="1.1"
	sodipodi:docname="Non-manifold/crust-Figure14b.txt">
<defs
	id="defs4" />
<metadata
	id="metadata7">
	<rdf:RDF>
		<cc:Work
			rdf:about="">
			<dc:format>image/svg+xml</dc:format>
			<dc:type
				rdf:resource="http://purl.org/dc/dcmitype/StillImage" />
			<dc:title></dc:title>
		</cc:Work>
	</rdf:RDF>
</metadata>
<g
	inkscape:label="Layer 1"
	inkscape:groupmode="layer"
	id="layer1">
	<path style="fill:none;stroke:red;stroke-width:1px;stroke-linecap:butt;stroke-linejoin:miter;stroke-opacity:1" d="M 248.026,42.1538 226.564,51.6923 z" id="boundary" inkscape:connector-curvature="0" />
	<path style="fill:none;stroke:red;stroke-width:1px;stroke-linecap:butt;stroke-linejoin:miter;stroke-opacity:1" d="M 170.923,111.308 177.282,94.6154 z" id="boundary" inkscape:connector-curvature="0" />
	<path style="fill:none;stroke:red;stroke-width:1px;stroke-linecap:butt;stroke-linejoin:miter;stroke-opacity:1" d="M 187.615,78.7179 177.282,94.6154 z" id="boundary" inkscape:connector-curvature="0" />
	<path style="fill:none;stroke:red;stroke-width:1px;stroke-linecap:butt;stroke-linejoin:miter;stroke-opacity:1" d="M 166.154,137.538 170.923,111.308 z" id="boundary" inkscape:connector-curvature="0" />
	<path style="fill:none;stroke:red;stroke-width:1px;stroke-linecap:butt;stroke-linejoin:miter;stroke-opacity:1" d="M 166.154,137.538 168.538,159.795 z" id="boundary" inkscape:connector-curvature="0" />
	<path style="fill:none;stroke:red;stroke-width:1px;stroke-linecap:butt;stroke-linejoin:miter;stroke-opacity:1" d="M 175.692,178.872 168.538,159.795 z" id="boundary" inkscape:connector-curvature="0" />
	<path style="fill:none;stroke:red;stroke-width:1px;stroke-linecap:butt;stroke-linejoin:miter;stroke-opacity:1" d="M 182.846,196.359 175.692,178.872 z" id="boundary" inkscape:connector-curvature="0" />
	<path style="fill:none;stroke:red;stroke-width:1px;stroke-linecap:butt;stroke-linejoin:miter;stroke-opacity:1" d="M 205.103,63.6154 187.615,78.7179 z" id="boundary" inkscape:connector-curvature="0" />
	<path style="fill:none;stroke:red;stroke-width:1px;stroke-linecap:butt;stroke-linejoin:miter;stroke-opacity:1" d="M 190.795,210.667 182.846,196.359 z" id="boundary" inkscape:connector-curvature="0" />
	<path style="fill:none;stroke:red;stroke-width:1px;stroke-linecap:butt;stroke-linejoin:miter;stroke-opacity:1" d="M 226.564,210.667 227.359,194.769 z" id="boundary" inkscape:connector-curvature="0" />
	<path style="fill:none;stroke:red;stroke-width:1px;stroke-linecap:butt;stroke-linejoin:miter;stroke-opacity:1" d="M 228.154,175.692 227.359,194.769 z" id="boundary" inkscape:connector-curvature="0" />
	<path style="fill:none;stroke:red;stroke-width:1px;stroke-linecap:butt;stroke-linejoin:miter;stroke-opacity:1" d="M 241.667,163.769 228.154,175.692 z" id="boundary" inkscape:connector-curvature="0" />
	<path style="fill:none;stroke:red;stroke-width:1px;stroke-linecap:butt;stroke-linejoin:miter;stroke-opacity:1" d="M 226.564,51.6923 205.103,63.6154 z" id="boundary" inkscape:connector-curvature="0" />
	<path style="fill:none;stroke:red;stroke-width:1px;stroke-linecap:butt;stroke-linejoin:miter;stroke-opacity:1" d="M 219.41,213.846 212.256,217.821 z" id="boundary" inkscape:connector-curvature="0" />
	<path style="fill:none;stroke:red;stroke-width:1px;stroke-linecap:butt;stroke-linejoin:miter;stroke-opacity:1" d="M 205.103,221.795 190.795,210.667 z" id="boundary" inkscape:connector-curvature="0" />
	<path style="fill:none;stroke:red;stroke-width:1px;stroke-linecap:butt;stroke-linejoin:miter;stroke-opacity:1" d="M 212.256,217.821 205.103,221.795 z" id="boundary" inkscape:connector-curvature="0" />
	<path style="fill:none;stroke:red;stroke-width:1px;stroke-linecap:butt;stroke-linejoin:miter;stroke-opacity:1" d="M 205.103,221.795 196.359,238.487 z" id="boundary" inkscape:connector-curvature="0" />
	<path style="fill:none;stroke:red;stroke-width:1px;stroke-linecap:butt;stroke-linejoin:miter;stroke-opacity:1" d="M 196.359,238.487 193.974,259.154 z" id="boundary" inkscape:connector-curvature="0" />
	<path style="fill:none;stroke:red;stroke-width:1px;stroke-linecap:butt;stroke-linejoin:miter;stroke-opacity:1" d="M 226.564,210.667 219.41,213.846 z" id="boundary" inkscape:connector-curvature="0" />
	<path style="fill:none;stroke:red;stroke-width:1px;stroke-linecap:butt;stroke-linejoin:miter;stroke-opacity:1" d="M 145.487,336.256 128,352.154 z" id="boundary" inkscape:connector-curvature="0" />
	<path style="fill:none;stroke:red;stroke-width:1px;stroke-linecap:butt;stroke-linejoin:miter;stroke-opacity:1" d="M 111.308,367.256 128,352.154 z" id="boundary" inkscape:connector-curvature="0" />
	<path style="fill:none;stroke:red;stroke-width:1px;stroke-linecap:butt;stroke-linejoin:miter;stroke-opacity:1" d="M 162.179,321.154 145.487,336.256 z" id="boundary" inkscape:connector-curvature="0" />
	<path style="fill:none;stroke:red;stroke-width:1px;stroke-linecap:butt;stroke-linejoin:miter;stroke-opacity:1" d="M 111.308,367.256 94.6154,382.359 z" id="boundary" inkscape:connector-curvature="0" />
	<path style="fill:none;stroke:red;stroke-width:1px;stroke-linecap:butt;stroke-linejoin:miter;stroke-opacity:1" d="M 172.513,310.026 184.436,298.103 z" id="boundary" inkscape:connector-curvature="0" />
	<path style="fill:none;stroke:red;stroke-width:1px;stroke-linecap:butt;stroke-linejoin:miter;stroke-opacity:1" d="M 172.513,310.026 162.179,321.154 z" id="boundary" inkscape:connector-curvature="0" />
	<path style="fill:none;stroke:red;stroke-width:1px;stroke-linecap:butt;stroke-linejoin:miter;stroke-opacity:1" d="M 201.128,386.333 180.462,397.462 z" id="boundary" inkscape:connector-curvature="0" />
	<path style="fill:none;stroke:red;stroke-width:1px;stroke-linecap:butt;stroke-linejoin:miter;stroke-opacity:1" d="M 80.3077,396.667 94.6154,382.359 z" id="boundary" inkscape:connector-curvature="0" />
	<path style="fill:none;stroke:red;stroke-width:1px;stroke-linecap:butt;stroke-linejoin:miter;stroke-opacity:1" d="M 57.2564,429.256 67.5897,412.564 z" id="boundary" inkscape:connector-curvature="0" />
	<path style="fill:none;stroke:red;stroke-width:1px;stroke-linecap:butt;stroke-linejoin:miter;stroke-opacity:1" d="M 67.5897,412.564 80.3077,396.667 z" id="boundary" inkscape:connector-curvature="0" />
	<path style="fill:none;stroke:red;stroke-width:1px;stroke-linecap:butt;stroke-linejoin:miter;stroke-opacity:1" d="M 138.333,421.308 159,409.385 z" id="boundary" inkscape:connector-curvature="0" />
	<path style="fill:none;stroke:red;stroke-width:1px;stroke-linecap:butt;stroke-linejoin:miter;stroke-opacity:1" d="M 159,409.385 180.462,397.462 z" id="boundary" inkscape:connector-curvature="0" />
	<path style="fill:none;stroke:red;stroke-width:1px;stroke-linecap:butt;stroke-linejoin:miter;stroke-opacity:1" d="M 138.333,421.308 116.872,434.821 z" id="boundary" inkscape:connector-curvature="0" />
	<path style="fill:none;stroke:red;stroke-width:1px;stroke-linecap:butt;stroke-linejoin:miter;stroke-opacity:1" d="M 197.949,294.128 184.436,298.103 z" id="boundary" inkscape:connector-curvature="0" />
	<path style="fill:none;stroke:red;stroke-width:1px;stroke-linecap:butt;stroke-linejoin:miter;stroke-opacity:1" d="M 191.59,264.718 193.974,259.154 z" id="boundary" inkscape:connector-curvature="0" />
	<path style="fill:none;stroke:red;stroke-width:1px;stroke-linecap:butt;stroke-linejoin:miter;stroke-opacity:1" d="M 193.179,279.821 191.59,264.718 z" id="boundary" inkscape:connector-curvature="0" />
	<path style="fill:none;stroke:red;stroke-width:1px;stroke-linecap:butt;stroke-linejoin:miter;stroke-opacity:1" d="M 197.949,294.128 193.179,279.821 z" id="boundary" inkscape:connector-curvature="0" />
	<path style="fill:none;stroke:red;stroke-width:1px;stroke-linecap:butt;stroke-linejoin:miter;stroke-opacity:1" d="M 206.692,302.872 197.949,294.128 z" id="boundary" inkscape:connector-curvature="0" />
	<path style="fill:none;stroke:red;stroke-width:1px;stroke-linecap:butt;stroke-linejoin:miter;stroke-opacity:1" d="M 230.538,266.308 228.154,281.41 z" id="boundary" inkscape:connector-curvature="0" />
	<path style="fill:none;stroke:red;stroke-width:1px;stroke-linecap:butt;stroke-linejoin:miter;stroke-opacity:1" d="M 228.154,281.41 229.744,290.154 z" id="boundary" inkscape:connector-curvature="0" />
	<path style="fill:none;stroke:red;stroke-width:1px;stroke-linecap:butt;stroke-linejoin:miter;stroke-opacity:1" d="M 213.846,313.205 206.692,302.872 z" id="boundary" inkscape:connector-curvature="0" />
	<path style="fill:none;stroke:red;stroke-width:1px;stroke-linecap:butt;stroke-linejoin:miter;stroke-opacity:1" d="M 225.769,328.308 213.846,313.205 z" id="boundary" inkscape:connector-curvature="0" />
	<path style="fill:none;stroke:red;stroke-width:1px;stroke-linecap:butt;stroke-linejoin:miter;stroke-opacity:1" d="M 225.769,328.308 236.897,343.41 z" id="boundary" inkscape:connector-curvature="0" />
	<path style="fill:none;stroke:red;stroke-width:1px;stroke-linecap:butt;stroke-linejoin:miter;stroke-opacity:1" d="M 222.59,374.41 201.128,386.333 z" id="boundary" inkscape:connector-curvature="0" />
	<path style="fill:none;stroke:red;stroke-width:1px;stroke-linecap:butt;stroke-linejoin:miter;stroke-opacity:1" d="M 244.051,360.103 222.59,374.41 z" id="boundary" inkscape:connector-curvature="0" />
	<path style="fill:none;stroke:red;stroke-width:1px;stroke-linecap:butt;stroke-linejoin:miter;stroke-opacity:1" d="M 229.744,290.154 241.667,301.282 z" id="boundary" inkscape:connector-curvature="0" />
	<path style="fill:none;stroke:red;stroke-width:1px;stroke-linecap:butt;stroke-linejoin:miter;stroke-opacity:1" d="M 57.2564,429.256 47.7179,445.949 z" id="boundary" inkscape:connector-curvature="0" />
	<path style="fill:none;stroke:red;stroke-width:1px;stroke-linecap:butt;stroke-linejoin:miter;stroke-opacity:1" d="M 263.128,162.179 241.667,163.769 z" id="boundary" inkscape:connector-curvature="0" />
	<path style="fill:none;stroke:red;stroke-width:1px;stroke-linecap:butt;stroke-linejoin:miter;stroke-opacity:1" d="M 268.692,33.4103 290.154,27.0513 z" id="boundary" inkscape:connector-curvature="0" />
	<path style="fill:none;stroke:red;stroke-width:1px;stroke-linecap:butt;stroke-linejoin:miter;stroke-opacity:1" d="M 290.154,27.0513 311.615,21.4872 z" id="boundary" inkscape:connector-curvature="0" />
	<path style="fill:none;stroke:red;stroke-width:1px;stroke-linecap:butt;stroke-linejoin:miter;stroke-opacity:1" d="M 284.59,168.538 263.128,162.179 z" id="boundary" inkscape:connector-curvature="0" />
	<path style="fill:none;stroke:red;stroke-width:1px;stroke-linecap:butt;stroke-linejoin:miter;stroke-opacity:1" d="M 284.59,168.538 305.256,177.282 z" id="boundary" inkscape:connector-curvature="0" />
	<path style="fill:none;stroke:red;stroke-width:1px;stroke-linecap:butt;stroke-linejoin:miter;stroke-opacity:1" d="M 248.026,42.1538 268.692,33.4103 z" id="boundary" inkscape:connector-curvature="0" />
	<path style="fill:none;stroke:red;stroke-width:1px;stroke-linecap:butt;stroke-linejoin:miter;stroke-opacity:1" d="M 248.026,211.462 268.692,216.231 z" id="boundary" inkscape:connector-curvature="0" />
	<path style="fill:none;stroke:red;stroke-width:1px;stroke-linecap:butt;stroke-linejoin:miter;stroke-opacity:1" d="M 226.564,210.667 248.026,211.462 z" id="boundary" inkscape:connector-curvature="0" />
	<path style="fill:none;stroke:red;stroke-width:1px;stroke-linecap:butt;stroke-linejoin:miter;stroke-opacity:1" d="M 286.179,228.949 268.692,216.231 z" id="boundary" inkscape:connector-curvature="0" />
	<path style="fill:none;stroke:red;stroke-width:1px;stroke-linecap:butt;stroke-linejoin:miter;stroke-opacity:1" d="M 332.282,16.7179 311.615,21.4872 z" id="boundary" inkscape:connector-curvature="0" />
	<path style="fill:none;stroke:red;stroke-width:1px;stroke-linecap:butt;stroke-linejoin:miter;stroke-opacity:1" d="M 353.744,12.7436 374.41,9.5641 z" id="boundary" inkscape:connector-curvature="0" />
	<path style="fill:none;stroke:red;stroke-width:1px;stroke-linecap:butt;stroke-linejoin:miter;stroke-opacity:1" d="M 390.308,182.051 368.846,186.026 z" id="boundary" inkscape:connector-curvature="0" />
	<path style="fill:none;stroke:red;stroke-width:1px;stroke-linecap:butt;stroke-linejoin:miter;stroke-opacity:1" d="M 332.282,16.7179 353.744,12.7436 z" id="boundary" inkscape:connector-curvature="0" />
	<path style="fill:none;stroke:red;stroke-width:1px;stroke-linecap:butt;stroke-linejoin:miter;stroke-opacity:1" d="M 309.231,177.282 305.256,177.282 z" id="boundary" inkscape:connector-curvature="0" />
	<path style="fill:none;stroke:red;stroke-width:1px;stroke-linecap:butt;stroke-linejoin:miter;stroke-opacity:1" d="M 326.718,184.436 309.231,177.282 z" id="boundary" inkscape:connector-curvature="0" />
	<path style="fill:none;stroke:red;stroke-width:1px;stroke-linecap:butt;stroke-linejoin:miter;stroke-opacity:1" d="M 347.385,187.615 326.718,184.436 z" id="boundary" inkscape:connector-curvature="0" />
	<path style="fill:none;stroke:red;stroke-width:1px;stroke-linecap:butt;stroke-linejoin:miter;stroke-opacity:1" d="M 347.385,187.615 368.846,186.026 z" id="boundary" inkscape:connector-curvature="0" />
	<path style="fill:none;stroke:red;stroke-width:1px;stroke-linecap:butt;stroke-linejoin:miter;stroke-opacity:1" d="M 386.333,240.872 378.385,258.359 z" id="boundary" inkscape:connector-curvature="0" />
	<path style="fill:none;stroke:red;stroke-width:1px;stroke-linecap:butt;stroke-linejoin:miter;stroke-opacity:1" d="M 296.513,244.846 286.179,228.949 z" id="boundary" inkscape:connector-curvature="0" />
	<path style="fill:none;stroke:red;stroke-width:1px;stroke-linecap:butt;stroke-linejoin:miter;stroke-opacity:1" d="M 230.538,266.308 241.667,257.564 z" id="boundary" inkscape:connector-curvature="0" />
	<path style="fill:none;stroke:red;stroke-width:1px;stroke-linecap:butt;stroke-linejoin:miter;stroke-opacity:1" d="M 241.667,257.564 258.359,263.128 z" id="boundary" inkscape:connector-curvature="0" />
	<path style="fill:none;stroke:red;stroke-width:1px;stroke-linecap:butt;stroke-linejoin:miter;stroke-opacity:1" d="M 259.154,294.923 241.667,301.282 z" id="boundary" inkscape:connector-curvature="0" />
	<path style="fill:none;stroke:red;stroke-width:1px;stroke-linecap:butt;stroke-linejoin:miter;stroke-opacity:1" d="M 258.359,263.128 264.718,277.436 z" id="boundary" inkscape:connector-curvature="0" />
	<path style="fill:none;stroke:red;stroke-width:1px;stroke-linecap:butt;stroke-linejoin:miter;stroke-opacity:1" d="M 264.718,277.436 259.154,294.923 z" id="boundary" inkscape:connector-curvature="0" />
	<path style="fill:none;stroke:red;stroke-width:1px;stroke-linecap:butt;stroke-linejoin:miter;stroke-opacity:1" d="M 263.128,347.385 244.051,360.103 z" id="boundary" inkscape:connector-curvature="0" />
	<path style="fill:none;stroke:red;stroke-width:1px;stroke-linecap:butt;stroke-linejoin:miter;stroke-opacity:1" d="M 244.051,360.103 236.897,343.41 z" id="boundary" inkscape:connector-curvature="0" />
	<path style="fill:none;stroke:red;stroke-width:1px;stroke-linecap:butt;stroke-linejoin:miter;stroke-opacity:1" d="M 278.231,333.872 263.128,347.385 z" id="boundary" inkscape:connector-curvature="0" />
	<path style="fill:none;stroke:red;stroke-width:1px;stroke-linecap:butt;stroke-linejoin:miter;stroke-opacity:1" d="M 290.154,318.769 278.231,333.872 z" id="boundary" inkscape:connector-curvature="0" />
	<path style="fill:none;stroke:red;stroke-width:1px;stroke-linecap:butt;stroke-linejoin:miter;stroke-opacity:1" d="M 269.487,416.538 271.872,439.59 z" id="boundary" inkscape:connector-curvature="0" />
	<path style="fill:none;stroke:red;stroke-width:1px;stroke-linecap:butt;stroke-linejoin:miter;stroke-opacity:1" d="M 296.513,244.846 302.872,263.128 z" id="boundary" inkscape:connector-curvature="0" />
	<path style="fill:none;stroke:red;stroke-width:1px;stroke-linecap:butt;stroke-linejoin:miter;stroke-opacity:1" d="M 302.872,286.974 302.872,263.128 z" id="boundary" inkscape:connector-curvature="0" />
	<path style="fill:none;stroke:red;stroke-width:1px;stroke-linecap:butt;stroke-linejoin:miter;stroke-opacity:1" d="M 378.385,258.359 373.615,286.179 z" id="boundary" inkscape:connector-curvature="0" />
	<path style="fill:none;stroke:red;stroke-width:1px;stroke-linecap:butt;stroke-linejoin:miter;stroke-opacity:1" d="M 302.872,286.974 298.897,302.872 z" id="boundary" inkscape:connector-curvature="0" />
	<path style="fill:none;stroke:red;stroke-width:1px;stroke-linecap:butt;stroke-linejoin:miter;stroke-opacity:1" d="M 376.795,309.231 373.615,286.179 z" id="boundary" inkscape:connector-curvature="0" />
	<path style="fill:none;stroke:red;stroke-width:1px;stroke-linecap:butt;stroke-linejoin:miter;stroke-opacity:1" d="M 298.897,302.872 290.154,318.769 z" id="boundary" inkscape:connector-curvature="0" />
	<path style="fill:none;stroke:red;stroke-width:1px;stroke-linecap:butt;stroke-linejoin:miter;stroke-opacity:1" d="M 376.795,309.231 383.154,329.103 z" id="boundary" inkscape:connector-curvature="0" />
	<path style="fill:none;stroke:red;stroke-width:1px;stroke-linecap:butt;stroke-linejoin:miter;stroke-opacity:1" d="M 38.9744,462.641 47.7179,445.949 z" id="boundary" inkscape:connector-curvature="0" />
	<path style="fill:none;stroke:red;stroke-width:1px;stroke-linecap:butt;stroke-linejoin:miter;stroke-opacity:1" d="M 38.9744,462.641 31.0256,479.333 z" id="boundary" inkscape:connector-curvature="0" />
	<path style="fill:none;stroke:red;stroke-width:1px;stroke-linecap:butt;stroke-linejoin:miter;stroke-opacity:1" d="M 24.6667,496.026 31.0256,479.333 z" id="boundary" inkscape:connector-curvature="0" />
	<path style="fill:none;stroke:red;stroke-width:1px;stroke-linecap:butt;stroke-linejoin:miter;stroke-opacity:1" d="M 83.4872,465.821 72.359,480.923 z" id="boundary" inkscape:connector-curvature="0" />
	<path style="fill:none;stroke:red;stroke-width:1px;stroke-linecap:butt;stroke-linejoin:miter;stroke-opacity:1" d="M 63.6154,496.026 72.359,480.923 z" id="boundary" inkscape:connector-curvature="0" />
	<path style="fill:none;stroke:red;stroke-width:1px;stroke-linecap:butt;stroke-linejoin:miter;stroke-opacity:1" d="M 97.7949,450.718 83.4872,465.821 z" id="boundary" inkscape:connector-curvature="0" />
	<path style="fill:none;stroke:red;stroke-width:1px;stroke-linecap:butt;stroke-linejoin:miter;stroke-opacity:1" d="M 18.3077,512.718 13.5385,528.615 z" id="boundary" inkscape:connector-curvature="0" />
	<path style="fill:none;stroke:red;stroke-width:1px;stroke-linecap:butt;stroke-linejoin:miter;stroke-opacity:1" d="M 18.3077,512.718 24.6667,496.026 z" id="boundary" inkscape:connector-curvature="0" />
	<path style="fill:none;stroke:red;stroke-width:1px;stroke-linecap:butt;stroke-linejoin:miter;stroke-opacity:1" d="M 9.5641,545.308 13.5385,528.615 z" id="boundary" inkscape:connector-curvature="0" />
	<path style="fill:none;stroke:red;stroke-width:1px;stroke-linecap:butt;stroke-linejoin:miter;stroke-opacity:1" d="M 9.5641,545.308 7.17949,565.179 z" id="boundary" inkscape:connector-curvature="0" />
	<path style="fill:none;stroke:red;stroke-width:1px;stroke-linecap:butt;stroke-linejoin:miter;stroke-opacity:1" d="M 63.6154,496.026 57.2564,511.923 z" id="boundary" inkscape:connector-curvature="0" />
	<path style="fill:none;stroke:red;stroke-width:1px;stroke-linecap:butt;stroke-linejoin:miter;stroke-opacity:1" d="M 51.6923,527.026 51.6923,544.513 z" id="boundary" inkscape:connector-curvature="0" />
	<path style="fill:none;stroke:red;stroke-width:1px;stroke-linecap:butt;stroke-linejoin:miter;stroke-opacity:1" d="M 57.2564,511.923 51.6923,527.026 z" id="boundary" inkscape:connector-curvature="0" />
	<path style="fill:none;stroke:red;stroke-width:1px;stroke-linecap:butt;stroke-linejoin:miter;stroke-opacity:1" d="M 56.4615,560.41 51.6923,544.513 z" id="boundary" inkscape:connector-curvature="0" />
	<path style="fill:none;stroke:red;stroke-width:1px;stroke-linecap:butt;stroke-linejoin:miter;stroke-opacity:1" d="M 97.7949,450.718 116.872,434.821 z" id="boundary" inkscape:connector-curvature="0" />
	<path style="fill:none;stroke:red;stroke-width:1px;stroke-linecap:butt;stroke-linejoin:miter;stroke-opacity:1" d="M 5.58974,623.205 8.76923,645.462 z" id="boundary" inkscape:connector-curvature="0" />
	<path style="fill:none;stroke:red;stroke-width:1px;stroke-linecap:butt;stroke-linejoin:miter;stroke-opacity:1" d="M 5.58974,623.205 4,596.179 z" id="boundary" inkscape:connector-curvature="0" />
	<path style="fill:none;stroke:red;stroke-width:1px;stroke-linecap:butt;stroke-linejoin:miter;stroke-opacity:1" d="M 4,596.179 7.17949,565.179 z" id="boundary" inkscape:connector-curvature="0" />
	<path style="fill:none;stroke:red;stroke-width:1px;stroke-linecap:butt;stroke-linejoin:miter;stroke-opacity:1" d="M 8.76923,645.462 15.1282,666.128 z" id="boundary" inkscape:connector-curvature="0" />
	<path style="fill:none;stroke:red;stroke-width:1px;stroke-linecap:butt;stroke-linejoin:miter;stroke-opacity:1" d="M 56.4615,560.41 69.9744,577.103 z" id="boundary" inkscape:connector-curvature="0" />
	<path style="fill:none;stroke:red;stroke-width:1px;stroke-linecap:butt;stroke-linejoin:miter;stroke-opacity:1" d="M 31.8205,714.615 26.2564,699.513 z" id="boundary" inkscape:connector-curvature="0" />
	<path style="fill:none;stroke:red;stroke-width:1px;stroke-linecap:butt;stroke-linejoin:miter;stroke-opacity:1" d="M 26.2564,699.513 20.6923,683.615 z" id="boundary" inkscape:connector-curvature="0" />
	<path style="fill:none;stroke:red;stroke-width:1px;stroke-linecap:butt;stroke-linejoin:miter;stroke-opacity:1" d="M 38.9744,730.513 46.9231,747.205 z" id="boundary" inkscape:connector-curvature="0" />
	<path style="fill:none;stroke:red;stroke-width:1px;stroke-linecap:butt;stroke-linejoin:miter;stroke-opacity:1" d="M 38.9744,730.513 31.8205,714.615 z" id="boundary" inkscape:connector-curvature="0" />
	<path style="fill:none;stroke:red;stroke-width:1px;stroke-linecap:butt;stroke-linejoin:miter;stroke-opacity:1" d="M 46.9231,747.205 54.0769,762.308 z" id="boundary" inkscape:connector-curvature="0" />
	<path style="fill:none;stroke:red;stroke-width:1px;stroke-linecap:butt;stroke-linejoin:miter;stroke-opacity:1" d="M 20.6923,683.615 15.1282,666.128 z" id="boundary" inkscape:connector-curvature="0" />
	<path style="fill:none;stroke:red;stroke-width:1px;stroke-linecap:butt;stroke-linejoin:miter;stroke-opacity:1" d="M 62.8205,778.205 73.1538,795.692 z" id="boundary" inkscape:connector-curvature="0" />
	<path style="fill:none;stroke:red;stroke-width:1px;stroke-linecap:butt;stroke-linejoin:miter;stroke-opacity:1" d="M 62.8205,778.205 54.0769,762.308 z" id="boundary" inkscape:connector-curvature="0" />
	<path style="fill:none;stroke:red;stroke-width:1px;stroke-linecap:butt;stroke-linejoin:miter;stroke-opacity:1" d="M 85.0769,812.385 97.7949,829.077 z" id="boundary" inkscape:connector-curvature="0" />
	<path style="fill:none;stroke:red;stroke-width:1px;stroke-linecap:butt;stroke-linejoin:miter;stroke-opacity:1" d="M 85.0769,812.385 73.1538,795.692 z" id="boundary" inkscape:connector-curvature="0" />
	<path style="fill:none;stroke:red;stroke-width:1px;stroke-linecap:butt;stroke-linejoin:miter;stroke-opacity:1" d="M 97.7949,829.077 111.308,844.974 z" id="boundary" inkscape:connector-curvature="0" />
	<path style="fill:none;stroke:red;stroke-width:1px;stroke-linecap:butt;stroke-linejoin:miter;stroke-opacity:1" d="M 69.9744,577.103 89.8462,587.436 z" id="boundary" inkscape:connector-curvature="0" />
	<path style="fill:none;stroke:red;stroke-width:1px;stroke-linecap:butt;stroke-linejoin:miter;stroke-opacity:1" d="M 111.308,593 89.8462,587.436 z" id="boundary" inkscape:connector-curvature="0" />
	<path style="fill:none;stroke:red;stroke-width:1px;stroke-linecap:butt;stroke-linejoin:miter;stroke-opacity:1" d="M 111.308,593 131.974,595.385 z" id="boundary" inkscape:connector-curvature="0" />
	<path style="fill:none;stroke:red;stroke-width:1px;stroke-linecap:butt;stroke-linejoin:miter;stroke-opacity:1" d="M 131.974,595.385 153.436,594.59 z" id="boundary" inkscape:connector-curvature="0" />
	<path style="fill:none;stroke:red;stroke-width:1px;stroke-linecap:butt;stroke-linejoin:miter;stroke-opacity:1" d="M 153.436,594.59 174.897,590.615 z" id="boundary" inkscape:connector-curvature="0" />
	<path style="fill:none;stroke:red;stroke-width:1px;stroke-linecap:butt;stroke-linejoin:miter;stroke-opacity:1" d="M 125.615,860.077 111.308,844.974 z" id="boundary" inkscape:connector-curvature="0" />
	<path style="fill:none;stroke:red;stroke-width:1px;stroke-linecap:butt;stroke-linejoin:miter;stroke-opacity:1" d="M 125.615,860.077 141.513,875.974 z" id="boundary" inkscape:connector-curvature="0" />
	<path style="fill:none;stroke:red;stroke-width:1px;stroke-linecap:butt;stroke-linejoin:miter;stroke-opacity:1" d="M 159.795,891.872 180.462,906.974 z" id="boundary" inkscape:connector-curvature="0" />
	<path style="fill:none;stroke:red;stroke-width:1px;stroke-linecap:butt;stroke-linejoin:miter;stroke-opacity:1" d="M 159.795,891.872 141.513,875.974 z" id="boundary" inkscape:connector-curvature="0" />
	<path style="fill:none;stroke:red;stroke-width:1px;stroke-linecap:butt;stroke-linejoin:miter;stroke-opacity:1" d="M 201.923,920.487 180.462,906.974 z" id="boundary" inkscape:connector-curvature="0" />
	<path style="fill:none;stroke:red;stroke-width:1px;stroke-linecap:butt;stroke-linejoin:miter;stroke-opacity:1" d="M 174.897,590.615 195.564,583.462 z" id="boundary" inkscape:connector-curvature="0" />
	<path style="fill:none;stroke:red;stroke-width:1px;stroke-linecap:butt;stroke-linejoin:miter;stroke-opacity:1" d="M 268.692,480.923 267.897,492.846 z" id="boundary" inkscape:connector-curvature="0" />
	<path style="fill:none;stroke:red;stroke-width:1px;stroke-linecap:butt;stroke-linejoin:miter;stroke-opacity:1" d="M 266.308,502.385 260.744,519.872 z" id="boundary" inkscape:connector-curvature="0" />
	<path style="fill:none;stroke:red;stroke-width:1px;stroke-linecap:butt;stroke-linejoin:miter;stroke-opacity:1" d="M 267.897,492.846 266.308,502.385 z" id="boundary" inkscape:connector-curvature="0" />
	<path style="fill:none;stroke:red;stroke-width:1px;stroke-linecap:butt;stroke-linejoin:miter;stroke-opacity:1" d="M 260.744,519.872 257.564,540.538 z" id="boundary" inkscape:connector-curvature="0" />
	<path style="fill:none;stroke:red;stroke-width:1px;stroke-linecap:butt;stroke-linejoin:miter;stroke-opacity:1" d="M 271.872,454.692 271.077,469 z" id="boundary" inkscape:connector-curvature="0" />
	<path style="fill:none;stroke:red;stroke-width:1px;stroke-linecap:butt;stroke-linejoin:miter;stroke-opacity:1" d="M 271.077,469 268.692,480.923 z" id="boundary" inkscape:connector-curvature="0" />
	<path style="fill:none;stroke:red;stroke-width:1px;stroke-linecap:butt;stroke-linejoin:miter;stroke-opacity:1" d="M 271.872,454.692 271.872,439.59 z" id="boundary" inkscape:connector-curvature="0" />
	<path style="fill:none;stroke:red;stroke-width:1px;stroke-linecap:butt;stroke-linejoin:miter;stroke-opacity:1" d="M 245.641,552.462 238.487,559.615 z" id="boundary" inkscape:connector-curvature="0" />
	<path style="fill:none;stroke:red;stroke-width:1px;stroke-linecap:butt;stroke-linejoin:miter;stroke-opacity:1" d="M 252,545.308 245.641,552.462 z" id="boundary" inkscape:connector-curvature="0" />
	<path style="fill:none;stroke:red;stroke-width:1px;stroke-linecap:butt;stroke-linejoin:miter;stroke-opacity:1" d="M 217.026,572.333 238.487,559.615 z" id="boundary" inkscape:connector-curvature="0" />
	<path style="fill:none;stroke:red;stroke-width:1px;stroke-linecap:butt;stroke-linejoin:miter;stroke-opacity:1" d="M 252,545.308 257.564,540.538 z" id="boundary" inkscape:connector-curvature="0" />
	<path style="fill:none;stroke:red;stroke-width:1px;stroke-linecap:butt;stroke-linejoin:miter;stroke-opacity:1" d="M 257.564,540.538 278.231,546.103 z" id="boundary" inkscape:connector-curvature="0" />
	<path style="fill:none;stroke:red;stroke-width:1px;stroke-linecap:butt;stroke-linejoin:miter;stroke-opacity:1" d="M 264.718,591.41 253.59,575.513 z" id="boundary" inkscape:connector-curvature="0" />
	<path style="fill:none;stroke:red;stroke-width:1px;stroke-linecap:butt;stroke-linejoin:miter;stroke-opacity:1" d="M 278.231,546.103 299.692,550.077 z" id="boundary" inkscape:connector-curvature="0" />
	<path style="fill:none;stroke:red;stroke-width:1px;stroke-linecap:butt;stroke-linejoin:miter;stroke-opacity:1" d="M 195.564,583.462 217.026,572.333 z" id="boundary" inkscape:connector-curvature="0" />
	<path style="fill:none;stroke:red;stroke-width:1px;stroke-linecap:butt;stroke-linejoin:miter;stroke-opacity:1" d="M 321.154,480.128 299.692,480.128 z" id="boundary" inkscape:connector-curvature="0" />
	<path style="fill:none;stroke:red;stroke-width:1px;stroke-linecap:butt;stroke-linejoin:miter;stroke-opacity:1" d="M 283,480.923 299.692,480.128 z" id="boundary" inkscape:connector-curvature="0" />
	<path style="fill:none;stroke:red;stroke-width:1px;stroke-linecap:butt;stroke-linejoin:miter;stroke-opacity:1" d="M 321.154,480.128 341.821,483.308 z" id="boundary" inkscape:connector-curvature="0" />
	<path style="fill:none;stroke:red;stroke-width:1px;stroke-linecap:butt;stroke-linejoin:miter;stroke-opacity:1" d="M 341.821,483.308 361.692,492.846 z" id="boundary" inkscape:connector-curvature="0" />
	<path style="fill:none;stroke:red;stroke-width:1px;stroke-linecap:butt;stroke-linejoin:miter;stroke-opacity:1" d="M 361.692,492.846 372.821,509.538 z" id="boundary" inkscape:connector-curvature="0" />
	<path style="fill:none;stroke:red;stroke-width:1px;stroke-linecap:butt;stroke-linejoin:miter;stroke-opacity:1" d="M 299.692,550.077 321.154,550.872 z" id="boundary" inkscape:connector-curvature="0" />
	<path style="fill:none;stroke:red;stroke-width:1px;stroke-linecap:butt;stroke-linejoin:miter;stroke-opacity:1" d="M 341.821,545.308 362.487,536.564 z" id="boundary" inkscape:connector-curvature="0" />
	<path style="fill:none;stroke:red;stroke-width:1px;stroke-linecap:butt;stroke-linejoin:miter;stroke-opacity:1" d="M 362.487,536.564 374.41,523.846 z" id="boundary" inkscape:connector-curvature="0" />
	<path style="fill:none;stroke:red;stroke-width:1px;stroke-linecap:butt;stroke-linejoin:miter;stroke-opacity:1" d="M 321.154,550.872 341.821,545.308 z" id="boundary" inkscape:connector-curvature="0" />
	<path style="fill:none;stroke:red;stroke-width:1px;stroke-linecap:butt;stroke-linejoin:miter;stroke-opacity:1" d="M 372.821,509.538 374.41,523.846 z" id="boundary" inkscape:connector-curvature="0" />
	<path style="fill:none;stroke:red;stroke-width:1px;stroke-linecap:butt;stroke-linejoin:miter;stroke-opacity:1" d="M 317.179,689.974 326.718,705.872 z" id="boundary" inkscape:connector-curvature="0" />
	<path style="fill:none;stroke:red;stroke-width:1px;stroke-linecap:butt;stroke-linejoin:miter;stroke-opacity:1" d="M 264.718,591.41 282.205,608.103 z" id="boundary" inkscape:connector-curvature="0" />
	<path style="fill:none;stroke:red;stroke-width:1px;stroke-linecap:butt;stroke-linejoin:miter;stroke-opacity:1" d="M 282.205,608.103 303.667,618.436 z" id="boundary" inkscape:connector-curvature="0" />
	<path style="fill:none;stroke:red;stroke-width:1px;stroke-linecap:butt;stroke-linejoin:miter;stroke-opacity:1" d="M 201.923,920.487 222.59,932.41 z" id="boundary" inkscape:connector-curvature="0" />
	<path style="fill:none;stroke:red;stroke-width:1px;stroke-linecap:butt;stroke-linejoin:miter;stroke-opacity:1" d="M 244.051,942.744 222.59,932.41 z" id="boundary" inkscape:connector-curvature="0" />
	<path style="fill:none;stroke:red;stroke-width:1px;stroke-linecap:butt;stroke-linejoin:miter;stroke-opacity:1" d="M 264.718,951.487 244.051,942.744 z" id="boundary" inkscape:connector-curvature="0" />
	<path style="fill:none;stroke:red;stroke-width:1px;stroke-linecap:butt;stroke-linejoin:miter;stroke-opacity:1" d="M 286.179,958.641 264.718,951.487 z" id="boundary" inkscape:connector-curvature="0" />
	<path style="fill:none;stroke:red;stroke-width:1px;stroke-linecap:butt;stroke-linejoin:miter;stroke-opacity:1" d="M 307.641,965.795 286.179,958.641 z" id="boundary" inkscape:connector-curvature="0" />
	<path style="fill:none;stroke:red;stroke-width:1px;stroke-linecap:butt;stroke-linejoin:miter;stroke-opacity:1" d="M 325.128,620.821 303.667,618.436 z" id="boundary" inkscape:connector-curvature="0" />
	<path style="fill:none;stroke:red;stroke-width:1px;stroke-linecap:butt;stroke-linejoin:miter;stroke-opacity:1" d="M 325.128,620.821 345.795,621.615 z" id="boundary" inkscape:connector-curvature="0" />
	<path style="fill:none;stroke:red;stroke-width:1px;stroke-linecap:butt;stroke-linejoin:miter;stroke-opacity:1" d="M 345.795,621.615 367.256,620.821 z" id="boundary" inkscape:connector-curvature="0" />
	<path style="fill:none;stroke:red;stroke-width:1px;stroke-linecap:butt;stroke-linejoin:miter;stroke-opacity:1" d="M 367.256,620.821 387.923,620.026 z" id="boundary" inkscape:connector-curvature="0" />
	<path style="fill:none;stroke:red;stroke-width:1px;stroke-linecap:butt;stroke-linejoin:miter;stroke-opacity:1" d="M 337.051,721.769 348.974,736.872 z" id="boundary" inkscape:connector-curvature="0" />
	<path style="fill:none;stroke:red;stroke-width:1px;stroke-linecap:butt;stroke-linejoin:miter;stroke-opacity:1" d="M 326.718,705.872 337.051,721.769 z" id="boundary" inkscape:connector-curvature="0" />
	<path style="fill:none;stroke:red;stroke-width:1px;stroke-linecap:butt;stroke-linejoin:miter;stroke-opacity:1" d="M 328.308,971.359 307.641,965.795 z" id="boundary" inkscape:connector-curvature="0" />
	<path style="fill:none;stroke:red;stroke-width:1px;stroke-linecap:butt;stroke-linejoin:miter;stroke-opacity:1" d="M 348.974,736.872 361.692,751.179 z" id="boundary" inkscape:connector-curvature="0" />
	<path style="fill:none;stroke:red;stroke-width:1px;stroke-linecap:butt;stroke-linejoin:miter;stroke-opacity:1" d="M 349.769,976.128 328.308,971.359 z" id="boundary" inkscape:connector-curvature="0" />
	<path style="fill:none;stroke:red;stroke-width:1px;stroke-linecap:butt;stroke-linejoin:miter;stroke-opacity:1" d="M 349.769,976.128 370.436,980.103 z" id="boundary" inkscape:connector-curvature="0" />
	<path style="fill:none;stroke:red;stroke-width:1px;stroke-linecap:butt;stroke-linejoin:miter;stroke-opacity:1" d="M 376.795,767.077 395.872,780.59 z" id="boundary" inkscape:connector-curvature="0" />
	<path style="fill:none;stroke:red;stroke-width:1px;stroke-linecap:butt;stroke-linejoin:miter;stroke-opacity:1" d="M 361.692,751.179 376.795,767.077 z" id="boundary" inkscape:connector-curvature="0" />
	<path style="fill:none;stroke:red;stroke-width:1px;stroke-linecap:butt;stroke-linejoin:miter;stroke-opacity:1" d="M 395.872,7.17949 417.333,5.58974 z" id="boundary" inkscape:connector-curvature="0" />
	<path style="fill:none;stroke:red;stroke-width:1px;stroke-linecap:butt;stroke-linejoin:miter;stroke-opacity:1" d="M 410.974,176.487 390.308,182.051 z" id="boundary" inkscape:connector-curvature="0" />
	<path style="fill:none;stroke:red;stroke-width:1px;stroke-linecap:butt;stroke-linejoin:miter;stroke-opacity:1" d="M 432.436,169.333 410.974,176.487 z" id="boundary" inkscape:connector-curvature="0" />
	<path style="fill:none;stroke:red;stroke-width:1px;stroke-linecap:butt;stroke-linejoin:miter;stroke-opacity:1" d="M 417.333,5.58974 438,4.79487 z" id="boundary" inkscape:connector-curvature="0" />
	<path style="fill:none;stroke:red;stroke-width:1px;stroke-linecap:butt;stroke-linejoin:miter;stroke-opacity:1" d="M 453.897,161.385 432.436,169.333 z" id="boundary" inkscape:connector-curvature="0" />
	<path style="fill:none;stroke:red;stroke-width:1px;stroke-linecap:butt;stroke-linejoin:miter;stroke-opacity:1" d="M 418.923,213.051 399.846,224.179 z" id="boundary" inkscape:connector-curvature="0" />
	<path style="fill:none;stroke:red;stroke-width:1px;stroke-linecap:butt;stroke-linejoin:miter;stroke-opacity:1" d="M 399.846,224.179 386.333,240.872 z" id="boundary" inkscape:connector-curvature="0" />
	<path style="fill:none;stroke:red;stroke-width:1px;stroke-linecap:butt;stroke-linejoin:miter;stroke-opacity:1" d="M 418.923,213.051 440.385,213.051 z" id="boundary" inkscape:connector-curvature="0" />
	<path style="fill:none;stroke:red;stroke-width:1px;stroke-linecap:butt;stroke-linejoin:miter;stroke-opacity:1" d="M 440.385,213.051 459.462,222.59 z" id="boundary" inkscape:connector-curvature="0" />
	<path style="fill:none;stroke:red;stroke-width:1px;stroke-linecap:butt;stroke-linejoin:miter;stroke-opacity:1" d="M 374.41,9.5641 395.872,7.17949 z" id="boundary" inkscape:connector-curvature="0" />
	<path style="fill:none;stroke:red;stroke-width:1px;stroke-linecap:butt;stroke-linejoin:miter;stroke-opacity:1" d="M 459.462,4 480.923,4 z" id="boundary" inkscape:connector-curvature="0" />
	<path style="fill:none;stroke:red;stroke-width:1px;stroke-linecap:butt;stroke-linejoin:miter;stroke-opacity:1" d="M 496.026,145.487 474.564,153.436 z" id="boundary" inkscape:connector-curvature="0" />
	<path style="fill:none;stroke:red;stroke-width:1px;stroke-linecap:butt;stroke-linejoin:miter;stroke-opacity:1" d="M 474.564,153.436 453.897,161.385 z" id="boundary" inkscape:connector-curvature="0" />
	<path style="fill:none;stroke:red;stroke-width:1px;stroke-linecap:butt;stroke-linejoin:miter;stroke-opacity:1" d="M 438,4.79487 459.462,4 z" id="boundary" inkscape:connector-curvature="0" />
	<path style="fill:none;stroke:red;stroke-width:1px;stroke-linecap:butt;stroke-linejoin:miter;stroke-opacity:1" d="M 480.923,4 501.59,4.79487 z" id="boundary" inkscape:connector-curvature="0" />
	<path style="fill:none;stroke:red;stroke-width:1px;stroke-linecap:butt;stroke-linejoin:miter;stroke-opacity:1" d="M 517.487,138.333 496.026,145.487 z" id="boundary" inkscape:connector-curvature="0" />
	<path style="fill:none;stroke:red;stroke-width:1px;stroke-linecap:butt;stroke-linejoin:miter;stroke-opacity:1" d="M 501.59,4.79487 523.051,5.58974 z" id="boundary" inkscape:connector-curvature="0" />
	<path style="fill:none;stroke:red;stroke-width:1px;stroke-linecap:butt;stroke-linejoin:miter;stroke-opacity:1" d="M 472.974,236.897 459.462,222.59 z" id="boundary" inkscape:connector-curvature="0" />
	<path style="fill:none;stroke:red;stroke-width:1px;stroke-linecap:butt;stroke-linejoin:miter;stroke-opacity:1" d="M 472.974,236.897 480.923,252 z" id="boundary" inkscape:connector-curvature="0" />
	<path style="fill:none;stroke:red;stroke-width:1px;stroke-linecap:butt;stroke-linejoin:miter;stroke-opacity:1" d="M 485.692,267.897 480.923,252 z" id="boundary" inkscape:connector-curvature="0" />
	<path style="fill:none;stroke:red;stroke-width:1px;stroke-linecap:butt;stroke-linejoin:miter;stroke-opacity:1" d="M 428.462,263.923 415.744,273.462 z" id="boundary" inkscape:connector-curvature="0" />
	<path style="fill:none;stroke:red;stroke-width:1px;stroke-linecap:butt;stroke-linejoin:miter;stroke-opacity:1" d="M 415.744,273.462 415.744,288.564 z" id="boundary" inkscape:connector-curvature="0" />
	<path style="fill:none;stroke:red;stroke-width:1px;stroke-linecap:butt;stroke-linejoin:miter;stroke-opacity:1" d="M 415.744,288.564 415.744,301.282 z" id="boundary" inkscape:connector-curvature="0" />
	<path style="fill:none;stroke:red;stroke-width:1px;stroke-linecap:butt;stroke-linejoin:miter;stroke-opacity:1" d="M 445.154,266.308 453.103,281.41 z" id="boundary" inkscape:connector-curvature="0" />
	<path style="fill:none;stroke:red;stroke-width:1px;stroke-linecap:butt;stroke-linejoin:miter;stroke-opacity:1" d="M 453.103,281.41 453.897,295.718 z" id="boundary" inkscape:connector-curvature="0" />
	<path style="fill:none;stroke:red;stroke-width:1px;stroke-linecap:butt;stroke-linejoin:miter;stroke-opacity:1" d="M 428.462,263.923 445.154,266.308 z" id="boundary" inkscape:connector-curvature="0" />
	<path style="fill:none;stroke:red;stroke-width:1px;stroke-linecap:butt;stroke-linejoin:miter;stroke-opacity:1" d="M 394.282,345 383.154,329.103 z" id="boundary" inkscape:connector-curvature="0" />
	<path style="fill:none;stroke:red;stroke-width:1px;stroke-linecap:butt;stroke-linejoin:miter;stroke-opacity:1" d="M 415.744,301.282 428.462,312.41 z" id="boundary" inkscape:connector-curvature="0" />
	<path style="fill:none;stroke:red;stroke-width:1px;stroke-linecap:butt;stroke-linejoin:miter;stroke-opacity:1" d="M 453.897,295.718 445.949,308.436 z" id="boundary" inkscape:connector-curvature="0" />
	<path style="fill:none;stroke:red;stroke-width:1px;stroke-linecap:butt;stroke-linejoin:miter;stroke-opacity:1" d="M 445.949,308.436 428.462,312.41 z" id="boundary" inkscape:connector-curvature="0" />
	<path style="fill:none;stroke:red;stroke-width:1px;stroke-linecap:butt;stroke-linejoin:miter;stroke-opacity:1" d="M 488.077,282.205 488.077,298.103 z" id="boundary" inkscape:connector-curvature="0" />
	<path style="fill:none;stroke:red;stroke-width:1px;stroke-linecap:butt;stroke-linejoin:miter;stroke-opacity:1" d="M 485.692,267.897 488.077,282.205 z" id="boundary" inkscape:connector-curvature="0" />
	<path style="fill:none;stroke:red;stroke-width:1px;stroke-linecap:butt;stroke-linejoin:miter;stroke-opacity:1" d="M 519.872,299.692 515.103,311.615 z" id="boundary" inkscape:connector-curvature="0" />
	<path style="fill:none;stroke:red;stroke-width:1px;stroke-linecap:butt;stroke-linejoin:miter;stroke-opacity:1" d="M 487.282,310.821 484.103,322.744 z" id="boundary" inkscape:connector-curvature="0" />
	<path style="fill:none;stroke:red;stroke-width:1px;stroke-linecap:butt;stroke-linejoin:miter;stroke-opacity:1" d="M 476.949,333.077 484.103,322.744 z" id="boundary" inkscape:connector-curvature="0" />
	<path style="fill:none;stroke:red;stroke-width:1px;stroke-linecap:butt;stroke-linejoin:miter;stroke-opacity:1" d="M 488.077,298.103 487.282,310.821 z" id="boundary" inkscape:connector-curvature="0" />
	<path style="fill:none;stroke:red;stroke-width:1px;stroke-linecap:butt;stroke-linejoin:miter;stroke-opacity:1" d="M 515.103,311.615 509.538,324.333 z" id="boundary" inkscape:connector-curvature="0" />
	<path style="fill:none;stroke:red;stroke-width:1px;stroke-linecap:butt;stroke-linejoin:miter;stroke-opacity:1" d="M 509.538,324.333 506.359,340.231 z" id="boundary" inkscape:connector-curvature="0" />
	<path style="fill:none;stroke:red;stroke-width:1px;stroke-linecap:butt;stroke-linejoin:miter;stroke-opacity:1" d="M 476.949,333.077 469.795,341.821 z" id="boundary" inkscape:connector-curvature="0" />
	<path style="fill:none;stroke:red;stroke-width:1px;stroke-linecap:butt;stroke-linejoin:miter;stroke-opacity:1" d="M 565.179,10.359 543.718,7.97436 z" id="boundary" inkscape:connector-curvature="0" />
	<path style="fill:none;stroke:red;stroke-width:1px;stroke-linecap:butt;stroke-linejoin:miter;stroke-opacity:1" d="M 543.718,7.97436 523.051,5.58974 z" id="boundary" inkscape:connector-curvature="0" />
	<path style="fill:none;stroke:red;stroke-width:1px;stroke-linecap:butt;stroke-linejoin:miter;stroke-opacity:1" d="M 565.179,10.359 586.641,13.5385 z" id="boundary" inkscape:connector-curvature="0" />
	<path style="fill:none;stroke:red;stroke-width:1px;stroke-linecap:butt;stroke-linejoin:miter;stroke-opacity:1" d="M 586.641,13.5385 607.308,17.5128 z" id="boundary" inkscape:connector-curvature="0" />
	<path style="fill:none;stroke:red;stroke-width:1px;stroke-linecap:butt;stroke-linejoin:miter;stroke-opacity:1" d="M 628.769,23.0769 607.308,17.5128 z" id="boundary" inkscape:connector-curvature="0" />
	<path style="fill:none;stroke:red;stroke-width:1px;stroke-linecap:butt;stroke-linejoin:miter;stroke-opacity:1" d="M 628.769,23.0769 650.231,29.4359 z" id="boundary" inkscape:connector-curvature="0" />
	<path style="fill:none;stroke:red;stroke-width:1px;stroke-linecap:butt;stroke-linejoin:miter;stroke-opacity:1" d="M 538.154,132.769 559.615,129.59 z" id="boundary" inkscape:connector-curvature="0" />
	<path style="fill:none;stroke:red;stroke-width:1px;stroke-linecap:butt;stroke-linejoin:miter;stroke-opacity:1" d="M 580.282,129.59 559.615,129.59 z" id="boundary" inkscape:connector-curvature="0" />
	<path style="fill:none;stroke:red;stroke-width:1px;stroke-linecap:butt;stroke-linejoin:miter;stroke-opacity:1" d="M 517.487,138.333 538.154,132.769 z" id="boundary" inkscape:connector-curvature="0" />
	<path style="fill:none;stroke:red;stroke-width:1px;stroke-linecap:butt;stroke-linejoin:miter;stroke-opacity:1" d="M 580.282,129.59 601.744,133.564 z" id="boundary" inkscape:connector-curvature="0" />
	<path style="fill:none;stroke:red;stroke-width:1px;stroke-linecap:butt;stroke-linejoin:miter;stroke-opacity:1" d="M 619.231,142.308 628.769,159 z" id="boundary" inkscape:connector-curvature="0" />
	<path style="fill:none;stroke:red;stroke-width:1px;stroke-linecap:butt;stroke-linejoin:miter;stroke-opacity:1" d="M 619.231,142.308 601.744,133.564 z" id="boundary" inkscape:connector-curvature="0" />
	<path style="fill:none;stroke:red;stroke-width:1px;stroke-linecap:butt;stroke-linejoin:miter;stroke-opacity:1" d="M 628.769,159 628.769,180.462 z" id="boundary" inkscape:connector-curvature="0" />
	<path style="fill:none;stroke:red;stroke-width:1px;stroke-linecap:butt;stroke-linejoin:miter;stroke-opacity:1" d="M 650.231,29.4359 670.897,36.5897 z" id="boundary" inkscape:connector-curvature="0" />
	<path style="fill:none;stroke:red;stroke-width:1px;stroke-linecap:butt;stroke-linejoin:miter;stroke-opacity:1" d="M 670.897,36.5897 692.359,45.3333 z" id="boundary" inkscape:connector-curvature="0" />
	<path style="fill:none;stroke:red;stroke-width:1px;stroke-linecap:butt;stroke-linejoin:miter;stroke-opacity:1" d="M 713.821,56.4615 692.359,45.3333 z" id="boundary" inkscape:connector-curvature="0" />
	<path style="fill:none;stroke:red;stroke-width:1px;stroke-linecap:butt;stroke-linejoin:miter;stroke-opacity:1" d="M 713.821,56.4615 734.487,69.9744 z" id="boundary" inkscape:connector-curvature="0" />
	<path style="fill:none;stroke:red;stroke-width:1px;stroke-linecap:butt;stroke-linejoin:miter;stroke-opacity:1" d="M 754.359,86.6667 734.487,69.9744 z" id="boundary" inkscape:connector-curvature="0" />
	<path style="fill:none;stroke:red;stroke-width:1px;stroke-linecap:butt;stroke-linejoin:miter;stroke-opacity:1" d="M 754.359,86.6667 768.667,102.564 z" id="boundary" inkscape:connector-curvature="0" />
	<path style="fill:none;stroke:red;stroke-width:1px;stroke-linecap:butt;stroke-linejoin:miter;stroke-opacity:1" d="M 782.179,132.769 776.615,116.872 z" id="boundary" inkscape:connector-curvature="0" />
	<path style="fill:none;stroke:red;stroke-width:1px;stroke-linecap:butt;stroke-linejoin:miter;stroke-opacity:1" d="M 776.615,116.872 768.667,102.564 z" id="boundary" inkscape:connector-curvature="0" />
	<path style="fill:none;stroke:red;stroke-width:1px;stroke-linecap:butt;stroke-linejoin:miter;stroke-opacity:1" d="M 783.769,152.641 782.179,132.769 z" id="boundary" inkscape:connector-curvature="0" />
	<path style="fill:none;stroke:red;stroke-width:1px;stroke-linecap:butt;stroke-linejoin:miter;stroke-opacity:1" d="M 783.769,152.641 782.179,172.513 z" id="boundary" inkscape:connector-curvature="0" />
	<path style="fill:none;stroke:red;stroke-width:1px;stroke-linecap:butt;stroke-linejoin:miter;stroke-opacity:1" d="M 580.282,220.205 560.41,232.923 z" id="boundary" inkscape:connector-curvature="0" />
	<path style="fill:none;stroke:red;stroke-width:1px;stroke-linecap:butt;stroke-linejoin:miter;stroke-opacity:1" d="M 545.308,248.026 560.41,232.923 z" id="boundary" inkscape:connector-curvature="0" />
	<path style="fill:none;stroke:red;stroke-width:1px;stroke-linecap:butt;stroke-linejoin:miter;stroke-opacity:1" d="M 545.308,248.026 534.179,265.513 z" id="boundary" inkscape:connector-curvature="0" />
	<path style="fill:none;stroke:red;stroke-width:1px;stroke-linecap:butt;stroke-linejoin:miter;stroke-opacity:1" d="M 601.744,209.077 580.282,220.205 z" id="boundary" inkscape:connector-curvature="0" />
	<path style="fill:none;stroke:red;stroke-width:1px;stroke-linecap:butt;stroke-linejoin:miter;stroke-opacity:1" d="M 619.231,195.564 601.744,209.077 z" id="boundary" inkscape:connector-curvature="0" />
	<path style="fill:none;stroke:red;stroke-width:1px;stroke-linecap:butt;stroke-linejoin:miter;stroke-opacity:1" d="M 628.769,180.462 619.231,195.564 z" id="boundary" inkscape:connector-curvature="0" />
	<path style="fill:none;stroke:red;stroke-width:1px;stroke-linecap:butt;stroke-linejoin:miter;stroke-opacity:1" d="M 530.205,274.256 524.641,286.179 z" id="boundary" inkscape:connector-curvature="0" />
	<path style="fill:none;stroke:red;stroke-width:1px;stroke-linecap:butt;stroke-linejoin:miter;stroke-opacity:1" d="M 534.179,265.513 530.205,274.256 z" id="boundary" inkscape:connector-curvature="0" />
	<path style="fill:none;stroke:red;stroke-width:1px;stroke-linecap:butt;stroke-linejoin:miter;stroke-opacity:1" d="M 519.872,299.692 524.641,286.179 z" id="boundary" inkscape:connector-curvature="0" />
	<path style="fill:none;stroke:red;stroke-width:1px;stroke-linecap:butt;stroke-linejoin:miter;stroke-opacity:1" d="M 779,190.795 775.026,209.077 z" id="boundary" inkscape:connector-curvature="0" />
	<path style="fill:none;stroke:red;stroke-width:1px;stroke-linecap:butt;stroke-linejoin:miter;stroke-opacity:1" d="M 771.051,231.333 775.026,209.077 z" id="boundary" inkscape:connector-curvature="0" />
	<path style="fill:none;stroke:red;stroke-width:1px;stroke-linecap:butt;stroke-linejoin:miter;stroke-opacity:1" d="M 771.051,231.333 767.872,255.179 z" id="boundary" inkscape:connector-curvature="0" />
	<path style="fill:none;stroke:red;stroke-width:1px;stroke-linecap:butt;stroke-linejoin:miter;stroke-opacity:1" d="M 782.179,172.513 779,190.795 z" id="boundary" inkscape:connector-curvature="0" />
	<path style="fill:none;stroke:red;stroke-width:1px;stroke-linecap:butt;stroke-linejoin:miter;stroke-opacity:1" d="M 770.256,271.872 767.872,255.179 z" id="boundary" inkscape:connector-curvature="0" />
	<path style="fill:none;stroke:red;stroke-width:1px;stroke-linecap:butt;stroke-linejoin:miter;stroke-opacity:1" d="M 775.026,289.359 770.256,271.872 z" id="boundary" inkscape:connector-curvature="0" />
	<path style="fill:none;stroke:red;stroke-width:1px;stroke-linecap:butt;stroke-linejoin:miter;stroke-opacity:1" d="M 775.026,289.359 782.179,306.846 z" id="boundary" inkscape:connector-curvature="0" />
	<path style="fill:none;stroke:red;stroke-width:1px;stroke-linecap:butt;stroke-linejoin:miter;stroke-opacity:1" d="M 789.333,322.744 782.179,306.846 z" id="boundary" inkscape:connector-curvature="0" />
	<path style="fill:none;stroke:red;stroke-width:1px;stroke-linecap:butt;stroke-linejoin:miter;stroke-opacity:1" d="M 798.077,337.846 789.333,322.744 z" id="boundary" inkscape:connector-curvature="0" />
	<path style="fill:none;stroke:red;stroke-width:1px;stroke-linecap:butt;stroke-linejoin:miter;stroke-opacity:1" d="M 807.615,352.949 798.077,337.846 z" id="boundary" inkscape:connector-curvature="0" />
	<path style="fill:none;stroke:red;stroke-width:1px;stroke-linecap:butt;stroke-linejoin:miter;stroke-opacity:1" d="M 394.282,345 410.974,358.513 z" id="boundary" inkscape:connector-curvature="0" />
	<path style="fill:none;stroke:red;stroke-width:1px;stroke-linecap:butt;stroke-linejoin:miter;stroke-opacity:1" d="M 410.974,358.513 432.436,363.282 z" id="boundary" inkscape:connector-curvature="0" />
	<path style="fill:none;stroke:red;stroke-width:1px;stroke-linecap:butt;stroke-linejoin:miter;stroke-opacity:1" d="M 451.513,616.846 430.846,618.436 z" id="boundary" inkscape:connector-curvature="0" />
	<path style="fill:none;stroke:red;stroke-width:1px;stroke-linecap:butt;stroke-linejoin:miter;stroke-opacity:1" d="M 409.385,620.026 387.923,620.026 z" id="boundary" inkscape:connector-curvature="0" />
	<path style="fill:none;stroke:red;stroke-width:1px;stroke-linecap:butt;stroke-linejoin:miter;stroke-opacity:1" d="M 409.385,620.026 430.846,618.436 z" id="boundary" inkscape:connector-curvature="0" />
	<path style="fill:none;stroke:red;stroke-width:1px;stroke-linecap:butt;stroke-linejoin:miter;stroke-opacity:1" d="M 453.897,356.128 469.795,341.821 z" id="boundary" inkscape:connector-curvature="0" />
	<path style="fill:none;stroke:red;stroke-width:1px;stroke-linecap:butt;stroke-linejoin:miter;stroke-opacity:1" d="M 453.897,356.128 432.436,363.282 z" id="boundary" inkscape:connector-curvature="0" />
	<path style="fill:none;stroke:red;stroke-width:1px;stroke-linecap:butt;stroke-linejoin:miter;stroke-opacity:1" d="M 506.359,340.231 504.769,354.538 z" id="boundary" inkscape:connector-curvature="0" />
	<path style="fill:none;stroke:red;stroke-width:1px;stroke-linecap:butt;stroke-linejoin:miter;stroke-opacity:1" d="M 501.59,373.615 504.769,354.538 z" id="boundary" inkscape:connector-curvature="0" />
	<path style="fill:none;stroke:red;stroke-width:1px;stroke-linecap:butt;stroke-linejoin:miter;stroke-opacity:1" d="M 495.231,465.026 492.846,444.359 z" id="boundary" inkscape:connector-curvature="0" />
	<path style="fill:none;stroke:red;stroke-width:1px;stroke-linecap:butt;stroke-linejoin:miter;stroke-opacity:1" d="M 493.641,425.282 492.846,444.359 z" id="boundary" inkscape:connector-curvature="0" />
	<path style="fill:none;stroke:red;stroke-width:1px;stroke-linecap:butt;stroke-linejoin:miter;stroke-opacity:1" d="M 497.615,399.846 493.641,425.282 z" id="boundary" inkscape:connector-curvature="0" />
	<path style="fill:none;stroke:red;stroke-width:1px;stroke-linecap:butt;stroke-linejoin:miter;stroke-opacity:1" d="M 501.59,373.615 497.615,399.846 z" id="boundary" inkscape:connector-curvature="0" />
	<path style="fill:none;stroke:red;stroke-width:1px;stroke-linecap:butt;stroke-linejoin:miter;stroke-opacity:1" d="M 499.205,478.538 502.385,495.231 z" id="boundary" inkscape:connector-curvature="0" />
	<path style="fill:none;stroke:red;stroke-width:1px;stroke-linecap:butt;stroke-linejoin:miter;stroke-opacity:1" d="M 499.205,478.538 495.231,465.026 z" id="boundary" inkscape:connector-curvature="0" />
	<path style="fill:none;stroke:red;stroke-width:1px;stroke-linecap:butt;stroke-linejoin:miter;stroke-opacity:1" d="M 506.359,511.923 502.385,495.231 z" id="boundary" inkscape:connector-curvature="0" />
	<path style="fill:none;stroke:red;stroke-width:1px;stroke-linecap:butt;stroke-linejoin:miter;stroke-opacity:1" d="M 502.385,584.256 491.256,599.359 z" id="boundary" inkscape:connector-curvature="0" />
	<path style="fill:none;stroke:red;stroke-width:1px;stroke-linecap:butt;stroke-linejoin:miter;stroke-opacity:1" d="M 472.974,610.487 491.256,599.359 z" id="boundary" inkscape:connector-curvature="0" />
	<path style="fill:none;stroke:red;stroke-width:1px;stroke-linecap:butt;stroke-linejoin:miter;stroke-opacity:1" d="M 472.974,610.487 451.513,616.846 z" id="boundary" inkscape:connector-curvature="0" />
	<path style="fill:none;stroke:red;stroke-width:1px;stroke-linecap:butt;stroke-linejoin:miter;stroke-opacity:1" d="M 509.538,531 511.128,552.462 z" id="boundary" inkscape:connector-curvature="0" />
	<path style="fill:none;stroke:red;stroke-width:1px;stroke-linecap:butt;stroke-linejoin:miter;stroke-opacity:1" d="M 511.128,552.462 509.538,567.564 z" id="boundary" inkscape:connector-curvature="0" />
	<path style="fill:none;stroke:red;stroke-width:1px;stroke-linecap:butt;stroke-linejoin:miter;stroke-opacity:1" d="M 502.385,584.256 509.538,567.564 z" id="boundary" inkscape:connector-curvature="0" />
	<path style="fill:none;stroke:red;stroke-width:1px;stroke-linecap:butt;stroke-linejoin:miter;stroke-opacity:1" d="M 509.538,531 506.359,511.923 z" id="boundary" inkscape:connector-curvature="0" />
	<path style="fill:none;stroke:red;stroke-width:1px;stroke-linecap:butt;stroke-linejoin:miter;stroke-opacity:1" d="M 417.333,790.128 395.872,780.59 z" id="boundary" inkscape:connector-curvature="0" />
	<path style="fill:none;stroke:red;stroke-width:1px;stroke-linecap:butt;stroke-linejoin:miter;stroke-opacity:1" d="M 391.897,984.077 370.436,980.103 z" id="boundary" inkscape:connector-curvature="0" />
	<path style="fill:none;stroke:red;stroke-width:1px;stroke-linecap:butt;stroke-linejoin:miter;stroke-opacity:1" d="M 391.897,984.077 413.359,987.256 z" id="boundary" inkscape:connector-curvature="0" />
	<path style="fill:none;stroke:red;stroke-width:1px;stroke-linecap:butt;stroke-linejoin:miter;stroke-opacity:1" d="M 417.333,790.128 438,792.513 z" id="boundary" inkscape:connector-curvature="0" />
	<path style="fill:none;stroke:red;stroke-width:1px;stroke-linecap:butt;stroke-linejoin:miter;stroke-opacity:1" d="M 459.462,788.538 438,792.513 z" id="boundary" inkscape:connector-curvature="0" />
	<path style="fill:none;stroke:red;stroke-width:1px;stroke-linecap:butt;stroke-linejoin:miter;stroke-opacity:1" d="M 480.923,779 459.462,788.538 z" id="boundary" inkscape:connector-curvature="0" />
	<path style="fill:none;stroke:red;stroke-width:1px;stroke-linecap:butt;stroke-linejoin:miter;stroke-opacity:1" d="M 434.821,990.436 413.359,987.256 z" id="boundary" inkscape:connector-curvature="0" />
	<path style="fill:none;stroke:red;stroke-width:1px;stroke-linecap:butt;stroke-linejoin:miter;stroke-opacity:1" d="M 455.487,992.821 434.821,990.436 z" id="boundary" inkscape:connector-curvature="0" />
	<path style="fill:none;stroke:red;stroke-width:1px;stroke-linecap:butt;stroke-linejoin:miter;stroke-opacity:1" d="M 501.59,765.487 480.923,779 z" id="boundary" inkscape:connector-curvature="0" />
	<path style="fill:none;stroke:red;stroke-width:1px;stroke-linecap:butt;stroke-linejoin:miter;stroke-opacity:1" d="M 521.462,749.59 501.59,765.487 z" id="boundary" inkscape:connector-curvature="0" />
	<path style="fill:none;stroke:red;stroke-width:1px;stroke-linecap:butt;stroke-linejoin:miter;stroke-opacity:1" d="M 575.513,686.795 564.385,701.897 z" id="boundary" inkscape:connector-curvature="0" />
	<path style="fill:none;stroke:red;stroke-width:1px;stroke-linecap:butt;stroke-linejoin:miter;stroke-opacity:1" d="M 564.385,701.897 551.667,717 z" id="boundary" inkscape:connector-curvature="0" />
	<path style="fill:none;stroke:red;stroke-width:1px;stroke-linecap:butt;stroke-linejoin:miter;stroke-opacity:1" d="M 537.359,733.692 521.462,749.59 z" id="boundary" inkscape:connector-curvature="0" />
	<path style="fill:none;stroke:red;stroke-width:1px;stroke-linecap:butt;stroke-linejoin:miter;stroke-opacity:1" d="M 537.359,733.692 551.667,717 z" id="boundary" inkscape:connector-curvature="0" />
	<path style="fill:none;stroke:red;stroke-width:1px;stroke-linecap:butt;stroke-linejoin:miter;stroke-opacity:1" d="M 519.077,996 497.615,996 z" id="boundary" inkscape:connector-curvature="0" />
	<path style="fill:none;stroke:red;stroke-width:1px;stroke-linecap:butt;stroke-linejoin:miter;stroke-opacity:1" d="M 476.949,994.41 455.487,992.821 z" id="boundary" inkscape:connector-curvature="0" />
	<path style="fill:none;stroke:red;stroke-width:1px;stroke-linecap:butt;stroke-linejoin:miter;stroke-opacity:1" d="M 497.615,996 476.949,994.41 z" id="boundary" inkscape:connector-curvature="0" />
	<path style="fill:none;stroke:red;stroke-width:1px;stroke-linecap:butt;stroke-linejoin:miter;stroke-opacity:1" d="M 582.667,989.641 561.205,993.615 z" id="boundary" inkscape:connector-curvature="0" />
	<path style="fill:none;stroke:red;stroke-width:1px;stroke-linecap:butt;stroke-linejoin:miter;stroke-opacity:1" d="M 540.538,995.205 519.077,996 z" id="boundary" inkscape:connector-curvature="0" />
	<path style="fill:none;stroke:red;stroke-width:1px;stroke-linecap:butt;stroke-linejoin:miter;stroke-opacity:1" d="M 540.538,995.205 561.205,993.615 z" id="boundary" inkscape:connector-curvature="0" />
	<path style="fill:none;stroke:red;stroke-width:1px;stroke-linecap:butt;stroke-linejoin:miter;stroke-opacity:1" d="M 818.744,368.846 829.872,385.538 z" id="boundary" inkscape:connector-curvature="0" />
	<path style="fill:none;stroke:red;stroke-width:1px;stroke-linecap:butt;stroke-linejoin:miter;stroke-opacity:1" d="M 841.795,401.436 829.872,385.538 z" id="boundary" inkscape:connector-curvature="0" />
	<path style="fill:none;stroke:red;stroke-width:1px;stroke-linecap:butt;stroke-linejoin:miter;stroke-opacity:1" d="M 841.795,401.436 852.128,416.538 z" id="boundary" inkscape:connector-curvature="0" />
	<path style="fill:none;stroke:red;stroke-width:1px;stroke-linecap:butt;stroke-linejoin:miter;stroke-opacity:1" d="M 852.128,416.538 861.667,431.641 z" id="boundary" inkscape:connector-curvature="0" />
	<path style="fill:none;stroke:red;stroke-width:1px;stroke-linecap:butt;stroke-linejoin:miter;stroke-opacity:1" d="M 818.744,368.846 807.615,352.949 z" id="boundary" inkscape:connector-curvature="0" />
	<path style="fill:none;stroke:red;stroke-width:1px;stroke-linecap:butt;stroke-linejoin:miter;stroke-opacity:1" d="M 871.205,447.538 879.949,463.436 z" id="boundary" inkscape:connector-curvature="0" />
	<path style="fill:none;stroke:red;stroke-width:1px;stroke-linecap:butt;stroke-linejoin:miter;stroke-opacity:1" d="M 871.205,447.538 861.667,431.641 z" id="boundary" inkscape:connector-curvature="0" />
	<path style="fill:none;stroke:red;stroke-width:1px;stroke-linecap:butt;stroke-linejoin:miter;stroke-opacity:1" d="M 879.949,463.436 887.103,479.333 z" id="boundary" inkscape:connector-curvature="0" />
	<path style="fill:none;stroke:red;stroke-width:1px;stroke-linecap:butt;stroke-linejoin:miter;stroke-opacity:1" d="M 891.872,492.846 895.051,507.949 z" id="boundary" inkscape:connector-curvature="0" />
	<path style="fill:none;stroke:red;stroke-width:1px;stroke-linecap:butt;stroke-linejoin:miter;stroke-opacity:1" d="M 891.872,492.846 887.103,479.333 z" id="boundary" inkscape:connector-curvature="0" />
	<path style="fill:none;stroke:red;stroke-width:1px;stroke-linecap:butt;stroke-linejoin:miter;stroke-opacity:1" d="M 895.051,507.949 897.436,527.026 z" id="boundary" inkscape:connector-curvature="0" />
	<path style="fill:none;stroke:red;stroke-width:1px;stroke-linecap:butt;stroke-linejoin:miter;stroke-opacity:1" d="M 897.436,527.026 899.821,550.077 z" id="boundary" inkscape:connector-curvature="0" />
	<path style="fill:none;stroke:red;stroke-width:1px;stroke-linecap:butt;stroke-linejoin:miter;stroke-opacity:1" d="M 897.436,579.487 899.821,550.077 z" id="boundary" inkscape:connector-curvature="0" />
	<path style="fill:none;stroke:red;stroke-width:1px;stroke-linecap:butt;stroke-linejoin:miter;stroke-opacity:1" d="M 897.436,579.487 894.256,603.333 z" id="boundary" inkscape:connector-curvature="0" />
	<path style="fill:none;stroke:red;stroke-width:1px;stroke-linecap:butt;stroke-linejoin:miter;stroke-opacity:1" d="M 890.282,620.026 894.256,603.333 z" id="boundary" inkscape:connector-curvature="0" />
	<path style="fill:none;stroke:red;stroke-width:1px;stroke-linecap:butt;stroke-linejoin:miter;stroke-opacity:1" d="M 890.282,620.026 885.513,638.308 z" id="boundary" inkscape:connector-curvature="0" />
	<path style="fill:none;stroke:red;stroke-width:1px;stroke-linecap:butt;stroke-linejoin:miter;stroke-opacity:1" d="M 885.513,638.308 880.744,655.795 z" id="boundary" inkscape:connector-curvature="0" />
	<path style="fill:none;stroke:red;stroke-width:1px;stroke-linecap:butt;stroke-linejoin:miter;stroke-opacity:1" d="M 584.256,674.872 575.513,686.795 z" id="boundary" inkscape:connector-curvature="0" />
	<path style="fill:none;stroke:red;stroke-width:1px;stroke-linecap:butt;stroke-linejoin:miter;stroke-opacity:1" d="M 604.128,984.872 582.667,989.641 z" id="boundary" inkscape:connector-curvature="0" />
	<path style="fill:none;stroke:red;stroke-width:1px;stroke-linecap:butt;stroke-linejoin:miter;stroke-opacity:1" d="M 624.795,976.923 604.128,984.872 z" id="boundary" inkscape:connector-curvature="0" />
	<path style="fill:none;stroke:red;stroke-width:1px;stroke-linecap:butt;stroke-linejoin:miter;stroke-opacity:1" d="M 730.513,918.897 709.846,931.615 z" id="boundary" inkscape:connector-curvature="0" />
	<path style="fill:none;stroke:red;stroke-width:1px;stroke-linecap:butt;stroke-linejoin:miter;stroke-opacity:1" d="M 709.846,931.615 688.385,944.333 z" id="boundary" inkscape:connector-curvature="0" />
	<path style="fill:none;stroke:red;stroke-width:1px;stroke-linecap:butt;stroke-linejoin:miter;stroke-opacity:1" d="M 624.795,976.923 646.256,968.179 z" id="boundary" inkscape:connector-curvature="0" />
	<path style="fill:none;stroke:red;stroke-width:1px;stroke-linecap:butt;stroke-linejoin:miter;stroke-opacity:1" d="M 666.923,957.051 688.385,944.333 z" id="boundary" inkscape:connector-curvature="0" />
	<path style="fill:none;stroke:red;stroke-width:1px;stroke-linecap:butt;stroke-linejoin:miter;stroke-opacity:1" d="M 666.923,957.051 646.256,968.179 z" id="boundary" inkscape:connector-curvature="0" />
	<path style="fill:none;stroke:red;stroke-width:1px;stroke-linecap:butt;stroke-linejoin:miter;stroke-opacity:1" d="M 846.564,755.949 840.205,772.641 z" id="boundary" inkscape:connector-curvature="0" />
	<path style="fill:none;stroke:red;stroke-width:1px;stroke-linecap:butt;stroke-linejoin:miter;stroke-opacity:1" d="M 834.641,789.333 829.077,806.821 z" id="boundary" inkscape:connector-curvature="0" />
	<path style="fill:none;stroke:red;stroke-width:1px;stroke-linecap:butt;stroke-linejoin:miter;stroke-opacity:1" d="M 840.205,772.641 834.641,789.333 z" id="boundary" inkscape:connector-curvature="0" />
	<path style="fill:none;stroke:red;stroke-width:1px;stroke-linecap:butt;stroke-linejoin:miter;stroke-opacity:1" d="M 869.615,691.564 864.051,708.256 z" id="boundary" inkscape:connector-curvature="0" />
	<path style="fill:none;stroke:red;stroke-width:1px;stroke-linecap:butt;stroke-linejoin:miter;stroke-opacity:1" d="M 875.179,674.077 880.744,655.795 z" id="boundary" inkscape:connector-curvature="0" />
	<path style="fill:none;stroke:red;stroke-width:1px;stroke-linecap:butt;stroke-linejoin:miter;stroke-opacity:1" d="M 869.615,691.564 875.179,674.077 z" id="boundary" inkscape:connector-curvature="0" />
	<path style="fill:none;stroke:red;stroke-width:1px;stroke-linecap:butt;stroke-linejoin:miter;stroke-opacity:1" d="M 846.564,755.949 852.128,740.051 z" id="boundary" inkscape:connector-curvature="0" />
	<path style="fill:none;stroke:red;stroke-width:1px;stroke-linecap:butt;stroke-linejoin:miter;stroke-opacity:1" d="M 852.128,740.051 857.692,724.154 z" id="boundary" inkscape:connector-curvature="0" />
	<path style="fill:none;stroke:red;stroke-width:1px;stroke-linecap:butt;stroke-linejoin:miter;stroke-opacity:1" d="M 864.051,708.256 857.692,724.154 z" id="boundary" inkscape:connector-curvature="0" />
	<path style="fill:none;stroke:red;stroke-width:1px;stroke-linecap:butt;stroke-linejoin:miter;stroke-opacity:1" d="M 816.359,847.359 806.821,863.256 z" id="boundary" inkscape:connector-curvature="0" />
	<path style="fill:none;stroke:red;stroke-width:1px;stroke-linecap:butt;stroke-linejoin:miter;stroke-opacity:1" d="M 823.513,826.692 816.359,847.359 z" id="boundary" inkscape:connector-curvature="0" />
	<path style="fill:none;stroke:red;stroke-width:1px;stroke-linecap:butt;stroke-linejoin:miter;stroke-opacity:1" d="M 806.821,863.256 792.513,877.564 z" id="boundary" inkscape:connector-curvature="0" />
	<path style="fill:none;stroke:red;stroke-width:1px;stroke-linecap:butt;stroke-linejoin:miter;stroke-opacity:1" d="M 730.513,918.897 751.974,906.179 z" id="boundary" inkscape:connector-curvature="0" />
	<path style="fill:none;stroke:red;stroke-width:1px;stroke-linecap:butt;stroke-linejoin:miter;stroke-opacity:1" d="M 773.436,892.667 792.513,877.564 z" id="boundary" inkscape:connector-curvature="0" />
	<path style="fill:none;stroke:red;stroke-width:1px;stroke-linecap:butt;stroke-linejoin:miter;stroke-opacity:1" d="M 773.436,892.667 751.974,906.179 z" id="boundary" inkscape:connector-curvature="0" />
	<path style="fill:none;stroke:red;stroke-width:1px;stroke-linecap:butt;stroke-linejoin:miter;stroke-opacity:1" d="M 829.077,806.821 823.513,826.692 z" id="boundary" inkscape:connector-curvature="0" />
	<circle cx="38.9744" cy="462.641" r="4" fill="#0" id="circle0"/>
	<circle cx="97.7949" cy="829.077" r="4" fill="#0" id="circle1"/>
	<circle cx="852.128" cy="740.051" r="4" fill="#0" id="circle2"/>
	<circle cx="775.026" cy="209.077" r="4" fill="#0" id="circle3"/>
	<circle cx="538.154" cy="132.769" r="4" fill="#0" id="circle4"/>
	<circle cx="271.077" cy="469" r="4" fill="#0" id="circle5"/>
	<circle cx="193.974" cy="259.154" r="4" fill="#0" id="circle6"/>
	<circle cx="31.0256" cy="479.333" r="4" fill="#0" id="circle7"/>
	<circle cx="51.6923" cy="527.026" r="4" fill="#0" id="circle8"/>
	<circle cx="69.9744" cy="577.103" r="4" fill="#0" id="circle9"/>
	<circle cx="222.59" cy="932.41" r="4" fill="#0" id="circle10"/>
	<circle cx="195.564" cy="583.462" r="4" fill="#0" id="circle11"/>
	<circle cx="504.769" cy="354.538" r="4" fill="#0" id="circle12"/>
	<circle cx="299.692" cy="480.128" r="4" fill="#0" id="circle13"/>
	<circle cx="372.821" cy="509.538" r="4" fill="#0" id="circle14"/>
	<circle cx="417.333" cy="790.128" r="4" fill="#0" id="circle15"/>
	<circle cx="476.949" cy="333.077" r="4" fill="#0" id="circle16"/>
	<circle cx="383.154" cy="329.103" r="4" fill="#0" id="circle17"/>
	<circle cx="782.179" cy="306.846" r="4" fill="#0" id="circle18"/>
	<circle cx="692.359" cy="45.3333" r="4" fill="#0" id="circle19"/>
	<circle cx="191.59" cy="264.718" r="4" fill="#0" id="circle20"/>
	<circle cx="190.795" cy="210.667" r="4" fill="#0" id="circle21"/>
	<circle cx="227.359" cy="194.769" r="4" fill="#0" id="circle22"/>
	<circle cx="241.667" cy="163.769" r="4" fill="#0" id="circle23"/>
	<circle cx="248.026" cy="211.462" r="4" fill="#0" id="circle24"/>
	<circle cx="268.692" cy="33.4103" r="4" fill="#0" id="circle25"/>
	<circle cx="309.231" cy="177.282" r="4" fill="#0" id="circle26"/>
	<circle cx="201.128" cy="386.333" r="4" fill="#0" id="circle27"/>
	<circle cx="373.615" cy="286.179" r="4" fill="#0" id="circle28"/>
	<circle cx="257.564" cy="540.538" r="4" fill="#0" id="circle29"/>
	<circle cx="361.692" cy="492.846" r="4" fill="#0" id="circle30"/>
	<circle cx="180.462" cy="397.462" r="4" fill="#0" id="circle31"/>
	<circle cx="174.897" cy="590.615" r="4" fill="#0" id="circle32"/>
	<circle cx="94.6154" cy="382.359" r="4" fill="#0" id="circle33"/>
	<circle cx="111.308" cy="367.256" r="4" fill="#0" id="circle34"/>
	<circle cx="26.2564" cy="699.513" r="4" fill="#0" id="circle35"/>
	<circle cx="20.6923" cy="683.615" r="4" fill="#0" id="circle36"/>
	<circle cx="5.58974" cy="623.205" r="4" fill="#0" id="circle37"/>
	<circle cx="15.1282" cy="666.128" r="4" fill="#0" id="circle38"/>
	<circle cx="31.8205" cy="714.615" r="4" fill="#0" id="circle39"/>
	<circle cx="38.9744" cy="730.513" r="4" fill="#0" id="circle40"/>
	<circle cx="73.1538" cy="795.692" r="4" fill="#0" id="circle41"/>
	<circle cx="141.513" cy="875.974" r="4" fill="#0" id="circle42"/>
	<circle cx="376.795" cy="767.077" r="4" fill="#0" id="circle43"/>
	<circle cx="328.308" cy="971.359" r="4" fill="#0" id="circle44"/>
	<circle cx="307.641" cy="965.795" r="4" fill="#0" id="circle45"/>
	<circle cx="349.769" cy="976.128" r="4" fill="#0" id="circle46"/>
	<circle cx="348.974" cy="736.872" r="4" fill="#0" id="circle47"/>
	<circle cx="326.718" cy="705.872" r="4" fill="#0" id="circle48"/>
	<circle cx="345.795" cy="621.615" r="4" fill="#0" id="circle49"/>
	<circle cx="153.436" cy="594.59" r="4" fill="#0" id="circle50"/>
	<circle cx="430.846" cy="618.436" r="4" fill="#0" id="circle51"/>
	<circle cx="506.359" cy="511.923" r="4" fill="#0" id="circle52"/>
	<circle cx="575.513" cy="686.795" r="4" fill="#0" id="circle53"/>
	<circle cx="551.667" cy="717" r="4" fill="#0" id="circle54"/>
	<circle cx="413.359" cy="987.256" r="4" fill="#0" id="circle55"/>
	<circle cx="455.487" cy="992.821" r="4" fill="#0" id="circle56"/>
	<circle cx="497.615" cy="996" r="4" fill="#0" id="circle57"/>
	<circle cx="434.821" cy="990.436" r="4" fill="#0" id="circle58"/>
	<circle cx="773.436" cy="892.667" r="4" fill="#0" id="circle59"/>
	<circle cx="666.923" cy="957.051" r="4" fill="#0" id="circle60"/>
	<circle cx="816.359" cy="847.359" r="4" fill="#0" id="circle61"/>
	<circle cx="823.513" cy="826.692" r="4" fill="#0" id="circle62"/>
	<circle cx="840.205" cy="772.641" r="4" fill="#0" id="circle63"/>
	<circle cx="846.564" cy="755.949" r="4" fill="#0" id="circle64"/>
	<circle cx="875.179" cy="674.077" r="4" fill="#0" id="circle65"/>
	<circle cx="897.436" cy="579.487" r="4" fill="#0" id="circle66"/>
	<circle cx="530.205" cy="274.256" r="4" fill="#0" id="circle67"/>
	<circle cx="829.872" cy="385.538" r="4" fill="#0" id="circle68"/>
	<circle cx="895.051" cy="507.949" r="4" fill="#0" id="circle69"/>
	<circle cx="501.59" cy="373.615" r="4" fill="#0" id="circle70"/>
	<circle cx="480.923" cy="252" r="4" fill="#0" id="circle71"/>
	<circle cx="386.333" cy="240.872" r="4" fill="#0" id="circle72"/>
	<circle cx="445.949" cy="308.436" r="4" fill="#0" id="circle73"/>
	<circle cx="394.282" cy="345" r="4" fill="#0" id="circle74"/>
	<circle cx="417.333" cy="5.58974" r="4" fill="#0" id="circle75"/>
	<circle cx="399.846" cy="224.179" r="4" fill="#0" id="circle76"/>
	<circle cx="474.564" cy="153.436" r="4" fill="#0" id="circle77"/>
	<circle cx="459.462" cy="4" r="4" fill="#0" id="circle78"/>
	<circle cx="543.718" cy="7.97436" r="4" fill="#0" id="circle79"/>
	<circle cx="768.667" cy="102.564" r="4" fill="#0" id="circle80"/>
	<circle cx="776.615" cy="116.872" r="4" fill="#0" id="circle81"/>
	<circle cx="771.051" cy="231.333" r="4" fill="#0" id="circle82"/>
	<circle cx="170.923" cy="111.308" r="4" fill="#0" id="circle83"/>
	<circle cx="177.282" cy="94.6154" r="4" fill="#0" id="circle84"/>
	<circle cx="187.615" cy="78.7179" r="4" fill="#0" id="circle85"/>
	<circle cx="166.154" cy="137.538" r="4" fill="#0" id="circle86"/>
	<circle cx="168.538" cy="159.795" r="4" fill="#0" id="circle87"/>
	<circle cx="175.692" cy="178.872" r="4" fill="#0" id="circle88"/>
	<circle cx="182.846" cy="196.359" r="4" fill="#0" id="circle89"/>
	<circle cx="219.41" cy="213.846" r="4" fill="#0" id="circle90"/>
	<circle cx="205.103" cy="221.795" r="4" fill="#0" id="circle91"/>
	<circle cx="196.359" cy="238.487" r="4" fill="#0" id="circle92"/>
	<circle cx="212.256" cy="217.821" r="4" fill="#0" id="circle93"/>
	<circle cx="226.564" cy="210.667" r="4" fill="#0" id="circle94"/>
	<circle cx="228.154" cy="175.692" r="4" fill="#0" id="circle95"/>
	<circle cx="226.564" cy="51.6923" r="4" fill="#0" id="circle96"/>
	<circle cx="205.103" cy="63.6154" r="4" fill="#0" id="circle97"/>
	<circle cx="290.154" cy="27.0513" r="4" fill="#0" id="circle98"/>
	<circle cx="248.026" cy="42.1538" r="4" fill="#0" id="circle99"/>
	<circle cx="263.128" cy="162.179" r="4" fill="#0" id="circle100"/>
	<circle cx="284.59" cy="168.538" r="4" fill="#0" id="circle101"/>
	<circle cx="311.615" cy="21.4872" r="4" fill="#0" id="circle102"/>
	<circle cx="332.282" cy="16.7179" r="4" fill="#0" id="circle103"/>
	<circle cx="374.41" cy="9.5641" r="4" fill="#0" id="circle104"/>
	<circle cx="353.744" cy="12.7436" r="4" fill="#0" id="circle105"/>
	<circle cx="326.718" cy="184.436" r="4" fill="#0" id="circle106"/>
	<circle cx="368.846" cy="186.026" r="4" fill="#0" id="circle107"/>
	<circle cx="347.385" cy="187.615" r="4" fill="#0" id="circle108"/>
	<circle cx="305.256" cy="177.282" r="4" fill="#0" id="circle109"/>
	<circle cx="296.513" cy="244.846" r="4" fill="#0" id="circle110"/>
	<circle cx="286.179" cy="228.949" r="4" fill="#0" id="circle111"/>
	<circle cx="268.692" cy="216.231" r="4" fill="#0" id="circle112"/>
	<circle cx="241.667" cy="257.564" r="4" fill="#0" id="circle113"/>
	<circle cx="259.154" cy="294.923" r="4" fill="#0" id="circle114"/>
	<circle cx="258.359" cy="263.128" r="4" fill="#0" id="circle115"/>
	<circle cx="230.538" cy="266.308" r="4" fill="#0" id="circle116"/>
	<circle cx="264.718" cy="277.436" r="4" fill="#0" id="circle117"/>
	<circle cx="302.872" cy="263.128" r="4" fill="#0" id="circle118"/>
	<circle cx="302.872" cy="286.974" r="4" fill="#0" id="circle119"/>
	<circle cx="378.385" cy="258.359" r="4" fill="#0" id="circle120"/>
	<circle cx="290.154" cy="318.769" r="4" fill="#0" id="circle121"/>
	<circle cx="298.897" cy="302.872" r="4" fill="#0" id="circle122"/>
	<circle cx="376.795" cy="309.231" r="4" fill="#0" id="circle123"/>
	<circle cx="278.231" cy="333.872" r="4" fill="#0" id="circle124"/>
	<circle cx="263.128" cy="347.385" r="4" fill="#0" id="circle125"/>
	<circle cx="244.051" cy="360.103" r="4" fill="#0" id="circle126"/>
	<circle cx="236.897" cy="343.41" r="4" fill="#0" id="circle127"/>
	<circle cx="241.667" cy="301.282" r="4" fill="#0" id="circle128"/>
	<circle cx="225.769" cy="328.308" r="4" fill="#0" id="circle129"/>
	<circle cx="222.59" cy="374.41" r="4" fill="#0" id="circle130"/>
	<circle cx="213.846" cy="313.205" r="4" fill="#0" id="circle131"/>
	<circle cx="206.692" cy="302.872" r="4" fill="#0" id="circle132"/>
	<circle cx="197.949" cy="294.128" r="4" fill="#0" id="circle133"/>
	<circle cx="229.744" cy="290.154" r="4" fill="#0" id="circle134"/>
	<circle cx="193.179" cy="279.821" r="4" fill="#0" id="circle135"/>
	<circle cx="228.154" cy="281.41" r="4" fill="#0" id="circle136"/>
	<circle cx="162.179" cy="321.154" r="4" fill="#0" id="circle137"/>
	<circle cx="172.513" cy="310.026" r="4" fill="#0" id="circle138"/>
	<circle cx="184.436" cy="298.103" r="4" fill="#0" id="circle139"/>
	<circle cx="145.487" cy="336.256" r="4" fill="#0" id="circle140"/>
	<circle cx="128" cy="352.154" r="4" fill="#0" id="circle141"/>
	<circle cx="159" cy="409.385" r="4" fill="#0" id="circle142"/>
	<circle cx="80.3077" cy="396.667" r="4" fill="#0" id="circle143"/>
	<circle cx="67.5897" cy="412.564" r="4" fill="#0" id="circle144"/>
	<circle cx="72.359" cy="480.923" r="4" fill="#0" id="circle145"/>
	<circle cx="57.2564" cy="429.256" r="4" fill="#0" id="circle146"/>
	<circle cx="47.7179" cy="445.949" r="4" fill="#0" id="circle147"/>
	<circle cx="83.4872" cy="465.821" r="4" fill="#0" id="circle148"/>
	<circle cx="97.7949" cy="450.718" r="4" fill="#0" id="circle149"/>
	<circle cx="116.872" cy="434.821" r="4" fill="#0" id="circle150"/>
	<circle cx="138.333" cy="421.308" r="4" fill="#0" id="circle151"/>
	<circle cx="56.4615" cy="560.41" r="4" fill="#0" id="circle152"/>
	<circle cx="63.6154" cy="496.026" r="4" fill="#0" id="circle153"/>
	<circle cx="57.2564" cy="511.923" r="4" fill="#0" id="circle154"/>
	<circle cx="51.6923" cy="544.513" r="4" fill="#0" id="circle155"/>
	<circle cx="24.6667" cy="496.026" r="4" fill="#0" id="circle156"/>
	<circle cx="18.3077" cy="512.718" r="4" fill="#0" id="circle157"/>
	<circle cx="13.5385" cy="528.615" r="4" fill="#0" id="circle158"/>
	<circle cx="9.5641" cy="545.308" r="4" fill="#0" id="circle159"/>
	<circle cx="89.8462" cy="587.436" r="4" fill="#0" id="circle160"/>
	<circle cx="7.17949" cy="565.179" r="4" fill="#0" id="circle161"/>
	<circle cx="4" cy="596.179" r="4" fill="#0" id="circle162"/>
	<circle cx="8.76923" cy="645.462" r="4" fill="#0" id="circle163"/>
	<circle cx="46.9231" cy="747.205" r="4" fill="#0" id="circle164"/>
	<circle cx="54.0769" cy="762.308" r="4" fill="#0" id="circle165"/>
	<circle cx="85.0769" cy="812.385" r="4" fill="#0" id="circle166"/>
	<circle cx="62.8205" cy="778.205" r="4" fill="#0" id="circle167"/>
	<circle cx="159.795" cy="891.872" r="4" fill="#0" id="circle168"/>
	<circle cx="201.923" cy="920.487" r="4" fill="#0" id="circle169"/>
	<circle cx="180.462" cy="906.974" r="4" fill="#0" id="circle170"/>
	<circle cx="125.615" cy="860.077" r="4" fill="#0" id="circle171"/>
	<circle cx="111.308" cy="844.974" r="4" fill="#0" id="circle172"/>
	<circle cx="111.308" cy="593" r="4" fill="#0" id="circle173"/>
	<circle cx="131.974" cy="595.385" r="4" fill="#0" id="circle174"/>
	<circle cx="217.026" cy="572.333" r="4" fill="#0" id="circle175"/>
	<circle cx="264.718" cy="591.41" r="4" fill="#0" id="circle176"/>
	<circle cx="238.487" cy="559.615" r="4" fill="#0" id="circle177"/>
	<circle cx="253.59" cy="575.513" r="4" fill="#0" id="circle178"/>
	<circle cx="245.641" cy="552.462" r="4" fill="#0" id="circle179"/>
	<circle cx="282.205" cy="608.103" r="4" fill="#0" id="circle180"/>
	<circle cx="244.051" cy="942.744" r="4" fill="#0" id="circle181"/>
	<circle cx="264.718" cy="951.487" r="4" fill="#0" id="circle182"/>
	<circle cx="286.179" cy="958.641" r="4" fill="#0" id="circle183"/>
	<circle cx="337.051" cy="721.769" r="4" fill="#0" id="circle184"/>
	<circle cx="361.692" cy="751.179" r="4" fill="#0" id="circle185"/>
	<circle cx="370.436" cy="980.103" r="4" fill="#0" id="circle186"/>
	<circle cx="317.179" cy="689.974" r="4" fill="#0" id="circle187"/>
	<circle cx="325.128" cy="620.821" r="4" fill="#0" id="circle188"/>
	<circle cx="303.667" cy="618.436" r="4" fill="#0" id="circle189"/>
	<circle cx="367.256" cy="620.821" r="4" fill="#0" id="circle190"/>
	<circle cx="321.154" cy="550.872" r="4" fill="#0" id="circle191"/>
	<circle cx="299.692" cy="550.077" r="4" fill="#0" id="circle192"/>
	<circle cx="374.41" cy="523.846" r="4" fill="#0" id="circle193"/>
	<circle cx="341.821" cy="545.308" r="4" fill="#0" id="circle194"/>
	<circle cx="362.487" cy="536.564" r="4" fill="#0" id="circle195"/>
	<circle cx="278.231" cy="546.103" r="4" fill="#0" id="circle196"/>
	<circle cx="266.308" cy="502.385" r="4" fill="#0" id="circle197"/>
	<circle cx="260.744" cy="519.872" r="4" fill="#0" id="circle198"/>
	<circle cx="252" cy="545.308" r="4" fill="#0" id="circle199"/>
	<circle cx="271.872" cy="454.692" r="4" fill="#0" id="circle200"/>
	<circle cx="269.487" cy="416.538" r="4" fill="#0" id="circle201"/>
	<circle cx="268.692" cy="480.923" r="4" fill="#0" id="circle202"/>
	<circle cx="267.897" cy="492.846" r="4" fill="#0" id="circle203"/>
	<circle cx="271.872" cy="439.59" r="4" fill="#0" id="circle204"/>
	<circle cx="283" cy="480.923" r="4" fill="#0" id="circle205"/>
	<circle cx="321.154" cy="480.128" r="4" fill="#0" id="circle206"/>
	<circle cx="341.821" cy="483.308" r="4" fill="#0" id="circle207"/>
	<circle cx="432.436" cy="363.282" r="4" fill="#0" id="circle208"/>
	<circle cx="410.974" cy="358.513" r="4" fill="#0" id="circle209"/>
	<circle cx="453.897" cy="356.128" r="4" fill="#0" id="circle210"/>
	<circle cx="469.795" cy="341.821" r="4" fill="#0" id="circle211"/>
	<circle cx="492.846" cy="444.359" r="4" fill="#0" id="circle212"/>
	<circle cx="493.641" cy="425.282" r="4" fill="#0" id="circle213"/>
	<circle cx="497.615" cy="399.846" r="4" fill="#0" id="circle214"/>
	<circle cx="509.538" cy="531" r="4" fill="#0" id="circle215"/>
	<circle cx="509.538" cy="567.564" r="4" fill="#0" id="circle216"/>
	<circle cx="511.128" cy="552.462" r="4" fill="#0" id="circle217"/>
	<circle cx="502.385" cy="495.231" r="4" fill="#0" id="circle218"/>
	<circle cx="502.385" cy="584.256" r="4" fill="#0" id="circle219"/>
	<circle cx="499.205" cy="478.538" r="4" fill="#0" id="circle220"/>
	<circle cx="495.231" cy="465.026" r="4" fill="#0" id="circle221"/>
	<circle cx="491.256" cy="599.359" r="4" fill="#0" id="circle222"/>
	<circle cx="451.513" cy="616.846" r="4" fill="#0" id="circle223"/>
	<circle cx="472.974" cy="610.487" r="4" fill="#0" id="circle224"/>
	<circle cx="387.923" cy="620.026" r="4" fill="#0" id="circle225"/>
	<circle cx="409.385" cy="620.026" r="4" fill="#0" id="circle226"/>
	<circle cx="395.872" cy="780.59" r="4" fill="#0" id="circle227"/>
	<circle cx="459.462" cy="788.538" r="4" fill="#0" id="circle228"/>
	<circle cx="391.897" cy="984.077" r="4" fill="#0" id="circle229"/>
	<circle cx="438" cy="792.513" r="4" fill="#0" id="circle230"/>
	<circle cx="476.949" cy="994.41" r="4" fill="#0" id="circle231"/>
	<circle cx="519.077" cy="996" r="4" fill="#0" id="circle232"/>
	<circle cx="540.538" cy="995.205" r="4" fill="#0" id="circle233"/>
	<circle cx="561.205" cy="993.615" r="4" fill="#0" id="circle234"/>
	<circle cx="480.923" cy="779" r="4" fill="#0" id="circle235"/>
	<circle cx="521.462" cy="749.59" r="4" fill="#0" id="circle236"/>
	<circle cx="501.59" cy="765.487" r="4" fill="#0" id="circle237"/>
	<circle cx="537.359" cy="733.692" r="4" fill="#0" id="circle238"/>
	<circle cx="688.385" cy="944.333" r="4" fill="#0" id="circle239"/>
	<circle cx="730.513" cy="918.897" r="4" fill="#0" id="circle240"/>
	<circle cx="564.385" cy="701.897" r="4" fill="#0" id="circle241"/>
	<circle cx="709.846" cy="931.615" r="4" fill="#0" id="circle242"/>
	<circle cx="646.256" cy="968.179" r="4" fill="#0" id="circle243"/>
	<circle cx="624.795" cy="976.923" r="4" fill="#0" id="circle244"/>
	<circle cx="604.128" cy="984.872" r="4" fill="#0" id="circle245"/>
	<circle cx="582.667" cy="989.641" r="4" fill="#0" id="circle246"/>
	<circle cx="792.513" cy="877.564" r="4" fill="#0" id="circle247"/>
	<circle cx="751.974" cy="906.179" r="4" fill="#0" id="circle248"/>
	<circle cx="806.821" cy="863.256" r="4" fill="#0" id="circle249"/>
	<circle cx="829.077" cy="806.821" r="4" fill="#0" id="circle250"/>
	<circle cx="834.641" cy="789.333" r="4" fill="#0" id="circle251"/>
	<circle cx="857.692" cy="724.154" r="4" fill="#0" id="circle252"/>
	<circle cx="864.051" cy="708.256" r="4" fill="#0" id="circle253"/>
	<circle cx="869.615" cy="691.564" r="4" fill="#0" id="circle254"/>
	<circle cx="894.256" cy="603.333" r="4" fill="#0" id="circle255"/>
	<circle cx="897.436" cy="527.026" r="4" fill="#0" id="circle256"/>
	<circle cx="899.821" cy="550.077" r="4" fill="#0" id="circle257"/>
	<circle cx="891.872" cy="492.846" r="4" fill="#0" id="circle258"/>
	<circle cx="890.282" cy="620.026" r="4" fill="#0" id="circle259"/>
	<circle cx="885.513" cy="638.308" r="4" fill="#0" id="circle260"/>
	<circle cx="880.744" cy="655.795" r="4" fill="#0" id="circle261"/>
	<circle cx="584.256" cy="674.872" r="4" fill="#0" id="circle262"/>
	<circle cx="818.744" cy="368.846" r="4" fill="#0" id="circle263"/>
	<circle cx="807.615" cy="352.949" r="4" fill="#0" id="circle264"/>
	<circle cx="841.795" cy="401.436" r="4" fill="#0" id="circle265"/>
	<circle cx="852.128" cy="416.538" r="4" fill="#0" id="circle266"/>
	<circle cx="861.667" cy="431.641" r="4" fill="#0" id="circle267"/>
	<circle cx="871.205" cy="447.538" r="4" fill="#0" id="circle268"/>
	<circle cx="879.949" cy="463.436" r="4" fill="#0" id="circle269"/>
	<circle cx="887.103" cy="479.333" r="4" fill="#0" id="circle270"/>
	<circle cx="775.026" cy="289.359" r="4" fill="#0" id="circle271"/>
	<circle cx="789.333" cy="322.744" r="4" fill="#0" id="circle272"/>
	<circle cx="798.077" cy="337.846" r="4" fill="#0" id="circle273"/>
	<circle cx="770.256" cy="271.872" r="4" fill="#0" id="circle274"/>
	<circle cx="767.872" cy="255.179" r="4" fill="#0" id="circle275"/>
	<circle cx="560.41" cy="232.923" r="4" fill="#0" id="circle276"/>
	<circle cx="580.282" cy="220.205" r="4" fill="#0" id="circle277"/>
	<circle cx="488.077" cy="298.103" r="4" fill="#0" id="circle278"/>
	<circle cx="534.179" cy="265.513" r="4" fill="#0" id="circle279"/>
	<circle cx="524.641" cy="286.179" r="4" fill="#0" id="circle280"/>
	<circle cx="545.308" cy="248.026" r="4" fill="#0" id="circle281"/>
	<circle cx="519.872" cy="299.692" r="4" fill="#0" id="circle282"/>
	<circle cx="515.103" cy="311.615" r="4" fill="#0" id="circle283"/>
	<circle cx="509.538" cy="324.333" r="4" fill="#0" id="circle284"/>
	<circle cx="506.359" cy="340.231" r="4" fill="#0" id="circle285"/>
	<circle cx="453.897" cy="295.718" r="4" fill="#0" id="circle286"/>
	<circle cx="487.282" cy="310.821" r="4" fill="#0" id="circle287"/>
	<circle cx="484.103" cy="322.744" r="4" fill="#0" id="circle288"/>
	<circle cx="488.077" cy="282.205" r="4" fill="#0" id="circle289"/>
	<circle cx="453.103" cy="281.41" r="4" fill="#0" id="circle290"/>
	<circle cx="428.462" cy="312.41" r="4" fill="#0" id="circle291"/>
	<circle cx="415.744" cy="301.282" r="4" fill="#0" id="circle292"/>
	<circle cx="415.744" cy="288.564" r="4" fill="#0" id="circle293"/>
	<circle cx="428.462" cy="263.923" r="4" fill="#0" id="circle294"/>
	<circle cx="415.744" cy="273.462" r="4" fill="#0" id="circle295"/>
	<circle cx="418.923" cy="213.051" r="4" fill="#0" id="circle296"/>
	<circle cx="440.385" cy="213.051" r="4" fill="#0" id="circle297"/>
	<circle cx="445.154" cy="266.308" r="4" fill="#0" id="circle298"/>
	<circle cx="472.974" cy="236.897" r="4" fill="#0" id="circle299"/>
	<circle cx="459.462" cy="222.59" r="4" fill="#0" id="circle300"/>
	<circle cx="485.692" cy="267.897" r="4" fill="#0" id="circle301"/>
	<circle cx="496.026" cy="145.487" r="4" fill="#0" id="circle302"/>
	<circle cx="517.487" cy="138.333" r="4" fill="#0" id="circle303"/>
	<circle cx="580.282" cy="129.59" r="4" fill="#0" id="circle304"/>
	<circle cx="601.744" cy="209.077" r="4" fill="#0" id="circle305"/>
	<circle cx="453.897" cy="161.385" r="4" fill="#0" id="circle306"/>
	<circle cx="432.436" cy="169.333" r="4" fill="#0" id="circle307"/>
	<circle cx="390.308" cy="182.051" r="4" fill="#0" id="circle308"/>
	<circle cx="410.974" cy="176.487" r="4" fill="#0" id="circle309"/>
	<circle cx="438" cy="4.79487" r="4" fill="#0" id="circle310"/>
	<circle cx="395.872" cy="7.17949" r="4" fill="#0" id="circle311"/>
	<circle cx="480.923" cy="4" r="4" fill="#0" id="circle312"/>
	<circle cx="501.59" cy="4.79487" r="4" fill="#0" id="circle313"/>
	<circle cx="523.051" cy="5.58974" r="4" fill="#0" id="circle314"/>
	<circle cx="565.179" cy="10.359" r="4" fill="#0" id="circle315"/>
	<circle cx="559.615" cy="129.59" r="4" fill="#0" id="circle316"/>
	<circle cx="586.641" cy="13.5385" r="4" fill="#0" id="circle317"/>
	<circle cx="628.769" cy="23.0769" r="4" fill="#0" id="circle318"/>
	<circle cx="607.308" cy="17.5128" r="4" fill="#0" id="circle319"/>
	<circle cx="650.231" cy="29.4359" r="4" fill="#0" id="circle320"/>
	<circle cx="601.744" cy="133.564" r="4" fill="#0" id="circle321"/>
	<circle cx="619.231" cy="142.308" r="4" fill="#0" id="circle322"/>
	<circle cx="619.231" cy="195.564" r="4" fill="#0" id="circle323"/>
	<circle cx="628.769" cy="180.462" r="4" fill="#0" id="circle324"/>
	<circle cx="628.769" cy="159" r="4" fill="#0" id="circle325"/>
	<circle cx="783.769" cy="152.641" r="4" fill="#0" id="circle326"/>
	<circle cx="779" cy="190.795" r="4" fill="#0" id="circle327"/>
	<circle cx="782.179" cy="172.513" r="4" fill="#0" id="circle328"/>
	<circle cx="782.179" cy="132.769" r="4" fill="#0" id="circle329"/>
	<circle cx="754.359" cy="86.6667" r="4" fill="#0" id="circle330"/>
	<circle cx="734.487" cy="69.9744" r="4" fill="#0" id="circle331"/>
	<circle cx="713.821" cy="56.4615" r="4" fill="#0" id="circle332"/>
	<circle cx="670.897" cy="36.5897" r="4" fill="#0" id="circle333"/>
	</g>
</svg>