<?xml version="1.0" encoding="UTF-8" standalone="no"?>
<!-- Created with CurveBenchmark -->
<svg
	xmlns:dc="http://purl.org/dc/elements/1.1/"
	xmlns:cc="http://creativecommons.org/ns#"
	xmlns:rdf="http://www.w3.org/1999/02/22-rdf-syntax-ns#"
	xmlns:svg="http://www.w3.org/2000/svg"
	xmlns="http://www.w3.org/2000/svg"
	xmlns:sodipodi="http://sodipodi.sourceforge.net/DTD/sodipodi-0.dtd"
	xmlns:inkscape="http://www.inkscape.org/namespaces/inkscape"
	width="1000"
	height="1000"
	id="svg2"
	version="1.1"
	sodipodi:docname="Non-manifold/crust-nm4out.txt">
<defs
	id="defs4" />
<metadata
	id="metadata7">
	<rdf:RDF>
		<cc:Work
			rdf:about="">
			<dc:format>image/svg+xml</dc:format>
			<dc:type
				rdf:resource="http://purl.org/dc/dcmitype/StillImage" />
			<dc:title></dc:title>
		</cc:Work>
	</rdf:RDF>
</metadata>
<g
	inkscape:label="Layer 1"
	inkscape:groupmode="layer"
	id="layer1">
	<path style="fill:none;stroke:red;stroke-width:1px;stroke-linecap:butt;stroke-linejoin:miter;stroke-opacity:1" d="M 23.0022,118.256 46.323,59.522 z" id="boundary" inkscape:connector-curvature="0" />
	<path style="fill:none;stroke:red;stroke-width:1px;stroke-linecap:butt;stroke-linejoin:miter;stroke-opacity:1" d="M 82.5999,18.1707 46.323,59.522 z" id="boundary" inkscape:connector-curvature="0" />
	<path style="fill:none;stroke:red;stroke-width:1px;stroke-linecap:butt;stroke-linejoin:miter;stroke-opacity:1" d="M 124.059,4 82.5999,18.1707 z" id="boundary" inkscape:connector-curvature="0" />
	<path style="fill:none;stroke:red;stroke-width:1px;stroke-linecap:butt;stroke-linejoin:miter;stroke-opacity:1" d="M 10.3053,186.793 23.0022,118.256 z" id="boundary" inkscape:connector-curvature="0" />
	<path style="fill:none;stroke:red;stroke-width:1px;stroke-linecap:butt;stroke-linejoin:miter;stroke-opacity:1" d="M 165.518,10.1541 204.387,40.89 z" id="boundary" inkscape:connector-curvature="0" />
	<path style="fill:none;stroke:red;stroke-width:1px;stroke-linecap:butt;stroke-linejoin:miter;stroke-opacity:1" d="M 124.059,4 165.518,10.1541 z" id="boundary" inkscape:connector-curvature="0" />
	<path style="fill:none;stroke:red;stroke-width:1px;stroke-linecap:butt;stroke-linejoin:miter;stroke-opacity:1" d="M 4,263.364 10.3053,186.793 z" id="boundary" inkscape:connector-curvature="0" />
	<path style="fill:none;stroke:red;stroke-width:1px;stroke-linecap:butt;stroke-linejoin:miter;stroke-opacity:1" d="M 5.64109,346.671 4,263.364 z" id="boundary" inkscape:connector-curvature="0" />
	<path style="fill:none;stroke:red;stroke-width:1px;stroke-linecap:butt;stroke-linejoin:miter;stroke-opacity:1" d="M 139.606,271.704 107.735,342.611 z" id="boundary" inkscape:connector-curvature="0" />
	<path style="fill:none;stroke:red;stroke-width:1px;stroke-linecap:butt;stroke-linejoin:miter;stroke-opacity:1" d="M 181.066,249.841 224.54,239.683 z" id="boundary" inkscape:connector-curvature="0" />
	<path style="fill:none;stroke:red;stroke-width:1px;stroke-linecap:butt;stroke-linejoin:miter;stroke-opacity:1" d="M 181.066,249.841 139.606,271.704 z" id="boundary" inkscape:connector-curvature="0" />
	<path style="fill:none;stroke:red;stroke-width:1px;stroke-linecap:butt;stroke-linejoin:miter;stroke-opacity:1" d="M 137.015,419.97 107.735,342.611 z" id="boundary" inkscape:connector-curvature="0" />
	<path style="fill:none;stroke:red;stroke-width:1px;stroke-linecap:butt;stroke-linejoin:miter;stroke-opacity:1" d="M 204.387,40.89 229.003,98.4333 z" id="boundary" inkscape:connector-curvature="0" />
	<path style="fill:none;stroke:red;stroke-width:1px;stroke-linecap:butt;stroke-linejoin:miter;stroke-opacity:1" d="M 237.813,159.845 229.003,98.4333 z" id="boundary" inkscape:connector-curvature="0" />
	<path style="fill:none;stroke:red;stroke-width:1px;stroke-linecap:butt;stroke-linejoin:miter;stroke-opacity:1" d="M 346.903,225.143 305.444,226.52 z" id="boundary" inkscape:connector-curvature="0" />
	<path style="fill:none;stroke:red;stroke-width:1px;stroke-linecap:butt;stroke-linejoin:miter;stroke-opacity:1" d="M 305.444,226.52 263.984,228.949 z" id="boundary" inkscape:connector-curvature="0" />
	<path style="fill:none;stroke:red;stroke-width:1px;stroke-linecap:butt;stroke-linejoin:miter;stroke-opacity:1" d="M 388.362,225.143 346.903,225.143 z" id="boundary" inkscape:connector-curvature="0" />
	<path style="fill:none;stroke:red;stroke-width:1px;stroke-linecap:butt;stroke-linejoin:miter;stroke-opacity:1" d="M 429.821,225.953 388.362,225.143 z" id="boundary" inkscape:connector-curvature="0" />
	<path style="fill:none;stroke:red;stroke-width:1px;stroke-linecap:butt;stroke-linejoin:miter;stroke-opacity:1" d="M 263.984,228.949 244.55,261.42 z" id="boundary" inkscape:connector-curvature="0" />
	<path style="fill:none;stroke:red;stroke-width:1px;stroke-linecap:butt;stroke-linejoin:miter;stroke-opacity:1" d="M 244.55,261.42 224.54,239.683 z" id="boundary" inkscape:connector-curvature="0" />
	<path style="fill:none;stroke:red;stroke-width:1px;stroke-linecap:butt;stroke-linejoin:miter;stroke-opacity:1" d="M 242.477,338.12 244.55,261.42 z" id="boundary" inkscape:connector-curvature="0" />
	<path style="fill:none;stroke:red;stroke-width:1px;stroke-linecap:butt;stroke-linejoin:miter;stroke-opacity:1" d="M 242.477,338.12 245.587,402.123 z" id="boundary" inkscape:connector-curvature="0" />
	<path style="fill:none;stroke:red;stroke-width:1px;stroke-linecap:butt;stroke-linejoin:miter;stroke-opacity:1" d="M 460.916,480.62 419.457,487.503 z" id="boundary" inkscape:connector-curvature="0" />
	<path style="fill:none;stroke:red;stroke-width:1px;stroke-linecap:butt;stroke-linejoin:miter;stroke-opacity:1" d="M 13.5011,413.222 5.64109,346.671 z" id="boundary" inkscape:connector-curvature="0" />
	<path style="fill:none;stroke:red;stroke-width:1px;stroke-linecap:butt;stroke-linejoin:miter;stroke-opacity:1" d="M 28.1846,473.467 13.5011,413.222 z" id="boundary" inkscape:connector-curvature="0" />
	<path style="fill:none;stroke:red;stroke-width:1px;stroke-linecap:butt;stroke-linejoin:miter;stroke-opacity:1" d="M 47.6186,528.746 28.1846,473.467 z" id="boundary" inkscape:connector-curvature="0" />
	<path style="fill:none;stroke:red;stroke-width:1px;stroke-linecap:butt;stroke-linejoin:miter;stroke-opacity:1" d="M 178.475,450.821 137.015,419.97 z" id="boundary" inkscape:connector-curvature="0" />
	<path style="fill:none;stroke:red;stroke-width:1px;stroke-linecap:butt;stroke-linejoin:miter;stroke-opacity:1" d="M 219.934,468.879 260.86,486.628 z" id="boundary" inkscape:connector-curvature="0" />
	<path style="fill:none;stroke:red;stroke-width:1px;stroke-linecap:butt;stroke-linejoin:miter;stroke-opacity:1" d="M 219.934,468.879 178.475,450.821 z" id="boundary" inkscape:connector-curvature="0" />
	<path style="fill:none;stroke:red;stroke-width:1px;stroke-linecap:butt;stroke-linejoin:miter;stroke-opacity:1" d="M 74.8263,585.537 47.6186,528.746 z" id="boundary" inkscape:connector-curvature="0" />
	<path style="fill:none;stroke:red;stroke-width:1px;stroke-linecap:butt;stroke-linejoin:miter;stroke-opacity:1" d="M 111.103,641.356 74.8263,585.537 z" id="boundary" inkscape:connector-curvature="0" />
	<path style="fill:none;stroke:red;stroke-width:1px;stroke-linecap:butt;stroke-linejoin:miter;stroke-opacity:1" d="M 152.562,687.431 111.103,641.356 z" id="boundary" inkscape:connector-curvature="0" />
	<path style="fill:none;stroke:red;stroke-width:1px;stroke-linecap:butt;stroke-linejoin:miter;stroke-opacity:1" d="M 235.481,746.057 194.022,721.845 z" id="boundary" inkscape:connector-curvature="0" />
	<path style="fill:none;stroke:red;stroke-width:1px;stroke-linecap:butt;stroke-linejoin:miter;stroke-opacity:1" d="M 194.022,721.845 152.562,687.431 z" id="boundary" inkscape:connector-curvature="0" />
	<path style="fill:none;stroke:red;stroke-width:1px;stroke-linecap:butt;stroke-linejoin:miter;stroke-opacity:1" d="M 275.467,536.493 260.86,486.628 z" id="boundary" inkscape:connector-curvature="0" />
	<path style="fill:none;stroke:red;stroke-width:1px;stroke-linecap:butt;stroke-linejoin:miter;stroke-opacity:1" d="M 377.997,490.337 336.538,490.094 z" id="boundary" inkscape:connector-curvature="0" />
	<path style="fill:none;stroke:red;stroke-width:1px;stroke-linecap:butt;stroke-linejoin:miter;stroke-opacity:1" d="M 275.467,536.493 323.582,612.529 z" id="boundary" inkscape:connector-curvature="0" />
	<path style="fill:none;stroke:red;stroke-width:1px;stroke-linecap:butt;stroke-linejoin:miter;stroke-opacity:1" d="M 419.457,487.503 377.997,490.337 z" id="boundary" inkscape:connector-curvature="0" />
	<path style="fill:none;stroke:red;stroke-width:1px;stroke-linecap:butt;stroke-linejoin:miter;stroke-opacity:1" d="M 357.268,666.389 323.582,612.529 z" id="boundary" inkscape:connector-curvature="0" />
	<path style="fill:none;stroke:red;stroke-width:1px;stroke-linecap:butt;stroke-linejoin:miter;stroke-opacity:1" d="M 392.249,714.881 357.268,666.389 z" id="boundary" inkscape:connector-curvature="0" />
	<path style="fill:none;stroke:red;stroke-width:1px;stroke-linecap:butt;stroke-linejoin:miter;stroke-opacity:1" d="M 276.94,762.737 235.481,746.057 z" id="boundary" inkscape:connector-curvature="0" />
	<path style="fill:none;stroke:red;stroke-width:1px;stroke-linecap:butt;stroke-linejoin:miter;stroke-opacity:1" d="M 276.94,762.737 318.4,773.831 z" id="boundary" inkscape:connector-curvature="0" />
	<path style="fill:none;stroke:red;stroke-width:1px;stroke-linecap:butt;stroke-linejoin:miter;stroke-opacity:1" d="M 359.859,780.471 318.4,773.831 z" id="boundary" inkscape:connector-curvature="0" />
	<path style="fill:none;stroke:red;stroke-width:1px;stroke-linecap:butt;stroke-linejoin:miter;stroke-opacity:1" d="M 392.249,714.881 420.551,744.918 z" id="boundary" inkscape:connector-curvature="0" />
	<path style="fill:none;stroke:red;stroke-width:1px;stroke-linecap:butt;stroke-linejoin:miter;stroke-opacity:1" d="M 420.551,744.918 402.47,776.284 z" id="boundary" inkscape:connector-curvature="0" />
	<path style="fill:none;stroke:red;stroke-width:1px;stroke-linecap:butt;stroke-linejoin:miter;stroke-opacity:1" d="M 359.859,780.471 402.47,776.284 z" id="boundary" inkscape:connector-curvature="0" />
	<path style="fill:none;stroke:red;stroke-width:1px;stroke-linecap:butt;stroke-linejoin:miter;stroke-opacity:1" d="M 420.551,744.918 465.932,783.023 z" id="boundary" inkscape:connector-curvature="0" />
	<path style="fill:none;stroke:red;stroke-width:1px;stroke-linecap:butt;stroke-linejoin:miter;stroke-opacity:1" d="M 471.281,228.868 429.821,225.953 z" id="boundary" inkscape:connector-curvature="0" />
	<path style="fill:none;stroke:red;stroke-width:1px;stroke-linecap:butt;stroke-linejoin:miter;stroke-opacity:1" d="M 471.281,228.868 512.74,233.97 z" id="boundary" inkscape:connector-curvature="0" />
	<path style="fill:none;stroke:red;stroke-width:1px;stroke-linecap:butt;stroke-linejoin:miter;stroke-opacity:1" d="M 554.199,240.933 512.74,233.97 z" id="boundary" inkscape:connector-curvature="0" />
	<path style="fill:none;stroke:red;stroke-width:1px;stroke-linecap:butt;stroke-linejoin:miter;stroke-opacity:1" d="M 688.942,171.052 647.483,162.145 z" id="boundary" inkscape:connector-curvature="0" />
	<path style="fill:none;stroke:red;stroke-width:1px;stroke-linecap:butt;stroke-linejoin:miter;stroke-opacity:1" d="M 647.483,162.145 599.981,176.184 z" id="boundary" inkscape:connector-curvature="0" />
	<path style="fill:none;stroke:red;stroke-width:1px;stroke-linecap:butt;stroke-linejoin:miter;stroke-opacity:1" d="M 554.199,240.933 580.334,245.437 z" id="boundary" inkscape:connector-curvature="0" />
	<path style="fill:none;stroke:red;stroke-width:1px;stroke-linecap:butt;stroke-linejoin:miter;stroke-opacity:1" d="M 502.375,468.555 460.916,480.62 z" id="boundary" inkscape:connector-curvature="0" />
	<path style="fill:none;stroke:red;stroke-width:1px;stroke-linecap:butt;stroke-linejoin:miter;stroke-opacity:1" d="M 502.375,468.555 543.835,446.367 z" id="boundary" inkscape:connector-curvature="0" />
	<path style="fill:none;stroke:red;stroke-width:1px;stroke-linecap:butt;stroke-linejoin:miter;stroke-opacity:1" d="M 573.957,396.811 543.835,446.367 z" id="boundary" inkscape:connector-curvature="0" />
	<path style="fill:none;stroke:red;stroke-width:1px;stroke-linecap:butt;stroke-linejoin:miter;stroke-opacity:1" d="M 580.334,245.437 647.483,264.821 z" id="boundary" inkscape:connector-curvature="0" />
	<path style="fill:none;stroke:red;stroke-width:1px;stroke-linecap:butt;stroke-linejoin:miter;stroke-opacity:1" d="M 647.483,264.821 688.942,279.397 z" id="boundary" inkscape:connector-curvature="0" />
	<path style="fill:none;stroke:red;stroke-width:1px;stroke-linecap:butt;stroke-linejoin:miter;stroke-opacity:1" d="M 573.957,396.811 580.111,335.593 z" id="boundary" inkscape:connector-curvature="0" />
	<path style="fill:none;stroke:red;stroke-width:1px;stroke-linecap:butt;stroke-linejoin:miter;stroke-opacity:1" d="M 730.401,197.612 770.565,243.8 z" id="boundary" inkscape:connector-curvature="0" />
	<path style="fill:none;stroke:red;stroke-width:1px;stroke-linecap:butt;stroke-linejoin:miter;stroke-opacity:1" d="M 730.401,197.612 688.942,171.052 z" id="boundary" inkscape:connector-curvature="0" />
	<path style="fill:none;stroke:red;stroke-width:1px;stroke-linecap:butt;stroke-linejoin:miter;stroke-opacity:1" d="M 730.401,296.725 688.942,279.397 z" id="boundary" inkscape:connector-curvature="0" />
	<path style="fill:none;stroke:red;stroke-width:1px;stroke-linecap:butt;stroke-linejoin:miter;stroke-opacity:1" d="M 773.004,314.768 730.401,296.725 z" id="boundary" inkscape:connector-curvature="0" />
	<path style="fill:none;stroke:red;stroke-width:1px;stroke-linecap:butt;stroke-linejoin:miter;stroke-opacity:1" d="M 893.647,405.313 853.614,367.341 z" id="boundary" inkscape:connector-curvature="0" />
	<path style="fill:none;stroke:red;stroke-width:1px;stroke-linecap:butt;stroke-linejoin:miter;stroke-opacity:1" d="M 773.004,314.768 816.528,338.274 z" id="boundary" inkscape:connector-curvature="0" />
	<path style="fill:none;stroke:red;stroke-width:1px;stroke-linecap:butt;stroke-linejoin:miter;stroke-opacity:1" d="M 853.614,367.341 816.528,338.274 z" id="boundary" inkscape:connector-curvature="0" />
	<path style="fill:none;stroke:red;stroke-width:1px;stroke-linecap:butt;stroke-linejoin:miter;stroke-opacity:1" d="M 985.635,556.04 966.201,503.827 z" id="boundary" inkscape:connector-curvature="0" />
	<path style="fill:none;stroke:red;stroke-width:1px;stroke-linecap:butt;stroke-linejoin:miter;stroke-opacity:1" d="M 843.767,485.559 836.498,402.511 z" id="boundary" inkscape:connector-curvature="0" />
	<path style="fill:none;stroke:red;stroke-width:1px;stroke-linecap:butt;stroke-linejoin:miter;stroke-opacity:1" d="M 836.498,402.511 853.614,367.341 z" id="boundary" inkscape:connector-curvature="0" />
	<path style="fill:none;stroke:red;stroke-width:1px;stroke-linecap:butt;stroke-linejoin:miter;stroke-opacity:1" d="M 966.201,503.827 933.811,451.01 z" id="boundary" inkscape:connector-curvature="0" />
	<path style="fill:none;stroke:red;stroke-width:1px;stroke-linecap:butt;stroke-linejoin:miter;stroke-opacity:1" d="M 893.647,405.313 933.811,451.01 z" id="boundary" inkscape:connector-curvature="0" />
	<path style="fill:none;stroke:red;stroke-width:1px;stroke-linecap:butt;stroke-linejoin:miter;stroke-opacity:1" d="M 843.767,485.559 834.05,537.384 z" id="boundary" inkscape:connector-curvature="0" />
	<path style="fill:none;stroke:red;stroke-width:1px;stroke-linecap:butt;stroke-linejoin:miter;stroke-opacity:1" d="M 774.452,644.19 732.993,685.973 z" id="boundary" inkscape:connector-curvature="0" />
	<path style="fill:none;stroke:red;stroke-width:1px;stroke-linecap:butt;stroke-linejoin:miter;stroke-opacity:1" d="M 608.615,753.02 650.074,738.121 z" id="boundary" inkscape:connector-curvature="0" />
	<path style="fill:none;stroke:red;stroke-width:1px;stroke-linecap:butt;stroke-linejoin:miter;stroke-opacity:1" d="M 691.533,716.42 650.074,738.121 z" id="boundary" inkscape:connector-curvature="0" />
	<path style="fill:none;stroke:red;stroke-width:1px;stroke-linecap:butt;stroke-linejoin:miter;stroke-opacity:1" d="M 732.993,685.973 691.533,716.42 z" id="boundary" inkscape:connector-curvature="0" />
	<path style="fill:none;stroke:red;stroke-width:1px;stroke-linecap:butt;stroke-linejoin:miter;stroke-opacity:1" d="M 608.615,753.02 567.155,764.438 z" id="boundary" inkscape:connector-curvature="0" />
	<path style="fill:none;stroke:red;stroke-width:1px;stroke-linecap:butt;stroke-linejoin:miter;stroke-opacity:1" d="M 508.325,811.514 465.932,783.023 z" id="boundary" inkscape:connector-curvature="0" />
	<path style="fill:none;stroke:red;stroke-width:1px;stroke-linecap:butt;stroke-linejoin:miter;stroke-opacity:1" d="M 567.155,830.676 508.325,811.514 z" id="boundary" inkscape:connector-curvature="0" />
	<path style="fill:none;stroke:red;stroke-width:1px;stroke-linecap:butt;stroke-linejoin:miter;stroke-opacity:1" d="M 608.615,840.636 567.155,830.676 z" id="boundary" inkscape:connector-curvature="0" />
	<path style="fill:none;stroke:red;stroke-width:1px;stroke-linecap:butt;stroke-linejoin:miter;stroke-opacity:1" d="M 650.074,848.652 608.615,840.636 z" id="boundary" inkscape:connector-curvature="0" />
	<path style="fill:none;stroke:red;stroke-width:1px;stroke-linecap:butt;stroke-linejoin:miter;stroke-opacity:1" d="M 650.074,848.652 691.533,853.997 z" id="boundary" inkscape:connector-curvature="0" />
	<path style="fill:none;stroke:red;stroke-width:1px;stroke-linecap:butt;stroke-linejoin:miter;stroke-opacity:1" d="M 732.993,857.074 691.533,853.997 z" id="boundary" inkscape:connector-curvature="0" />
	<path style="fill:none;stroke:red;stroke-width:1px;stroke-linecap:butt;stroke-linejoin:miter;stroke-opacity:1" d="M 810.729,591.475 774.452,644.19 z" id="boundary" inkscape:connector-curvature="0" />
	<path style="fill:none;stroke:red;stroke-width:1px;stroke-linecap:butt;stroke-linejoin:miter;stroke-opacity:1" d="M 810.729,591.475 834.05,537.384 z" id="boundary" inkscape:connector-curvature="0" />
	<path style="fill:none;stroke:red;stroke-width:1px;stroke-linecap:butt;stroke-linejoin:miter;stroke-opacity:1" d="M 985.635,556.04 996,606.914 z" id="boundary" inkscape:connector-curvature="0" />
	<path style="fill:none;stroke:red;stroke-width:1px;stroke-linecap:butt;stroke-linejoin:miter;stroke-opacity:1" d="M 993.409,647.51 992.113,684.003 z" id="boundary" inkscape:connector-curvature="0" />
	<path style="fill:none;stroke:red;stroke-width:1px;stroke-linecap:butt;stroke-linejoin:miter;stroke-opacity:1" d="M 996,606.914 993.409,647.51 z" id="boundary" inkscape:connector-curvature="0" />
	<path style="fill:none;stroke:red;stroke-width:1px;stroke-linecap:butt;stroke-linejoin:miter;stroke-opacity:1" d="M 992.113,684.003 972.679,745.112 z" id="boundary" inkscape:connector-curvature="0" />
	<path style="fill:none;stroke:red;stroke-width:1px;stroke-linecap:butt;stroke-linejoin:miter;stroke-opacity:1" d="M 857.37,842.012 815.911,852.053 z" id="boundary" inkscape:connector-curvature="0" />
	<path style="fill:none;stroke:red;stroke-width:1px;stroke-linecap:butt;stroke-linejoin:miter;stroke-opacity:1" d="M 774.452,856.507 732.993,857.074 z" id="boundary" inkscape:connector-curvature="0" />
	<path style="fill:none;stroke:red;stroke-width:1px;stroke-linecap:butt;stroke-linejoin:miter;stroke-opacity:1" d="M 815.911,852.053 774.452,856.507 z" id="boundary" inkscape:connector-curvature="0" />
	<path style="fill:none;stroke:red;stroke-width:1px;stroke-linecap:butt;stroke-linejoin:miter;stroke-opacity:1" d="M 898.83,823.955 857.37,842.012 z" id="boundary" inkscape:connector-curvature="0" />
	<path style="fill:none;stroke:red;stroke-width:1px;stroke-linecap:butt;stroke-linejoin:miter;stroke-opacity:1" d="M 940.289,792.051 972.679,745.112 z" id="boundary" inkscape:connector-curvature="0" />
	<path style="fill:none;stroke:red;stroke-width:1px;stroke-linecap:butt;stroke-linejoin:miter;stroke-opacity:1" d="M 940.289,792.051 898.83,823.955 z" id="boundary" inkscape:connector-curvature="0" />
	<circle cx="5.64109" cy="346.671" r="4" fill="#0" id="circle0"/>
	<circle cx="13.5011" cy="413.222" r="4" fill="#0" id="circle1"/>
	<circle cx="28.1846" cy="473.467" r="4" fill="#0" id="circle2"/>
	<circle cx="47.6186" cy="528.746" r="4" fill="#0" id="circle3"/>
	<circle cx="74.8263" cy="585.537" r="4" fill="#0" id="circle4"/>
	<circle cx="111.103" cy="641.356" r="4" fill="#0" id="circle5"/>
	<circle cx="152.562" cy="687.431" r="4" fill="#0" id="circle6"/>
	<circle cx="194.022" cy="721.845" r="4" fill="#0" id="circle7"/>
	<circle cx="235.481" cy="746.057" r="4" fill="#0" id="circle8"/>
	<circle cx="276.94" cy="762.737" r="4" fill="#0" id="circle9"/>
	<circle cx="318.4" cy="773.831" r="4" fill="#0" id="circle10"/>
	<circle cx="359.859" cy="780.471" r="4" fill="#0" id="circle11"/>
	<circle cx="402.47" cy="776.284" r="4" fill="#0" id="circle12"/>
	<circle cx="465.932" cy="783.023" r="4" fill="#0" id="circle13"/>
	<circle cx="567.155" cy="764.438" r="4" fill="#0" id="circle14"/>
	<circle cx="608.615" cy="753.02" r="4" fill="#0" id="circle15"/>
	<circle cx="650.074" cy="738.121" r="4" fill="#0" id="circle16"/>
	<circle cx="691.533" cy="716.42" r="4" fill="#0" id="circle17"/>
	<circle cx="732.993" cy="685.973" r="4" fill="#0" id="circle18"/>
	<circle cx="774.452" cy="644.19" r="4" fill="#0" id="circle19"/>
	<circle cx="810.729" cy="591.475" r="4" fill="#0" id="circle20"/>
	<circle cx="834.05" cy="537.384" r="4" fill="#0" id="circle21"/>
	<circle cx="843.767" cy="485.559" r="4" fill="#0" id="circle22"/>
	<circle cx="836.498" cy="402.511" r="4" fill="#0" id="circle23"/>
	<circle cx="816.528" cy="338.274" r="4" fill="#0" id="circle24"/>
	<circle cx="770.565" cy="243.8" r="4" fill="#0" id="circle25"/>
	<circle cx="730.401" cy="197.612" r="4" fill="#0" id="circle26"/>
	<circle cx="688.942" cy="171.052" r="4" fill="#0" id="circle27"/>
	<circle cx="647.483" cy="162.145" r="4" fill="#0" id="circle28"/>
	<circle cx="599.981" cy="176.184" r="4" fill="#0" id="circle29"/>
	<circle cx="580.334" cy="245.437" r="4" fill="#0" id="circle30"/>
	<circle cx="580.111" cy="335.593" r="4" fill="#0" id="circle31"/>
	<circle cx="573.957" cy="396.811" r="4" fill="#0" id="circle32"/>
	<circle cx="543.835" cy="446.367" r="4" fill="#0" id="circle33"/>
	<circle cx="502.375" cy="468.555" r="4" fill="#0" id="circle34"/>
	<circle cx="460.916" cy="480.62" r="4" fill="#0" id="circle35"/>
	<circle cx="419.457" cy="487.503" r="4" fill="#0" id="circle36"/>
	<circle cx="377.997" cy="490.337" r="4" fill="#0" id="circle37"/>
	<circle cx="336.538" cy="490.094" r="4" fill="#0" id="circle38"/>
	<circle cx="260.86" cy="486.628" r="4" fill="#0" id="circle39"/>
	<circle cx="219.934" cy="468.879" r="4" fill="#0" id="circle40"/>
	<circle cx="178.475" cy="450.821" r="4" fill="#0" id="circle41"/>
	<circle cx="137.015" cy="419.97" r="4" fill="#0" id="circle42"/>
	<circle cx="107.735" cy="342.611" r="4" fill="#0" id="circle43"/>
	<circle cx="139.606" cy="271.704" r="4" fill="#0" id="circle44"/>
	<circle cx="181.066" cy="249.841" r="4" fill="#0" id="circle45"/>
	<circle cx="224.54" cy="239.683" r="4" fill="#0" id="circle46"/>
	<circle cx="263.984" cy="228.949" r="4" fill="#0" id="circle47"/>
	<circle cx="305.444" cy="226.52" r="4" fill="#0" id="circle48"/>
	<circle cx="346.903" cy="225.143" r="4" fill="#0" id="circle49"/>
	<circle cx="388.362" cy="225.143" r="4" fill="#0" id="circle50"/>
	<circle cx="429.821" cy="225.953" r="4" fill="#0" id="circle51"/>
	<circle cx="471.281" cy="228.868" r="4" fill="#0" id="circle52"/>
	<circle cx="512.74" cy="233.97" r="4" fill="#0" id="circle53"/>
	<circle cx="554.199" cy="240.933" r="4" fill="#0" id="circle54"/>
	<circle cx="580.334" cy="245.437" r="4" fill="#0" id="circle55"/>
	<circle cx="647.483" cy="264.821" r="4" fill="#0" id="circle56"/>
	<circle cx="688.942" cy="279.397" r="4" fill="#0" id="circle57"/>
	<circle cx="730.401" cy="296.725" r="4" fill="#0" id="circle58"/>
	<circle cx="773.004" cy="314.768" r="4" fill="#0" id="circle59"/>
	<circle cx="816.528" cy="338.274" r="4" fill="#0" id="circle60"/>
	<circle cx="853.614" cy="367.341" r="4" fill="#0" id="circle61"/>
	<circle cx="893.647" cy="405.313" r="4" fill="#0" id="circle62"/>
	<circle cx="933.811" cy="451.01" r="4" fill="#0" id="circle63"/>
	<circle cx="966.201" cy="503.827" r="4" fill="#0" id="circle64"/>
	<circle cx="985.635" cy="556.04" r="4" fill="#0" id="circle65"/>
	<circle cx="996" cy="606.914" r="4" fill="#0" id="circle66"/>
	<circle cx="993.409" cy="647.51" r="4" fill="#0" id="circle67"/>
	<circle cx="992.113" cy="684.003" r="4" fill="#0" id="circle68"/>
	<circle cx="972.679" cy="745.112" r="4" fill="#0" id="circle69"/>
	<circle cx="940.289" cy="792.051" r="4" fill="#0" id="circle70"/>
	<circle cx="898.83" cy="823.955" r="4" fill="#0" id="circle71"/>
	<circle cx="857.37" cy="842.012" r="4" fill="#0" id="circle72"/>
	<circle cx="815.911" cy="852.053" r="4" fill="#0" id="circle73"/>
	<circle cx="774.452" cy="856.507" r="4" fill="#0" id="circle74"/>
	<circle cx="732.993" cy="857.074" r="4" fill="#0" id="circle75"/>
	<circle cx="691.533" cy="853.997" r="4" fill="#0" id="circle76"/>
	<circle cx="650.074" cy="848.652" r="4" fill="#0" id="circle77"/>
	<circle cx="608.615" cy="840.636" r="4" fill="#0" id="circle78"/>
	<circle cx="567.155" cy="830.676" r="4" fill="#0" id="circle79"/>
	<circle cx="508.325" cy="811.514" r="4" fill="#0" id="circle80"/>
	<circle cx="465.932" cy="783.023" r="4" fill="#0" id="circle81"/>
	<circle cx="420.551" cy="744.918" r="4" fill="#0" id="circle82"/>
	<circle cx="392.249" cy="714.881" r="4" fill="#0" id="circle83"/>
	<circle cx="357.268" cy="666.389" r="4" fill="#0" id="circle84"/>
	<circle cx="323.582" cy="612.529" r="4" fill="#0" id="circle85"/>
	<circle cx="275.467" cy="536.493" r="4" fill="#0" id="circle86"/>
	<circle cx="260.86" cy="486.628" r="4" fill="#0" id="circle87"/>
	<circle cx="245.587" cy="402.123" r="4" fill="#0" id="circle88"/>
	<circle cx="242.477" cy="338.12" r="4" fill="#0" id="circle89"/>
	<circle cx="244.55" cy="261.42" r="4" fill="#0" id="circle90"/>
	<circle cx="237.813" cy="159.845" r="4" fill="#0" id="circle91"/>
	<circle cx="229.003" cy="98.4333" r="4" fill="#0" id="circle92"/>
	<circle cx="204.387" cy="40.89" r="4" fill="#0" id="circle93"/>
	<circle cx="165.518" cy="10.1541" r="4" fill="#0" id="circle94"/>
	<circle cx="124.059" cy="4" r="4" fill="#0" id="circle95"/>
	<circle cx="82.5999" cy="18.1707" r="4" fill="#0" id="circle96"/>
	<circle cx="46.323" cy="59.522" r="4" fill="#0" id="circle97"/>
	<circle cx="23.0022" cy="118.256" r="4" fill="#0" id="circle98"/>
	<circle cx="10.3053" cy="186.793" r="4" fill="#0" id="circle99"/>
	<circle cx="4" cy="263.364" r="4" fill="#0" id="circle100"/>
	<circle cx="5.64109" cy="346.671" r="4" fill="#0" id="circle101"/>
	</g>
</svg>