<?xml version="1.0" encoding="UTF-8" standalone="no"?>
<!-- Created with CurveBenchmark -->
<svg
	xmlns:dc="http://purl.org/dc/elements/1.1/"
	xmlns:cc="http://creativecommons.org/ns#"
	xmlns:rdf="http://www.w3.org/1999/02/22-rdf-syntax-ns#"
	xmlns:svg="http://www.w3.org/2000/svg"
	xmlns="http://www.w3.org/2000/svg"
	xmlns:sodipodi="http://sodipodi.sourceforge.net/DTD/sodipodi-0.dtd"
	xmlns:inkscape="http://www.inkscape.org/namespaces/inkscape"
	width="1000"
	height="1000"
	id="svg2"
	version="1.1"
	sodipodi:docname="sampling-noise-0.2/discur-bunny.svg">
<defs
	id="defs4" />
<metadata
	id="metadata7">
	<rdf:RDF>
		<cc:Work
			rdf:about="">
			<dc:format>image/svg+xml</dc:format>
			<dc:type
				rdf:resource="http://purl.org/dc/dcmitype/StillImage" />
			<dc:title></dc:title>
		</cc:Work>
	</rdf:RDF>
</metadata>
<g
	inkscape:label="Layer 1"
	inkscape:groupmode="layer"
	id="layer1">
	<path style="fill:none;stroke:red;stroke-width:1px;stroke-linecap:butt;stroke-linejoin:miter;stroke-opacity:1" d="M 256.327,760.273 264.689,740.69 z" id="boundary" inkscape:connector-curvature="0" />
	<path style="fill:none;stroke:red;stroke-width:1px;stroke-linecap:butt;stroke-linejoin:miter;stroke-opacity:1" d="M 256.327,760.273 258.848,786.043 z" id="boundary" inkscape:connector-curvature="0" />
	<path style="fill:none;stroke:red;stroke-width:1px;stroke-linecap:butt;stroke-linejoin:miter;stroke-opacity:1" d="M 264.689,740.69 243.542,728.7 z" id="boundary" inkscape:connector-curvature="0" />
	<path style="fill:none;stroke:red;stroke-width:1px;stroke-linecap:butt;stroke-linejoin:miter;stroke-opacity:1" d="M 243.542,728.7 227.257,712.627 z" id="boundary" inkscape:connector-curvature="0" />
	<path style="fill:none;stroke:red;stroke-width:1px;stroke-linecap:butt;stroke-linejoin:miter;stroke-opacity:1" d="M 227.257,712.627 202.721,701.467 z" id="boundary" inkscape:connector-curvature="0" />
	<path style="fill:none;stroke:red;stroke-width:1px;stroke-linecap:butt;stroke-linejoin:miter;stroke-opacity:1" d="M 202.721,701.467 196.754,652.831 z" id="boundary" inkscape:connector-curvature="0" />
	<path style="fill:none;stroke:red;stroke-width:1px;stroke-linecap:butt;stroke-linejoin:miter;stroke-opacity:1" d="M 196.754,652.831 161.005,639.476 z" id="boundary" inkscape:connector-curvature="0" />
	<path style="fill:none;stroke:red;stroke-width:1px;stroke-linecap:butt;stroke-linejoin:miter;stroke-opacity:1" d="M 161.005,639.476 111.323,642.38 z" id="boundary" inkscape:connector-curvature="0" />
	<path style="fill:none;stroke:red;stroke-width:1px;stroke-linecap:butt;stroke-linejoin:miter;stroke-opacity:1" d="M 111.323,642.38 96.5331,605.726 z" id="boundary" inkscape:connector-curvature="0" />
	<path style="fill:none;stroke:red;stroke-width:1px;stroke-linecap:butt;stroke-linejoin:miter;stroke-opacity:1" d="M 96.5331,605.726 71.2045,602.353 z" id="boundary" inkscape:connector-curvature="0" />
	<path style="fill:none;stroke:red;stroke-width:1px;stroke-linecap:butt;stroke-linejoin:miter;stroke-opacity:1" d="M 71.2045,602.353 42.3466,575.753 z" id="boundary" inkscape:connector-curvature="0" />
	<path style="fill:none;stroke:red;stroke-width:1px;stroke-linecap:butt;stroke-linejoin:miter;stroke-opacity:1" d="M 42.3466,575.753 42.092,555.221 z" id="boundary" inkscape:connector-curvature="0" />
	<path style="fill:none;stroke:red;stroke-width:1px;stroke-linecap:butt;stroke-linejoin:miter;stroke-opacity:1" d="M 42.092,555.221 31.2124,536.221 z" id="boundary" inkscape:connector-curvature="0" />
	<path style="fill:none;stroke:red;stroke-width:1px;stroke-linecap:butt;stroke-linejoin:miter;stroke-opacity:1" d="M 31.2124,536.221 6.66792,511.619 z" id="boundary" inkscape:connector-curvature="0" />
	<path style="fill:none;stroke:red;stroke-width:1px;stroke-linecap:butt;stroke-linejoin:miter;stroke-opacity:1" d="M 6.66792,511.619 4,473.073 z" id="boundary" inkscape:connector-curvature="0" />
	<path style="fill:none;stroke:red;stroke-width:1px;stroke-linecap:butt;stroke-linejoin:miter;stroke-opacity:1" d="M 4,473.073 31.416,430.376 z" id="boundary" inkscape:connector-curvature="0" />
	<path style="fill:none;stroke:red;stroke-width:1px;stroke-linecap:butt;stroke-linejoin:miter;stroke-opacity:1" d="M 31.416,430.376 53.071,381.914 z" id="boundary" inkscape:connector-curvature="0" />
	<path style="fill:none;stroke:red;stroke-width:1px;stroke-linecap:butt;stroke-linejoin:miter;stroke-opacity:1" d="M 53.071,381.914 102.166,372.137 z" id="boundary" inkscape:connector-curvature="0" />
	<path style="fill:none;stroke:red;stroke-width:1px;stroke-linecap:butt;stroke-linejoin:miter;stroke-opacity:1" d="M 102.166,372.137 101.179,336.77 z" id="boundary" inkscape:connector-curvature="0" />
	<path style="fill:none;stroke:red;stroke-width:1px;stroke-linecap:butt;stroke-linejoin:miter;stroke-opacity:1" d="M 101.179,336.77 128.199,327.168 z" id="boundary" inkscape:connector-curvature="0" />
	<path style="fill:none;stroke:red;stroke-width:1px;stroke-linecap:butt;stroke-linejoin:miter;stroke-opacity:1" d="M 128.199,327.168 126.842,306.238 z" id="boundary" inkscape:connector-curvature="0" />
	<path style="fill:none;stroke:red;stroke-width:1px;stroke-linecap:butt;stroke-linejoin:miter;stroke-opacity:1" d="M 126.842,306.238 131.74,290.669 z" id="boundary" inkscape:connector-curvature="0" />
	<path style="fill:none;stroke:red;stroke-width:1px;stroke-linecap:butt;stroke-linejoin:miter;stroke-opacity:1" d="M 131.74,290.669 116.852,274.427 z" id="boundary" inkscape:connector-curvature="0" />
	<path style="fill:none;stroke:red;stroke-width:1px;stroke-linecap:butt;stroke-linejoin:miter;stroke-opacity:1" d="M 116.852,274.427 133.245,259.93 z" id="boundary" inkscape:connector-curvature="0" />
	<path style="fill:none;stroke:red;stroke-width:1px;stroke-linecap:butt;stroke-linejoin:miter;stroke-opacity:1" d="M 133.245,259.93 127.718,244.443 z" id="boundary" inkscape:connector-curvature="0" />
	<path style="fill:none;stroke:red;stroke-width:1px;stroke-linecap:butt;stroke-linejoin:miter;stroke-opacity:1" d="M 127.718,244.443 134.653,228.983 z" id="boundary" inkscape:connector-curvature="0" />
	<path style="fill:none;stroke:red;stroke-width:1px;stroke-linecap:butt;stroke-linejoin:miter;stroke-opacity:1" d="M 134.653,228.983 135.353,212.601 z" id="boundary" inkscape:connector-curvature="0" />
	<path style="fill:none;stroke:red;stroke-width:1px;stroke-linecap:butt;stroke-linejoin:miter;stroke-opacity:1" d="M 135.353,212.601 112.997,196.741 z" id="boundary" inkscape:connector-curvature="0" />
	<path style="fill:none;stroke:red;stroke-width:1px;stroke-linecap:butt;stroke-linejoin:miter;stroke-opacity:1" d="M 112.997,196.741 132.699,179.409 z" id="boundary" inkscape:connector-curvature="0" />
	<path style="fill:none;stroke:red;stroke-width:1px;stroke-linecap:butt;stroke-linejoin:miter;stroke-opacity:1" d="M 132.699,179.409 125.296,163.619 z" id="boundary" inkscape:connector-curvature="0" />
	<path style="fill:none;stroke:red;stroke-width:1px;stroke-linecap:butt;stroke-linejoin:miter;stroke-opacity:1" d="M 125.296,163.619 117.278,147.325 z" id="boundary" inkscape:connector-curvature="0" />
	<path style="fill:none;stroke:red;stroke-width:1px;stroke-linecap:butt;stroke-linejoin:miter;stroke-opacity:1" d="M 117.278,147.325 123.238,131.2 z" id="boundary" inkscape:connector-curvature="0" />
	<path style="fill:none;stroke:red;stroke-width:1px;stroke-linecap:butt;stroke-linejoin:miter;stroke-opacity:1" d="M 123.238,131.2 131.61,115.533 z" id="boundary" inkscape:connector-curvature="0" />
	<path style="fill:none;stroke:red;stroke-width:1px;stroke-linecap:butt;stroke-linejoin:miter;stroke-opacity:1" d="M 131.61,115.533 123.823,99.7024 z" id="boundary" inkscape:connector-curvature="0" />
	<path style="fill:none;stroke:red;stroke-width:1px;stroke-linecap:butt;stroke-linejoin:miter;stroke-opacity:1" d="M 123.823,99.7024 127.693,84.2664 z" id="boundary" inkscape:connector-curvature="0" />
	<path style="fill:none;stroke:red;stroke-width:1px;stroke-linecap:butt;stroke-linejoin:miter;stroke-opacity:1" d="M 127.693,84.2664 129.95,69.15 z" id="boundary" inkscape:connector-curvature="0" />
	<path style="fill:none;stroke:red;stroke-width:1px;stroke-linecap:butt;stroke-linejoin:miter;stroke-opacity:1" d="M 129.95,69.15 121.242,52.3074 z" id="boundary" inkscape:connector-curvature="0" />
	<path style="fill:none;stroke:red;stroke-width:1px;stroke-linecap:butt;stroke-linejoin:miter;stroke-opacity:1" d="M 121.242,52.3074 138.861,42.0986 z" id="boundary" inkscape:connector-curvature="0" />
	<path style="fill:none;stroke:red;stroke-width:1px;stroke-linecap:butt;stroke-linejoin:miter;stroke-opacity:1" d="M 138.861,42.0986 134.5,28.7323 z" id="boundary" inkscape:connector-curvature="0" />
	<path style="fill:none;stroke:red;stroke-width:1px;stroke-linecap:butt;stroke-linejoin:miter;stroke-opacity:1" d="M 134.5,28.7323 143.028,21.7723 z" id="boundary" inkscape:connector-curvature="0" />
	<path style="fill:none;stroke:red;stroke-width:1px;stroke-linecap:butt;stroke-linejoin:miter;stroke-opacity:1" d="M 143.028,21.7723 147.707,11.8233 z" id="boundary" inkscape:connector-curvature="0" />
	<path style="fill:none;stroke:red;stroke-width:1px;stroke-linecap:butt;stroke-linejoin:miter;stroke-opacity:1" d="M 147.707,11.8233 159.053,12.878 z" id="boundary" inkscape:connector-curvature="0" />
	<path style="fill:none;stroke:red;stroke-width:1px;stroke-linecap:butt;stroke-linejoin:miter;stroke-opacity:1" d="M 159.053,12.878 168.329,4 z" id="boundary" inkscape:connector-curvature="0" />
	<path style="fill:none;stroke:red;stroke-width:1px;stroke-linecap:butt;stroke-linejoin:miter;stroke-opacity:1" d="M 168.329,4 177.029,14.8655 z" id="boundary" inkscape:connector-curvature="0" />
	<path style="fill:none;stroke:red;stroke-width:1px;stroke-linecap:butt;stroke-linejoin:miter;stroke-opacity:1" d="M 177.029,14.8655 185.116,17.9726 z" id="boundary" inkscape:connector-curvature="0" />
	<path style="fill:none;stroke:red;stroke-width:1px;stroke-linecap:butt;stroke-linejoin:miter;stroke-opacity:1" d="M 185.116,17.9726 197.044,21.2208 z" id="boundary" inkscape:connector-curvature="0" />
	<path style="fill:none;stroke:red;stroke-width:1px;stroke-linecap:butt;stroke-linejoin:miter;stroke-opacity:1" d="M 197.044,21.2208 191.401,45.1919 z" id="boundary" inkscape:connector-curvature="0" />
	<path style="fill:none;stroke:red;stroke-width:1px;stroke-linecap:butt;stroke-linejoin:miter;stroke-opacity:1" d="M 191.401,45.1919 209.075,54.844 z" id="boundary" inkscape:connector-curvature="0" />
	<path style="fill:none;stroke:red;stroke-width:1px;stroke-linecap:butt;stroke-linejoin:miter;stroke-opacity:1" d="M 209.075,54.844 202.244,66.1744 z" id="boundary" inkscape:connector-curvature="0" />
	<path style="fill:none;stroke:red;stroke-width:1px;stroke-linecap:butt;stroke-linejoin:miter;stroke-opacity:1" d="M 202.244,66.1744 195.473,76.372 z" id="boundary" inkscape:connector-curvature="0" />
	<path style="fill:none;stroke:red;stroke-width:1px;stroke-linecap:butt;stroke-linejoin:miter;stroke-opacity:1" d="M 195.473,76.372 197.34,86.2347 z" id="boundary" inkscape:connector-curvature="0" />
	<path style="fill:none;stroke:red;stroke-width:1px;stroke-linecap:butt;stroke-linejoin:miter;stroke-opacity:1" d="M 197.34,86.2347 204.342,96.0048 z" id="boundary" inkscape:connector-curvature="0" />
	<path style="fill:none;stroke:red;stroke-width:1px;stroke-linecap:butt;stroke-linejoin:miter;stroke-opacity:1" d="M 204.342,96.0048 207.334,106.095 z" id="boundary" inkscape:connector-curvature="0" />
	<path style="fill:none;stroke:red;stroke-width:1px;stroke-linecap:butt;stroke-linejoin:miter;stroke-opacity:1" d="M 207.334,106.095 199.317,114.675 z" id="boundary" inkscape:connector-curvature="0" />
	<path style="fill:none;stroke:red;stroke-width:1px;stroke-linecap:butt;stroke-linejoin:miter;stroke-opacity:1" d="M 199.317,114.675 195.191,123.533 z" id="boundary" inkscape:connector-curvature="0" />
	<path style="fill:none;stroke:red;stroke-width:1px;stroke-linecap:butt;stroke-linejoin:miter;stroke-opacity:1" d="M 195.191,123.533 194.541,132.641 z" id="boundary" inkscape:connector-curvature="0" />
	<path style="fill:none;stroke:red;stroke-width:1px;stroke-linecap:butt;stroke-linejoin:miter;stroke-opacity:1" d="M 194.541,132.641 200.361,141.936 z" id="boundary" inkscape:connector-curvature="0" />
	<path style="fill:none;stroke:red;stroke-width:1px;stroke-linecap:butt;stroke-linejoin:miter;stroke-opacity:1" d="M 200.361,141.936 195.293,151.222 z" id="boundary" inkscape:connector-curvature="0" />
	<path style="fill:none;stroke:red;stroke-width:1px;stroke-linecap:butt;stroke-linejoin:miter;stroke-opacity:1" d="M 195.293,151.222 197.709,159.008 z" id="boundary" inkscape:connector-curvature="0" />
	<path style="fill:none;stroke:red;stroke-width:1px;stroke-linecap:butt;stroke-linejoin:miter;stroke-opacity:1" d="M 197.709,159.008 206.844,166.928 z" id="boundary" inkscape:connector-curvature="0" />
	<path style="fill:none;stroke:red;stroke-width:1px;stroke-linecap:butt;stroke-linejoin:miter;stroke-opacity:1" d="M 206.844,166.928 206.027,174.496 z" id="boundary" inkscape:connector-curvature="0" />
	<path style="fill:none;stroke:red;stroke-width:1px;stroke-linecap:butt;stroke-linejoin:miter;stroke-opacity:1" d="M 206.027,174.496 205.385,181.833 z" id="boundary" inkscape:connector-curvature="0" />
	<path style="fill:none;stroke:red;stroke-width:1px;stroke-linecap:butt;stroke-linejoin:miter;stroke-opacity:1" d="M 205.385,181.833 198.787,188.907 z" id="boundary" inkscape:connector-curvature="0" />
	<path style="fill:none;stroke:red;stroke-width:1px;stroke-linecap:butt;stroke-linejoin:miter;stroke-opacity:1" d="M 198.787,188.907 201.741,195.789 z" id="boundary" inkscape:connector-curvature="0" />
	<path style="fill:none;stroke:red;stroke-width:1px;stroke-linecap:butt;stroke-linejoin:miter;stroke-opacity:1" d="M 201.741,195.789 203.714,208.967 z" id="boundary" inkscape:connector-curvature="0" />
	<path style="fill:none;stroke:red;stroke-width:1px;stroke-linecap:butt;stroke-linejoin:miter;stroke-opacity:1" d="M 203.714,208.967 200.853,215.882 z" id="boundary" inkscape:connector-curvature="0" />
	<path style="fill:none;stroke:red;stroke-width:1px;stroke-linecap:butt;stroke-linejoin:miter;stroke-opacity:1" d="M 200.853,215.882 202.072,223.435 z" id="boundary" inkscape:connector-curvature="0" />
	<path style="fill:none;stroke:red;stroke-width:1px;stroke-linecap:butt;stroke-linejoin:miter;stroke-opacity:1" d="M 202.072,223.435 200.295,230.516 z" id="boundary" inkscape:connector-curvature="0" />
	<path style="fill:none;stroke:red;stroke-width:1px;stroke-linecap:butt;stroke-linejoin:miter;stroke-opacity:1" d="M 200.295,230.516 195.021,237.03 z" id="boundary" inkscape:connector-curvature="0" />
	<path style="fill:none;stroke:red;stroke-width:1px;stroke-linecap:butt;stroke-linejoin:miter;stroke-opacity:1" d="M 195.021,237.03 198.503,243.795 z" id="boundary" inkscape:connector-curvature="0" />
	<path style="fill:none;stroke:red;stroke-width:1px;stroke-linecap:butt;stroke-linejoin:miter;stroke-opacity:1" d="M 198.503,243.795 202.812,250.337 z" id="boundary" inkscape:connector-curvature="0" />
	<path style="fill:none;stroke:red;stroke-width:1px;stroke-linecap:butt;stroke-linejoin:miter;stroke-opacity:1" d="M 202.812,250.337 202.317,256.217 z" id="boundary" inkscape:connector-curvature="0" />
	<path style="fill:none;stroke:red;stroke-width:1px;stroke-linecap:butt;stroke-linejoin:miter;stroke-opacity:1" d="M 202.317,256.217 199.803,262.705 z" id="boundary" inkscape:connector-curvature="0" />
	<path style="fill:none;stroke:red;stroke-width:1px;stroke-linecap:butt;stroke-linejoin:miter;stroke-opacity:1" d="M 199.803,262.705 195.321,268.619 z" id="boundary" inkscape:connector-curvature="0" />
	<path style="fill:none;stroke:red;stroke-width:1px;stroke-linecap:butt;stroke-linejoin:miter;stroke-opacity:1" d="M 195.321,268.619 199.106,274.613 z" id="boundary" inkscape:connector-curvature="0" />
	<path style="fill:none;stroke:red;stroke-width:1px;stroke-linecap:butt;stroke-linejoin:miter;stroke-opacity:1" d="M 199.106,274.613 197.931,280.267 z" id="boundary" inkscape:connector-curvature="0" />
	<path style="fill:none;stroke:red;stroke-width:1px;stroke-linecap:butt;stroke-linejoin:miter;stroke-opacity:1" d="M 197.931,280.267 195.385,285.822 z" id="boundary" inkscape:connector-curvature="0" />
	<path style="fill:none;stroke:red;stroke-width:1px;stroke-linecap:butt;stroke-linejoin:miter;stroke-opacity:1" d="M 195.385,285.822 198.244,291.067 z" id="boundary" inkscape:connector-curvature="0" />
	<path style="fill:none;stroke:red;stroke-width:1px;stroke-linecap:butt;stroke-linejoin:miter;stroke-opacity:1" d="M 198.244,291.067 194.828,296.457 z" id="boundary" inkscape:connector-curvature="0" />
	<path style="fill:none;stroke:red;stroke-width:1px;stroke-linecap:butt;stroke-linejoin:miter;stroke-opacity:1" d="M 194.828,296.457 197.826,300.631 z" id="boundary" inkscape:connector-curvature="0" />
	<path style="fill:none;stroke:red;stroke-width:1px;stroke-linecap:butt;stroke-linejoin:miter;stroke-opacity:1" d="M 197.826,300.631 201.795,303.099 z" id="boundary" inkscape:connector-curvature="0" />
	<path style="fill:none;stroke:red;stroke-width:1px;stroke-linecap:butt;stroke-linejoin:miter;stroke-opacity:1" d="M 201.795,303.099 203.173,305.801 z" id="boundary" inkscape:connector-curvature="0" />
	<path style="fill:none;stroke:red;stroke-width:1px;stroke-linecap:butt;stroke-linejoin:miter;stroke-opacity:1" d="M 203.173,305.801 213.644,305.226 z" id="boundary" inkscape:connector-curvature="0" />
	<path style="fill:none;stroke:red;stroke-width:1px;stroke-linecap:butt;stroke-linejoin:miter;stroke-opacity:1" d="M 213.644,305.226 217.183,295.005 z" id="boundary" inkscape:connector-curvature="0" />
	<path style="fill:none;stroke:red;stroke-width:1px;stroke-linecap:butt;stroke-linejoin:miter;stroke-opacity:1" d="M 217.183,295.005 221.645,290.94 z" id="boundary" inkscape:connector-curvature="0" />
	<path style="fill:none;stroke:red;stroke-width:1px;stroke-linecap:butt;stroke-linejoin:miter;stroke-opacity:1" d="M 221.645,290.94 218.776,284.818 z" id="boundary" inkscape:connector-curvature="0" />
	<path style="fill:none;stroke:red;stroke-width:1px;stroke-linecap:butt;stroke-linejoin:miter;stroke-opacity:1" d="M 218.776,284.818 224.292,280.345 z" id="boundary" inkscape:connector-curvature="0" />
	<path style="fill:none;stroke:red;stroke-width:1px;stroke-linecap:butt;stroke-linejoin:miter;stroke-opacity:1" d="M 224.292,280.345 221.577,273.837 z" id="boundary" inkscape:connector-curvature="0" />
	<path style="fill:none;stroke:red;stroke-width:1px;stroke-linecap:butt;stroke-linejoin:miter;stroke-opacity:1" d="M 221.577,273.837 223.706,267.679 z" id="boundary" inkscape:connector-curvature="0" />
	<path style="fill:none;stroke:red;stroke-width:1px;stroke-linecap:butt;stroke-linejoin:miter;stroke-opacity:1" d="M 223.706,267.679 222.367,261.724 z" id="boundary" inkscape:connector-curvature="0" />
	<path style="fill:none;stroke:red;stroke-width:1px;stroke-linecap:butt;stroke-linejoin:miter;stroke-opacity:1" d="M 222.367,261.724 227.19,256.28 z" id="boundary" inkscape:connector-curvature="0" />
	<path style="fill:none;stroke:red;stroke-width:1px;stroke-linecap:butt;stroke-linejoin:miter;stroke-opacity:1" d="M 227.19,256.28 230.562,250.28 z" id="boundary" inkscape:connector-curvature="0" />
	<path style="fill:none;stroke:red;stroke-width:1px;stroke-linecap:butt;stroke-linejoin:miter;stroke-opacity:1" d="M 230.562,250.28 224.261,242.779 z" id="boundary" inkscape:connector-curvature="0" />
	<path style="fill:none;stroke:red;stroke-width:1px;stroke-linecap:butt;stroke-linejoin:miter;stroke-opacity:1" d="M 224.261,242.779 233.832,229.53 z" id="boundary" inkscape:connector-curvature="0" />
	<path style="fill:none;stroke:red;stroke-width:1px;stroke-linecap:butt;stroke-linejoin:miter;stroke-opacity:1" d="M 233.832,229.53 227.225,221.911 z" id="boundary" inkscape:connector-curvature="0" />
	<path style="fill:none;stroke:red;stroke-width:1px;stroke-linecap:butt;stroke-linejoin:miter;stroke-opacity:1" d="M 227.225,221.911 230.348,215.97 z" id="boundary" inkscape:connector-curvature="0" />
	<path style="fill:none;stroke:red;stroke-width:1px;stroke-linecap:butt;stroke-linejoin:miter;stroke-opacity:1" d="M 230.348,215.97 233.241,209.818 z" id="boundary" inkscape:connector-curvature="0" />
	<path style="fill:none;stroke:red;stroke-width:1px;stroke-linecap:butt;stroke-linejoin:miter;stroke-opacity:1" d="M 233.241,209.818 236.445,196.68 z" id="boundary" inkscape:connector-curvature="0" />
	<path style="fill:none;stroke:red;stroke-width:1px;stroke-linecap:butt;stroke-linejoin:miter;stroke-opacity:1" d="M 236.445,196.68 231.707,189.1 z" id="boundary" inkscape:connector-curvature="0" />
	<path style="fill:none;stroke:red;stroke-width:1px;stroke-linecap:butt;stroke-linejoin:miter;stroke-opacity:1" d="M 231.707,189.1 237.917,182.638 z" id="boundary" inkscape:connector-curvature="0" />
	<path style="fill:none;stroke:red;stroke-width:1px;stroke-linecap:butt;stroke-linejoin:miter;stroke-opacity:1" d="M 237.917,182.638 240.824,168.091 z" id="boundary" inkscape:connector-curvature="0" />
	<path style="fill:none;stroke:red;stroke-width:1px;stroke-linecap:butt;stroke-linejoin:miter;stroke-opacity:1" d="M 240.824,168.091 242.367,160.583 z" id="boundary" inkscape:connector-curvature="0" />
	<path style="fill:none;stroke:red;stroke-width:1px;stroke-linecap:butt;stroke-linejoin:miter;stroke-opacity:1" d="M 242.367,160.583 242.408,152.289 z" id="boundary" inkscape:connector-curvature="0" />
	<path style="fill:none;stroke:red;stroke-width:1px;stroke-linecap:butt;stroke-linejoin:miter;stroke-opacity:1" d="M 242.408,152.289 239.882,143.431 z" id="boundary" inkscape:connector-curvature="0" />
	<path style="fill:none;stroke:red;stroke-width:1px;stroke-linecap:butt;stroke-linejoin:miter;stroke-opacity:1" d="M 239.882,143.431 242.808,135.279 z" id="boundary" inkscape:connector-curvature="0" />
	<path style="fill:none;stroke:red;stroke-width:1px;stroke-linecap:butt;stroke-linejoin:miter;stroke-opacity:1" d="M 242.808,135.279 247.285,127.363 z" id="boundary" inkscape:connector-curvature="0" />
	<path style="fill:none;stroke:red;stroke-width:1px;stroke-linecap:butt;stroke-linejoin:miter;stroke-opacity:1" d="M 247.285,127.363 238.266,116.37 z" id="boundary" inkscape:connector-curvature="0" />
	<path style="fill:none;stroke:red;stroke-width:1px;stroke-linecap:butt;stroke-linejoin:miter;stroke-opacity:1" d="M 238.266,116.37 251.002,108.413 z" id="boundary" inkscape:connector-curvature="0" />
	<path style="fill:none;stroke:red;stroke-width:1px;stroke-linecap:butt;stroke-linejoin:miter;stroke-opacity:1" d="M 251.002,108.413 252.16,99.1278 z" id="boundary" inkscape:connector-curvature="0" />
	<path style="fill:none;stroke:red;stroke-width:1px;stroke-linecap:butt;stroke-linejoin:miter;stroke-opacity:1" d="M 252.16,99.1278 248.15,89.228 z" id="boundary" inkscape:connector-curvature="0" />
	<path style="fill:none;stroke:red;stroke-width:1px;stroke-linecap:butt;stroke-linejoin:miter;stroke-opacity:1" d="M 248.15,89.228 245.776,78.427 z" id="boundary" inkscape:connector-curvature="0" />
	<path style="fill:none;stroke:red;stroke-width:1px;stroke-linecap:butt;stroke-linejoin:miter;stroke-opacity:1" d="M 245.776,78.427 244.023,67.2983 z" id="boundary" inkscape:connector-curvature="0" />
	<path style="fill:none;stroke:red;stroke-width:1px;stroke-linecap:butt;stroke-linejoin:miter;stroke-opacity:1" d="M 244.023,67.2983 247.084,56.4245 z" id="boundary" inkscape:connector-curvature="0" />
	<path style="fill:none;stroke:red;stroke-width:1px;stroke-linecap:butt;stroke-linejoin:miter;stroke-opacity:1" d="M 247.084,56.4245 254.708,46.1359 z" id="boundary" inkscape:connector-curvature="0" />
	<path style="fill:none;stroke:red;stroke-width:1px;stroke-linecap:butt;stroke-linejoin:miter;stroke-opacity:1" d="M 254.708,46.1359 264.648,37.3651 z" id="boundary" inkscape:connector-curvature="0" />
	<path style="fill:none;stroke:red;stroke-width:1px;stroke-linecap:butt;stroke-linejoin:miter;stroke-opacity:1" d="M 264.648,37.3651 265.262,25.0904 z" id="boundary" inkscape:connector-curvature="0" />
	<path style="fill:none;stroke:red;stroke-width:1px;stroke-linecap:butt;stroke-linejoin:miter;stroke-opacity:1" d="M 265.262,25.0904 276.751,22.3786 z" id="boundary" inkscape:connector-curvature="0" />
	<path style="fill:none;stroke:red;stroke-width:1px;stroke-linecap:butt;stroke-linejoin:miter;stroke-opacity:1" d="M 276.751,22.3786 285.129,20.0234 z" id="boundary" inkscape:connector-curvature="0" />
	<path style="fill:none;stroke:red;stroke-width:1px;stroke-linecap:butt;stroke-linejoin:miter;stroke-opacity:1" d="M 285.129,20.0234 293.587,20.8985 z" id="boundary" inkscape:connector-curvature="0" />
	<path style="fill:none;stroke:red;stroke-width:1px;stroke-linecap:butt;stroke-linejoin:miter;stroke-opacity:1" d="M 293.587,20.8985 304.345,18.1673 z" id="boundary" inkscape:connector-curvature="0" />
	<path style="fill:none;stroke:red;stroke-width:1px;stroke-linecap:butt;stroke-linejoin:miter;stroke-opacity:1" d="M 304.345,18.1673 309.821,29.0601 z" id="boundary" inkscape:connector-curvature="0" />
	<path style="fill:none;stroke:red;stroke-width:1px;stroke-linecap:butt;stroke-linejoin:miter;stroke-opacity:1" d="M 309.821,29.0601 330.36,46.2326 z" id="boundary" inkscape:connector-curvature="0" />
	<path style="fill:none;stroke:red;stroke-width:1px;stroke-linecap:butt;stroke-linejoin:miter;stroke-opacity:1" d="M 330.36,46.2326 319.027,62.5449 z" id="boundary" inkscape:connector-curvature="0" />
	<path style="fill:none;stroke:red;stroke-width:1px;stroke-linecap:butt;stroke-linejoin:miter;stroke-opacity:1" d="M 319.027,62.5449 336.604,77.2419 z" id="boundary" inkscape:connector-curvature="0" />
	<path style="fill:none;stroke:red;stroke-width:1px;stroke-linecap:butt;stroke-linejoin:miter;stroke-opacity:1" d="M 336.604,77.2419 319.558,93.093 z" id="boundary" inkscape:connector-curvature="0" />
	<path style="fill:none;stroke:red;stroke-width:1px;stroke-linecap:butt;stroke-linejoin:miter;stroke-opacity:1" d="M 319.558,93.093 333.435,110.979 z" id="boundary" inkscape:connector-curvature="0" />
	<path style="fill:none;stroke:red;stroke-width:1px;stroke-linecap:butt;stroke-linejoin:miter;stroke-opacity:1" d="M 333.435,110.979 313.046,124.996 z" id="boundary" inkscape:connector-curvature="0" />
	<path style="fill:none;stroke:red;stroke-width:1px;stroke-linecap:butt;stroke-linejoin:miter;stroke-opacity:1" d="M 313.046,124.996 333.037,145.513 z" id="boundary" inkscape:connector-curvature="0" />
	<path style="fill:none;stroke:red;stroke-width:1px;stroke-linecap:butt;stroke-linejoin:miter;stroke-opacity:1" d="M 333.037,145.513 306.176,157.164 z" id="boundary" inkscape:connector-curvature="0" />
	<path style="fill:none;stroke:red;stroke-width:1px;stroke-linecap:butt;stroke-linejoin:miter;stroke-opacity:1" d="M 306.176,157.164 314.295,175.923 z" id="boundary" inkscape:connector-curvature="0" />
	<path style="fill:none;stroke:red;stroke-width:1px;stroke-linecap:butt;stroke-linejoin:miter;stroke-opacity:1" d="M 314.295,175.923 302.207,190.47 z" id="boundary" inkscape:connector-curvature="0" />
	<path style="fill:none;stroke:red;stroke-width:1px;stroke-linecap:butt;stroke-linejoin:miter;stroke-opacity:1" d="M 302.207,190.47 300.67,206.919 z" id="boundary" inkscape:connector-curvature="0" />
	<path style="fill:none;stroke:red;stroke-width:1px;stroke-linecap:butt;stroke-linejoin:miter;stroke-opacity:1" d="M 300.67,206.919 311.422,224.708 z" id="boundary" inkscape:connector-curvature="0" />
	<path style="fill:none;stroke:red;stroke-width:1px;stroke-linecap:butt;stroke-linejoin:miter;stroke-opacity:1" d="M 311.422,224.708 304.468,254.212 z" id="boundary" inkscape:connector-curvature="0" />
	<path style="fill:none;stroke:red;stroke-width:1px;stroke-linecap:butt;stroke-linejoin:miter;stroke-opacity:1" d="M 304.468,254.212 311.488,269.595 z" id="boundary" inkscape:connector-curvature="0" />
	<path style="fill:none;stroke:red;stroke-width:1px;stroke-linecap:butt;stroke-linejoin:miter;stroke-opacity:1" d="M 311.488,269.595 303.837,285.36 z" id="boundary" inkscape:connector-curvature="0" />
	<path style="fill:none;stroke:red;stroke-width:1px;stroke-linecap:butt;stroke-linejoin:miter;stroke-opacity:1" d="M 303.837,285.36 309.135,301.006 z" id="boundary" inkscape:connector-curvature="0" />
	<path style="fill:none;stroke:red;stroke-width:1px;stroke-linecap:butt;stroke-linejoin:miter;stroke-opacity:1" d="M 309.135,301.006 294.241,323.906 z" id="boundary" inkscape:connector-curvature="0" />
	<path style="fill:none;stroke:red;stroke-width:1px;stroke-linecap:butt;stroke-linejoin:miter;stroke-opacity:1" d="M 294.241,323.906 302.859,346.462 z" id="boundary" inkscape:connector-curvature="0" />
	<path style="fill:none;stroke:red;stroke-width:1px;stroke-linecap:butt;stroke-linejoin:miter;stroke-opacity:1" d="M 302.859,346.462 331.381,358.367 z" id="boundary" inkscape:connector-curvature="0" />
	<path style="fill:none;stroke:red;stroke-width:1px;stroke-linecap:butt;stroke-linejoin:miter;stroke-opacity:1" d="M 331.381,358.367 343.139,387.658 z" id="boundary" inkscape:connector-curvature="0" />
	<path style="fill:none;stroke:red;stroke-width:1px;stroke-linecap:butt;stroke-linejoin:miter;stroke-opacity:1" d="M 343.139,387.658 369.996,400.504 z" id="boundary" inkscape:connector-curvature="0" />
	<path style="fill:none;stroke:red;stroke-width:1px;stroke-linecap:butt;stroke-linejoin:miter;stroke-opacity:1" d="M 369.996,400.504 403.267,402.058 z" id="boundary" inkscape:connector-curvature="0" />
	<path style="fill:none;stroke:red;stroke-width:1px;stroke-linecap:butt;stroke-linejoin:miter;stroke-opacity:1" d="M 403.267,402.058 437.78,386.992 z" id="boundary" inkscape:connector-curvature="0" />
	<path style="fill:none;stroke:red;stroke-width:1px;stroke-linecap:butt;stroke-linejoin:miter;stroke-opacity:1" d="M 437.78,386.992 469.363,350.27 z" id="boundary" inkscape:connector-curvature="0" />
	<path style="fill:none;stroke:red;stroke-width:1px;stroke-linecap:butt;stroke-linejoin:miter;stroke-opacity:1" d="M 469.363,350.27 522.882,348.809 z" id="boundary" inkscape:connector-curvature="0" />
	<path style="fill:none;stroke:red;stroke-width:1px;stroke-linecap:butt;stroke-linejoin:miter;stroke-opacity:1" d="M 522.882,348.809 576.252,306.277 z" id="boundary" inkscape:connector-curvature="0" />
	<path style="fill:none;stroke:red;stroke-width:1px;stroke-linecap:butt;stroke-linejoin:miter;stroke-opacity:1" d="M 576.252,306.277 661.6,386.983 z" id="boundary" inkscape:connector-curvature="0" />
	<path style="fill:none;stroke:red;stroke-width:1px;stroke-linecap:butt;stroke-linejoin:miter;stroke-opacity:1" d="M 661.6,386.983 729.936,382.968 z" id="boundary" inkscape:connector-curvature="0" />
	<path style="fill:none;stroke:red;stroke-width:1px;stroke-linecap:butt;stroke-linejoin:miter;stroke-opacity:1" d="M 729.936,382.968 847.173,327.165 z" id="boundary" inkscape:connector-curvature="0" />
	<path style="fill:none;stroke:red;stroke-width:1px;stroke-linecap:butt;stroke-linejoin:miter;stroke-opacity:1" d="M 847.173,327.165 841.86,442.052 z" id="boundary" inkscape:connector-curvature="0" />
	<path style="fill:none;stroke:red;stroke-width:1px;stroke-linecap:butt;stroke-linejoin:miter;stroke-opacity:1" d="M 841.86,442.052 940.613,458.769 z" id="boundary" inkscape:connector-curvature="0" />
	<path style="fill:none;stroke:red;stroke-width:1px;stroke-linecap:butt;stroke-linejoin:miter;stroke-opacity:1" d="M 940.613,458.769 876.722,542.922 z" id="boundary" inkscape:connector-curvature="0" />
	<path style="fill:none;stroke:red;stroke-width:1px;stroke-linecap:butt;stroke-linejoin:miter;stroke-opacity:1" d="M 876.722,542.922 958.569,599.016 z" id="boundary" inkscape:connector-curvature="0" />
	<path style="fill:none;stroke:red;stroke-width:1px;stroke-linecap:butt;stroke-linejoin:miter;stroke-opacity:1" d="M 958.569,599.016 893.114,636.553 z" id="boundary" inkscape:connector-curvature="0" />
	<path style="fill:none;stroke:red;stroke-width:1px;stroke-linecap:butt;stroke-linejoin:miter;stroke-opacity:1" d="M 893.114,636.553 930.047,672.018 z" id="boundary" inkscape:connector-curvature="0" />
	<path style="fill:none;stroke:red;stroke-width:1px;stroke-linecap:butt;stroke-linejoin:miter;stroke-opacity:1" d="M 930.047,672.018 892.089,692.559 z" id="boundary" inkscape:connector-curvature="0" />
	<path style="fill:none;stroke:red;stroke-width:1px;stroke-linecap:butt;stroke-linejoin:miter;stroke-opacity:1" d="M 892.089,692.559 892.793,722 z" id="boundary" inkscape:connector-curvature="0" />
	<path style="fill:none;stroke:red;stroke-width:1px;stroke-linecap:butt;stroke-linejoin:miter;stroke-opacity:1" d="M 892.793,722 930.485,733.01 z" id="boundary" inkscape:connector-curvature="0" />
	<path style="fill:none;stroke:red;stroke-width:1px;stroke-linecap:butt;stroke-linejoin:miter;stroke-opacity:1" d="M 930.485,733.01 930.295,754.343 z" id="boundary" inkscape:connector-curvature="0" />
	<path style="fill:none;stroke:red;stroke-width:1px;stroke-linecap:butt;stroke-linejoin:miter;stroke-opacity:1" d="M 930.295,754.343 935.074,776.003 z" id="boundary" inkscape:connector-curvature="0" />
	<path style="fill:none;stroke:red;stroke-width:1px;stroke-linecap:butt;stroke-linejoin:miter;stroke-opacity:1" d="M 935.074,776.003 945.346,786.77 z" id="boundary" inkscape:connector-curvature="0" />
	<path style="fill:none;stroke:red;stroke-width:1px;stroke-linecap:butt;stroke-linejoin:miter;stroke-opacity:1" d="M 945.346,786.77 975.677,812.049 z" id="boundary" inkscape:connector-curvature="0" />
	<path style="fill:none;stroke:red;stroke-width:1px;stroke-linecap:butt;stroke-linejoin:miter;stroke-opacity:1" d="M 975.677,812.049 975.076,833.883 z" id="boundary" inkscape:connector-curvature="0" />
	<path style="fill:none;stroke:red;stroke-width:1px;stroke-linecap:butt;stroke-linejoin:miter;stroke-opacity:1" d="M 975.076,833.883 954.159,854.186 z" id="boundary" inkscape:connector-curvature="0" />
	<path style="fill:none;stroke:red;stroke-width:1px;stroke-linecap:butt;stroke-linejoin:miter;stroke-opacity:1" d="M 954.159,854.186 947.717,881.557 z" id="boundary" inkscape:connector-curvature="0" />
	<path style="fill:none;stroke:red;stroke-width:1px;stroke-linecap:butt;stroke-linejoin:miter;stroke-opacity:1" d="M 947.717,881.557 925.354,901.1 z" id="boundary" inkscape:connector-curvature="0" />
	<path style="fill:none;stroke:red;stroke-width:1px;stroke-linecap:butt;stroke-linejoin:miter;stroke-opacity:1" d="M 925.354,901.1 896.035,907.646 z" id="boundary" inkscape:connector-curvature="0" />
	<path style="fill:none;stroke:red;stroke-width:1px;stroke-linecap:butt;stroke-linejoin:miter;stroke-opacity:1" d="M 896.035,907.646 865.72,929.827 z" id="boundary" inkscape:connector-curvature="0" />
	<path style="fill:none;stroke:red;stroke-width:1px;stroke-linecap:butt;stroke-linejoin:miter;stroke-opacity:1" d="M 865.72,929.827 820.064,896.291 z" id="boundary" inkscape:connector-curvature="0" />
	<path style="fill:none;stroke:red;stroke-width:1px;stroke-linecap:butt;stroke-linejoin:miter;stroke-opacity:1" d="M 820.064,896.291 773.338,932.088 z" id="boundary" inkscape:connector-curvature="0" />
	<path style="fill:none;stroke:red;stroke-width:1px;stroke-linecap:butt;stroke-linejoin:miter;stroke-opacity:1" d="M 773.338,932.088 713.739,959.133 z" id="boundary" inkscape:connector-curvature="0" />
	<path style="fill:none;stroke:red;stroke-width:1px;stroke-linecap:butt;stroke-linejoin:miter;stroke-opacity:1" d="M 713.739,959.133 637.956,905.791 z" id="boundary" inkscape:connector-curvature="0" />
	<path style="fill:none;stroke:red;stroke-width:1px;stroke-linecap:butt;stroke-linejoin:miter;stroke-opacity:1" d="M 637.956,905.791 541.517,996 z" id="boundary" inkscape:connector-curvature="0" />
	<path style="fill:none;stroke:red;stroke-width:1px;stroke-linecap:butt;stroke-linejoin:miter;stroke-opacity:1" d="M 541.517,996 469.484,937.901 z" id="boundary" inkscape:connector-curvature="0" />
	<path style="fill:none;stroke:red;stroke-width:1px;stroke-linecap:butt;stroke-linejoin:miter;stroke-opacity:1" d="M 469.484,937.901 413.378,959.079 z" id="boundary" inkscape:connector-curvature="0" />
	<path style="fill:none;stroke:red;stroke-width:1px;stroke-linecap:butt;stroke-linejoin:miter;stroke-opacity:1" d="M 413.378,959.079 369.117,944.368 z" id="boundary" inkscape:connector-curvature="0" />
	<path style="fill:none;stroke:red;stroke-width:1px;stroke-linecap:butt;stroke-linejoin:miter;stroke-opacity:1" d="M 369.117,944.368 332.165,934.508 z" id="boundary" inkscape:connector-curvature="0" />
	<path style="fill:none;stroke:red;stroke-width:1px;stroke-linecap:butt;stroke-linejoin:miter;stroke-opacity:1" d="M 332.165,934.508 302.502,905.109 z" id="boundary" inkscape:connector-curvature="0" />
	<path style="fill:none;stroke:red;stroke-width:1px;stroke-linecap:butt;stroke-linejoin:miter;stroke-opacity:1" d="M 302.502,905.109 273.913,935.271 z" id="boundary" inkscape:connector-curvature="0" />
	<path style="fill:none;stroke:red;stroke-width:1px;stroke-linecap:butt;stroke-linejoin:miter;stroke-opacity:1" d="M 273.913,935.271 248.718,935.583 z" id="boundary" inkscape:connector-curvature="0" />
	<path style="fill:none;stroke:red;stroke-width:1px;stroke-linecap:butt;stroke-linejoin:miter;stroke-opacity:1" d="M 248.718,935.583 225.826,935.007 z" id="boundary" inkscape:connector-curvature="0" />
	<path style="fill:none;stroke:red;stroke-width:1px;stroke-linecap:butt;stroke-linejoin:miter;stroke-opacity:1" d="M 225.826,935.007 206.816,926.57 z" id="boundary" inkscape:connector-curvature="0" />
	<path style="fill:none;stroke:red;stroke-width:1px;stroke-linecap:butt;stroke-linejoin:miter;stroke-opacity:1" d="M 206.816,926.57 177.342,915.486 z" id="boundary" inkscape:connector-curvature="0" />
	<path style="fill:none;stroke:red;stroke-width:1px;stroke-linecap:butt;stroke-linejoin:miter;stroke-opacity:1" d="M 177.342,915.486 168.793,901.518 z" id="boundary" inkscape:connector-curvature="0" />
	<path style="fill:none;stroke:red;stroke-width:1px;stroke-linecap:butt;stroke-linejoin:miter;stroke-opacity:1" d="M 168.793,901.518 154.194,874.683 z" id="boundary" inkscape:connector-curvature="0" />
	<path style="fill:none;stroke:red;stroke-width:1px;stroke-linecap:butt;stroke-linejoin:miter;stroke-opacity:1" d="M 154.194,874.683 161.427,859.282 z" id="boundary" inkscape:connector-curvature="0" />
	<path style="fill:none;stroke:red;stroke-width:1px;stroke-linecap:butt;stroke-linejoin:miter;stroke-opacity:1" d="M 161.427,859.282 184.798,840.715 z" id="boundary" inkscape:connector-curvature="0" />
	<path style="fill:none;stroke:red;stroke-width:1px;stroke-linecap:butt;stroke-linejoin:miter;stroke-opacity:1" d="M 184.798,840.715 189.189,819.172 z" id="boundary" inkscape:connector-curvature="0" />
	<path style="fill:none;stroke:red;stroke-width:1px;stroke-linecap:butt;stroke-linejoin:miter;stroke-opacity:1" d="M 189.189,819.172 204.057,810.394 z" id="boundary" inkscape:connector-curvature="0" />
	<path style="fill:none;stroke:red;stroke-width:1px;stroke-linecap:butt;stroke-linejoin:miter;stroke-opacity:1" d="M 204.057,810.394 229.597,826.05 z" id="boundary" inkscape:connector-curvature="0" />
	<path style="fill:none;stroke:red;stroke-width:1px;stroke-linecap:butt;stroke-linejoin:miter;stroke-opacity:1" d="M 229.597,826.05 239.005,805.193 z" id="boundary" inkscape:connector-curvature="0" />
	<path style="fill:none;stroke:red;stroke-width:1px;stroke-linecap:butt;stroke-linejoin:miter;stroke-opacity:1" d="M 239.005,805.193 257.391,804.361 z" id="boundary" inkscape:connector-curvature="0" />
	<path style="fill:none;stroke:red;stroke-width:1px;stroke-linecap:butt;stroke-linejoin:miter;stroke-opacity:1" d="M 257.391,804.361 258.848,786.043 z" id="boundary" inkscape:connector-curvature="0" />
	<circle cx="256.327" cy="760.273" r="4" fill="#0" id="circle0"/>
	<circle cx="264.689" cy="740.69" r="4" fill="#0" id="circle1"/>
	<circle cx="243.542" cy="728.7" r="4" fill="#0" id="circle2"/>
	<circle cx="227.257" cy="712.627" r="4" fill="#0" id="circle3"/>
	<circle cx="202.721" cy="701.467" r="4" fill="#0" id="circle4"/>
	<circle cx="196.754" cy="652.831" r="4" fill="#0" id="circle5"/>
	<circle cx="161.005" cy="639.476" r="4" fill="#0" id="circle6"/>
	<circle cx="111.323" cy="642.38" r="4" fill="#0" id="circle7"/>
	<circle cx="96.5331" cy="605.726" r="4" fill="#0" id="circle8"/>
	<circle cx="71.2045" cy="602.353" r="4" fill="#0" id="circle9"/>
	<circle cx="57.7107" cy="587.702" r="4" fill="#0" id="circle10"/>
	<circle cx="42.3466" cy="575.753" r="4" fill="#0" id="circle11"/>
	<circle cx="42.092" cy="555.221" r="4" fill="#0" id="circle12"/>
	<circle cx="31.2124" cy="536.221" r="4" fill="#0" id="circle13"/>
	<circle cx="6.66792" cy="511.619" r="4" fill="#0" id="circle14"/>
	<circle cx="4" cy="473.073" r="4" fill="#0" id="circle15"/>
	<circle cx="31.416" cy="430.376" r="4" fill="#0" id="circle16"/>
	<circle cx="53.071" cy="381.914" r="4" fill="#0" id="circle17"/>
	<circle cx="102.166" cy="372.137" r="4" fill="#0" id="circle18"/>
	<circle cx="101.179" cy="336.77" r="4" fill="#0" id="circle19"/>
	<circle cx="128.199" cy="327.168" r="4" fill="#0" id="circle20"/>
	<circle cx="126.842" cy="306.238" r="4" fill="#0" id="circle21"/>
	<circle cx="131.74" cy="290.669" r="4" fill="#0" id="circle22"/>
	<circle cx="116.852" cy="274.427" r="4" fill="#0" id="circle23"/>
	<circle cx="133.245" cy="259.93" r="4" fill="#0" id="circle24"/>
	<circle cx="127.718" cy="244.443" r="4" fill="#0" id="circle25"/>
	<circle cx="134.653" cy="228.983" r="4" fill="#0" id="circle26"/>
	<circle cx="135.353" cy="212.601" r="4" fill="#0" id="circle27"/>
	<circle cx="112.997" cy="196.741" r="4" fill="#0" id="circle28"/>
	<circle cx="132.699" cy="179.409" r="4" fill="#0" id="circle29"/>
	<circle cx="125.296" cy="163.619" r="4" fill="#0" id="circle30"/>
	<circle cx="117.278" cy="147.325" r="4" fill="#0" id="circle31"/>
	<circle cx="123.238" cy="131.2" r="4" fill="#0" id="circle32"/>
	<circle cx="131.61" cy="115.533" r="4" fill="#0" id="circle33"/>
	<circle cx="123.823" cy="99.7024" r="4" fill="#0" id="circle34"/>
	<circle cx="127.693" cy="84.2664" r="4" fill="#0" id="circle35"/>
	<circle cx="129.95" cy="69.15" r="4" fill="#0" id="circle36"/>
	<circle cx="121.242" cy="52.3074" r="4" fill="#0" id="circle37"/>
	<circle cx="138.861" cy="42.0986" r="4" fill="#0" id="circle38"/>
	<circle cx="134.5" cy="28.7323" r="4" fill="#0" id="circle39"/>
	<circle cx="143.028" cy="21.7723" r="4" fill="#0" id="circle40"/>
	<circle cx="147.707" cy="11.8233" r="4" fill="#0" id="circle41"/>
	<circle cx="159.053" cy="12.878" r="4" fill="#0" id="circle42"/>
	<circle cx="168.329" cy="4" r="4" fill="#0" id="circle43"/>
	<circle cx="177.029" cy="14.8655" r="4" fill="#0" id="circle44"/>
	<circle cx="185.116" cy="17.9726" r="4" fill="#0" id="circle45"/>
	<circle cx="197.044" cy="21.2208" r="4" fill="#0" id="circle46"/>
	<circle cx="203.712" cy="30.771" r="4" fill="#0" id="circle47"/>
	<circle cx="191.401" cy="45.1919" r="4" fill="#0" id="circle48"/>
	<circle cx="209.075" cy="54.844" r="4" fill="#0" id="circle49"/>
	<circle cx="202.244" cy="66.1744" r="4" fill="#0" id="circle50"/>
	<circle cx="195.473" cy="76.372" r="4" fill="#0" id="circle51"/>
	<circle cx="197.34" cy="86.2347" r="4" fill="#0" id="circle52"/>
	<circle cx="204.342" cy="96.0048" r="4" fill="#0" id="circle53"/>
	<circle cx="207.334" cy="106.095" r="4" fill="#0" id="circle54"/>
	<circle cx="199.317" cy="114.675" r="4" fill="#0" id="circle55"/>
	<circle cx="195.191" cy="123.533" r="4" fill="#0" id="circle56"/>
	<circle cx="194.541" cy="132.641" r="4" fill="#0" id="circle57"/>
	<circle cx="200.361" cy="141.936" r="4" fill="#0" id="circle58"/>
	<circle cx="195.293" cy="151.222" r="4" fill="#0" id="circle59"/>
	<circle cx="197.709" cy="159.008" r="4" fill="#0" id="circle60"/>
	<circle cx="206.844" cy="166.928" r="4" fill="#0" id="circle61"/>
	<circle cx="206.027" cy="174.496" r="4" fill="#0" id="circle62"/>
	<circle cx="205.385" cy="181.833" r="4" fill="#0" id="circle63"/>
	<circle cx="198.787" cy="188.907" r="4" fill="#0" id="circle64"/>
	<circle cx="201.741" cy="195.789" r="4" fill="#0" id="circle65"/>
	<circle cx="199.845" cy="202.401" r="4" fill="#0" id="circle66"/>
	<circle cx="203.714" cy="208.967" r="4" fill="#0" id="circle67"/>
	<circle cx="200.853" cy="215.882" r="4" fill="#0" id="circle68"/>
	<circle cx="202.072" cy="223.435" r="4" fill="#0" id="circle69"/>
	<circle cx="200.295" cy="230.516" r="4" fill="#0" id="circle70"/>
	<circle cx="195.021" cy="237.03" r="4" fill="#0" id="circle71"/>
	<circle cx="198.503" cy="243.795" r="4" fill="#0" id="circle72"/>
	<circle cx="202.812" cy="250.337" r="4" fill="#0" id="circle73"/>
	<circle cx="202.317" cy="256.217" r="4" fill="#0" id="circle74"/>
	<circle cx="199.803" cy="262.705" r="4" fill="#0" id="circle75"/>
	<circle cx="195.321" cy="268.619" r="4" fill="#0" id="circle76"/>
	<circle cx="199.106" cy="274.613" r="4" fill="#0" id="circle77"/>
	<circle cx="197.931" cy="280.267" r="4" fill="#0" id="circle78"/>
	<circle cx="195.385" cy="285.822" r="4" fill="#0" id="circle79"/>
	<circle cx="198.244" cy="291.067" r="4" fill="#0" id="circle80"/>
	<circle cx="194.828" cy="296.457" r="4" fill="#0" id="circle81"/>
	<circle cx="197.826" cy="300.631" r="4" fill="#0" id="circle82"/>
	<circle cx="201.795" cy="303.099" r="4" fill="#0" id="circle83"/>
	<circle cx="203.173" cy="305.801" r="4" fill="#0" id="circle84"/>
	<circle cx="204.373" cy="309.426" r="4" fill="#0" id="circle85"/>
	<circle cx="206.836" cy="310.553" r="4" fill="#0" id="circle86"/>
	<circle cx="209.347" cy="308.461" r="4" fill="#0" id="circle87"/>
	<circle cx="211.702" cy="309.933" r="4" fill="#0" id="circle88"/>
	<circle cx="212.999" cy="307.669" r="4" fill="#0" id="circle89"/>
	<circle cx="213.644" cy="305.226" r="4" fill="#0" id="circle90"/>
	<circle cx="216.308" cy="303.586" r="4" fill="#0" id="circle91"/>
	<circle cx="217.317" cy="299.961" r="4" fill="#0" id="circle92"/>
	<circle cx="217.183" cy="295.005" r="4" fill="#0" id="circle93"/>
	<circle cx="221.645" cy="290.94" r="4" fill="#0" id="circle94"/>
	<circle cx="218.776" cy="284.818" r="4" fill="#0" id="circle95"/>
	<circle cx="224.292" cy="280.345" r="4" fill="#0" id="circle96"/>
	<circle cx="221.577" cy="273.837" r="4" fill="#0" id="circle97"/>
	<circle cx="223.706" cy="267.679" r="4" fill="#0" id="circle98"/>
	<circle cx="222.367" cy="261.724" r="4" fill="#0" id="circle99"/>
	<circle cx="227.19" cy="256.28" r="4" fill="#0" id="circle100"/>
	<circle cx="230.562" cy="250.28" r="4" fill="#0" id="circle101"/>
	<circle cx="224.261" cy="242.779" r="4" fill="#0" id="circle102"/>
	<circle cx="225.327" cy="235.88" r="4" fill="#0" id="circle103"/>
	<circle cx="233.832" cy="229.53" r="4" fill="#0" id="circle104"/>
	<circle cx="227.225" cy="221.911" r="4" fill="#0" id="circle105"/>
	<circle cx="230.348" cy="215.97" r="4" fill="#0" id="circle106"/>
	<circle cx="233.241" cy="209.818" r="4" fill="#0" id="circle107"/>
	<circle cx="232.014" cy="203.012" r="4" fill="#0" id="circle108"/>
	<circle cx="236.445" cy="196.68" r="4" fill="#0" id="circle109"/>
	<circle cx="231.707" cy="189.1" r="4" fill="#0" id="circle110"/>
	<circle cx="237.917" cy="182.638" r="4" fill="#0" id="circle111"/>
	<circle cx="237.226" cy="175.185" r="4" fill="#0" id="circle112"/>
	<circle cx="240.824" cy="168.091" r="4" fill="#0" id="circle113"/>
	<circle cx="242.367" cy="160.583" r="4" fill="#0" id="circle114"/>
	<circle cx="242.408" cy="152.289" r="4" fill="#0" id="circle115"/>
	<circle cx="239.882" cy="143.431" r="4" fill="#0" id="circle116"/>
	<circle cx="242.808" cy="135.279" r="4" fill="#0" id="circle117"/>
	<circle cx="247.285" cy="127.363" r="4" fill="#0" id="circle118"/>
	<circle cx="238.266" cy="116.37" r="4" fill="#0" id="circle119"/>
	<circle cx="251.002" cy="108.413" r="4" fill="#0" id="circle120"/>
	<circle cx="252.16" cy="99.1278" r="4" fill="#0" id="circle121"/>
	<circle cx="248.15" cy="89.228" r="4" fill="#0" id="circle122"/>
	<circle cx="245.776" cy="78.427" r="4" fill="#0" id="circle123"/>
	<circle cx="244.023" cy="67.2983" r="4" fill="#0" id="circle124"/>
	<circle cx="247.084" cy="56.4245" r="4" fill="#0" id="circle125"/>
	<circle cx="254.708" cy="46.1359" r="4" fill="#0" id="circle126"/>
	<circle cx="264.648" cy="37.3651" r="4" fill="#0" id="circle127"/>
	<circle cx="265.262" cy="25.0904" r="4" fill="#0" id="circle128"/>
	<circle cx="276.751" cy="22.3786" r="4" fill="#0" id="circle129"/>
	<circle cx="285.129" cy="20.0234" r="4" fill="#0" id="circle130"/>
	<circle cx="293.587" cy="20.8985" r="4" fill="#0" id="circle131"/>
	<circle cx="304.345" cy="18.1673" r="4" fill="#0" id="circle132"/>
	<circle cx="309.821" cy="29.0601" r="4" fill="#0" id="circle133"/>
	<circle cx="314.176" cy="38.7953" r="4" fill="#0" id="circle134"/>
	<circle cx="330.36" cy="46.2326" r="4" fill="#0" id="circle135"/>
	<circle cx="319.027" cy="62.5449" r="4" fill="#0" id="circle136"/>
	<circle cx="336.604" cy="77.2419" r="4" fill="#0" id="circle137"/>
	<circle cx="319.558" cy="93.093" r="4" fill="#0" id="circle138"/>
	<circle cx="333.435" cy="110.979" r="4" fill="#0" id="circle139"/>
	<circle cx="313.046" cy="124.996" r="4" fill="#0" id="circle140"/>
	<circle cx="333.037" cy="145.513" r="4" fill="#0" id="circle141"/>
	<circle cx="306.176" cy="157.164" r="4" fill="#0" id="circle142"/>
	<circle cx="314.295" cy="175.923" r="4" fill="#0" id="circle143"/>
	<circle cx="302.207" cy="190.47" r="4" fill="#0" id="circle144"/>
	<circle cx="300.67" cy="206.919" r="4" fill="#0" id="circle145"/>
	<circle cx="311.422" cy="224.708" r="4" fill="#0" id="circle146"/>
	<circle cx="307.768" cy="239.29" r="4" fill="#0" id="circle147"/>
	<circle cx="304.468" cy="254.212" r="4" fill="#0" id="circle148"/>
	<circle cx="311.488" cy="269.595" r="4" fill="#0" id="circle149"/>
	<circle cx="303.837" cy="285.36" r="4" fill="#0" id="circle150"/>
	<circle cx="309.135" cy="301.006" r="4" fill="#0" id="circle151"/>
	<circle cx="294.241" cy="323.906" r="4" fill="#0" id="circle152"/>
	<circle cx="302.859" cy="346.462" r="4" fill="#0" id="circle153"/>
	<circle cx="331.381" cy="358.367" r="4" fill="#0" id="circle154"/>
	<circle cx="343.139" cy="387.658" r="4" fill="#0" id="circle155"/>
	<circle cx="369.996" cy="400.504" r="4" fill="#0" id="circle156"/>
	<circle cx="403.267" cy="402.058" r="4" fill="#0" id="circle157"/>
	<circle cx="437.78" cy="386.992" r="4" fill="#0" id="circle158"/>
	<circle cx="469.363" cy="350.27" r="4" fill="#0" id="circle159"/>
	<circle cx="522.882" cy="348.809" r="4" fill="#0" id="circle160"/>
	<circle cx="576.252" cy="306.277" r="4" fill="#0" id="circle161"/>
	<circle cx="661.6" cy="386.983" r="4" fill="#0" id="circle162"/>
	<circle cx="729.936" cy="382.968" r="4" fill="#0" id="circle163"/>
	<circle cx="847.173" cy="327.165" r="4" fill="#0" id="circle164"/>
	<circle cx="841.86" cy="442.052" r="4" fill="#0" id="circle165"/>
	<circle cx="940.613" cy="458.769" r="4" fill="#0" id="circle166"/>
	<circle cx="876.722" cy="542.922" r="4" fill="#0" id="circle167"/>
	<circle cx="958.569" cy="599.016" r="4" fill="#0" id="circle168"/>
	<circle cx="893.114" cy="636.553" r="4" fill="#0" id="circle169"/>
	<circle cx="930.047" cy="672.018" r="4" fill="#0" id="circle170"/>
	<circle cx="892.089" cy="692.559" r="4" fill="#0" id="circle171"/>
	<circle cx="892.793" cy="722" r="4" fill="#0" id="circle172"/>
	<circle cx="930.485" cy="733.01" r="4" fill="#0" id="circle173"/>
	<circle cx="930.295" cy="754.343" r="4" fill="#0" id="circle174"/>
	<circle cx="935.074" cy="776.003" r="4" fill="#0" id="circle175"/>
	<circle cx="945.346" cy="786.77" r="4" fill="#0" id="circle176"/>
	<circle cx="957.402" cy="797.033" r="4" fill="#0" id="circle177"/>
	<circle cx="975.677" cy="812.049" r="4" fill="#0" id="circle178"/>
	<circle cx="975.076" cy="833.883" r="4" fill="#0" id="circle179"/>
	<circle cx="954.159" cy="854.186" r="4" fill="#0" id="circle180"/>
	<circle cx="947.717" cy="881.557" r="4" fill="#0" id="circle181"/>
	<circle cx="925.354" cy="901.1" r="4" fill="#0" id="circle182"/>
	<circle cx="896.035" cy="907.646" r="4" fill="#0" id="circle183"/>
	<circle cx="865.72" cy="929.827" r="4" fill="#0" id="circle184"/>
	<circle cx="820.064" cy="896.291" r="4" fill="#0" id="circle185"/>
	<circle cx="773.338" cy="932.088" r="4" fill="#0" id="circle186"/>
	<circle cx="713.739" cy="959.133" r="4" fill="#0" id="circle187"/>
	<circle cx="637.956" cy="905.791" r="4" fill="#0" id="circle188"/>
	<circle cx="541.517" cy="996" r="4" fill="#0" id="circle189"/>
	<circle cx="469.484" cy="937.901" r="4" fill="#0" id="circle190"/>
	<circle cx="413.378" cy="959.079" r="4" fill="#0" id="circle191"/>
	<circle cx="369.117" cy="944.368" r="4" fill="#0" id="circle192"/>
	<circle cx="332.165" cy="934.508" r="4" fill="#0" id="circle193"/>
	<circle cx="302.502" cy="905.109" r="4" fill="#0" id="circle194"/>
	<circle cx="273.913" cy="935.271" r="4" fill="#0" id="circle195"/>
	<circle cx="248.718" cy="935.583" r="4" fill="#0" id="circle196"/>
	<circle cx="225.826" cy="935.007" r="4" fill="#0" id="circle197"/>
	<circle cx="206.816" cy="926.57" r="4" fill="#0" id="circle198"/>
	<circle cx="192.186" cy="919.694" r="4" fill="#0" id="circle199"/>
	<circle cx="177.342" cy="915.486" r="4" fill="#0" id="circle200"/>
	<circle cx="168.793" cy="901.518" r="4" fill="#0" id="circle201"/>
	<circle cx="158.815" cy="889.771" r="4" fill="#0" id="circle202"/>
	<circle cx="154.194" cy="874.683" r="4" fill="#0" id="circle203"/>
	<circle cx="161.427" cy="859.282" r="4" fill="#0" id="circle204"/>
	<circle cx="170.127" cy="846.023" r="4" fill="#0" id="circle205"/>
	<circle cx="184.798" cy="840.715" r="4" fill="#0" id="circle206"/>
	<circle cx="189.189" cy="819.172" r="4" fill="#0" id="circle207"/>
	<circle cx="204.057" cy="810.394" r="4" fill="#0" id="circle208"/>
	<circle cx="229.597" cy="826.05" r="4" fill="#0" id="circle209"/>
	<circle cx="239.005" cy="805.193" r="4" fill="#0" id="circle210"/>
	<circle cx="257.391" cy="804.361" r="4" fill="#0" id="circle211"/>
	<circle cx="258.848" cy="786.043" r="4" fill="#0" id="circle212"/>
	<circle cx="272.198" cy="772.686" r="4" fill="#0" id="circle213"/>
	</g>
</svg>