<?xml version="1.0" encoding="UTF-8" standalone="no"?>
<!-- Created with CurveBenchmark -->
<svg
	xmlns:dc="http://purl.org/dc/elements/1.1/"
	xmlns:cc="http://creativecommons.org/ns#"
	xmlns:rdf="http://www.w3.org/1999/02/22-rdf-syntax-ns#"
	xmlns:svg="http://www.w3.org/2000/svg"
	xmlns="http://www.w3.org/2000/svg"
	xmlns:sodipodi="http://sodipodi.sourceforge.net/DTD/sodipodi-0.dtd"
	xmlns:inkscape="http://www.inkscape.org/namespaces/inkscape"
	width="1000"
	height="1000"
	id="svg2"
	version="1.1"
	sodipodi:docname="outliers-10/stretchdenoise-mc45.txt">
<defs
	id="defs4" />
<metadata
	id="metadata7">
	<rdf:RDF>
		<cc:Work
			rdf:about="">
			<dc:format>image/svg+xml</dc:format>
			<dc:type
				rdf:resource="http://purl.org/dc/dcmitype/StillImage" />
			<dc:title></dc:title>
		</cc:Work>
	</rdf:RDF>
</metadata>
<g
	inkscape:label="Layer 1"
	inkscape:groupmode="layer"
	id="layer1">
	<path style="fill:none;stroke:red;stroke-width:1px;stroke-linecap:butt;stroke-linejoin:miter;stroke-opacity:1" d="M 4,276.325 5.75472,251.928 z" id="boundary" inkscape:connector-curvature="0" />
	<path style="fill:none;stroke:red;stroke-width:1px;stroke-linecap:butt;stroke-linejoin:miter;stroke-opacity:1" d="M 4,276.325 16.646,302.555 z" id="boundary" inkscape:connector-curvature="0" />
	<path style="fill:none;stroke:red;stroke-width:1px;stroke-linecap:butt;stroke-linejoin:miter;stroke-opacity:1" d="M 5.75472,251.928 17.5811,215.252 z" id="boundary" inkscape:connector-curvature="0" />
	<path style="fill:none;stroke:red;stroke-width:1px;stroke-linecap:butt;stroke-linejoin:miter;stroke-opacity:1" d="M 16.646,302.555 19.6064,330.476 z" id="boundary" inkscape:connector-curvature="0" />
	<path style="fill:none;stroke:red;stroke-width:1px;stroke-linecap:butt;stroke-linejoin:miter;stroke-opacity:1" d="M 19.6064,330.476 33.3128,346.827 z" id="boundary" inkscape:connector-curvature="0" />
	<path style="fill:none;stroke:red;stroke-width:1px;stroke-linecap:butt;stroke-linejoin:miter;stroke-opacity:1" d="M 17.5811,215.252 34.6925,192.973 z" id="boundary" inkscape:connector-curvature="0" />
	<path style="fill:none;stroke:red;stroke-width:1px;stroke-linecap:butt;stroke-linejoin:miter;stroke-opacity:1" d="M 33.3128,346.827 49.9936,373.116 z" id="boundary" inkscape:connector-curvature="0" />
	<path style="fill:none;stroke:red;stroke-width:1px;stroke-linecap:butt;stroke-linejoin:miter;stroke-opacity:1" d="M 34.6925,192.973 72.5163,173.711 z" id="boundary" inkscape:connector-curvature="0" />
	<path style="fill:none;stroke:red;stroke-width:1px;stroke-linecap:butt;stroke-linejoin:miter;stroke-opacity:1" d="M 49.9936,373.116 74.6155,386.429 z" id="boundary" inkscape:connector-curvature="0" />
	<path style="fill:none;stroke:red;stroke-width:1px;stroke-linecap:butt;stroke-linejoin:miter;stroke-opacity:1" d="M 72.5163,173.711 106.641,165.429 z" id="boundary" inkscape:connector-curvature="0" />
	<path style="fill:none;stroke:red;stroke-width:1px;stroke-linecap:butt;stroke-linejoin:miter;stroke-opacity:1" d="M 74.6155,386.429 108.651,399.952 z" id="boundary" inkscape:connector-curvature="0" />
	<path style="fill:none;stroke:red;stroke-width:1px;stroke-linecap:butt;stroke-linejoin:miter;stroke-opacity:1" d="M 106.347,279.462 112.695,241.961 z" id="boundary" inkscape:connector-curvature="0" />
	<path style="fill:none;stroke:red;stroke-width:1px;stroke-linecap:butt;stroke-linejoin:miter;stroke-opacity:1" d="M 106.347,279.462 113.56,305.545 z" id="boundary" inkscape:connector-curvature="0" />
	<path style="fill:none;stroke:red;stroke-width:1px;stroke-linecap:butt;stroke-linejoin:miter;stroke-opacity:1" d="M 106.641,165.429 128.197,166.933 z" id="boundary" inkscape:connector-curvature="0" />
	<path style="fill:none;stroke:red;stroke-width:1px;stroke-linecap:butt;stroke-linejoin:miter;stroke-opacity:1" d="M 108.651,399.952 136.657,405.401 z" id="boundary" inkscape:connector-curvature="0" />
	<path style="fill:none;stroke:red;stroke-width:1px;stroke-linecap:butt;stroke-linejoin:miter;stroke-opacity:1" d="M 112.695,241.961 148.656,234.544 z" id="boundary" inkscape:connector-curvature="0" />
	<path style="fill:none;stroke:red;stroke-width:1px;stroke-linecap:butt;stroke-linejoin:miter;stroke-opacity:1" d="M 113.56,305.545 129.248,322.872 z" id="boundary" inkscape:connector-curvature="0" />
	<path style="fill:none;stroke:red;stroke-width:1px;stroke-linecap:butt;stroke-linejoin:miter;stroke-opacity:1" d="M 128.197,166.933 151.615,183.704 z" id="boundary" inkscape:connector-curvature="0" />
	<path style="fill:none;stroke:red;stroke-width:1px;stroke-linecap:butt;stroke-linejoin:miter;stroke-opacity:1" d="M 129.248,322.872 154.199,306.803 z" id="boundary" inkscape:connector-curvature="0" />
	<path style="fill:none;stroke:red;stroke-width:1px;stroke-linecap:butt;stroke-linejoin:miter;stroke-opacity:1" d="M 136.657,405.401 161.902,392.431 z" id="boundary" inkscape:connector-curvature="0" />
	<path style="fill:none;stroke:red;stroke-width:1px;stroke-linecap:butt;stroke-linejoin:miter;stroke-opacity:1" d="M 148.656,234.544 158.112,273.573 z" id="boundary" inkscape:connector-curvature="0" />
	<path style="fill:none;stroke:red;stroke-width:1px;stroke-linecap:butt;stroke-linejoin:miter;stroke-opacity:1" d="M 151.615,183.704 173.528,194.52 z" id="boundary" inkscape:connector-curvature="0" />
	<path style="fill:none;stroke:red;stroke-width:1px;stroke-linecap:butt;stroke-linejoin:miter;stroke-opacity:1" d="M 154.199,306.803 158.112,273.573 z" id="boundary" inkscape:connector-curvature="0" />
	<path style="fill:none;stroke:red;stroke-width:1px;stroke-linecap:butt;stroke-linejoin:miter;stroke-opacity:1" d="M 161.902,392.431 194.857,382.943 z" id="boundary" inkscape:connector-curvature="0" />
	<path style="fill:none;stroke:red;stroke-width:1px;stroke-linecap:butt;stroke-linejoin:miter;stroke-opacity:1" d="M 173.528,194.52 209.931,211.663 z" id="boundary" inkscape:connector-curvature="0" />
	<path style="fill:none;stroke:red;stroke-width:1px;stroke-linecap:butt;stroke-linejoin:miter;stroke-opacity:1" d="M 194.857,382.943 223.942,384.576 z" id="boundary" inkscape:connector-curvature="0" />
	<path style="fill:none;stroke:red;stroke-width:1px;stroke-linecap:butt;stroke-linejoin:miter;stroke-opacity:1" d="M 209.931,211.663 227.277,228.568 z" id="boundary" inkscape:connector-curvature="0" />
	<path style="fill:none;stroke:red;stroke-width:1px;stroke-linecap:butt;stroke-linejoin:miter;stroke-opacity:1" d="M 223.942,384.576 244.495,382.744 z" id="boundary" inkscape:connector-curvature="0" />
	<path style="fill:none;stroke:red;stroke-width:1px;stroke-linecap:butt;stroke-linejoin:miter;stroke-opacity:1" d="M 227.277,228.568 249.792,222.398 z" id="boundary" inkscape:connector-curvature="0" />
	<path style="fill:none;stroke:red;stroke-width:1px;stroke-linecap:butt;stroke-linejoin:miter;stroke-opacity:1" d="M 244.495,382.744 274.93,396.334 z" id="boundary" inkscape:connector-curvature="0" />
	<path style="fill:none;stroke:red;stroke-width:1px;stroke-linecap:butt;stroke-linejoin:miter;stroke-opacity:1" d="M 249.792,222.398 276.351,201.518 z" id="boundary" inkscape:connector-curvature="0" />
	<path style="fill:none;stroke:red;stroke-width:1px;stroke-linecap:butt;stroke-linejoin:miter;stroke-opacity:1" d="M 267.686,549.726 277.727,520.892 z" id="boundary" inkscape:connector-curvature="0" />
	<path style="fill:none;stroke:red;stroke-width:1px;stroke-linecap:butt;stroke-linejoin:miter;stroke-opacity:1" d="M 267.686,549.726 278.02,571.278 z" id="boundary" inkscape:connector-curvature="0" />
	<path style="fill:none;stroke:red;stroke-width:1px;stroke-linecap:butt;stroke-linejoin:miter;stroke-opacity:1" d="M 274.93,396.334 284.495,421.468 z" id="boundary" inkscape:connector-curvature="0" />
	<path style="fill:none;stroke:red;stroke-width:1px;stroke-linecap:butt;stroke-linejoin:miter;stroke-opacity:1" d="M 276.351,201.518 298.019,177.584 z" id="boundary" inkscape:connector-curvature="0" />
	<path style="fill:none;stroke:red;stroke-width:1px;stroke-linecap:butt;stroke-linejoin:miter;stroke-opacity:1" d="M 277.727,520.892 290.654,486.468 z" id="boundary" inkscape:connector-curvature="0" />
	<path style="fill:none;stroke:red;stroke-width:1px;stroke-linecap:butt;stroke-linejoin:miter;stroke-opacity:1" d="M 276.901,601.865 278.02,571.278 z" id="boundary" inkscape:connector-curvature="0" />
	<path style="fill:none;stroke:red;stroke-width:1px;stroke-linecap:butt;stroke-linejoin:miter;stroke-opacity:1" d="M 276.901,601.865 282.272,627.893 z" id="boundary" inkscape:connector-curvature="0" />
	<path style="fill:none;stroke:red;stroke-width:1px;stroke-linecap:butt;stroke-linejoin:miter;stroke-opacity:1" d="M 282.272,627.893 289.646,666.311 z" id="boundary" inkscape:connector-curvature="0" />
	<path style="fill:none;stroke:red;stroke-width:1px;stroke-linecap:butt;stroke-linejoin:miter;stroke-opacity:1" d="M 290.654,486.468 292.876,451.5 z" id="boundary" inkscape:connector-curvature="0" />
	<path style="fill:none;stroke:red;stroke-width:1px;stroke-linecap:butt;stroke-linejoin:miter;stroke-opacity:1" d="M 289.646,666.311 305.705,698.313 z" id="boundary" inkscape:connector-curvature="0" />
	<path style="fill:none;stroke:red;stroke-width:1px;stroke-linecap:butt;stroke-linejoin:miter;stroke-opacity:1" d="M 287.45,424.507 292.876,451.5 z" id="boundary" inkscape:connector-curvature="0" />
	<path style="fill:none;stroke:red;stroke-width:1px;stroke-linecap:butt;stroke-linejoin:miter;stroke-opacity:1" d="M 287.45,424.507 284.495,421.468 z" id="boundary" inkscape:connector-curvature="0" />
	<path style="fill:none;stroke:red;stroke-width:1px;stroke-linecap:butt;stroke-linejoin:miter;stroke-opacity:1" d="M 298.019,177.584 317.205,165.536 z" id="boundary" inkscape:connector-curvature="0" />
	<path style="fill:none;stroke:red;stroke-width:1px;stroke-linecap:butt;stroke-linejoin:miter;stroke-opacity:1" d="M 305.705,698.313 326.046,734.753 z" id="boundary" inkscape:connector-curvature="0" />
	<path style="fill:none;stroke:red;stroke-width:1px;stroke-linecap:butt;stroke-linejoin:miter;stroke-opacity:1" d="M 317.205,165.536 335.96,143.335 z" id="boundary" inkscape:connector-curvature="0" />
	<path style="fill:none;stroke:red;stroke-width:1px;stroke-linecap:butt;stroke-linejoin:miter;stroke-opacity:1" d="M 326.046,734.753 344.209,756.635 z" id="boundary" inkscape:connector-curvature="0" />
	<path style="fill:none;stroke:red;stroke-width:1px;stroke-linecap:butt;stroke-linejoin:miter;stroke-opacity:1" d="M 335.96,143.335 357.377,131.711 z" id="boundary" inkscape:connector-curvature="0" />
	<path style="fill:none;stroke:red;stroke-width:1px;stroke-linecap:butt;stroke-linejoin:miter;stroke-opacity:1" d="M 344.209,756.635 364.14,761.585 z" id="boundary" inkscape:connector-curvature="0" />
	<path style="fill:none;stroke:red;stroke-width:1px;stroke-linecap:butt;stroke-linejoin:miter;stroke-opacity:1" d="M 357.377,131.711 374.431,110.208 z" id="boundary" inkscape:connector-curvature="0" />
	<path style="fill:none;stroke:red;stroke-width:1px;stroke-linecap:butt;stroke-linejoin:miter;stroke-opacity:1" d="M 364.14,761.585 396.681,754.833 z" id="boundary" inkscape:connector-curvature="0" />
	<path style="fill:none;stroke:red;stroke-width:1px;stroke-linecap:butt;stroke-linejoin:miter;stroke-opacity:1" d="M 374.431,110.208 395.305,94.8161 z" id="boundary" inkscape:connector-curvature="0" />
	<path style="fill:none;stroke:red;stroke-width:1px;stroke-linecap:butt;stroke-linejoin:miter;stroke-opacity:1" d="M 395.305,94.8161 420.118,81.4322 z" id="boundary" inkscape:connector-curvature="0" />
	<path style="fill:none;stroke:red;stroke-width:1px;stroke-linecap:butt;stroke-linejoin:miter;stroke-opacity:1" d="M 396.681,754.833 414.951,736.023 z" id="boundary" inkscape:connector-curvature="0" />
	<path style="fill:none;stroke:red;stroke-width:1px;stroke-linecap:butt;stroke-linejoin:miter;stroke-opacity:1" d="M 400.257,631.903 407.225,659.416 z" id="boundary" inkscape:connector-curvature="0" />
	<path style="fill:none;stroke:red;stroke-width:1px;stroke-linecap:butt;stroke-linejoin:miter;stroke-opacity:1" d="M 400.257,631.903 414.837,605.909 z" id="boundary" inkscape:connector-curvature="0" />
	<path style="fill:none;stroke:red;stroke-width:1px;stroke-linecap:butt;stroke-linejoin:miter;stroke-opacity:1" d="M 407.225,659.416 421.571,679.807 z" id="boundary" inkscape:connector-curvature="0" />
	<path style="fill:none;stroke:red;stroke-width:1px;stroke-linecap:butt;stroke-linejoin:miter;stroke-opacity:1" d="M 414.837,605.909 426.885,584.979 z" id="boundary" inkscape:connector-curvature="0" />
	<path style="fill:none;stroke:red;stroke-width:1px;stroke-linecap:butt;stroke-linejoin:miter;stroke-opacity:1" d="M 414.951,736.023 423.132,705.06 z" id="boundary" inkscape:connector-curvature="0" />
	<path style="fill:none;stroke:red;stroke-width:1px;stroke-linecap:butt;stroke-linejoin:miter;stroke-opacity:1" d="M 420.118,81.4322 439.9,68.0471 z" id="boundary" inkscape:connector-curvature="0" />
	<path style="fill:none;stroke:red;stroke-width:1px;stroke-linecap:butt;stroke-linejoin:miter;stroke-opacity:1" d="M 421.571,679.807 423.132,705.06 z" id="boundary" inkscape:connector-curvature="0" />
	<path style="fill:none;stroke:red;stroke-width:1px;stroke-linecap:butt;stroke-linejoin:miter;stroke-opacity:1" d="M 426.885,584.979 447.803,575.106 z" id="boundary" inkscape:connector-curvature="0" />
	<path style="fill:none;stroke:red;stroke-width:1px;stroke-linecap:butt;stroke-linejoin:miter;stroke-opacity:1" d="M 439.9,68.0471 464.47,52.6552 z" id="boundary" inkscape:connector-curvature="0" />
	<path style="fill:none;stroke:red;stroke-width:1px;stroke-linecap:butt;stroke-linejoin:miter;stroke-opacity:1" d="M 447.803,575.106 466.853,550.198 z" id="boundary" inkscape:connector-curvature="0" />
	<path style="fill:none;stroke:red;stroke-width:1px;stroke-linecap:butt;stroke-linejoin:miter;stroke-opacity:1" d="M 464.47,52.6552 486.631,32.5133 z" id="boundary" inkscape:connector-curvature="0" />
	<path style="fill:none;stroke:red;stroke-width:1px;stroke-linecap:butt;stroke-linejoin:miter;stroke-opacity:1" d="M 466.853,550.198 473.787,505.722 z" id="boundary" inkscape:connector-curvature="0" />
	<path style="fill:none;stroke:red;stroke-width:1px;stroke-linecap:butt;stroke-linejoin:miter;stroke-opacity:1" d="M 472.159,444.681 476.937,480.724 z" id="boundary" inkscape:connector-curvature="0" />
	<path style="fill:none;stroke:red;stroke-width:1px;stroke-linecap:butt;stroke-linejoin:miter;stroke-opacity:1" d="M 472.159,444.681 505.951,450.424 z" id="boundary" inkscape:connector-curvature="0" />
	<path style="fill:none;stroke:red;stroke-width:1px;stroke-linecap:butt;stroke-linejoin:miter;stroke-opacity:1" d="M 473.787,505.722 476.937,480.724 z" id="boundary" inkscape:connector-curvature="0" />
	<path style="fill:none;stroke:red;stroke-width:1px;stroke-linecap:butt;stroke-linejoin:miter;stroke-opacity:1" d="M 486.631,32.5133 517.242,24.2326 z" id="boundary" inkscape:connector-curvature="0" />
	<path style="fill:none;stroke:red;stroke-width:1px;stroke-linecap:butt;stroke-linejoin:miter;stroke-opacity:1" d="M 505.951,450.424 539.017,448.09 z" id="boundary" inkscape:connector-curvature="0" />
	<path style="fill:none;stroke:red;stroke-width:1px;stroke-linecap:butt;stroke-linejoin:miter;stroke-opacity:1" d="M 517.242,24.2326 540.391,15.1073 z" id="boundary" inkscape:connector-curvature="0" />
	<path style="fill:none;stroke:red;stroke-width:1px;stroke-linecap:butt;stroke-linejoin:miter;stroke-opacity:1" d="M 539.017,448.09 559.471,457.389 z" id="boundary" inkscape:connector-curvature="0" />
	<path style="fill:none;stroke:red;stroke-width:1px;stroke-linecap:butt;stroke-linejoin:miter;stroke-opacity:1" d="M 540.391,15.1073 573.253,9.52309 z" id="boundary" inkscape:connector-curvature="0" />
	<path style="fill:none;stroke:red;stroke-width:1px;stroke-linecap:butt;stroke-linejoin:miter;stroke-opacity:1" d="M 559.471,457.389 593.542,457.787 z" id="boundary" inkscape:connector-curvature="0" />
	<path style="fill:none;stroke:red;stroke-width:1px;stroke-linecap:butt;stroke-linejoin:miter;stroke-opacity:1" d="M 573.253,9.52309 612.424,7.43127 z" id="boundary" inkscape:connector-curvature="0" />
	<path style="fill:none;stroke:red;stroke-width:1px;stroke-linecap:butt;stroke-linejoin:miter;stroke-opacity:1" d="M 593.542,457.787 613.095,450.855 z" id="boundary" inkscape:connector-curvature="0" />
	<path style="fill:none;stroke:red;stroke-width:1px;stroke-linecap:butt;stroke-linejoin:miter;stroke-opacity:1" d="M 612.424,7.43127 638.989,4 z" id="boundary" inkscape:connector-curvature="0" />
	<path style="fill:none;stroke:red;stroke-width:1px;stroke-linecap:butt;stroke-linejoin:miter;stroke-opacity:1" d="M 613.095,450.855 633.982,448.152 z" id="boundary" inkscape:connector-curvature="0" />
	<path style="fill:none;stroke:red;stroke-width:1px;stroke-linecap:butt;stroke-linejoin:miter;stroke-opacity:1" d="M 633.982,448.152 674.71,446.153 z" id="boundary" inkscape:connector-curvature="0" />
	<path style="fill:none;stroke:red;stroke-width:1px;stroke-linecap:butt;stroke-linejoin:miter;stroke-opacity:1" d="M 638.989,4 662.833,11.0092 z" id="boundary" inkscape:connector-curvature="0" />
	<path style="fill:none;stroke:red;stroke-width:1px;stroke-linecap:butt;stroke-linejoin:miter;stroke-opacity:1" d="M 662.833,11.0092 684.614,15.9572 z" id="boundary" inkscape:connector-curvature="0" />
	<path style="fill:none;stroke:red;stroke-width:1px;stroke-linecap:butt;stroke-linejoin:miter;stroke-opacity:1" d="M 674.71,446.153 697.051,441.707 z" id="boundary" inkscape:connector-curvature="0" />
	<path style="fill:none;stroke:red;stroke-width:1px;stroke-linecap:butt;stroke-linejoin:miter;stroke-opacity:1" d="M 684.614,15.9572 711.538,26.3115 z" id="boundary" inkscape:connector-curvature="0" />
	<path style="fill:none;stroke:red;stroke-width:1px;stroke-linecap:butt;stroke-linejoin:miter;stroke-opacity:1" d="M 697.051,441.707 715.991,432.018 z" id="boundary" inkscape:connector-curvature="0" />
	<path style="fill:none;stroke:red;stroke-width:1px;stroke-linecap:butt;stroke-linejoin:miter;stroke-opacity:1" d="M 711.538,26.3115 732.303,36.2248 z" id="boundary" inkscape:connector-curvature="0" />
	<path style="fill:none;stroke:red;stroke-width:1px;stroke-linecap:butt;stroke-linejoin:miter;stroke-opacity:1" d="M 715.991,432.018 737.47,436.358 z" id="boundary" inkscape:connector-curvature="0" />
	<path style="fill:none;stroke:red;stroke-width:1px;stroke-linecap:butt;stroke-linejoin:miter;stroke-opacity:1" d="M 732.303,36.2248 761.584,48.2808 z" id="boundary" inkscape:connector-curvature="0" />
	<path style="fill:none;stroke:red;stroke-width:1px;stroke-linecap:butt;stroke-linejoin:miter;stroke-opacity:1" d="M 737.47,436.358 757.365,434.922 z" id="boundary" inkscape:connector-curvature="0" />
	<path style="fill:none;stroke:red;stroke-width:1px;stroke-linecap:butt;stroke-linejoin:miter;stroke-opacity:1" d="M 761.584,48.2808 794.617,68.6093 z" id="boundary" inkscape:connector-curvature="0" />
	<path style="fill:none;stroke:red;stroke-width:1px;stroke-linecap:butt;stroke-linejoin:miter;stroke-opacity:1" d="M 757.365,434.922 777.182,444.03 z" id="boundary" inkscape:connector-curvature="0" />
	<path style="fill:none;stroke:red;stroke-width:1px;stroke-linecap:butt;stroke-linejoin:miter;stroke-opacity:1" d="M 777.182,444.03 780.53,497.592 z" id="boundary" inkscape:connector-curvature="0" />
	<path style="fill:none;stroke:red;stroke-width:1px;stroke-linecap:butt;stroke-linejoin:miter;stroke-opacity:1" d="M 780.53,497.592 791.523,522.877 z" id="boundary" inkscape:connector-curvature="0" />
	<path style="fill:none;stroke:red;stroke-width:1px;stroke-linecap:butt;stroke-linejoin:miter;stroke-opacity:1" d="M 791.523,522.877 806.251,547.116 z" id="boundary" inkscape:connector-curvature="0" />
	<path style="fill:none;stroke:red;stroke-width:1px;stroke-linecap:butt;stroke-linejoin:miter;stroke-opacity:1" d="M 794.617,68.6093 814.978,89.3475 z" id="boundary" inkscape:connector-curvature="0" />
	<path style="fill:none;stroke:red;stroke-width:1px;stroke-linecap:butt;stroke-linejoin:miter;stroke-opacity:1" d="M 806.251,547.116 829.672,569.542 z" id="boundary" inkscape:connector-curvature="0" />
	<path style="fill:none;stroke:red;stroke-width:1px;stroke-linecap:butt;stroke-linejoin:miter;stroke-opacity:1" d="M 814.978,89.3475 842.59,116.48 z" id="boundary" inkscape:connector-curvature="0" />
	<path style="fill:none;stroke:red;stroke-width:1px;stroke-linecap:butt;stroke-linejoin:miter;stroke-opacity:1" d="M 829.672,569.542 853.158,598.483 z" id="boundary" inkscape:connector-curvature="0" />
	<path style="fill:none;stroke:red;stroke-width:1px;stroke-linecap:butt;stroke-linejoin:miter;stroke-opacity:1" d="M 842.59,116.48 869.959,131.573 z" id="boundary" inkscape:connector-curvature="0" />
	<path style="fill:none;stroke:red;stroke-width:1px;stroke-linecap:butt;stroke-linejoin:miter;stroke-opacity:1" d="M 853.158,598.483 873.109,617.019 z" id="boundary" inkscape:connector-curvature="0" />
	<path style="fill:none;stroke:red;stroke-width:1px;stroke-linecap:butt;stroke-linejoin:miter;stroke-opacity:1" d="M 869.959,131.573 884.735,151.792 z" id="boundary" inkscape:connector-curvature="0" />
	<path style="fill:none;stroke:red;stroke-width:1px;stroke-linecap:butt;stroke-linejoin:miter;stroke-opacity:1" d="M 873.109,617.019 893.67,638.533 z" id="boundary" inkscape:connector-curvature="0" />
	<path style="fill:none;stroke:red;stroke-width:1px;stroke-linecap:butt;stroke-linejoin:miter;stroke-opacity:1" d="M 884.735,151.792 907.649,153.662 z" id="boundary" inkscape:connector-curvature="0" />
	<path style="fill:none;stroke:red;stroke-width:1px;stroke-linecap:butt;stroke-linejoin:miter;stroke-opacity:1" d="M 893.67,638.533 909.365,658.924 z" id="boundary" inkscape:connector-curvature="0" />
	<path style="fill:none;stroke:red;stroke-width:1px;stroke-linecap:butt;stroke-linejoin:miter;stroke-opacity:1" d="M 907.179,175.843 919.291,204.836 z" id="boundary" inkscape:connector-curvature="0" />
	<path style="fill:none;stroke:red;stroke-width:1px;stroke-linecap:butt;stroke-linejoin:miter;stroke-opacity:1" d="M 907.179,175.843 907.649,153.662 z" id="boundary" inkscape:connector-curvature="0" />
	<path style="fill:none;stroke:red;stroke-width:1px;stroke-linecap:butt;stroke-linejoin:miter;stroke-opacity:1" d="M 905.404,344.101 913.112,319.401 z" id="boundary" inkscape:connector-curvature="0" />
	<path style="fill:none;stroke:red;stroke-width:1px;stroke-linecap:butt;stroke-linejoin:miter;stroke-opacity:1" d="M 905.404,344.101 915.434,363.899 z" id="boundary" inkscape:connector-curvature="0" />
	<path style="fill:none;stroke:red;stroke-width:1px;stroke-linecap:butt;stroke-linejoin:miter;stroke-opacity:1" d="M 909.365,658.924 930.835,662.843 z" id="boundary" inkscape:connector-curvature="0" />
	<path style="fill:none;stroke:red;stroke-width:1px;stroke-linecap:butt;stroke-linejoin:miter;stroke-opacity:1" d="M 913.112,319.401 922.858,297.664 z" id="boundary" inkscape:connector-curvature="0" />
	<path style="fill:none;stroke:red;stroke-width:1px;stroke-linecap:butt;stroke-linejoin:miter;stroke-opacity:1" d="M 915.434,363.899 925.937,400.345 z" id="boundary" inkscape:connector-curvature="0" />
	<path style="fill:none;stroke:red;stroke-width:1px;stroke-linecap:butt;stroke-linejoin:miter;stroke-opacity:1" d="M 919.291,204.836 929.894,226.94 z" id="boundary" inkscape:connector-curvature="0" />
	<path style="fill:none;stroke:red;stroke-width:1px;stroke-linecap:butt;stroke-linejoin:miter;stroke-opacity:1" d="M 922.858,297.664 937.724,282.802 z" id="boundary" inkscape:connector-curvature="0" />
	<path style="fill:none;stroke:red;stroke-width:1px;stroke-linecap:butt;stroke-linejoin:miter;stroke-opacity:1" d="M 925.937,400.345 940.982,421.769 z" id="boundary" inkscape:connector-curvature="0" />
	<path style="fill:none;stroke:red;stroke-width:1px;stroke-linecap:butt;stroke-linejoin:miter;stroke-opacity:1" d="M 929.894,226.94 935.431,256.217 z" id="boundary" inkscape:connector-curvature="0" />
	<path style="fill:none;stroke:red;stroke-width:1px;stroke-linecap:butt;stroke-linejoin:miter;stroke-opacity:1" d="M 930.835,662.843 990.532,670.776 z" id="boundary" inkscape:connector-curvature="0" />
	<path style="fill:none;stroke:red;stroke-width:1px;stroke-linecap:butt;stroke-linejoin:miter;stroke-opacity:1" d="M 935.431,256.217 937.724,282.802 z" id="boundary" inkscape:connector-curvature="0" />
	<path style="fill:none;stroke:red;stroke-width:1px;stroke-linecap:butt;stroke-linejoin:miter;stroke-opacity:1" d="M 940.982,421.769 955.784,441.372 z" id="boundary" inkscape:connector-curvature="0" />
	<path style="fill:none;stroke:red;stroke-width:1px;stroke-linecap:butt;stroke-linejoin:miter;stroke-opacity:1" d="M 955.784,441.372 978.619,485.831 z" id="boundary" inkscape:connector-curvature="0" />
	<path style="fill:none;stroke:red;stroke-width:1px;stroke-linecap:butt;stroke-linejoin:miter;stroke-opacity:1" d="M 990.532,670.776 987.523,623.199 z" id="boundary" inkscape:connector-curvature="0" />
	<path style="fill:none;stroke:red;stroke-width:1px;stroke-linecap:butt;stroke-linejoin:miter;stroke-opacity:1" d="M 978.619,485.831 989.855,532.749 z" id="boundary" inkscape:connector-curvature="0" />
	<path style="fill:none;stroke:red;stroke-width:1px;stroke-linecap:butt;stroke-linejoin:miter;stroke-opacity:1" d="M 987.523,623.199 996,589.209 z" id="boundary" inkscape:connector-curvature="0" />
	<path style="fill:none;stroke:red;stroke-width:1px;stroke-linecap:butt;stroke-linejoin:miter;stroke-opacity:1" d="M 989.855,532.749 995.227,554.566 z" id="boundary" inkscape:connector-curvature="0" />
	<path style="fill:none;stroke:red;stroke-width:1px;stroke-linecap:butt;stroke-linejoin:miter;stroke-opacity:1" d="M 996,589.209 993.591,561.613 z" id="boundary" inkscape:connector-curvature="0" />
	<path style="fill:none;stroke:red;stroke-width:1px;stroke-linecap:butt;stroke-linejoin:miter;stroke-opacity:1" d="M 995.227,554.566 993.591,561.613 z" id="boundary" inkscape:connector-curvature="0" />
	<circle cx="4" cy="276.325" r="4" fill="#0" id="circle0"/>
	<circle cx="5.75472" cy="251.928" r="4" fill="#0" id="circle1"/>
	<circle cx="16.646" cy="302.555" r="4" fill="#0" id="circle2"/>
	<circle cx="19.6064" cy="330.476" r="4" fill="#0" id="circle3"/>
	<circle cx="17.5811" cy="215.252" r="4" fill="#0" id="circle4"/>
	<circle cx="33.3128" cy="346.827" r="4" fill="#0" id="circle5"/>
	<circle cx="34.6925" cy="192.973" r="4" fill="#0" id="circle6"/>
	<circle cx="49.9936" cy="373.116" r="4" fill="#0" id="circle7"/>
	<circle cx="72.5163" cy="173.711" r="4" fill="#0" id="circle8"/>
	<circle cx="74.6155" cy="386.429" r="4" fill="#0" id="circle9"/>
	<circle cx="106.347" cy="279.462" r="4" fill="#0" id="circle10"/>
	<circle cx="106.641" cy="165.429" r="4" fill="#0" id="circle11"/>
	<circle cx="108.651" cy="399.952" r="4" fill="#0" id="circle12"/>
	<circle cx="112.695" cy="241.961" r="4" fill="#0" id="circle13"/>
	<circle cx="113.56" cy="305.545" r="4" fill="#0" id="circle14"/>
	<circle cx="128.197" cy="166.933" r="4" fill="#0" id="circle15"/>
	<circle cx="129.248" cy="322.872" r="4" fill="#0" id="circle16"/>
	<circle cx="136.657" cy="405.401" r="4" fill="#0" id="circle17"/>
	<circle cx="148.656" cy="234.544" r="4" fill="#0" id="circle18"/>
	<circle cx="151.615" cy="183.704" r="4" fill="#0" id="circle19"/>
	<circle cx="154.199" cy="306.803" r="4" fill="#0" id="circle20"/>
	<circle cx="158.112" cy="273.573" r="4" fill="#0" id="circle21"/>
	<circle cx="161.902" cy="392.431" r="4" fill="#0" id="circle22"/>
	<circle cx="173.528" cy="194.52" r="4" fill="#0" id="circle23"/>
	<circle cx="194.857" cy="382.943" r="4" fill="#0" id="circle24"/>
	<circle cx="209.931" cy="211.663" r="4" fill="#0" id="circle25"/>
	<circle cx="223.942" cy="384.576" r="4" fill="#0" id="circle26"/>
	<circle cx="227.277" cy="228.568" r="4" fill="#0" id="circle27"/>
	<circle cx="244.495" cy="382.744" r="4" fill="#0" id="circle28"/>
	<circle cx="249.792" cy="222.398" r="4" fill="#0" id="circle29"/>
	<circle cx="267.686" cy="549.726" r="4" fill="#0" id="circle30"/>
	<circle cx="274.93" cy="396.334" r="4" fill="#0" id="circle31"/>
	<circle cx="276.351" cy="201.518" r="4" fill="#0" id="circle32"/>
	<circle cx="277.727" cy="520.892" r="4" fill="#0" id="circle33"/>
	<circle cx="276.901" cy="601.865" r="4" fill="#0" id="circle34"/>
	<circle cx="278.02" cy="571.278" r="4" fill="#0" id="circle35"/>
	<circle cx="282.272" cy="627.893" r="4" fill="#0" id="circle36"/>
	<circle cx="290.654" cy="486.468" r="4" fill="#0" id="circle37"/>
	<circle cx="289.646" cy="666.311" r="4" fill="#0" id="circle38"/>
	<circle cx="287.45" cy="424.507" r="4" fill="#0" id="circle39"/>
	<circle cx="298.019" cy="177.584" r="4" fill="#0" id="circle40"/>
	<circle cx="292.876" cy="451.5" r="4" fill="#0" id="circle41"/>
	<circle cx="305.705" cy="698.313" r="4" fill="#0" id="circle42"/>
	<circle cx="317.205" cy="165.536" r="4" fill="#0" id="circle43"/>
	<circle cx="326.046" cy="734.753" r="4" fill="#0" id="circle44"/>
	<circle cx="335.96" cy="143.335" r="4" fill="#0" id="circle45"/>
	<circle cx="344.209" cy="756.635" r="4" fill="#0" id="circle46"/>
	<circle cx="357.377" cy="131.711" r="4" fill="#0" id="circle47"/>
	<circle cx="364.14" cy="761.585" r="4" fill="#0" id="circle48"/>
	<circle cx="374.431" cy="110.208" r="4" fill="#0" id="circle49"/>
	<circle cx="395.305" cy="94.8161" r="4" fill="#0" id="circle50"/>
	<circle cx="396.681" cy="754.833" r="4" fill="#0" id="circle51"/>
	<circle cx="400.257" cy="631.903" r="4" fill="#0" id="circle52"/>
	<circle cx="407.225" cy="659.416" r="4" fill="#0" id="circle53"/>
	<circle cx="414.837" cy="605.909" r="4" fill="#0" id="circle54"/>
	<circle cx="414.951" cy="736.023" r="4" fill="#0" id="circle55"/>
	<circle cx="420.118" cy="81.4322" r="4" fill="#0" id="circle56"/>
	<circle cx="421.571" cy="679.807" r="4" fill="#0" id="circle57"/>
	<circle cx="423.132" cy="705.06" r="4" fill="#0" id="circle58"/>
	<circle cx="426.885" cy="584.979" r="4" fill="#0" id="circle59"/>
	<circle cx="439.9" cy="68.0471" r="4" fill="#0" id="circle60"/>
	<circle cx="447.803" cy="575.106" r="4" fill="#0" id="circle61"/>
	<circle cx="464.47" cy="52.6552" r="4" fill="#0" id="circle62"/>
	<circle cx="466.853" cy="550.198" r="4" fill="#0" id="circle63"/>
	<circle cx="472.159" cy="444.681" r="4" fill="#0" id="circle64"/>
	<circle cx="473.787" cy="505.722" r="4" fill="#0" id="circle65"/>
	<circle cx="476.937" cy="480.724" r="4" fill="#0" id="circle66"/>
	<circle cx="486.631" cy="32.5133" r="4" fill="#0" id="circle67"/>
	<circle cx="505.951" cy="450.424" r="4" fill="#0" id="circle68"/>
	<circle cx="517.242" cy="24.2326" r="4" fill="#0" id="circle69"/>
	<circle cx="539.017" cy="448.09" r="4" fill="#0" id="circle70"/>
	<circle cx="540.391" cy="15.1073" r="4" fill="#0" id="circle71"/>
	<circle cx="559.471" cy="457.389" r="4" fill="#0" id="circle72"/>
	<circle cx="573.253" cy="9.52309" r="4" fill="#0" id="circle73"/>
	<circle cx="593.542" cy="457.787" r="4" fill="#0" id="circle74"/>
	<circle cx="612.424" cy="7.43127" r="4" fill="#0" id="circle75"/>
	<circle cx="613.095" cy="450.855" r="4" fill="#0" id="circle76"/>
	<circle cx="633.982" cy="448.152" r="4" fill="#0" id="circle77"/>
	<circle cx="638.989" cy="4" r="4" fill="#0" id="circle78"/>
	<circle cx="662.833" cy="11.0092" r="4" fill="#0" id="circle79"/>
	<circle cx="674.71" cy="446.153" r="4" fill="#0" id="circle80"/>
	<circle cx="684.614" cy="15.9572" r="4" fill="#0" id="circle81"/>
	<circle cx="697.051" cy="441.707" r="4" fill="#0" id="circle82"/>
	<circle cx="711.538" cy="26.3115" r="4" fill="#0" id="circle83"/>
	<circle cx="715.991" cy="432.018" r="4" fill="#0" id="circle84"/>
	<circle cx="732.303" cy="36.2248" r="4" fill="#0" id="circle85"/>
	<circle cx="737.47" cy="436.358" r="4" fill="#0" id="circle86"/>
	<circle cx="761.584" cy="48.2808" r="4" fill="#0" id="circle87"/>
	<circle cx="757.365" cy="434.922" r="4" fill="#0" id="circle88"/>
	<circle cx="777.182" cy="444.03" r="4" fill="#0" id="circle89"/>
	<circle cx="780.53" cy="497.592" r="4" fill="#0" id="circle90"/>
	<circle cx="791.523" cy="522.877" r="4" fill="#0" id="circle91"/>
	<circle cx="794.617" cy="68.6093" r="4" fill="#0" id="circle92"/>
	<circle cx="806.251" cy="547.116" r="4" fill="#0" id="circle93"/>
	<circle cx="814.978" cy="89.3475" r="4" fill="#0" id="circle94"/>
	<circle cx="829.672" cy="569.542" r="4" fill="#0" id="circle95"/>
	<circle cx="842.59" cy="116.48" r="4" fill="#0" id="circle96"/>
	<circle cx="853.158" cy="598.483" r="4" fill="#0" id="circle97"/>
	<circle cx="869.959" cy="131.573" r="4" fill="#0" id="circle98"/>
	<circle cx="873.109" cy="617.019" r="4" fill="#0" id="circle99"/>
	<circle cx="884.735" cy="151.792" r="4" fill="#0" id="circle100"/>
	<circle cx="893.67" cy="638.533" r="4" fill="#0" id="circle101"/>
	<circle cx="907.179" cy="175.843" r="4" fill="#0" id="circle102"/>
	<circle cx="905.404" cy="344.101" r="4" fill="#0" id="circle103"/>
	<circle cx="909.365" cy="658.924" r="4" fill="#0" id="circle104"/>
	<circle cx="913.112" cy="319.401" r="4" fill="#0" id="circle105"/>
	<circle cx="915.434" cy="363.899" r="4" fill="#0" id="circle106"/>
	<circle cx="919.291" cy="204.836" r="4" fill="#0" id="circle107"/>
	<circle cx="922.858" cy="297.664" r="4" fill="#0" id="circle108"/>
	<circle cx="925.937" cy="400.345" r="4" fill="#0" id="circle109"/>
	<circle cx="929.894" cy="226.94" r="4" fill="#0" id="circle110"/>
	<circle cx="930.835" cy="662.843" r="4" fill="#0" id="circle111"/>
	<circle cx="935.431" cy="256.217" r="4" fill="#0" id="circle112"/>
	<circle cx="937.724" cy="282.802" r="4" fill="#0" id="circle113"/>
	<circle cx="940.982" cy="421.769" r="4" fill="#0" id="circle114"/>
	<circle cx="955.784" cy="441.372" r="4" fill="#0" id="circle115"/>
	<circle cx="990.532" cy="670.776" r="4" fill="#0" id="circle116"/>
	<circle cx="978.619" cy="485.831" r="4" fill="#0" id="circle117"/>
	<circle cx="987.523" cy="623.199" r="4" fill="#0" id="circle118"/>
	<circle cx="989.855" cy="532.749" r="4" fill="#0" id="circle119"/>
	<circle cx="996" cy="589.209" r="4" fill="#0" id="circle120"/>
	<circle cx="995.227" cy="554.566" r="4" fill="#0" id="circle121"/>
	<circle cx="993.591" cy="561.613" r="4" fill="#0" id="circle122"/>
	<circle cx="836.817" cy="302.779" r="4" fill="#0" id="circle123"/>
	<circle cx="780.229" cy="608.887" r="4" fill="#0" id="circle124"/>
	<circle cx="907.649" cy="153.662" r="4" fill="#0" id="circle125"/>
	<circle cx="336.282" cy="586" r="4" fill="#0" id="circle126"/>
	<circle cx="284.495" cy="421.468" r="4" fill="#0" id="circle127"/>
	<circle cx="477.209" cy="480.423" r="4" fill="#0" id="circle128"/>
	<circle cx="365.584" cy="392.945" r="4" fill="#0" id="circle129"/>
	<circle cx="947.876" cy="698.096" r="4" fill="#0" id="circle130"/>
	<circle cx="634.135" cy="547.414" r="4" fill="#0" id="circle131"/>
	<circle cx="144.36" cy="463.831" r="4" fill="#0" id="circle132"/>
	<circle cx="20.1576" cy="188.007" r="4" fill="#0" id="circle133"/>
	<circle cx="140.028" cy="613.233" r="4" fill="#0" id="circle134"/>
	</g>
</svg>