<?xml version="1.0" encoding="UTF-8" standalone="no"?>
<!-- Created with CurveBenchmark -->
<svg
	xmlns:dc="http://purl.org/dc/elements/1.1/"
	xmlns:cc="http://creativecommons.org/ns#"
	xmlns:rdf="http://www.w3.org/1999/02/22-rdf-syntax-ns#"
	xmlns:svg="http://www.w3.org/2000/svg"
	xmlns="http://www.w3.org/2000/svg"
	xmlns:sodipodi="http://sodipodi.sourceforge.net/DTD/sodipodi-0.dtd"
	xmlns:inkscape="http://www.inkscape.org/namespaces/inkscape"
	width="1000"
	height="1000"
	id="svg2"
	version="1.1"
	sodipodi:docname="outliers-10/stretchdenoise-mc14.txt">
<defs
	id="defs4" />
<metadata
	id="metadata7">
	<rdf:RDF>
		<cc:Work
			rdf:about="">
			<dc:format>image/svg+xml</dc:format>
			<dc:type
				rdf:resource="http://purl.org/dc/dcmitype/StillImage" />
			<dc:title></dc:title>
		</cc:Work>
	</rdf:RDF>
</metadata>
<g
	inkscape:label="Layer 1"
	inkscape:groupmode="layer"
	id="layer1">
	<path style="fill:none;stroke:red;stroke-width:1px;stroke-linecap:butt;stroke-linejoin:miter;stroke-opacity:1" d="M 167.585,252.89 245.828,4 z" id="boundary" inkscape:connector-curvature="0" />
	<path style="fill:none;stroke:red;stroke-width:1px;stroke-linecap:butt;stroke-linejoin:miter;stroke-opacity:1" d="M 167.585,252.89 880.441,189.858 z" id="boundary" inkscape:connector-curvature="0" />
	<path style="fill:none;stroke:red;stroke-width:1px;stroke-linecap:butt;stroke-linejoin:miter;stroke-opacity:1" d="M 245.828,4 149.739,159.428 z" id="boundary" inkscape:connector-curvature="0" />
	<circle cx="167.585" cy="252.89" r="4" fill="#0" id="circle0"/>
	<circle cx="181.092" cy="261.894" r="4" fill="#0" id="circle1"/>
	<circle cx="193.095" cy="276.9" r="4" fill="#0" id="circle2"/>
	<circle cx="199.101" cy="291.911" r="4" fill="#0" id="circle3"/>
	<circle cx="212.607" cy="291.911" r="4" fill="#0" id="circle4"/>
	<circle cx="232.116" cy="290.411" r="4" fill="#0" id="circle5"/>
	<circle cx="253.128" cy="290.411" r="4" fill="#0" id="circle6"/>
	<circle cx="271.137" cy="290.411" r="4" fill="#0" id="circle7"/>
	<circle cx="292.145" cy="288.908" r="4" fill="#0" id="circle8"/>
	<circle cx="245.622" cy="207.867" r="4" fill="#0" id="circle9"/>
	<circle cx="262.132" cy="222.873" r="4" fill="#0" id="circle10"/>
	<circle cx="277.138" cy="245.385" r="4" fill="#0" id="circle11"/>
	<circle cx="286.143" cy="263.394" r="4" fill="#0" id="circle12"/>
	<circle cx="245.828" cy="4" r="4" fill="#0" id="circle13"/>
	<circle cx="172.087" cy="188.359" r="4" fill="#0" id="circle14"/>
	<circle cx="206.602" cy="197.363" r="4" fill="#0" id="circle15"/>
	<circle cx="104.553" cy="191.357" r="4" fill="#0" id="circle16"/>
	<circle cx="74.5368" cy="200.362" r="4" fill="#0" id="circle17"/>
	<circle cx="52.0255" cy="218.371" r="4" fill="#0" id="circle18"/>
	<circle cx="35.5158" cy="230.378" r="4" fill="#0" id="circle19"/>
	<circle cx="17.5068" cy="269.399" r="4" fill="#0" id="circle20"/>
	<circle cx="19.0103" cy="311.419" r="4" fill="#0" id="circle21"/>
	<circle cx="149.739" cy="159.428" r="4" fill="#0" id="circle22"/>
	<circle cx="73.0373" cy="365.446" r="4" fill="#0" id="circle23"/>
	<circle cx="92.5458" cy="374.451" r="4" fill="#0" id="circle24"/>
	<circle cx="112.054" cy="380.456" r="4" fill="#0" id="circle25"/>
	<circle cx="134.565" cy="387.957" r="4" fill="#0" id="circle26"/>
	<circle cx="169.084" cy="395.462" r="4" fill="#0" id="circle27"/>
	<circle cx="199.101" cy="417.974" r="4" fill="#0" id="circle28"/>
	<circle cx="193.095" cy="453.992" r="4" fill="#0" id="circle29"/>
	<circle cx="163.082" cy="464.496" r="4" fill="#0" id="circle30"/>
	<circle cx="128.564" cy="458.494" r="4" fill="#0" id="circle31"/>
	<circle cx="106.053" cy="435.983" r="4" fill="#0" id="circle32"/>
	<circle cx="100.051" cy="414.971" r="4" fill="#0" id="circle33"/>
	<circle cx="79.039" cy="413.472" r="4" fill="#0" id="circle34"/>
	<circle cx="50.5261" cy="413.472" r="4" fill="#0" id="circle35"/>
	<circle cx="4" cy="414.971" r="4" fill="#0" id="circle36"/>
	<circle cx="7.00297" cy="446.487" r="4" fill="#0" id="circle37"/>
	<circle cx="25.0119" cy="482.505" r="4" fill="#0" id="circle38"/>
	<circle cx="55.0283" cy="508.019" r="4" fill="#0" id="circle39"/>
	<circle cx="92.5458" cy="526.028" r="4" fill="#0" id="circle40"/>
	<circle cx="146.573" cy="532.03" r="4" fill="#0" id="circle41"/>
	<circle cx="194.598" cy="532.03" r="4" fill="#0" id="circle42"/>
	<circle cx="239.621" cy="520.026" r="4" fill="#0" id="circle43"/>
	<circle cx="275.639" cy="496.012" r="4" fill="#0" id="circle44"/>
	<circle cx="289.146" cy="470.501" r="4" fill="#0" id="circle45"/>
	<circle cx="295.147" cy="450.989" r="4" fill="#0" id="circle46"/>
	<circle cx="296.647" cy="426.978" r="4" fill="#0" id="circle47"/>
	<circle cx="295.147" cy="396.962" r="4" fill="#0" id="circle48"/>
	<circle cx="284.643" cy="365.446" r="4" fill="#0" id="circle49"/>
	<circle cx="262.132" cy="342.935" r="4" fill="#0" id="circle50"/>
	<circle cx="239.621" cy="330.931" r="4" fill="#0" id="circle51"/>
	<circle cx="223.111" cy="323.426" r="4" fill="#0" id="circle52"/>
	<circle cx="208.105" cy="318.924" r="4" fill="#0" id="circle53"/>
	<circle cx="191.595" cy="312.922" r="4" fill="#0" id="circle54"/>
	<circle cx="175.086" cy="308.42" r="4" fill="#0" id="circle55"/>
	<circle cx="152.575" cy="302.414" r="4" fill="#0" id="circle56"/>
	<circle cx="121.059" cy="296.413" r="4" fill="#0" id="circle57"/>
	<circle cx="110.555" cy="272.398" r="4" fill="#0" id="circle58"/>
	<circle cx="122.562" cy="252.89" r="4" fill="#0" id="circle59"/>
	<circle cx="146.573" cy="251.39" r="4" fill="#0" id="circle60"/>
	<circle cx="470.735" cy="272.398" r="4" fill="#0" id="circle61"/>
	<circle cx="514.259" cy="261.894" r="4" fill="#0" id="circle62"/>
	<circle cx="548.773" cy="272.398" r="4" fill="#0" id="circle63"/>
	<circle cx="569.785" cy="296.413" r="4" fill="#0" id="circle64"/>
	<circle cx="443.722" cy="300.915" r="4" fill="#0" id="circle65"/>
	<circle cx="436.217" cy="344.438" r="4" fill="#0" id="circle66"/>
	<circle cx="433.218" cy="390.96" r="4" fill="#0" id="circle67"/>
	<circle cx="452.726" cy="434.483" r="4" fill="#0" id="circle68"/>
	<circle cx="488.744" cy="455.491" r="4" fill="#0" id="circle69"/>
	<circle cx="515.758" cy="458.494" r="4" fill="#0" id="circle70"/>
	<circle cx="538.269" cy="455.491" r="4" fill="#0" id="circle71"/>
	<circle cx="566.782" cy="444.987" r="4" fill="#0" id="circle72"/>
	<circle cx="574.287" cy="426.978" r="4" fill="#0" id="circle73"/>
	<circle cx="575.787" cy="402.968" r="4" fill="#0" id="circle74"/>
	<circle cx="559.281" cy="405.966" r="4" fill="#0" id="circle75"/>
	<circle cx="539.769" cy="404.467" r="4" fill="#0" id="circle76"/>
	<circle cx="511.256" cy="404.467" r="4" fill="#0" id="circle77"/>
	<circle cx="505.254" cy="369.948" r="4" fill="#0" id="circle78"/>
	<circle cx="502.251" cy="338.433" r="4" fill="#0" id="circle79"/>
	<circle cx="535.266" cy="335.434" r="4" fill="#0" id="circle80"/>
	<circle cx="559.281" cy="335.434" r="4" fill="#0" id="circle81"/>
	<circle cx="583.292" cy="335.434" r="4" fill="#0" id="circle82"/>
	<circle cx="611.805" cy="335.434" r="4" fill="#0" id="circle83"/>
	<circle cx="643.321" cy="335.434" r="4" fill="#0" id="circle84"/>
	<circle cx="670.334" cy="335.434" r="4" fill="#0" id="circle85"/>
	<circle cx="668.835" cy="363.947" r="4" fill="#0" id="circle86"/>
	<circle cx="667.335" cy="390.96" r="4" fill="#0" id="circle87"/>
	<circle cx="670.334" cy="420.977" r="4" fill="#0" id="circle88"/>
	<circle cx="670.334" cy="450.989" r="4" fill="#0" id="circle89"/>
	<circle cx="670.334" cy="473.5" r="4" fill="#0" id="circle90"/>
	<circle cx="643.321" cy="493.013" r="4" fill="#0" id="circle91"/>
	<circle cx="607.302" cy="511.022" r="4" fill="#0" id="circle92"/>
	<circle cx="572.788" cy="524.529" r="4" fill="#0" id="circle93"/>
	<circle cx="538.269" cy="527.527" r="4" fill="#0" id="circle94"/>
	<circle cx="494.746" cy="524.529" r="4" fill="#0" id="circle95"/>
	<circle cx="454.226" cy="518.523" r="4" fill="#0" id="circle96"/>
	<circle cx="412.206" cy="505.016" r="4" fill="#0" id="circle97"/>
	<circle cx="382.19" cy="487.007" r="4" fill="#0" id="circle98"/>
	<circle cx="355.176" cy="453.992" r="4" fill="#0" id="circle99"/>
	<circle cx="343.173" cy="420.977" r="4" fill="#0" id="circle100"/>
	<circle cx="334.168" cy="390.96" r="4" fill="#0" id="circle101"/>
	<circle cx="332.665" cy="359.444" r="4" fill="#0" id="circle102"/>
	<circle cx="332.665" cy="324.926" r="4" fill="#0" id="circle103"/>
	<circle cx="338.67" cy="296.413" r="4" fill="#0" id="circle104"/>
	<circle cx="350.674" cy="264.897" r="4" fill="#0" id="circle105"/>
	<circle cx="371.686" cy="237.883" r="4" fill="#0" id="circle106"/>
	<circle cx="407.704" cy="212.369" r="4" fill="#0" id="circle107"/>
	<circle cx="460.231" cy="195.86" r="4" fill="#0" id="circle108"/>
	<circle cx="514.259" cy="189.858" r="4" fill="#0" id="circle109"/>
	<circle cx="563.783" cy="189.858" r="4" fill="#0" id="circle110"/>
	<circle cx="605.803" cy="204.864" r="4" fill="#0" id="circle111"/>
	<circle cx="634.316" cy="228.879" r="4" fill="#0" id="circle112"/>
	<circle cx="650.826" cy="255.893" r="4" fill="#0" id="circle113"/>
	<circle cx="661.33" cy="281.403" r="4" fill="#0" id="circle114"/>
	<circle cx="587.794" cy="294.913" r="4" fill="#0" id="circle115"/>
	<circle cx="608.806" cy="291.911" r="4" fill="#0" id="circle116"/>
	<circle cx="631.317" cy="287.408" r="4" fill="#0" id="circle117"/>
	<circle cx="649.326" cy="281.403" r="4" fill="#0" id="circle118"/>
	<circle cx="710.854" cy="192.861" r="4" fill="#0" id="circle119"/>
	<circle cx="710.854" cy="239.383" r="4" fill="#0" id="circle120"/>
	<circle cx="715.357" cy="272.398" r="4" fill="#0" id="circle121"/>
	<circle cx="715.357" cy="306.917" r="4" fill="#0" id="circle122"/>
	<circle cx="715.357" cy="342.935" r="4" fill="#0" id="circle123"/>
	<circle cx="713.857" cy="377.453" r="4" fill="#0" id="circle124"/>
	<circle cx="712.358" cy="408.969" r="4" fill="#0" id="circle125"/>
	<circle cx="713.857" cy="438.986" r="4" fill="#0" id="circle126"/>
	<circle cx="713.857" cy="462.996" r="4" fill="#0" id="circle127"/>
	<circle cx="712.358" cy="488.51" r="4" fill="#0" id="circle128"/>
	<circle cx="712.358" cy="512.521" r="4" fill="#0" id="circle129"/>
	<circle cx="710.854" cy="533.533" r="4" fill="#0" id="circle130"/>
	<circle cx="746.872" cy="533.533" r="4" fill="#0" id="circle131"/>
	<circle cx="775.389" cy="532.03" r="4" fill="#0" id="circle132"/>
	<circle cx="797.901" cy="532.03" r="4" fill="#0" id="circle133"/>
	<circle cx="815.91" cy="532.03" r="4" fill="#0" id="circle134"/>
	<circle cx="815.91" cy="506.519" r="4" fill="#0" id="circle135"/>
	<circle cx="814.406" cy="468.998" r="4" fill="#0" id="circle136"/>
	<circle cx="817.409" cy="426.978" r="4" fill="#0" id="circle137"/>
	<circle cx="818.909" cy="393.963" r="4" fill="#0" id="circle138"/>
	<circle cx="842.923" cy="395.462" r="4" fill="#0" id="circle139"/>
	<circle cx="872.936" cy="393.963" r="4" fill="#0" id="circle140"/>
	<circle cx="905.955" cy="393.963" r="4" fill="#0" id="circle141"/>
	<circle cx="937.471" cy="387.957" r="4" fill="#0" id="circle142"/>
	<circle cx="968.986" cy="369.948" r="4" fill="#0" id="circle143"/>
	<circle cx="991.498" cy="336.933" r="4" fill="#0" id="circle144"/>
	<circle cx="996" cy="300.915" r="4" fill="#0" id="circle145"/>
	<circle cx="992.997" cy="267.896" r="4" fill="#0" id="circle146"/>
	<circle cx="976.488" cy="225.876" r="4" fill="#0" id="circle147"/>
	<circle cx="937.471" cy="194.36" r="4" fill="#0" id="circle148"/>
	<circle cx="880.441" cy="189.858" r="4" fill="#0" id="circle149"/>
	<circle cx="824.914" cy="189.858" r="4" fill="#0" id="circle150"/>
	<circle cx="773.886" cy="191.357" r="4" fill="#0" id="circle151"/>
	<circle cx="815.91" cy="260.395" r="4" fill="#0" id="circle152"/>
	<circle cx="814.406" cy="278.404" r="4" fill="#0" id="circle153"/>
	<circle cx="812.907" cy="299.416" r="4" fill="#0" id="circle154"/>
	<circle cx="814.406" cy="321.927" r="4" fill="#0" id="circle155"/>
	<circle cx="830.916" cy="321.927" r="4" fill="#0" id="circle156"/>
	<circle cx="848.925" cy="323.426" r="4" fill="#0" id="circle157"/>
	<circle cx="866.934" cy="318.924" r="4" fill="#0" id="circle158"/>
	<circle cx="881.94" cy="309.92" r="4" fill="#0" id="circle159"/>
	<circle cx="892.448" cy="291.911" r="4" fill="#0" id="circle160"/>
	<circle cx="889.445" cy="263.394" r="4" fill="#0" id="circle161"/>
	<circle cx="866.934" cy="258.891" r="4" fill="#0" id="circle162"/>
	<circle cx="839.92" cy="255.893" r="4" fill="#0" id="circle163"/>
	<circle cx="837.466" cy="324.49" r="4" fill="#0" id="circle164"/>
	<circle cx="780.834" cy="463.96" r="4" fill="#0" id="circle165"/>
	<circle cx="908.354" cy="256.548" r="4" fill="#0" id="circle166"/>
	<circle cx="336.541" cy="453.532" r="4" fill="#0" id="circle167"/>
	<circle cx="279.553" cy="379.575" r="4" fill="#0" id="circle168"/>
	<circle cx="477.578" cy="405.429" r="4" fill="#0" id="circle169"/>
	<circle cx="365.866" cy="365.572" r="4" fill="#0" id="circle170"/>
	<circle cx="948.612" cy="504.606" r="4" fill="#0" id="circle171"/>
	<circle cx="634.626" cy="435.951" r="4" fill="#0" id="circle172"/>
	<circle cx="144.47" cy="397.869" r="4" fill="#0" id="circle173"/>
	<circle cx="20.1702" cy="272.197" r="4" fill="#0" id="circle174"/>
	<circle cx="140.134" cy="465.94" r="4" fill="#0" id="circle175"/>
	<circle cx="159.426" cy="326.754" r="4" fill="#0" id="circle176"/>
	<circle cx="132.752" cy="225.917" r="4" fill="#0" id="circle177"/>
	<circle cx="994.933" cy="263.695" r="4" fill="#0" id="circle178"/>
	<circle cx="512.829" cy="477.999" r="4" fill="#0" id="circle179"/>
	</g>
</svg>