<?xml version="1.0" encoding="UTF-8" standalone="no"?>
<!-- Created with CurveBenchmark -->
<svg
	xmlns:dc="http://purl.org/dc/elements/1.1/"
	xmlns:cc="http://creativecommons.org/ns#"
	xmlns:rdf="http://www.w3.org/1999/02/22-rdf-syntax-ns#"
	xmlns:svg="http://www.w3.org/2000/svg"
	xmlns="http://www.w3.org/2000/svg"
	xmlns:sodipodi="http://sodipodi.sourceforge.net/DTD/sodipodi-0.dtd"
	xmlns:inkscape="http://www.inkscape.org/namespaces/inkscape"
	width="1000"
	height="1000"
	id="svg2"
	version="1.1"
	sodipodi:docname="outliers-10/stretchdenoise-mc9.txt">
<defs
	id="defs4" />
<metadata
	id="metadata7">
	<rdf:RDF>
		<cc:Work
			rdf:about="">
			<dc:format>image/svg+xml</dc:format>
			<dc:type
				rdf:resource="http://purl.org/dc/dcmitype/StillImage" />
			<dc:title></dc:title>
		</cc:Work>
	</rdf:RDF>
</metadata>
<g
	inkscape:label="Layer 1"
	inkscape:groupmode="layer"
	id="layer1">
	<path style="fill:none;stroke:red;stroke-width:1px;stroke-linecap:butt;stroke-linejoin:miter;stroke-opacity:1" d="M 221.383,150.991 206.628,152.675 z" id="boundary" inkscape:connector-curvature="0" />
	<path style="fill:none;stroke:red;stroke-width:1px;stroke-linecap:butt;stroke-linejoin:miter;stroke-opacity:1" d="M 221.383,150.991 230.568,141.806 z" id="boundary" inkscape:connector-curvature="0" />
	<path style="fill:none;stroke:red;stroke-width:1px;stroke-linecap:butt;stroke-linejoin:miter;stroke-opacity:1" d="M 206.628,152.675 189.224,150.959 z" id="boundary" inkscape:connector-curvature="0" />
	<path style="fill:none;stroke:red;stroke-width:1px;stroke-linecap:butt;stroke-linejoin:miter;stroke-opacity:1" d="M 189.224,150.959 173.926,150.991 z" id="boundary" inkscape:connector-curvature="0" />
	<path style="fill:none;stroke:red;stroke-width:1px;stroke-linecap:butt;stroke-linejoin:miter;stroke-opacity:1" d="M 173.926,150.991 158.617,149.46 z" id="boundary" inkscape:connector-curvature="0" />
	<path style="fill:none;stroke:red;stroke-width:1px;stroke-linecap:butt;stroke-linejoin:miter;stroke-opacity:1" d="M 158.617,149.46 143.31,149.46 z" id="boundary" inkscape:connector-curvature="0" />
	<path style="fill:none;stroke:red;stroke-width:1px;stroke-linecap:butt;stroke-linejoin:miter;stroke-opacity:1" d="M 143.31,149.46 129.531,150.991 z" id="boundary" inkscape:connector-curvature="0" />
	<path style="fill:none;stroke:red;stroke-width:1px;stroke-linecap:butt;stroke-linejoin:miter;stroke-opacity:1" d="M 129.531,150.991 114.222,150.991 z" id="boundary" inkscape:connector-curvature="0" />
	<path style="fill:none;stroke:red;stroke-width:1px;stroke-linecap:butt;stroke-linejoin:miter;stroke-opacity:1" d="M 114.222,150.991 98.9131,150.991 z" id="boundary" inkscape:connector-curvature="0" />
	<path style="fill:none;stroke:red;stroke-width:1px;stroke-linecap:butt;stroke-linejoin:miter;stroke-opacity:1" d="M 98.9131,150.991 83.6057,152.522 z" id="boundary" inkscape:connector-curvature="0" />
	<path style="fill:none;stroke:red;stroke-width:1px;stroke-linecap:butt;stroke-linejoin:miter;stroke-opacity:1" d="M 83.6057,152.522 69.8275,155.582 z" id="boundary" inkscape:connector-curvature="0" />
	<path style="fill:none;stroke:red;stroke-width:1px;stroke-linecap:butt;stroke-linejoin:miter;stroke-opacity:1" d="M 69.8275,155.582 52.9875,158.644 z" id="boundary" inkscape:connector-curvature="0" />
	<path style="fill:none;stroke:red;stroke-width:1px;stroke-linecap:butt;stroke-linejoin:miter;stroke-opacity:1" d="M 52.9875,158.644 39.2093,163.237 z" id="boundary" inkscape:connector-curvature="0" />
	<path style="fill:none;stroke:red;stroke-width:1px;stroke-linecap:butt;stroke-linejoin:miter;stroke-opacity:1" d="M 39.2093,163.237 25.4327,170.891 z" id="boundary" inkscape:connector-curvature="0" />
	<path style="fill:none;stroke:red;stroke-width:1px;stroke-linecap:butt;stroke-linejoin:miter;stroke-opacity:1" d="M 25.4327,170.891 16.2473,181.608 z" id="boundary" inkscape:connector-curvature="0" />
	<path style="fill:none;stroke:red;stroke-width:1px;stroke-linecap:butt;stroke-linejoin:miter;stroke-opacity:1" d="M 16.2473,181.608 8.59272,192.324 z" id="boundary" inkscape:connector-curvature="0" />
	<path style="fill:none;stroke:red;stroke-width:1px;stroke-linecap:butt;stroke-linejoin:miter;stroke-opacity:1" d="M 8.59272,192.324 5.53092,206.102 z" id="boundary" inkscape:connector-curvature="0" />
	<path style="fill:none;stroke:red;stroke-width:1px;stroke-linecap:butt;stroke-linejoin:miter;stroke-opacity:1" d="M 5.53092,206.102 4,224.471 z" id="boundary" inkscape:connector-curvature="0" />
	<path style="fill:none;stroke:red;stroke-width:1px;stroke-linecap:butt;stroke-linejoin:miter;stroke-opacity:1" d="M 4,224.471 7.06185,239.781 z" id="boundary" inkscape:connector-curvature="0" />
	<path style="fill:none;stroke:red;stroke-width:1px;stroke-linecap:butt;stroke-linejoin:miter;stroke-opacity:1" d="M 7.06185,239.781 8.59272,253.559 z" id="boundary" inkscape:connector-curvature="0" />
	<path style="fill:none;stroke:red;stroke-width:1px;stroke-linecap:butt;stroke-linejoin:miter;stroke-opacity:1" d="M 8.59272,253.559 11.6546,267.335 z" id="boundary" inkscape:connector-curvature="0" />
	<path style="fill:none;stroke:red;stroke-width:1px;stroke-linecap:butt;stroke-linejoin:miter;stroke-opacity:1" d="M 11.6546,267.335 19.3091,282.644 z" id="boundary" inkscape:connector-curvature="0" />
	<path style="fill:none;stroke:red;stroke-width:1px;stroke-linecap:butt;stroke-linejoin:miter;stroke-opacity:1" d="M 19.3091,282.644 25.4327,293.361 z" id="boundary" inkscape:connector-curvature="0" />
	<path style="fill:none;stroke:red;stroke-width:1px;stroke-linecap:butt;stroke-linejoin:miter;stroke-opacity:1" d="M 25.4327,293.361 33.0873,304.077 z" id="boundary" inkscape:connector-curvature="0" />
	<path style="fill:none;stroke:red;stroke-width:1px;stroke-linecap:butt;stroke-linejoin:miter;stroke-opacity:1" d="M 33.0873,304.077 40.7402,316.323 z" id="boundary" inkscape:connector-curvature="0" />
	<path style="fill:none;stroke:red;stroke-width:1px;stroke-linecap:butt;stroke-linejoin:miter;stroke-opacity:1" d="M 40.7402,316.323 51.3703,327.125 z" id="boundary" inkscape:connector-curvature="0" />
	<path style="fill:none;stroke:red;stroke-width:1px;stroke-linecap:butt;stroke-linejoin:miter;stroke-opacity:1" d="M 51.3703,327.125 62.216,337.712 z" id="boundary" inkscape:connector-curvature="0" />
	<path style="fill:none;stroke:red;stroke-width:1px;stroke-linecap:butt;stroke-linejoin:miter;stroke-opacity:1" d="M 62.216,337.712 69.8275,345.41 z" id="boundary" inkscape:connector-curvature="0" />
	<path style="fill:none;stroke:red;stroke-width:1px;stroke-linecap:butt;stroke-linejoin:miter;stroke-opacity:1" d="M 69.8275,345.41 79.013,356.126 z" id="boundary" inkscape:connector-curvature="0" />
	<path style="fill:none;stroke:red;stroke-width:1px;stroke-linecap:butt;stroke-linejoin:miter;stroke-opacity:1" d="M 79.013,356.126 92.7895,363.781 z" id="boundary" inkscape:connector-curvature="0" />
	<path style="fill:none;stroke:red;stroke-width:1px;stroke-linecap:butt;stroke-linejoin:miter;stroke-opacity:1" d="M 92.7895,363.781 108.099,369.903 z" id="boundary" inkscape:connector-curvature="0" />
	<path style="fill:none;stroke:red;stroke-width:1px;stroke-linecap:butt;stroke-linejoin:miter;stroke-opacity:1" d="M 108.099,369.903 124.939,380.619 z" id="boundary" inkscape:connector-curvature="0" />
	<path style="fill:none;stroke:red;stroke-width:1px;stroke-linecap:butt;stroke-linejoin:miter;stroke-opacity:1" d="M 124.939,380.619 138.717,389.805 z" id="boundary" inkscape:connector-curvature="0" />
	<path style="fill:none;stroke:red;stroke-width:1px;stroke-linecap:butt;stroke-linejoin:miter;stroke-opacity:1" d="M 138.717,389.805 147.901,402.052 z" id="boundary" inkscape:connector-curvature="0" />
	<path style="fill:none;stroke:red;stroke-width:1px;stroke-linecap:butt;stroke-linejoin:miter;stroke-opacity:1" d="M 147.901,402.052 150.962,418.892 z" id="boundary" inkscape:connector-curvature="0" />
	<path style="fill:none;stroke:red;stroke-width:1px;stroke-linecap:butt;stroke-linejoin:miter;stroke-opacity:1" d="M 150.962,418.892 157.086,432.669 z" id="boundary" inkscape:connector-curvature="0" />
	<path style="fill:none;stroke:red;stroke-width:1px;stroke-linecap:butt;stroke-linejoin:miter;stroke-opacity:1" d="M 157.086,432.669 166.272,446.447 z" id="boundary" inkscape:connector-curvature="0" />
	<path style="fill:none;stroke:red;stroke-width:1px;stroke-linecap:butt;stroke-linejoin:miter;stroke-opacity:1" d="M 166.272,446.447 178.504,458.735 z" id="boundary" inkscape:connector-curvature="0" />
	<path style="fill:none;stroke:red;stroke-width:1px;stroke-linecap:butt;stroke-linejoin:miter;stroke-opacity:1" d="M 178.504,458.735 189.235,469.41 z" id="boundary" inkscape:connector-curvature="0" />
	<path style="fill:none;stroke:red;stroke-width:1px;stroke-linecap:butt;stroke-linejoin:miter;stroke-opacity:1" d="M 189.235,469.41 201.481,478.594 z" id="boundary" inkscape:connector-curvature="0" />
	<path style="fill:none;stroke:red;stroke-width:1px;stroke-linecap:butt;stroke-linejoin:miter;stroke-opacity:1" d="M 201.481,478.594 215.259,489.311 z" id="boundary" inkscape:connector-curvature="0" />
	<path style="fill:none;stroke:red;stroke-width:1px;stroke-linecap:butt;stroke-linejoin:miter;stroke-opacity:1" d="M 215.259,489.311 229.037,500.027 z" id="boundary" inkscape:connector-curvature="0" />
	<path style="fill:none;stroke:red;stroke-width:1px;stroke-linecap:butt;stroke-linejoin:miter;stroke-opacity:1" d="M 229.037,500.027 245.869,510.756 z" id="boundary" inkscape:connector-curvature="0" />
	<path style="fill:none;stroke:red;stroke-width:1px;stroke-linecap:butt;stroke-linejoin:miter;stroke-opacity:1" d="M 245.869,510.756 262.716,521.46 z" id="boundary" inkscape:connector-curvature="0" />
	<path style="fill:none;stroke:red;stroke-width:1px;stroke-linecap:butt;stroke-linejoin:miter;stroke-opacity:1" d="M 262.716,521.46 282.617,533.705 z" id="boundary" inkscape:connector-curvature="0" />
	<path style="fill:none;stroke:red;stroke-width:1px;stroke-linecap:butt;stroke-linejoin:miter;stroke-opacity:1" d="M 282.617,533.705 300.988,544.422 z" id="boundary" inkscape:connector-curvature="0" />
	<path style="fill:none;stroke:red;stroke-width:1px;stroke-linecap:butt;stroke-linejoin:miter;stroke-opacity:1" d="M 300.988,544.422 317.827,552.076 z" id="boundary" inkscape:connector-curvature="0" />
	<path style="fill:none;stroke:red;stroke-width:1px;stroke-linecap:butt;stroke-linejoin:miter;stroke-opacity:1" d="M 317.827,552.076 336.198,555.138 z" id="boundary" inkscape:connector-curvature="0" />
	<path style="fill:none;stroke:red;stroke-width:1px;stroke-linecap:butt;stroke-linejoin:miter;stroke-opacity:1" d="M 336.198,555.138 359.161,559.731 z" id="boundary" inkscape:connector-curvature="0" />
	<path style="fill:none;stroke:red;stroke-width:1px;stroke-linecap:butt;stroke-linejoin:miter;stroke-opacity:1" d="M 359.161,559.731 377.531,561.262 z" id="boundary" inkscape:connector-curvature="0" />
	<path style="fill:none;stroke:red;stroke-width:1px;stroke-linecap:butt;stroke-linejoin:miter;stroke-opacity:1" d="M 377.531,561.262 394.371,562.793 z" id="boundary" inkscape:connector-curvature="0" />
	<path style="fill:none;stroke:red;stroke-width:1px;stroke-linecap:butt;stroke-linejoin:miter;stroke-opacity:1" d="M 394.371,562.793 414.271,565.855 z" id="boundary" inkscape:connector-curvature="0" />
	<path style="fill:none;stroke:red;stroke-width:1px;stroke-linecap:butt;stroke-linejoin:miter;stroke-opacity:1" d="M 414.271,565.855 431.111,567.385 z" id="boundary" inkscape:connector-curvature="0" />
	<path style="fill:none;stroke:red;stroke-width:1px;stroke-linecap:butt;stroke-linejoin:miter;stroke-opacity:1" d="M 431.111,567.385 449.482,567.385 z" id="boundary" inkscape:connector-curvature="0" />
	<path style="fill:none;stroke:red;stroke-width:1px;stroke-linecap:butt;stroke-linejoin:miter;stroke-opacity:1" d="M 449.482,567.385 472.444,570.447 z" id="boundary" inkscape:connector-curvature="0" />
	<path style="fill:none;stroke:red;stroke-width:1px;stroke-linecap:butt;stroke-linejoin:miter;stroke-opacity:1" d="M 472.444,570.447 490.815,570.447 z" id="boundary" inkscape:connector-curvature="0" />
	<path style="fill:none;stroke:red;stroke-width:1px;stroke-linecap:butt;stroke-linejoin:miter;stroke-opacity:1" d="M 490.815,570.447 509.185,571.978 z" id="boundary" inkscape:connector-curvature="0" />
	<path style="fill:none;stroke:red;stroke-width:1px;stroke-linecap:butt;stroke-linejoin:miter;stroke-opacity:1" d="M 509.185,571.978 529.086,571.978 z" id="boundary" inkscape:connector-curvature="0" />
	<path style="fill:none;stroke:red;stroke-width:1px;stroke-linecap:butt;stroke-linejoin:miter;stroke-opacity:1" d="M 529.086,571.978 547.457,570.447 z" id="boundary" inkscape:connector-curvature="0" />
	<path style="fill:none;stroke:red;stroke-width:1px;stroke-linecap:butt;stroke-linejoin:miter;stroke-opacity:1" d="M 547.457,570.447 568.522,569.913 z" id="boundary" inkscape:connector-curvature="0" />
	<path style="fill:none;stroke:red;stroke-width:1px;stroke-linecap:butt;stroke-linejoin:miter;stroke-opacity:1" d="M 568.522,569.913 587.259,570.487 z" id="boundary" inkscape:connector-curvature="0" />
	<path style="fill:none;stroke:red;stroke-width:1px;stroke-linecap:butt;stroke-linejoin:miter;stroke-opacity:1" d="M 587.259,570.487 605.629,570.447 z" id="boundary" inkscape:connector-curvature="0" />
	<path style="fill:none;stroke:red;stroke-width:1px;stroke-linecap:butt;stroke-linejoin:miter;stroke-opacity:1" d="M 605.629,570.447 622.469,567.385 z" id="boundary" inkscape:connector-curvature="0" />
	<path style="fill:none;stroke:red;stroke-width:1px;stroke-linecap:butt;stroke-linejoin:miter;stroke-opacity:1" d="M 622.469,567.385 639.308,561.262 z" id="boundary" inkscape:connector-curvature="0" />
	<path style="fill:none;stroke:red;stroke-width:1px;stroke-linecap:butt;stroke-linejoin:miter;stroke-opacity:1" d="M 639.308,561.262 662.272,558.2 z" id="boundary" inkscape:connector-curvature="0" />
	<path style="fill:none;stroke:red;stroke-width:1px;stroke-linecap:butt;stroke-linejoin:miter;stroke-opacity:1" d="M 662.272,558.2 676.053,550.552 z" id="boundary" inkscape:connector-curvature="0" />
	<path style="fill:none;stroke:red;stroke-width:1px;stroke-linecap:butt;stroke-linejoin:miter;stroke-opacity:1" d="M 676.053,550.552 689.826,542.891 z" id="boundary" inkscape:connector-curvature="0" />
	<path style="fill:none;stroke:red;stroke-width:1px;stroke-linecap:butt;stroke-linejoin:miter;stroke-opacity:1" d="M 689.826,542.891 705.135,533.705 z" id="boundary" inkscape:connector-curvature="0" />
	<path style="fill:none;stroke:red;stroke-width:1px;stroke-linecap:butt;stroke-linejoin:miter;stroke-opacity:1" d="M 705.135,533.705 720.444,522.991 z" id="boundary" inkscape:connector-curvature="0" />
	<path style="fill:none;stroke:red;stroke-width:1px;stroke-linecap:butt;stroke-linejoin:miter;stroke-opacity:1" d="M 720.444,522.991 734.223,512.274 z" id="boundary" inkscape:connector-curvature="0" />
	<path style="fill:none;stroke:red;stroke-width:1px;stroke-linecap:butt;stroke-linejoin:miter;stroke-opacity:1" d="M 734.223,512.274 751.061,498.496 z" id="boundary" inkscape:connector-curvature="0" />
	<path style="fill:none;stroke:red;stroke-width:1px;stroke-linecap:butt;stroke-linejoin:miter;stroke-opacity:1" d="M 751.061,498.496 766.37,489.311 z" id="boundary" inkscape:connector-curvature="0" />
	<path style="fill:none;stroke:red;stroke-width:1px;stroke-linecap:butt;stroke-linejoin:miter;stroke-opacity:1" d="M 766.37,489.311 780.148,477.065 z" id="boundary" inkscape:connector-curvature="0" />
	<path style="fill:none;stroke:red;stroke-width:1px;stroke-linecap:butt;stroke-linejoin:miter;stroke-opacity:1" d="M 780.148,477.065 790.195,460.307 z" id="boundary" inkscape:connector-curvature="0" />
	<path style="fill:none;stroke:red;stroke-width:1px;stroke-linecap:butt;stroke-linejoin:miter;stroke-opacity:1" d="M 790.195,460.307 804.641,446.447 z" id="boundary" inkscape:connector-curvature="0" />
	<path style="fill:none;stroke:red;stroke-width:1px;stroke-linecap:butt;stroke-linejoin:miter;stroke-opacity:1" d="M 804.641,446.447 813.827,428.076 z" id="boundary" inkscape:connector-curvature="0" />
	<path style="fill:none;stroke:red;stroke-width:1px;stroke-linecap:butt;stroke-linejoin:miter;stroke-opacity:1" d="M 813.827,428.076 819.95,409.707 z" id="boundary" inkscape:connector-curvature="0" />
	<path style="fill:none;stroke:red;stroke-width:1px;stroke-linecap:butt;stroke-linejoin:miter;stroke-opacity:1" d="M 819.95,409.707 830.667,395.928 z" id="boundary" inkscape:connector-curvature="0" />
	<path style="fill:none;stroke:red;stroke-width:1px;stroke-linecap:butt;stroke-linejoin:miter;stroke-opacity:1" d="M 830.667,395.928 847.505,389.805 z" id="boundary" inkscape:connector-curvature="0" />
	<path style="fill:none;stroke:red;stroke-width:1px;stroke-linecap:butt;stroke-linejoin:miter;stroke-opacity:1" d="M 847.505,389.805 862.814,382.15 z" id="boundary" inkscape:connector-curvature="0" />
	<path style="fill:none;stroke:red;stroke-width:1px;stroke-linecap:butt;stroke-linejoin:miter;stroke-opacity:1" d="M 862.814,382.15 875.061,368.374 z" id="boundary" inkscape:connector-curvature="0" />
	<path style="fill:none;stroke:red;stroke-width:1px;stroke-linecap:butt;stroke-linejoin:miter;stroke-opacity:1" d="M 875.061,368.374 890.37,353.065 z" id="boundary" inkscape:connector-curvature="0" />
	<path style="fill:none;stroke:red;stroke-width:1px;stroke-linecap:butt;stroke-linejoin:miter;stroke-opacity:1" d="M 890.37,353.065 899.554,337.756 z" id="boundary" inkscape:connector-curvature="0" />
	<path style="fill:none;stroke:red;stroke-width:1px;stroke-linecap:butt;stroke-linejoin:miter;stroke-opacity:1" d="M 899.554,337.756 907.209,323.977 z" id="boundary" inkscape:connector-curvature="0" />
	<path style="fill:none;stroke:red;stroke-width:1px;stroke-linecap:butt;stroke-linejoin:miter;stroke-opacity:1" d="M 907.209,323.977 913.372,307.153 z" id="boundary" inkscape:connector-curvature="0" />
	<path style="fill:none;stroke:red;stroke-width:1px;stroke-linecap:butt;stroke-linejoin:miter;stroke-opacity:1" d="M 913.372,307.153 919.456,290.299 z" id="boundary" inkscape:connector-curvature="0" />
	<path style="fill:none;stroke:red;stroke-width:1px;stroke-linecap:butt;stroke-linejoin:miter;stroke-opacity:1" d="M 919.456,290.299 924.049,271.928 z" id="boundary" inkscape:connector-curvature="0" />
	<path style="fill:none;stroke:red;stroke-width:1px;stroke-linecap:butt;stroke-linejoin:miter;stroke-opacity:1" d="M 924.049,271.928 928.642,252.028 z" id="boundary" inkscape:connector-curvature="0" />
	<path style="fill:none;stroke:red;stroke-width:1px;stroke-linecap:butt;stroke-linejoin:miter;stroke-opacity:1" d="M 928.642,252.028 931.703,233.657 z" id="boundary" inkscape:connector-curvature="0" />
	<path style="fill:none;stroke:red;stroke-width:1px;stroke-linecap:butt;stroke-linejoin:miter;stroke-opacity:1" d="M 931.703,233.657 934.765,216.817 z" id="boundary" inkscape:connector-curvature="0" />
	<path style="fill:none;stroke:red;stroke-width:1px;stroke-linecap:butt;stroke-linejoin:miter;stroke-opacity:1" d="M 934.765,216.817 940.889,201.509 z" id="boundary" inkscape:connector-curvature="0" />
	<path style="fill:none;stroke:red;stroke-width:1px;stroke-linecap:butt;stroke-linejoin:miter;stroke-opacity:1" d="M 940.889,201.509 948.543,189.262 z" id="boundary" inkscape:connector-curvature="0" />
	<path style="fill:none;stroke:red;stroke-width:1px;stroke-linecap:butt;stroke-linejoin:miter;stroke-opacity:1" d="M 948.543,189.262 960.789,173.953 z" id="boundary" inkscape:connector-curvature="0" />
	<path style="fill:none;stroke:red;stroke-width:1px;stroke-linecap:butt;stroke-linejoin:miter;stroke-opacity:1" d="M 960.789,173.953 973.036,160.175 z" id="boundary" inkscape:connector-curvature="0" />
	<path style="fill:none;stroke:red;stroke-width:1px;stroke-linecap:butt;stroke-linejoin:miter;stroke-opacity:1" d="M 973.036,160.175 983.753,152.522 z" id="boundary" inkscape:connector-curvature="0" />
	<path style="fill:none;stroke:red;stroke-width:1px;stroke-linecap:butt;stroke-linejoin:miter;stroke-opacity:1" d="M 983.753,152.522 996,138.744 z" id="boundary" inkscape:connector-curvature="0" />
	<path style="fill:none;stroke:red;stroke-width:1px;stroke-linecap:butt;stroke-linejoin:miter;stroke-opacity:1" d="M 996,138.744 994.933,127.986 z" id="boundary" inkscape:connector-curvature="0" />
	<path style="fill:none;stroke:red;stroke-width:1px;stroke-linecap:butt;stroke-linejoin:miter;stroke-opacity:1" d="M 922.518,134.151 939.358,134.151 z" id="boundary" inkscape:connector-curvature="0" />
	<path style="fill:none;stroke:red;stroke-width:1px;stroke-linecap:butt;stroke-linejoin:miter;stroke-opacity:1" d="M 922.518,134.151 907.209,143.337 z" id="boundary" inkscape:connector-curvature="0" />
	<path style="fill:none;stroke:red;stroke-width:1px;stroke-linecap:butt;stroke-linejoin:miter;stroke-opacity:1" d="M 939.358,134.151 956.196,135.682 z" id="boundary" inkscape:connector-curvature="0" />
	<path style="fill:none;stroke:red;stroke-width:1px;stroke-linecap:butt;stroke-linejoin:miter;stroke-opacity:1" d="M 956.196,135.682 973.036,132.62 z" id="boundary" inkscape:connector-curvature="0" />
	<path style="fill:none;stroke:red;stroke-width:1px;stroke-linecap:butt;stroke-linejoin:miter;stroke-opacity:1" d="M 973.036,132.62 994.933,127.986 z" id="boundary" inkscape:connector-curvature="0" />
	<path style="fill:none;stroke:red;stroke-width:1px;stroke-linecap:butt;stroke-linejoin:miter;stroke-opacity:1" d="M 806.172,278.052 824.543,271.928 z" id="boundary" inkscape:connector-curvature="0" />
	<path style="fill:none;stroke:red;stroke-width:1px;stroke-linecap:butt;stroke-linejoin:miter;stroke-opacity:1" d="M 806.172,278.052 796.987,262.743 z" id="boundary" inkscape:connector-curvature="0" />
	<path style="fill:none;stroke:red;stroke-width:1px;stroke-linecap:butt;stroke-linejoin:miter;stroke-opacity:1" d="M 824.543,271.928 838.321,261.213 z" id="boundary" inkscape:connector-curvature="0" />
	<path style="fill:none;stroke:red;stroke-width:1px;stroke-linecap:butt;stroke-linejoin:miter;stroke-opacity:1" d="M 838.321,261.213 847.429,241.057 z" id="boundary" inkscape:connector-curvature="0" />
	<path style="fill:none;stroke:red;stroke-width:1px;stroke-linecap:butt;stroke-linejoin:miter;stroke-opacity:1" d="M 847.429,241.057 860.436,221.541 z" id="boundary" inkscape:connector-curvature="0" />
	<path style="fill:none;stroke:red;stroke-width:1px;stroke-linecap:butt;stroke-linejoin:miter;stroke-opacity:1" d="M 860.436,221.541 872,203.04 z" id="boundary" inkscape:connector-curvature="0" />
	<path style="fill:none;stroke:red;stroke-width:1px;stroke-linecap:butt;stroke-linejoin:miter;stroke-opacity:1" d="M 872,203.04 876.592,186.2 z" id="boundary" inkscape:connector-curvature="0" />
	<path style="fill:none;stroke:red;stroke-width:1px;stroke-linecap:butt;stroke-linejoin:miter;stroke-opacity:1" d="M 876.592,186.2 887.309,172.422 z" id="boundary" inkscape:connector-curvature="0" />
	<path style="fill:none;stroke:red;stroke-width:1px;stroke-linecap:butt;stroke-linejoin:miter;stroke-opacity:1" d="M 887.309,172.422 896.494,158.644 z" id="boundary" inkscape:connector-curvature="0" />
	<path style="fill:none;stroke:red;stroke-width:1px;stroke-linecap:butt;stroke-linejoin:miter;stroke-opacity:1" d="M 896.494,158.644 907.209,143.337 z" id="boundary" inkscape:connector-curvature="0" />
	<path style="fill:none;stroke:red;stroke-width:1px;stroke-linecap:butt;stroke-linejoin:miter;stroke-opacity:1" d="M 774.025,196.917 778.617,213.755 z" id="boundary" inkscape:connector-curvature="0" />
	<path style="fill:none;stroke:red;stroke-width:1px;stroke-linecap:butt;stroke-linejoin:miter;stroke-opacity:1" d="M 774.025,196.917 763.308,184.669 z" id="boundary" inkscape:connector-curvature="0" />
	<path style="fill:none;stroke:red;stroke-width:1px;stroke-linecap:butt;stroke-linejoin:miter;stroke-opacity:1" d="M 778.617,213.755 784.741,232.126 z" id="boundary" inkscape:connector-curvature="0" />
	<path style="fill:none;stroke:red;stroke-width:1px;stroke-linecap:butt;stroke-linejoin:miter;stroke-opacity:1" d="M 784.741,232.126 790.861,247.436 z" id="boundary" inkscape:connector-curvature="0" />
	<path style="fill:none;stroke:red;stroke-width:1px;stroke-linecap:butt;stroke-linejoin:miter;stroke-opacity:1" d="M 790.861,247.436 796.987,262.743 z" id="boundary" inkscape:connector-curvature="0" />
	<path style="fill:none;stroke:red;stroke-width:1px;stroke-linecap:butt;stroke-linejoin:miter;stroke-opacity:1" d="M 708.197,102.002 723.506,109.657 z" id="boundary" inkscape:connector-curvature="0" />
	<path style="fill:none;stroke:red;stroke-width:1px;stroke-linecap:butt;stroke-linejoin:miter;stroke-opacity:1" d="M 708.197,102.002 688.295,94.3491 z" id="boundary" inkscape:connector-curvature="0" />
	<path style="fill:none;stroke:red;stroke-width:1px;stroke-linecap:butt;stroke-linejoin:miter;stroke-opacity:1" d="M 723.506,109.657 735.754,121.904 z" id="boundary" inkscape:connector-curvature="0" />
	<path style="fill:none;stroke:red;stroke-width:1px;stroke-linecap:butt;stroke-linejoin:miter;stroke-opacity:1" d="M 735.754,121.904 746.468,138.744 z" id="boundary" inkscape:connector-curvature="0" />
	<path style="fill:none;stroke:red;stroke-width:1px;stroke-linecap:butt;stroke-linejoin:miter;stroke-opacity:1" d="M 746.468,138.744 752.592,152.522 z" id="boundary" inkscape:connector-curvature="0" />
	<path style="fill:none;stroke:red;stroke-width:1px;stroke-linecap:butt;stroke-linejoin:miter;stroke-opacity:1" d="M 752.592,152.522 758.716,167.829 z" id="boundary" inkscape:connector-curvature="0" />
	<path style="fill:none;stroke:red;stroke-width:1px;stroke-linecap:butt;stroke-linejoin:miter;stroke-opacity:1" d="M 758.716,167.829 763.308,184.669 z" id="boundary" inkscape:connector-curvature="0" />
	<path style="fill:none;stroke:red;stroke-width:1px;stroke-linecap:butt;stroke-linejoin:miter;stroke-opacity:1" d="M 535.209,74.4472 556.642,75.9782 z" id="boundary" inkscape:connector-curvature="0" />
	<path style="fill:none;stroke:red;stroke-width:1px;stroke-linecap:butt;stroke-linejoin:miter;stroke-opacity:1" d="M 535.209,74.4472 526.024,59.1381 z" id="boundary" inkscape:connector-curvature="0" />
	<path style="fill:none;stroke:red;stroke-width:1px;stroke-linecap:butt;stroke-linejoin:miter;stroke-opacity:1" d="M 556.642,75.9782 578.073,75.9781 z" id="boundary" inkscape:connector-curvature="0" />
	<path style="fill:none;stroke:red;stroke-width:1px;stroke-linecap:butt;stroke-linejoin:miter;stroke-opacity:1" d="M 578.073,75.9781 596.444,75.9782 z" id="boundary" inkscape:connector-curvature="0" />
	<path style="fill:none;stroke:red;stroke-width:1px;stroke-linecap:butt;stroke-linejoin:miter;stroke-opacity:1" d="M 596.444,75.9782 614.815,77.5091 z" id="boundary" inkscape:connector-curvature="0" />
	<path style="fill:none;stroke:red;stroke-width:1px;stroke-linecap:butt;stroke-linejoin:miter;stroke-opacity:1" d="M 614.815,77.5091 630.122,82.1018 z" id="boundary" inkscape:connector-curvature="0" />
	<path style="fill:none;stroke:red;stroke-width:1px;stroke-linecap:butt;stroke-linejoin:miter;stroke-opacity:1" d="M 630.122,82.1018 645.431,83.6327 z" id="boundary" inkscape:connector-curvature="0" />
	<path style="fill:none;stroke:red;stroke-width:1px;stroke-linecap:butt;stroke-linejoin:miter;stroke-opacity:1" d="M 645.431,83.6327 660.741,85.1636 z" id="boundary" inkscape:connector-curvature="0" />
	<path style="fill:none;stroke:red;stroke-width:1px;stroke-linecap:butt;stroke-linejoin:miter;stroke-opacity:1" d="M 660.741,85.1636 674.519,91.2872 z" id="boundary" inkscape:connector-curvature="0" />
	<path style="fill:none;stroke:red;stroke-width:1px;stroke-linecap:butt;stroke-linejoin:miter;stroke-opacity:1" d="M 674.519,91.2872 688.295,94.3491 z" id="boundary" inkscape:connector-curvature="0" />
	<path style="fill:none;stroke:red;stroke-width:1px;stroke-linecap:butt;stroke-linejoin:miter;stroke-opacity:1" d="M 230.568,141.806 239.754,124.966 z" id="boundary" inkscape:connector-curvature="0" />
	<path style="fill:none;stroke:red;stroke-width:1px;stroke-linecap:butt;stroke-linejoin:miter;stroke-opacity:1" d="M 239.754,124.966 253.53,112.718 z" id="boundary" inkscape:connector-curvature="0" />
	<path style="fill:none;stroke:red;stroke-width:1px;stroke-linecap:butt;stroke-linejoin:miter;stroke-opacity:1" d="M 253.53,112.718 270.37,102.002 z" id="boundary" inkscape:connector-curvature="0" />
	<path style="fill:none;stroke:red;stroke-width:1px;stroke-linecap:butt;stroke-linejoin:miter;stroke-opacity:1" d="M 270.37,102.002 287.21,92.8181 z" id="boundary" inkscape:connector-curvature="0" />
	<path style="fill:none;stroke:red;stroke-width:1px;stroke-linecap:butt;stroke-linejoin:miter;stroke-opacity:1" d="M 287.21,92.8181 304.05,88.2254 z" id="boundary" inkscape:connector-curvature="0" />
	<path style="fill:none;stroke:red;stroke-width:1px;stroke-linecap:butt;stroke-linejoin:miter;stroke-opacity:1" d="M 304.05,88.2254 319.358,83.6327 z" id="boundary" inkscape:connector-curvature="0" />
	<path style="fill:none;stroke:red;stroke-width:1px;stroke-linecap:butt;stroke-linejoin:miter;stroke-opacity:1" d="M 319.358,83.6327 340.79,82.1018 z" id="boundary" inkscape:connector-curvature="0" />
	<path style="fill:none;stroke:red;stroke-width:1px;stroke-linecap:butt;stroke-linejoin:miter;stroke-opacity:1" d="M 340.79,82.1018 359.161,79.04 z" id="boundary" inkscape:connector-curvature="0" />
	<path style="fill:none;stroke:red;stroke-width:1px;stroke-linecap:butt;stroke-linejoin:miter;stroke-opacity:1" d="M 359.161,79.04 379.061,77.509 z" id="boundary" inkscape:connector-curvature="0" />
	<path style="fill:none;stroke:red;stroke-width:1px;stroke-linecap:butt;stroke-linejoin:miter;stroke-opacity:1" d="M 379.061,77.509 395.901,74.4472 z" id="boundary" inkscape:connector-curvature="0" />
	<path style="fill:none;stroke:red;stroke-width:1px;stroke-linecap:butt;stroke-linejoin:miter;stroke-opacity:1" d="M 395.901,74.4472 414.271,74.4472 z" id="boundary" inkscape:connector-curvature="0" />
	<path style="fill:none;stroke:red;stroke-width:1px;stroke-linecap:butt;stroke-linejoin:miter;stroke-opacity:1" d="M 414.271,74.4472 434.173,71.3854 z" id="boundary" inkscape:connector-curvature="0" />
	<path style="fill:none;stroke:red;stroke-width:1px;stroke-linecap:butt;stroke-linejoin:miter;stroke-opacity:1" d="M 434.173,71.3854 452.543,69.8545 z" id="boundary" inkscape:connector-curvature="0" />
	<path style="fill:none;stroke:red;stroke-width:1px;stroke-linecap:butt;stroke-linejoin:miter;stroke-opacity:1" d="M 452.543,69.8545 452.543,54.5454 z" id="boundary" inkscape:connector-curvature="0" />
	<path style="fill:none;stroke:red;stroke-width:1px;stroke-linecap:butt;stroke-linejoin:miter;stroke-opacity:1" d="M 452.543,54.5454 440.296,42.2998 z" id="boundary" inkscape:connector-curvature="0" />
	<path style="fill:none;stroke:red;stroke-width:1px;stroke-linecap:butt;stroke-linejoin:miter;stroke-opacity:1" d="M 440.296,42.2998 429.58,30.0525 z" id="boundary" inkscape:connector-curvature="0" />
	<path style="fill:none;stroke:red;stroke-width:1px;stroke-linecap:butt;stroke-linejoin:miter;stroke-opacity:1" d="M 429.58,30.0525 435.703,13.2125 z" id="boundary" inkscape:connector-curvature="0" />
	<path style="fill:none;stroke:red;stroke-width:1px;stroke-linecap:butt;stroke-linejoin:miter;stroke-opacity:1" d="M 435.703,13.2125 451.013,7.08883 z" id="boundary" inkscape:connector-curvature="0" />
	<path style="fill:none;stroke:red;stroke-width:1px;stroke-linecap:butt;stroke-linejoin:miter;stroke-opacity:1" d="M 451.013,7.08883 467.851,4.02703 z" id="boundary" inkscape:connector-curvature="0" />
	<path style="fill:none;stroke:red;stroke-width:1px;stroke-linecap:butt;stroke-linejoin:miter;stroke-opacity:1" d="M 467.851,4.02703 484.682,4 z" id="boundary" inkscape:connector-curvature="0" />
	<path style="fill:none;stroke:red;stroke-width:1px;stroke-linecap:butt;stroke-linejoin:miter;stroke-opacity:1" d="M 484.682,4 500.014,4.06945 z" id="boundary" inkscape:connector-curvature="0" />
	<path style="fill:none;stroke:red;stroke-width:1px;stroke-linecap:butt;stroke-linejoin:miter;stroke-opacity:1" d="M 500.014,4.06945 513.778,4.02703 z" id="boundary" inkscape:connector-curvature="0" />
	<path style="fill:none;stroke:red;stroke-width:1px;stroke-linecap:butt;stroke-linejoin:miter;stroke-opacity:1" d="M 513.778,4.02703 526.024,5.55793 z" id="boundary" inkscape:connector-curvature="0" />
	<path style="fill:none;stroke:red;stroke-width:1px;stroke-linecap:butt;stroke-linejoin:miter;stroke-opacity:1" d="M 526.024,5.55793 541.333,10.1507 z" id="boundary" inkscape:connector-curvature="0" />
	<path style="fill:none;stroke:red;stroke-width:1px;stroke-linecap:butt;stroke-linejoin:miter;stroke-opacity:1" d="M 541.333,10.1507 553.58,23.9289 z" id="boundary" inkscape:connector-curvature="0" />
	<path style="fill:none;stroke:red;stroke-width:1px;stroke-linecap:butt;stroke-linejoin:miter;stroke-opacity:1" d="M 553.58,23.9289 547.457,36.1761 z" id="boundary" inkscape:connector-curvature="0" />
	<path style="fill:none;stroke:red;stroke-width:1px;stroke-linecap:butt;stroke-linejoin:miter;stroke-opacity:1" d="M 547.457,36.1761 532.147,45.3616 z" id="boundary" inkscape:connector-curvature="0" />
	<path style="fill:none;stroke:red;stroke-width:1px;stroke-linecap:butt;stroke-linejoin:miter;stroke-opacity:1" d="M 532.147,45.3616 526.024,59.1381 z" id="boundary" inkscape:connector-curvature="0" />
	<path style="fill:none;stroke:red;stroke-width:1px;stroke-linecap:butt;stroke-linejoin:miter;stroke-opacity:1" d="M 66.7657,224.471 72.8893,207.633 z" id="boundary" inkscape:connector-curvature="0" />
	<path style="fill:none;stroke:red;stroke-width:1px;stroke-linecap:butt;stroke-linejoin:miter;stroke-opacity:1" d="M 66.7657,224.471 69.8275,239.781 z" id="boundary" inkscape:connector-curvature="0" />
	<path style="fill:none;stroke:red;stroke-width:1px;stroke-linecap:butt;stroke-linejoin:miter;stroke-opacity:1" d="M 72.8893,207.633 83.6057,198.448 z" id="boundary" inkscape:connector-curvature="0" />
	<path style="fill:none;stroke:red;stroke-width:1px;stroke-linecap:butt;stroke-linejoin:miter;stroke-opacity:1" d="M 83.6057,198.448 100.444,192.324 z" id="boundary" inkscape:connector-curvature="0" />
	<path style="fill:none;stroke:red;stroke-width:1px;stroke-linecap:butt;stroke-linejoin:miter;stroke-opacity:1" d="M 100.444,192.324 117.284,189.262 z" id="boundary" inkscape:connector-curvature="0" />
	<path style="fill:none;stroke:red;stroke-width:1px;stroke-linecap:butt;stroke-linejoin:miter;stroke-opacity:1" d="M 117.284,189.262 134.124,186.2 z" id="boundary" inkscape:connector-curvature="0" />
	<path style="fill:none;stroke:red;stroke-width:1px;stroke-linecap:butt;stroke-linejoin:miter;stroke-opacity:1" d="M 134.124,186.2 150.962,186.2 z" id="boundary" inkscape:connector-curvature="0" />
	<path style="fill:none;stroke:red;stroke-width:1px;stroke-linecap:butt;stroke-linejoin:miter;stroke-opacity:1" d="M 150.962,186.2 166.272,183.139 z" id="boundary" inkscape:connector-curvature="0" />
	<path style="fill:none;stroke:red;stroke-width:1px;stroke-linecap:butt;stroke-linejoin:miter;stroke-opacity:1" d="M 166.272,183.139 186.173,183.139 z" id="boundary" inkscape:connector-curvature="0" />
	<path style="fill:none;stroke:red;stroke-width:1px;stroke-linecap:butt;stroke-linejoin:miter;stroke-opacity:1" d="M 186.173,183.139 203.012,184.669 z" id="boundary" inkscape:connector-curvature="0" />
	<path style="fill:none;stroke:red;stroke-width:1px;stroke-linecap:butt;stroke-linejoin:miter;stroke-opacity:1" d="M 203.012,184.669 204.543,195.386 z" id="boundary" inkscape:connector-curvature="0" />
	<path style="fill:none;stroke:red;stroke-width:1px;stroke-linecap:butt;stroke-linejoin:miter;stroke-opacity:1" d="M 69.8275,239.781 71.3584,252.028 z" id="boundary" inkscape:connector-curvature="0" />
	<path style="fill:none;stroke:red;stroke-width:1px;stroke-linecap:butt;stroke-linejoin:miter;stroke-opacity:1" d="M 71.3584,252.028 80.5439,267.335 z" id="boundary" inkscape:connector-curvature="0" />
	<path style="fill:none;stroke:red;stroke-width:1px;stroke-linecap:butt;stroke-linejoin:miter;stroke-opacity:1" d="M 80.5439,267.335 86.6675,281.113 z" id="boundary" inkscape:connector-curvature="0" />
	<path style="fill:none;stroke:red;stroke-width:1px;stroke-linecap:butt;stroke-linejoin:miter;stroke-opacity:1" d="M 86.6675,281.113 95.8513,291.83 z" id="boundary" inkscape:connector-curvature="0" />
	<path style="fill:none;stroke:red;stroke-width:1px;stroke-linecap:butt;stroke-linejoin:miter;stroke-opacity:1" d="M 95.8513,291.83 103.506,305.608 z" id="boundary" inkscape:connector-curvature="0" />
	<path style="fill:none;stroke:red;stroke-width:1px;stroke-linecap:butt;stroke-linejoin:miter;stroke-opacity:1" d="M 103.506,305.608 115.753,317.854 z" id="boundary" inkscape:connector-curvature="0" />
	<path style="fill:none;stroke:red;stroke-width:1px;stroke-linecap:butt;stroke-linejoin:miter;stroke-opacity:1" d="M 115.753,317.854 126.47,331.632 z" id="boundary" inkscape:connector-curvature="0" />
	<path style="fill:none;stroke:red;stroke-width:1px;stroke-linecap:butt;stroke-linejoin:miter;stroke-opacity:1" d="M 126.47,331.632 140.248,343.879 z" id="boundary" inkscape:connector-curvature="0" />
	<path style="fill:none;stroke:red;stroke-width:1px;stroke-linecap:butt;stroke-linejoin:miter;stroke-opacity:1" d="M 140.248,343.879 150.962,331.632 z" id="boundary" inkscape:connector-curvature="0" />
	<path style="fill:none;stroke:red;stroke-width:1px;stroke-linecap:butt;stroke-linejoin:miter;stroke-opacity:1" d="M 150.962,331.632 155.555,314.794 z" id="boundary" inkscape:connector-curvature="0" />
	<path style="fill:none;stroke:red;stroke-width:1px;stroke-linecap:butt;stroke-linejoin:miter;stroke-opacity:1" d="M 155.555,314.794 158.617,296.423 z" id="boundary" inkscape:connector-curvature="0" />
	<path style="fill:none;stroke:red;stroke-width:1px;stroke-linecap:butt;stroke-linejoin:miter;stroke-opacity:1" d="M 158.617,296.423 164.741,279.583 z" id="boundary" inkscape:connector-curvature="0" />
	<path style="fill:none;stroke:red;stroke-width:1px;stroke-linecap:butt;stroke-linejoin:miter;stroke-opacity:1" d="M 164.741,279.583 169.333,261.213 z" id="boundary" inkscape:connector-curvature="0" />
	<path style="fill:none;stroke:red;stroke-width:1px;stroke-linecap:butt;stroke-linejoin:miter;stroke-opacity:1" d="M 169.333,261.213 176.988,241.311 z" id="boundary" inkscape:connector-curvature="0" />
	<path style="fill:none;stroke:red;stroke-width:1px;stroke-linecap:butt;stroke-linejoin:miter;stroke-opacity:1" d="M 176.988,241.311 184.642,221.41 z" id="boundary" inkscape:connector-curvature="0" />
	<path style="fill:none;stroke:red;stroke-width:1px;stroke-linecap:butt;stroke-linejoin:miter;stroke-opacity:1" d="M 184.642,221.41 195.359,209.162 z" id="boundary" inkscape:connector-curvature="0" />
	<path style="fill:none;stroke:red;stroke-width:1px;stroke-linecap:butt;stroke-linejoin:miter;stroke-opacity:1" d="M 195.359,209.162 204.543,195.386 z" id="boundary" inkscape:connector-curvature="0" />
	<path style="fill:none;stroke:red;stroke-width:1px;stroke-linecap:butt;stroke-linejoin:miter;stroke-opacity:1" d="M 279.553,318.655 365.866,295.614 z" id="boundary" inkscape:connector-curvature="0" />
	<path style="fill:none;stroke:red;stroke-width:1px;stroke-linecap:butt;stroke-linejoin:miter;stroke-opacity:1" d="M 477.578,361.195 365.866,295.614 z" id="boundary" inkscape:connector-curvature="0" />
	<circle cx="221.383" cy="150.991" r="4" fill="#0" id="circle0"/>
	<circle cx="206.628" cy="152.675" r="4" fill="#0" id="circle1"/>
	<circle cx="189.224" cy="150.959" r="4" fill="#0" id="circle2"/>
	<circle cx="173.926" cy="150.991" r="4" fill="#0" id="circle3"/>
	<circle cx="158.617" cy="149.46" r="4" fill="#0" id="circle4"/>
	<circle cx="143.31" cy="149.46" r="4" fill="#0" id="circle5"/>
	<circle cx="129.531" cy="150.991" r="4" fill="#0" id="circle6"/>
	<circle cx="114.222" cy="150.991" r="4" fill="#0" id="circle7"/>
	<circle cx="98.9131" cy="150.991" r="4" fill="#0" id="circle8"/>
	<circle cx="83.6057" cy="152.522" r="4" fill="#0" id="circle9"/>
	<circle cx="69.8275" cy="155.582" r="4" fill="#0" id="circle10"/>
	<circle cx="52.9875" cy="158.644" r="4" fill="#0" id="circle11"/>
	<circle cx="39.2093" cy="163.237" r="4" fill="#0" id="circle12"/>
	<circle cx="25.4327" cy="170.891" r="4" fill="#0" id="circle13"/>
	<circle cx="16.2473" cy="181.608" r="4" fill="#0" id="circle14"/>
	<circle cx="8.59272" cy="192.324" r="4" fill="#0" id="circle15"/>
	<circle cx="5.53092" cy="206.102" r="4" fill="#0" id="circle16"/>
	<circle cx="4" cy="224.471" r="4" fill="#0" id="circle17"/>
	<circle cx="7.06185" cy="239.781" r="4" fill="#0" id="circle18"/>
	<circle cx="8.59272" cy="253.559" r="4" fill="#0" id="circle19"/>
	<circle cx="11.6546" cy="267.335" r="4" fill="#0" id="circle20"/>
	<circle cx="19.3091" cy="282.644" r="4" fill="#0" id="circle21"/>
	<circle cx="25.4327" cy="293.361" r="4" fill="#0" id="circle22"/>
	<circle cx="33.0873" cy="304.077" r="4" fill="#0" id="circle23"/>
	<circle cx="40.7402" cy="316.323" r="4" fill="#0" id="circle24"/>
	<circle cx="51.3703" cy="327.125" r="4" fill="#0" id="circle25"/>
	<circle cx="62.216" cy="337.712" r="4" fill="#0" id="circle26"/>
	<circle cx="69.8275" cy="345.41" r="4" fill="#0" id="circle27"/>
	<circle cx="79.013" cy="356.126" r="4" fill="#0" id="circle28"/>
	<circle cx="92.7895" cy="363.781" r="4" fill="#0" id="circle29"/>
	<circle cx="108.099" cy="369.903" r="4" fill="#0" id="circle30"/>
	<circle cx="124.939" cy="380.619" r="4" fill="#0" id="circle31"/>
	<circle cx="138.717" cy="389.805" r="4" fill="#0" id="circle32"/>
	<circle cx="147.901" cy="402.052" r="4" fill="#0" id="circle33"/>
	<circle cx="150.962" cy="418.892" r="4" fill="#0" id="circle34"/>
	<circle cx="157.086" cy="432.669" r="4" fill="#0" id="circle35"/>
	<circle cx="166.272" cy="446.447" r="4" fill="#0" id="circle36"/>
	<circle cx="178.504" cy="458.735" r="4" fill="#0" id="circle37"/>
	<circle cx="189.235" cy="469.41" r="4" fill="#0" id="circle38"/>
	<circle cx="201.481" cy="478.594" r="4" fill="#0" id="circle39"/>
	<circle cx="215.259" cy="489.311" r="4" fill="#0" id="circle40"/>
	<circle cx="229.037" cy="500.027" r="4" fill="#0" id="circle41"/>
	<circle cx="245.869" cy="510.756" r="4" fill="#0" id="circle42"/>
	<circle cx="262.716" cy="521.46" r="4" fill="#0" id="circle43"/>
	<circle cx="282.617" cy="533.705" r="4" fill="#0" id="circle44"/>
	<circle cx="300.988" cy="544.422" r="4" fill="#0" id="circle45"/>
	<circle cx="317.827" cy="552.076" r="4" fill="#0" id="circle46"/>
	<circle cx="336.198" cy="555.138" r="4" fill="#0" id="circle47"/>
	<circle cx="359.161" cy="559.731" r="4" fill="#0" id="circle48"/>
	<circle cx="377.531" cy="561.262" r="4" fill="#0" id="circle49"/>
	<circle cx="394.371" cy="562.793" r="4" fill="#0" id="circle50"/>
	<circle cx="414.271" cy="565.855" r="4" fill="#0" id="circle51"/>
	<circle cx="431.111" cy="567.385" r="4" fill="#0" id="circle52"/>
	<circle cx="449.482" cy="567.385" r="4" fill="#0" id="circle53"/>
	<circle cx="472.444" cy="570.447" r="4" fill="#0" id="circle54"/>
	<circle cx="490.815" cy="570.447" r="4" fill="#0" id="circle55"/>
	<circle cx="509.185" cy="571.978" r="4" fill="#0" id="circle56"/>
	<circle cx="529.086" cy="571.978" r="4" fill="#0" id="circle57"/>
	<circle cx="547.457" cy="570.447" r="4" fill="#0" id="circle58"/>
	<circle cx="568.522" cy="569.913" r="4" fill="#0" id="circle59"/>
	<circle cx="587.259" cy="570.487" r="4" fill="#0" id="circle60"/>
	<circle cx="605.629" cy="570.447" r="4" fill="#0" id="circle61"/>
	<circle cx="622.469" cy="567.385" r="4" fill="#0" id="circle62"/>
	<circle cx="639.308" cy="561.262" r="4" fill="#0" id="circle63"/>
	<circle cx="662.272" cy="558.2" r="4" fill="#0" id="circle64"/>
	<circle cx="676.053" cy="550.552" r="4" fill="#0" id="circle65"/>
	<circle cx="689.826" cy="542.891" r="4" fill="#0" id="circle66"/>
	<circle cx="705.135" cy="533.705" r="4" fill="#0" id="circle67"/>
	<circle cx="720.444" cy="522.991" r="4" fill="#0" id="circle68"/>
	<circle cx="734.223" cy="512.274" r="4" fill="#0" id="circle69"/>
	<circle cx="751.061" cy="498.496" r="4" fill="#0" id="circle70"/>
	<circle cx="766.37" cy="489.311" r="4" fill="#0" id="circle71"/>
	<circle cx="780.148" cy="477.065" r="4" fill="#0" id="circle72"/>
	<circle cx="790.195" cy="460.307" r="4" fill="#0" id="circle73"/>
	<circle cx="804.641" cy="446.447" r="4" fill="#0" id="circle74"/>
	<circle cx="813.827" cy="428.076" r="4" fill="#0" id="circle75"/>
	<circle cx="819.95" cy="409.707" r="4" fill="#0" id="circle76"/>
	<circle cx="830.667" cy="395.928" r="4" fill="#0" id="circle77"/>
	<circle cx="847.505" cy="389.805" r="4" fill="#0" id="circle78"/>
	<circle cx="862.814" cy="382.15" r="4" fill="#0" id="circle79"/>
	<circle cx="875.061" cy="368.374" r="4" fill="#0" id="circle80"/>
	<circle cx="890.37" cy="353.065" r="4" fill="#0" id="circle81"/>
	<circle cx="899.554" cy="337.756" r="4" fill="#0" id="circle82"/>
	<circle cx="907.209" cy="323.977" r="4" fill="#0" id="circle83"/>
	<circle cx="913.372" cy="307.153" r="4" fill="#0" id="circle84"/>
	<circle cx="919.456" cy="290.299" r="4" fill="#0" id="circle85"/>
	<circle cx="924.049" cy="271.928" r="4" fill="#0" id="circle86"/>
	<circle cx="928.642" cy="252.028" r="4" fill="#0" id="circle87"/>
	<circle cx="931.703" cy="233.657" r="4" fill="#0" id="circle88"/>
	<circle cx="934.765" cy="216.817" r="4" fill="#0" id="circle89"/>
	<circle cx="940.889" cy="201.509" r="4" fill="#0" id="circle90"/>
	<circle cx="948.543" cy="189.262" r="4" fill="#0" id="circle91"/>
	<circle cx="960.789" cy="173.953" r="4" fill="#0" id="circle92"/>
	<circle cx="973.036" cy="160.175" r="4" fill="#0" id="circle93"/>
	<circle cx="983.753" cy="152.522" r="4" fill="#0" id="circle94"/>
	<circle cx="996" cy="138.744" r="4" fill="#0" id="circle95"/>
	<circle cx="922.518" cy="134.151" r="4" fill="#0" id="circle96"/>
	<circle cx="939.358" cy="134.151" r="4" fill="#0" id="circle97"/>
	<circle cx="956.196" cy="135.682" r="4" fill="#0" id="circle98"/>
	<circle cx="973.036" cy="132.62" r="4" fill="#0" id="circle99"/>
	<circle cx="806.172" cy="278.052" r="4" fill="#0" id="circle100"/>
	<circle cx="824.543" cy="271.928" r="4" fill="#0" id="circle101"/>
	<circle cx="838.321" cy="261.213" r="4" fill="#0" id="circle102"/>
	<circle cx="847.429" cy="241.057" r="4" fill="#0" id="circle103"/>
	<circle cx="860.436" cy="221.541" r="4" fill="#0" id="circle104"/>
	<circle cx="872" cy="203.04" r="4" fill="#0" id="circle105"/>
	<circle cx="876.592" cy="186.2" r="4" fill="#0" id="circle106"/>
	<circle cx="887.309" cy="172.422" r="4" fill="#0" id="circle107"/>
	<circle cx="896.494" cy="158.644" r="4" fill="#0" id="circle108"/>
	<circle cx="907.209" cy="143.337" r="4" fill="#0" id="circle109"/>
	<circle cx="774.025" cy="196.917" r="4" fill="#0" id="circle110"/>
	<circle cx="778.617" cy="213.755" r="4" fill="#0" id="circle111"/>
	<circle cx="784.741" cy="232.126" r="4" fill="#0" id="circle112"/>
	<circle cx="790.861" cy="247.436" r="4" fill="#0" id="circle113"/>
	<circle cx="796.987" cy="262.743" r="4" fill="#0" id="circle114"/>
	<circle cx="708.197" cy="102.002" r="4" fill="#0" id="circle115"/>
	<circle cx="723.506" cy="109.657" r="4" fill="#0" id="circle116"/>
	<circle cx="735.754" cy="121.904" r="4" fill="#0" id="circle117"/>
	<circle cx="746.468" cy="138.744" r="4" fill="#0" id="circle118"/>
	<circle cx="752.592" cy="152.522" r="4" fill="#0" id="circle119"/>
	<circle cx="758.716" cy="167.829" r="4" fill="#0" id="circle120"/>
	<circle cx="763.308" cy="184.669" r="4" fill="#0" id="circle121"/>
	<circle cx="535.209" cy="74.4472" r="4" fill="#0" id="circle122"/>
	<circle cx="556.642" cy="75.9782" r="4" fill="#0" id="circle123"/>
	<circle cx="578.073" cy="75.9781" r="4" fill="#0" id="circle124"/>
	<circle cx="596.444" cy="75.9782" r="4" fill="#0" id="circle125"/>
	<circle cx="614.815" cy="77.5091" r="4" fill="#0" id="circle126"/>
	<circle cx="630.122" cy="82.1018" r="4" fill="#0" id="circle127"/>
	<circle cx="645.431" cy="83.6327" r="4" fill="#0" id="circle128"/>
	<circle cx="660.741" cy="85.1636" r="4" fill="#0" id="circle129"/>
	<circle cx="674.519" cy="91.2872" r="4" fill="#0" id="circle130"/>
	<circle cx="688.295" cy="94.3491" r="4" fill="#0" id="circle131"/>
	<circle cx="230.568" cy="141.806" r="4" fill="#0" id="circle132"/>
	<circle cx="239.754" cy="124.966" r="4" fill="#0" id="circle133"/>
	<circle cx="253.53" cy="112.718" r="4" fill="#0" id="circle134"/>
	<circle cx="270.37" cy="102.002" r="4" fill="#0" id="circle135"/>
	<circle cx="287.21" cy="92.8181" r="4" fill="#0" id="circle136"/>
	<circle cx="304.05" cy="88.2254" r="4" fill="#0" id="circle137"/>
	<circle cx="319.358" cy="83.6327" r="4" fill="#0" id="circle138"/>
	<circle cx="340.79" cy="82.1018" r="4" fill="#0" id="circle139"/>
	<circle cx="359.161" cy="79.04" r="4" fill="#0" id="circle140"/>
	<circle cx="379.061" cy="77.509" r="4" fill="#0" id="circle141"/>
	<circle cx="395.901" cy="74.4472" r="4" fill="#0" id="circle142"/>
	<circle cx="414.271" cy="74.4472" r="4" fill="#0" id="circle143"/>
	<circle cx="434.173" cy="71.3854" r="4" fill="#0" id="circle144"/>
	<circle cx="452.543" cy="69.8545" r="4" fill="#0" id="circle145"/>
	<circle cx="452.543" cy="54.5454" r="4" fill="#0" id="circle146"/>
	<circle cx="440.296" cy="42.2998" r="4" fill="#0" id="circle147"/>
	<circle cx="429.58" cy="30.0525" r="4" fill="#0" id="circle148"/>
	<circle cx="435.703" cy="13.2125" r="4" fill="#0" id="circle149"/>
	<circle cx="451.013" cy="7.08883" r="4" fill="#0" id="circle150"/>
	<circle cx="467.851" cy="4.02703" r="4" fill="#0" id="circle151"/>
	<circle cx="484.682" cy="4" r="4" fill="#0" id="circle152"/>
	<circle cx="500.014" cy="4.06945" r="4" fill="#0" id="circle153"/>
	<circle cx="513.778" cy="4.02703" r="4" fill="#0" id="circle154"/>
	<circle cx="526.024" cy="5.55793" r="4" fill="#0" id="circle155"/>
	<circle cx="541.333" cy="10.1507" r="4" fill="#0" id="circle156"/>
	<circle cx="553.58" cy="23.9289" r="4" fill="#0" id="circle157"/>
	<circle cx="547.457" cy="36.1761" r="4" fill="#0" id="circle158"/>
	<circle cx="532.147" cy="45.3616" r="4" fill="#0" id="circle159"/>
	<circle cx="526.024" cy="59.1381" r="4" fill="#0" id="circle160"/>
	<circle cx="66.7657" cy="224.471" r="4" fill="#0" id="circle161"/>
	<circle cx="72.8893" cy="207.633" r="4" fill="#0" id="circle162"/>
	<circle cx="83.6057" cy="198.448" r="4" fill="#0" id="circle163"/>
	<circle cx="100.444" cy="192.324" r="4" fill="#0" id="circle164"/>
	<circle cx="117.284" cy="189.262" r="4" fill="#0" id="circle165"/>
	<circle cx="134.124" cy="186.2" r="4" fill="#0" id="circle166"/>
	<circle cx="150.962" cy="186.2" r="4" fill="#0" id="circle167"/>
	<circle cx="166.272" cy="183.139" r="4" fill="#0" id="circle168"/>
	<circle cx="186.173" cy="183.139" r="4" fill="#0" id="circle169"/>
	<circle cx="203.012" cy="184.669" r="4" fill="#0" id="circle170"/>
	<circle cx="69.8275" cy="239.781" r="4" fill="#0" id="circle171"/>
	<circle cx="71.3584" cy="252.028" r="4" fill="#0" id="circle172"/>
	<circle cx="80.5439" cy="267.335" r="4" fill="#0" id="circle173"/>
	<circle cx="86.6675" cy="281.113" r="4" fill="#0" id="circle174"/>
	<circle cx="95.8513" cy="291.83" r="4" fill="#0" id="circle175"/>
	<circle cx="103.506" cy="305.608" r="4" fill="#0" id="circle176"/>
	<circle cx="115.753" cy="317.854" r="4" fill="#0" id="circle177"/>
	<circle cx="126.47" cy="331.632" r="4" fill="#0" id="circle178"/>
	<circle cx="140.248" cy="343.879" r="4" fill="#0" id="circle179"/>
	<circle cx="150.962" cy="331.632" r="4" fill="#0" id="circle180"/>
	<circle cx="155.555" cy="314.794" r="4" fill="#0" id="circle181"/>
	<circle cx="158.617" cy="296.423" r="4" fill="#0" id="circle182"/>
	<circle cx="164.741" cy="279.583" r="4" fill="#0" id="circle183"/>
	<circle cx="169.333" cy="261.213" r="4" fill="#0" id="circle184"/>
	<circle cx="176.988" cy="241.311" r="4" fill="#0" id="circle185"/>
	<circle cx="184.642" cy="221.41" r="4" fill="#0" id="circle186"/>
	<circle cx="195.359" cy="209.162" r="4" fill="#0" id="circle187"/>
	<circle cx="204.543" cy="195.386" r="4" fill="#0" id="circle188"/>
	<circle cx="837.466" cy="228.017" r="4" fill="#0" id="circle189"/>
	<circle cx="780.834" cy="457.502" r="4" fill="#0" id="circle190"/>
	<circle cx="908.354" cy="116.227" r="4" fill="#0" id="circle191"/>
	<circle cx="336.541" cy="440.344" r="4" fill="#0" id="circle192"/>
	<circle cx="279.553" cy="318.655" r="4" fill="#0" id="circle193"/>
	<circle cx="477.578" cy="361.195" r="4" fill="#0" id="circle194"/>
	<circle cx="365.866" cy="295.614" r="4" fill="#0" id="circle195"/>
	<circle cx="948.612" cy="524.381" r="4" fill="#0" id="circle196"/>
	<circle cx="634.626" cy="411.417" r="4" fill="#0" id="circle197"/>
	<circle cx="144.47" cy="348.756" r="4" fill="#0" id="circle198"/>
	<circle cx="20.1702" cy="141.975" r="4" fill="#0" id="circle199"/>
	<circle cx="140.134" cy="460.76" r="4" fill="#0" id="circle200"/>
	<circle cx="159.426" cy="231.744" r="4" fill="#0" id="circle201"/>
	<circle cx="132.752" cy="65.8251" r="4" fill="#0" id="circle202"/>
	<circle cx="994.933" cy="127.986" r="4" fill="#0" id="circle203"/>
	<circle cx="512.829" cy="480.602" r="4" fill="#0" id="circle204"/>
	<circle cx="611.739" cy="172.159" r="4" fill="#0" id="circle205"/>
	<circle cx="636.452" cy="301.797" r="4" fill="#0" id="circle206"/>
	</g>
</svg>