78.00  336.00
104.00  123.00
106.50  318.29
127.50  303.93
134.00  148.44
148.50  226.00
151.50  299.71
155.00  165.88
166.00  219.38
165.50  236.36
188.00  218.69
191.00  240.50
211.00  211.92
216.00  248.00
227.00  144.42
227.00  168.92
227.00  189.83
232.00  324.38
232.50  119.14
232.50  268.93
232.50  296.43
247.00  136.58
249.00  312.20
258.00  285.67
267.00  151.10
272.50  265.50
282.00  165.13
296.00  264.58
299.50  197.36
302.00  70.00
302.00  95.40
305.00  48.75
305.00  158.00
307.00  21.19
317.00  214.25
317.00  265.38
325.00  151.00
325.00  180.00
336.50  237.21
336.00  387.67
338.50  169.64
343.00  268.13
345.00  409.94
348.00  147.50
353.00  437.56
353.00  469.13
354.50  252.29
375.00  276.17
381.50  197.43
400.50  196.57
424.00  194.06