48.00 304.00
55.00 281.00
59.00 324.00
66.00 68.00
70.00 259.00
71.00 47.00
81.50 331.50
82.50 76.50
94.00 226.75
105.00 249.00
106.50 208.17
107.50 302.50
114.00 183.50
114.00 339.00
115.00 235.50
121.50 163.83
126.50 269.50
127.00 137.00
130.50 123.33
130.50 315.00
148.00 231.00
151.50 118.00
157.00 133.00
165.00 336.50
168.00 267.00
169.00 167.50
169.50 239.33
173.00 180.50
178.00 279.00
179.00 309.25
180.00 197.00
183.50 247.50
186.00 297.00
189.00 223.00
199.00 26.00
209.00 246.50
230.00 258.25
233.00 173.00
233.00 316.00
244.00 159.00
244.00 202.00
244.00 274.00
247.00 144.00
247.00 296.00
262.00 99.00
262.00 198.00
266.50 236.00
276.00 110.00
275.50 133.00
280.50 188.17
295.00 180.50
300.50 121.00
320.00 125.50
325.06 285.90
332.33 279.74
339.05 283.10
339.61 292.61
331.22 305.48
327.86 315.55
386.05 237.22
378.21 227.71
375.41 223.23
368.70 213.72
360.87 207.57
352.48 206.45
348.56 214.84
353.59 224.35
83.36 33.57
97.91 80.01
106.30 70.50
108.54 59.86
107.98 52.59
97.91 45.88
87.28 45.88
82.80 52.59
80.01 57.63
82.80 63.22
88.40 64.34
96.79 59.86
92.32 53.71
72.73 185.19
142.67 82.24
143.79 90.64
146.03 100.15
147.70 107.42
135.95 104.62
83.92 241.14
79.45 246.73
193.58 233.86
198.06 240.02
151.62 313.87
159.45 312.19
109.10 280.30
111.34 272.47
144.91 265.20
153.86 265.76
130.36 289.25
129.80 293.73
142.67 298.21
151.06 299.32
157.77 294.29
156.10 288.69
212.60 139.31
215.96 148.26
222.12 165.05
234.42 187.43
232.75 195.82
313.87 153.86
320.59 143.23
289.81 121.97
265.20 134.28
260.72 162.81
270.23 166.17
276.39 160.57
275.27 152.74
267.99 150.50
260.72 153.86